%!PS-Adobe-3.0 EPSF-3.0
%%Creator: cairo 1.15.8 (http://cairographics.org)
%%CreationDate: Sun Apr  1 11:55:06 2018
%%Pages: 1
%%DocumentData: Clean7Bit
%%LanguageLevel: 2
%%BoundingBox: 0 0 231 173
%%EndComments
%%BeginProlog
save
50 dict begin
/q { gsave } bind def
/Q { grestore } bind def
/cm { 6 array astore concat } bind def
/w { setlinewidth } bind def
/J { setlinecap } bind def
/j { setlinejoin } bind def
/M { setmiterlimit } bind def
/d { setdash } bind def
/m { moveto } bind def
/l { lineto } bind def
/c { curveto } bind def
/h { closepath } bind def
/re { exch dup neg 3 1 roll 5 3 roll moveto 0 rlineto
      0 exch rlineto 0 rlineto closepath } bind def
/S { stroke } bind def
/f { fill } bind def
/f* { eofill } bind def
/n { newpath } bind def
/W { clip } bind def
/W* { eoclip } bind def
/BT { } bind def
/ET { } bind def
/pdfmark where { pop globaldict /?pdfmark /exec load put }
    { globaldict begin /?pdfmark /pop load def /pdfmark
    /cleartomark load def end } ifelse
/BDC { mark 3 1 roll /BDC pdfmark } bind def
/EMC { mark /EMC pdfmark } bind def
/cairo_store_point { /cairo_point_y exch def /cairo_point_x exch def } def
/Tj { show currentpoint cairo_store_point } bind def
/TJ {
  {
    dup
    type /stringtype eq
    { show } { -0.001 mul 0 cairo_font_matrix dtransform rmoveto } ifelse
  } forall
  currentpoint cairo_store_point
} bind def
/cairo_selectfont { cairo_font_matrix aload pop pop pop 0 0 6 array astore
    cairo_font exch selectfont cairo_point_x cairo_point_y moveto } bind def
/Tf { pop /cairo_font exch def /cairo_font_matrix where
      { pop cairo_selectfont } if } bind def
/Td { matrix translate cairo_font_matrix matrix concatmatrix dup
      /cairo_font_matrix exch def dup 4 get exch 5 get cairo_store_point
      /cairo_font where { pop cairo_selectfont } if } bind def
/Tm { 2 copy 8 2 roll 6 array astore /cairo_font_matrix exch def
      cairo_store_point /cairo_font where { pop cairo_selectfont } if } bind def
/g { setgray } bind def
/rg { setrgbcolor } bind def
/d1 { setcachedevice } bind def
/cairo_flush_ascii85_file { cairo_ascii85_file status { cairo_ascii85_file flushfile } if } def
/cairo_image { image cairo_flush_ascii85_file } def
/cairo_imagemask { imagemask cairo_flush_ascii85_file } def
%%EndProlog
%%BeginSetup
%%EndSetup
%%Page: 1 1
%%BeginPageSetup
%%PageBoundingBox: 0 0 231 173
%%EndPageSetup
q 0 0 231 173 rectclip
1 0 0 -1 0 173 cm q
Q q
q
0 0 231 173 re W n
  q
1 g
0.801 -0.398 230.398 172.797 re f
  Q
Q
1 g
30.754 13.426 184.316 139.965 re f
0 g
0.8 w
0 J
1 j
[] 0.0 d
10 M q 1 0 0 -1 0 0 cm
30.754 -153.391 m 30.754 -156.891 l S Q
30.75 166.93 m 31.199 166.93 31.531 166.684 31.758 166.191 c 31.973 165.703
 32.09 164.957 32.09 163.957 c 32.09 162.969 31.973 162.223 31.758 161.727
 c 31.531 161.242 31.199 160.988 30.75 160.988 c 30.297 160.988 29.957 161.242
 29.742 161.727 c 29.516 162.223 29.406 162.969 29.406 163.957 c 29.406 
164.957 29.516 165.703 29.742 166.191 c 29.957 166.684 30.297 166.93 30.75
 166.93 c 30.75 167.352 m 30.027 167.352 29.473 167.055 29.074 166.461 c
 28.68 165.867 28.48 165.039 28.48 163.957 c 28.48 162.887 28.68 162.051
 29.074 161.457 c 29.473 160.863 30.027 160.555 30.75 160.555 c 31.461 160.555
 32.02 160.863 32.414 161.457 c 32.809 162.051 33.016 162.887 33.016 163.957
 c 33.016 165.039 32.809 165.867 32.414 166.461 c 32.02 167.055 31.461 167.352
 30.75 167.352 c f
q 1 0 0 -1 0 0 cm
61.473 -153.391 m 61.473 -156.891 l S Q
59.883 167.234 m 59.883 166.766 l 61.027 166.766 l 61.027 161.312 l 59.703
 162.168 l 59.703 161.59 l 61.305 160.555 l 61.91 160.555 l 61.91 166.766
 l 63.051 166.766 l 63.051 167.234 l 59.883 167.234 l f
q 1 0 0 -1 0 0 cm
92.191 -153.391 m 92.191 -156.891 l S Q
90.477 162.238 m 89.98 162.238 l 89.98 161.07 l 90.289 160.906 90.602 160.781
 90.926 160.691 c 91.242 160.602 91.555 160.555 91.863 160.555 c 92.547 
160.555 93.086 160.727 93.48 161.051 c 93.879 161.383 94.078 161.836 94.078
 162.402 c 94.078 163.051 93.625 163.812 92.727 164.707 c 92.652 164.777
 92.609 164.824 92.574 164.859 c 90.918 166.516 l 93.652 166.516 l 93.652
 165.703 l 94.168 165.703 l 94.168 167.234 l 89.938 167.234 l 89.938 166.758
 l 91.926 164.77 l 92.355 164.336 92.672 163.93 92.859 163.562 c 93.051 
163.195 93.148 162.805 93.148 162.402 c 93.148 161.961 93.031 161.617 92.797
 161.367 c 92.562 161.113 92.25 160.988 91.852 160.988 c 91.43 160.988 91.105
 161.098 90.883 161.305 c 90.648 161.512 90.512 161.824 90.477 162.238 c
 f
q 1 0 0 -1 0 0 cm
122.91 -153.391 m 122.91 -156.891 l S Q
120.918 160.953 m 121.262 160.828 121.586 160.727 121.902 160.656 c 122.215
 160.594 122.512 160.555 122.793 160.555 c 123.43 160.555 123.934 160.699
 124.293 160.969 c 124.656 161.25 124.836 161.637 124.836 162.121 c 124.836
 162.52 124.707 162.852 124.457 163.113 c 124.203 163.383 123.855 163.562
 123.402 163.652 c 123.945 163.734 124.359 163.93 124.656 164.246 c 124.953
 164.562 125.105 164.965 125.105 165.461 c 125.105 166.074 124.898 166.543
 124.484 166.867 c 124.07 167.188 123.484 167.352 122.711 167.352 c 122.367
 167.352 122.027 167.316 121.703 167.242 c 121.379 167.18 121.055 167.074
 120.73 166.918 c 120.73 165.641 l 121.227 165.641 l 121.254 166.074 121.398
 166.387 121.648 166.605 c 121.902 166.82 122.262 166.93 122.73 166.93 c
 123.18 166.93 123.531 166.801 123.789 166.543 c 124.043 166.281 124.18 
165.922 124.18 165.469 c 124.18 164.957 124.043 164.57 123.773 164.301 c
 123.504 164.039 123.117 163.906 122.602 163.906 c 122.188 163.906 l 122.188
 163.453 l 122.406 163.453 l 122.918 163.453 123.305 163.355 123.559 163.141
 c 123.809 162.922 123.945 162.609 123.945 162.176 c 123.945 161.797 123.836
 161.5 123.629 161.293 c 123.414 161.098 123.117 160.988 122.719 160.988
 c 122.324 160.988 122.008 161.086 121.793 161.277 c 121.578 161.465 121.449
 161.746 121.414 162.105 c 120.918 162.105 l 120.918 160.953 l f
q 1 0 0 -1 0 0 cm
153.633 -153.391 m 153.633 -156.891 l S Q
153.906 165.012 m 153.906 161.52 l 151.664 165.012 l 153.906 165.012 l 
155.84 167.234 m 152.855 167.234 l 152.855 166.766 l 153.906 166.766 l 153.906
 165.48 l 151.043 165.48 l 151.043 165.004 l 153.914 160.555 l 154.789 160.555
 l 154.789 165.012 l 156.039 165.012 l 156.039 165.48 l 154.789 165.48 l
 154.789 166.766 l 155.84 166.766 l 155.84 167.234 l f
q 1 0 0 -1 0 0 cm
184.352 -153.391 m 184.352 -156.891 l S Q
186.012 160.672 m 186.012 161.395 l 183.004 161.395 l 183.004 163.273 l
 183.148 163.168 183.328 163.094 183.535 163.039 c 183.734 162.988 183.969
 162.961 184.219 162.961 c 184.922 162.961 185.48 163.156 185.895 163.555
 c 186.309 163.949 186.516 164.48 186.516 165.156 c 186.516 165.855 186.309
 166.398 185.895 166.773 c 185.48 167.164 184.895 167.352 184.148 167.352
 c 183.844 167.352 183.535 167.316 183.223 167.242 c 182.898 167.18 182.574
 167.074 182.25 166.918 c 182.25 165.641 l 182.746 165.641 l 182.77 166.062
 182.906 166.387 183.141 166.605 c 183.375 166.82 183.715 166.93 184.148
 166.93 c 184.605 166.93 184.957 166.773 185.211 166.469 c 185.461 166.164
 185.59 165.73 185.59 165.156 c 185.59 164.59 185.461 164.156 185.219 163.852
 c 184.969 163.543 184.617 163.391 184.148 163.391 c 183.879 163.391 183.645
 163.445 183.445 163.535 c 183.25 163.625 183.07 163.77 182.914 163.969 
c 182.539 163.969 l 182.539 160.672 l 186.012 160.672 l f
207.844 163.5 m 207.527 163.43 207.305 163.305 207.168 163.113 c 207.059
 162.98 207.008 162.816 207.008 162.637 c 207.008 162.141 207.242 161.746
 207.727 161.457 c 208.094 161.223 208.574 161.105 209.148 161.105 c 209.363
 161.105 209.598 161.125 209.84 161.16 c 210.086 161.195 210.344 161.25 
210.617 161.324 c 210.48 162.051 l 210.211 161.973 209.957 161.91 209.734
 161.871 c 209.5 161.836 209.285 161.816 209.078 161.816 c 208.727 161.816
 208.438 161.891 208.211 162.016 c 207.934 162.18 207.797 162.375 207.797
 162.609 c 207.797 162.773 207.871 162.898 208.016 163.008 c 208.176 163.133
 208.438 163.195 208.781 163.195 c 209.453 163.195 l 209.328 163.871 l 208.68
 163.871 l 208.273 163.871 207.953 163.953 207.719 164.094 c 207.395 164.293
 207.23 164.555 207.23 164.871 c 207.23 165.066 207.312 165.238 207.492 
165.363 c 207.707 165.527 208.031 165.605 208.48 165.605 c 208.754 165.605
 209.012 165.59 209.285 165.535 c 209.535 165.48 209.777 165.391 210.012
 165.285 c 209.867 166.039 l 209.582 166.121 209.32 166.176 209.066 166.211
 c 208.816 166.246 208.562 166.273 208.328 166.273 c 207.629 166.273 207.125
 166.148 206.801 165.887 c 206.547 165.688 206.422 165.41 206.422 165.059
 c 206.422 164.59 206.582 164.211 206.918 163.926 c 207.148 163.719 207.465
 163.574 207.844 163.5 c f
211.512 164.188 m 212.078 164.188 l 212.078 165.59 l 213.918 165.59 l 213.918
 164.188 l 214.484 164.188 l 214.484 167.633 l 213.918 167.633 l 213.918
 166.047 l 212.078 166.047 l 212.078 167.633 l 211.512 167.633 l 211.512
 164.188 l f
216.984 164.582 m 216.68 164.582 216.441 164.703 216.266 164.941 c 216.086
 165.184 216 165.504 216 165.914 c 216 166.328 216.082 166.648 216.258 166.891
 c 216.434 167.129 216.672 167.242 216.984 167.242 c 217.285 167.242 217.523
 167.129 217.699 166.891 c 217.879 166.648 217.965 166.328 217.965 165.914
 c 217.965 165.508 217.879 165.184 217.699 164.941 c 217.523 164.703 217.285
 164.582 216.984 164.582 c 216.984 164.105 m 217.473 164.105 217.859 164.27
 218.141 164.582 c 218.418 164.906 218.562 165.348 218.562 165.914 c 218.562
 166.48 218.418 166.922 218.141 167.234 c 217.859 167.559 217.473 167.715
 216.984 167.715 c 216.484 167.715 216.094 167.559 215.816 167.234 c 215.539
 166.922 215.402 166.48 215.402 165.914 c 215.402 165.348 215.539 164.906
 215.816 164.582 c 216.094 164.27 216.484 164.105 216.984 164.105 c f
219.484 164.188 m 220.309 164.188 l 221.285 166.492 l 222.27 164.188 l 
223.094 164.188 l 223.094 167.633 l 222.52 167.633 l 222.52 164.73 l 221.57
 166.973 l 221.008 166.973 l 220.051 164.73 l 220.051 167.633 l 219.484 
167.633 l 219.484 164.188 l f
q 1 0 0 -1 0 0 cm
30.754 -153.391 m 27.254 -153.391 l S Q
12.289 156.508 m 12.738 156.508 13.07 156.262 13.297 155.77 c 13.512 155.281
 13.629 154.535 13.629 153.535 c 13.629 152.547 13.512 151.801 13.297 151.305
 c 13.07 150.82 12.738 150.566 12.289 150.566 c 11.836 150.566 11.496 150.82
 11.281 151.305 c 11.055 151.801 10.945 152.547 10.945 153.535 c 10.945 
154.535 11.055 155.281 11.281 155.77 c 11.496 156.262 11.836 156.508 12.289
 156.508 c 12.289 156.93 m 11.566 156.93 11.012 156.633 10.613 156.039 c
 10.219 155.445 10.02 154.617 10.02 153.535 c 10.02 152.465 10.219 151.629
 10.613 151.035 c 11.012 150.441 11.566 150.133 12.289 150.133 c 13 150.133
 13.559 150.441 13.953 151.035 c 14.348 151.629 14.555 152.465 14.555 153.535
 c 14.555 154.617 14.348 155.445 13.953 156.039 c 13.559 156.633 13 156.93
 12.289 156.93 c f
15.996 156.352 m 15.996 156.191 16.047 156.055 16.156 155.941 c 16.266 
155.832 16.41 155.77 16.578 155.77 c 16.742 155.77 16.875 155.832 16.992
 155.941 c 17.102 156.055 17.164 156.191 17.164 156.352 c 17.164 156.516
 17.102 156.66 16.992 156.766 c 16.875 156.875 16.742 156.93 16.578 156.93
 c 16.41 156.93 16.266 156.875 16.156 156.766 c 16.047 156.66 15.996 156.523
 15.996 156.352 c f
20.875 156.508 m 21.324 156.508 21.656 156.262 21.883 155.77 c 22.098 155.281
 22.215 154.535 22.215 153.535 c 22.215 152.547 22.098 151.801 21.883 151.305
 c 21.656 150.82 21.324 150.566 20.875 150.566 c 20.422 150.566 20.082 150.82
 19.867 151.305 c 19.641 151.801 19.531 152.547 19.531 153.535 c 19.531 
154.535 19.641 155.281 19.867 155.77 c 20.082 156.262 20.422 156.508 20.875
 156.508 c 20.875 156.93 m 20.152 156.93 19.598 156.633 19.199 156.039 c
 18.805 155.445 18.605 154.617 18.605 153.535 c 18.605 152.465 18.805 151.629
 19.199 151.035 c 19.598 150.441 20.152 150.133 20.875 150.133 c 21.586 
150.133 22.145 150.441 22.539 151.035 c 22.934 151.629 23.141 152.465 23.141
 153.535 c 23.141 154.617 22.934 155.445 22.539 156.039 c 22.145 156.633
 21.586 156.93 20.875 156.93 c f
q 1 0 0 -1 0 0 cm
30.754 -122.289 m 27.254 -122.289 l S Q
12.289 125.406 m 12.738 125.406 13.07 125.16 13.297 124.668 c 13.512 124.18
 13.629 123.434 13.629 122.434 c 13.629 121.445 13.512 120.699 13.297 120.203
 c 13.07 119.719 12.738 119.465 12.289 119.465 c 11.836 119.465 11.496 119.719
 11.281 120.203 c 11.055 120.699 10.945 121.445 10.945 122.434 c 10.945 
123.434 11.055 124.18 11.281 124.668 c 11.496 125.16 11.836 125.406 12.289
 125.406 c 12.289 125.828 m 11.566 125.828 11.012 125.531 10.613 124.938
 c 10.219 124.344 10.02 123.516 10.02 122.434 c 10.02 121.363 10.219 120.527
 10.613 119.934 c 11.012 119.34 11.566 119.031 12.289 119.031 c 13 119.031
 13.559 119.34 13.953 119.934 c 14.348 120.527 14.555 121.363 14.555 122.434
 c 14.555 123.516 14.348 124.344 13.953 124.938 c 13.559 125.531 13 125.828
 12.289 125.828 c f
15.996 125.25 m 15.996 125.09 16.047 124.953 16.156 124.84 c 16.266 124.73
 16.41 124.668 16.578 124.668 c 16.742 124.668 16.875 124.73 16.992 124.84
 c 17.102 124.953 17.164 125.09 17.164 125.25 c 17.164 125.414 17.102 125.559
 16.992 125.664 c 16.875 125.773 16.742 125.828 16.578 125.828 c 16.41 125.828
 16.266 125.773 16.156 125.664 c 16.047 125.559 15.996 125.422 15.996 125.25
 c f
22.539 119.148 m 22.539 119.871 l 19.531 119.871 l 19.531 121.75 l 19.676
 121.645 19.855 121.57 20.062 121.516 c 20.262 121.465 20.496 121.438 20.746
 121.438 c 21.449 121.438 22.008 121.633 22.422 122.031 c 22.836 122.426
 23.043 122.957 23.043 123.633 c 23.043 124.332 22.836 124.875 22.422 125.25
 c 22.008 125.641 21.422 125.828 20.676 125.828 c 20.371 125.828 20.062 
125.793 19.75 125.719 c 19.426 125.656 19.102 125.551 18.777 125.395 c 18.777
 124.117 l 19.273 124.117 l 19.297 124.539 19.434 124.863 19.668 125.082
 c 19.902 125.297 20.242 125.406 20.676 125.406 c 21.133 125.406 21.484 
125.25 21.738 124.945 c 21.988 124.641 22.117 124.207 22.117 123.633 c 22.117
 123.066 21.988 122.633 21.746 122.328 c 21.496 122.02 21.145 121.867 20.676
 121.867 c 20.406 121.867 20.172 121.922 19.973 122.012 c 19.777 122.102
 19.598 122.246 19.441 122.445 c 19.066 122.445 l 19.066 119.148 l 22.539
 119.148 l f
q 1 0 0 -1 0 0 cm
30.754 -91.184 m 27.254 -91.184 l S Q
10.703 94.605 m 10.703 94.137 l 11.848 94.137 l 11.848 88.684 l 10.523 
89.539 l 10.523 88.961 l 12.125 87.926 l 12.73 87.926 l 12.73 94.137 l 13.871
 94.137 l 13.871 94.605 l 10.703 94.605 l f
15.996 94.145 m 15.996 93.984 16.047 93.848 16.156 93.734 c 16.266 93.625
 16.41 93.562 16.578 93.562 c 16.742 93.562 16.875 93.625 16.992 93.734 
c 17.102 93.848 17.164 93.984 17.164 94.145 c 17.164 94.309 17.102 94.453
 16.992 94.559 c 16.875 94.668 16.742 94.723 16.578 94.723 c 16.41 94.723
 16.266 94.668 16.156 94.559 c 16.047 94.453 15.996 94.316 15.996 94.145
 c f
20.875 94.301 m 21.324 94.301 21.656 94.055 21.883 93.562 c 22.098 93.074
 22.215 92.328 22.215 91.328 c 22.215 90.34 22.098 89.594 21.883 89.098 
c 21.656 88.613 21.324 88.359 20.875 88.359 c 20.422 88.359 20.082 88.613
 19.867 89.098 c 19.641 89.594 19.531 90.34 19.531 91.328 c 19.531 92.328
 19.641 93.074 19.867 93.562 c 20.082 94.055 20.422 94.301 20.875 94.301
 c 20.875 94.723 m 20.152 94.723 19.598 94.426 19.199 93.832 c 18.805 93.238
 18.605 92.41 18.605 91.328 c 18.605 90.258 18.805 89.422 19.199 88.828 
c 19.598 88.234 20.152 87.926 20.875 87.926 c 21.586 87.926 22.145 88.234
 22.539 88.828 c 22.934 89.422 23.141 90.258 23.141 91.328 c 23.141 92.41
 22.934 93.238 22.539 93.832 c 22.145 94.426 21.586 94.723 20.875 94.723
 c f
q 1 0 0 -1 0 0 cm
30.754 -60.078 m 27.254 -60.078 l S Q
10.703 63.504 m 10.703 63.035 l 11.848 63.035 l 11.848 57.582 l 10.523 
58.438 l 10.523 57.859 l 12.125 56.824 l 12.73 56.824 l 12.73 63.035 l 13.871
 63.035 l 13.871 63.504 l 10.703 63.504 l f
15.996 63.043 m 15.996 62.883 16.047 62.746 16.156 62.633 c 16.266 62.523
 16.41 62.461 16.578 62.461 c 16.742 62.461 16.875 62.523 16.992 62.633 
c 17.102 62.746 17.164 62.883 17.164 63.043 c 17.164 63.207 17.102 63.352
 16.992 63.457 c 16.875 63.566 16.742 63.621 16.578 63.621 c 16.41 63.621
 16.266 63.566 16.156 63.457 c 16.047 63.352 15.996 63.215 15.996 63.043
 c f
22.539 56.941 m 22.539 57.664 l 19.531 57.664 l 19.531 59.543 l 19.676 
59.438 19.855 59.363 20.062 59.309 c 20.262 59.258 20.496 59.23 20.746 59.23
 c 21.449 59.23 22.008 59.426 22.422 59.824 c 22.836 60.219 23.043 60.75
 23.043 61.426 c 23.043 62.125 22.836 62.668 22.422 63.043 c 22.008 63.434
 21.422 63.621 20.676 63.621 c 20.371 63.621 20.062 63.586 19.75 63.512 
c 19.426 63.449 19.102 63.344 18.777 63.188 c 18.777 61.91 l 19.273 61.91
 l 19.297 62.332 19.434 62.656 19.668 62.875 c 19.902 63.09 20.242 63.199
 20.676 63.199 c 21.133 63.199 21.484 63.043 21.738 62.738 c 21.988 62.434
 22.117 62 22.117 61.426 c 22.117 60.859 21.988 60.426 21.746 60.121 c 21.496
 59.812 21.145 59.66 20.676 59.66 c 20.406 59.66 20.172 59.715 19.973 59.805
 c 19.777 59.895 19.598 60.039 19.441 60.238 c 19.066 60.238 l 19.066 56.941
 l 22.539 56.941 l f
q 1 0 0 -1 0 0 cm
30.754 -28.977 m 27.254 -28.977 l S Q
10.578 27.402 m 10.082 27.402 l 10.082 26.234 l 10.391 26.07 10.703 25.945
 11.027 25.855 c 11.344 25.766 11.656 25.719 11.965 25.719 c 12.648 25.719
 13.188 25.891 13.582 26.215 c 13.98 26.547 14.18 27 14.18 27.566 c 14.18
 28.215 13.727 28.977 12.828 29.871 c 12.754 29.941 12.711 29.988 12.676
 30.023 c 11.02 31.68 l 13.754 31.68 l 13.754 30.867 l 14.27 30.867 l 14.27
 32.398 l 10.039 32.398 l 10.039 31.922 l 12.027 29.934 l 12.457 29.5 12.773
 29.094 12.961 28.727 c 13.152 28.359 13.25 27.969 13.25 27.566 c 13.25 
27.125 13.133 26.781 12.898 26.531 c 12.664 26.277 12.352 26.152 11.953 
26.152 c 11.531 26.152 11.207 26.262 10.984 26.469 c 10.75 26.676 10.613
 26.988 10.578 27.402 c f
15.996 31.938 m 15.996 31.777 16.047 31.641 16.156 31.527 c 16.266 31.418
 16.41 31.355 16.578 31.355 c 16.742 31.355 16.875 31.418 16.992 31.527 
c 17.102 31.641 17.164 31.777 17.164 31.938 c 17.164 32.102 17.102 32.246
 16.992 32.352 c 16.875 32.461 16.742 32.516 16.578 32.516 c 16.41 32.516
 16.266 32.461 16.156 32.352 c 16.047 32.246 15.996 32.109 15.996 31.938
 c f
20.875 32.094 m 21.324 32.094 21.656 31.848 21.883 31.355 c 22.098 30.867
 22.215 30.121 22.215 29.121 c 22.215 28.133 22.098 27.387 21.883 26.891
 c 21.656 26.406 21.324 26.152 20.875 26.152 c 20.422 26.152 20.082 26.406
 19.867 26.891 c 19.641 27.387 19.531 28.133 19.531 29.121 c 19.531 30.121
 19.641 30.867 19.867 31.355 c 20.082 31.848 20.422 32.094 20.875 32.094
 c 20.875 32.516 m 20.152 32.516 19.598 32.219 19.199 31.625 c 18.805 31.031
 18.605 30.203 18.605 29.121 c 18.605 28.051 18.805 27.215 19.199 26.621
 c 19.598 26.027 20.152 25.719 20.875 25.719 c 21.586 25.719 22.145 26.027
 22.539 26.621 c 22.934 27.215 23.141 28.051 23.141 29.121 c 23.141 30.203
 22.934 31.031 22.539 31.625 c 22.145 32.219 21.586 32.516 20.875 32.516
 c f
5.973 9.289 m 5.973 8.199 l 6.441 8.199 l 6.449 8.551 6.559 8.812 6.766
 8.984 c 6.973 9.164 7.277 9.246 7.684 9.246 c 8.043 9.246 8.32 9.184 8.512
 9.039 c 8.699 8.902 8.797 8.703 8.797 8.445 c 8.797 8.246 8.727 8.074 8.59
 7.949 c 8.449 7.824 8.16 7.688 7.711 7.543 c 7.125 7.348 l 6.719 7.219 
6.434 7.059 6.25 6.859 c 6.07 6.672 5.98 6.43 5.98 6.121 c 5.98 5.699 6.133
 5.367 6.449 5.121 c 6.766 4.879 7.195 4.754 7.754 4.754 c 7.996 4.754 8.258
 4.789 8.527 4.852 c 8.797 4.914 9.086 5.004 9.375 5.133 c 9.375 6.148 l
 8.906 6.148 l 8.891 5.852 8.789 5.617 8.59 5.445 c 8.395 5.277 8.125 5.188
 7.781 5.188 c 7.441 5.188 7.18 5.25 7.008 5.367 c 6.828 5.492 6.746 5.672
 6.746 5.906 c 6.746 6.105 6.809 6.266 6.945 6.383 c 7.07 6.5 7.34 6.617
 7.738 6.742 c 8.375 6.941 l 8.816 7.086 9.133 7.254 9.328 7.461 c 9.527
 7.668 9.625 7.93 9.625 8.254 c 9.625 8.703 9.457 9.047 9.113 9.297 c 8.773
 9.551 8.312 9.668 7.719 9.668 c 7.414 9.668 7.125 9.633 6.836 9.578 c 6.547
 9.523 6.262 9.426 5.973 9.289 c f
12.332 9.293 m 11.871 9.293 11.559 9.352 11.383 9.453 c 11.203 9.559 11.117
 9.734 11.117 9.988 c 11.117 10.188 11.18 10.352 11.312 10.465 c 11.445 
10.586 11.629 10.645 11.855 10.645 c 12.168 10.645 12.422 10.535 12.609 
10.309 c 12.801 10.09 12.895 9.793 12.895 9.422 c 12.895 9.293 l 12.332 
9.293 l 13.461 9.062 m 13.461 11.027 l 12.895 11.027 l 12.895 10.504 l 12.762
 10.719 12.598 10.871 12.41 10.965 c 12.219 11.059 11.98 11.109 11.703 11.109
 c 11.352 11.109 11.066 11.016 10.859 10.82 c 10.652 10.625 10.551 10.359
 10.551 10.027 c 10.551 9.641 10.676 9.352 10.941 9.148 c 11.199 8.953 11.582
 8.855 12.102 8.855 c 12.895 8.855 l 12.895 8.797 l 12.895 8.539 12.805 
8.336 12.637 8.191 c 12.465 8.055 12.227 7.977 11.918 7.977 c 11.715 7.977
 11.527 8.004 11.336 8.055 c 11.148 8.105 10.973 8.172 10.801 8.262 c 10.801
 7.738 l 11.004 7.664 11.203 7.602 11.398 7.562 c 11.594 7.523 11.785 7.5
 11.973 7.5 c 12.473 7.5 12.844 7.633 13.09 7.891 c 13.336 8.148 13.461 
8.539 13.461 9.062 c f
14.223 7.582 m 14.824 7.582 l 15.898 10.473 l 16.977 7.582 l 17.574 7.582
 l 16.285 11.027 l 15.516 11.027 l 14.223 7.582 l f
20.621 9.262 m 20.621 8.859 20.535 8.539 20.371 8.312 c 20.199 8.086 19.961
 7.973 19.656 7.973 c 19.355 7.973 19.117 8.086 18.945 8.312 c 18.777 8.539
 18.695 8.859 18.695 9.262 c 18.695 9.672 18.777 9.988 18.945 10.215 c 19.117
 10.441 19.355 10.555 19.656 10.555 c 19.961 10.555 20.199 10.441 20.371
 10.215 c 20.535 9.988 20.621 9.672 20.621 9.262 c 21.188 10.598 m 21.188
 11.18 21.055 11.613 20.797 11.902 c 20.535 12.188 20.137 12.332 19.602 
12.332 c 19.398 12.332 19.219 12.312 19.039 12.289 c 18.863 12.254 18.688
 12.211 18.523 12.148 c 18.523 11.602 l 18.688 11.688 18.852 11.75 19.016
 11.797 c 19.18 11.84 19.344 11.867 19.512 11.867 c 19.879 11.867 20.156
 11.766 20.344 11.574 c 20.527 11.379 20.621 11.09 20.621 10.699 c 20.621
 10.422 l 20.504 10.625 20.352 10.773 20.168 10.875 c 19.984 10.977 19.77
 11.027 19.52 11.027 c 19.09 11.027 18.75 10.871 18.492 10.547 c 18.234 
10.227 18.109 9.801 18.109 9.262 c 18.109 8.734 18.234 8.305 18.492 7.984
 c 18.75 7.664 19.09 7.5 19.52 7.5 c 19.77 7.5 19.984 7.551 20.168 7.652
 c 20.352 7.75 20.504 7.902 20.621 8.105 c 20.621 7.582 l 21.188 7.582 l
 21.188 10.598 l f
22.332 10.414 m 22.602 10.207 22.809 9.973 22.934 9.703 c 23.062 9.434 
23.133 9.109 23.133 8.715 c 23.133 8.551 l 23.996 8.551 l 23.969 9.055 23.852
 9.488 23.637 9.84 c 23.422 10.191 23.105 10.496 22.684 10.766 c 22.332 
10.414 l f
29.008 9.551 m 29.008 9.082 l 30.152 9.082 l 30.152 3.629 l 28.828 4.484
 l 28.828 3.906 l 30.43 2.871 l 31.035 2.871 l 31.035 9.082 l 32.176 9.082
 l 32.176 9.551 l 29.008 9.551 l f
36.316 9.246 m 36.766 9.246 37.098 9 37.324 8.508 c 37.539 8.02 37.656 
7.273 37.656 6.273 c 37.656 5.285 37.539 4.539 37.324 4.043 c 37.098 3.559
 36.766 3.305 36.316 3.305 c 35.863 3.305 35.523 3.559 35.309 4.043 c 35.082
 4.539 34.973 5.285 34.973 6.273 c 34.973 7.273 35.082 8.02 35.309 8.508
 c 35.523 9 35.863 9.246 36.316 9.246 c 36.316 9.668 m 35.594 9.668 35.039
 9.371 34.641 8.777 c 34.246 8.184 34.047 7.355 34.047 6.273 c 34.047 5.203
 34.246 4.367 34.641 3.773 c 35.039 3.18 35.594 2.871 36.316 2.871 c 37.027
 2.871 37.586 3.18 37.98 3.773 c 38.375 4.367 38.582 5.203 38.582 6.273 
c 38.582 7.355 38.375 8.184 37.98 8.777 c 37.586 9.371 37.027 9.668 36.316
 9.668 c f
41.27 3.926 m 40.973 3.926 40.738 4.008 40.57 4.164 c 40.398 4.324 40.316
 4.535 40.316 4.812 c 40.316 5.09 40.398 5.312 40.57 5.469 c 40.738 5.625
 40.973 5.703 41.27 5.703 c 41.559 5.703 41.793 5.625 41.961 5.461 c 42.133
 5.305 42.219 5.09 42.219 4.812 c 42.219 4.535 42.133 4.324 41.969 4.164
 c 41.797 4.008 41.566 3.926 41.27 3.926 c 40.645 3.66 m 40.379 3.598 40.172
 3.473 40.023 3.289 c 39.871 3.105 39.801 2.887 39.801 2.621 c 39.801 2.258
 39.926 1.965 40.191 1.754 c 40.449 1.539 40.809 1.43 41.27 1.43 c 41.723
 1.43 42.082 1.539 42.348 1.754 c 42.605 1.965 42.738 2.258 42.738 2.621
 c 42.738 2.887 42.66 3.105 42.512 3.289 c 42.359 3.473 42.156 3.598 41.895
 3.66 c 42.188 3.73 42.422 3.867 42.594 4.07 c 42.754 4.273 42.844 4.523
 42.844 4.812 c 42.844 5.262 42.707 5.602 42.434 5.836 c 42.156 6.074 41.773
 6.188 41.27 6.188 c 40.758 6.188 40.367 6.074 40.098 5.836 c 39.828 5.602
 39.695 5.262 39.695 4.812 c 39.695 4.523 39.777 4.273 39.945 4.07 c 40.109
 3.867 40.344 3.73 40.645 3.66 c 40.418 2.68 m 40.418 2.918 40.488 3.105
 40.641 3.238 c 40.789 3.371 41 3.434 41.27 3.434 c 41.535 3.434 41.742 
3.371 41.895 3.238 c 42.043 3.105 42.121 2.918 42.121 2.68 c 42.121 2.438
 42.043 2.258 41.895 2.125 c 41.742 1.992 41.535 1.922 41.27 1.922 c 41 
1.922 40.789 1.992 40.641 2.125 c 40.488 2.258 40.418 2.438 40.418 2.68 
c f
53.734 2.988 m 53.734 3.457 l 52.898 3.457 l 52.898 9.082 l 53.734 9.082
 l 53.734 9.551 l 51.172 9.551 l 51.172 9.082 l 52.008 9.082 l 52.008 3.531
 l 48.605 3.531 l 48.605 9.082 l 49.441 9.082 l 49.441 9.551 l 46.879 9.551
 l 46.879 9.082 l 47.715 9.082 l 47.715 3.457 l 46.879 3.457 l 46.879 2.988
 l 53.734 2.988 l f
57.812 8.082 m 57.812 7.094 l 56.77 7.094 l 56.363 7.094 56.066 7.184 55.867
 7.355 c 55.672 7.535 55.582 7.797 55.582 8.148 c 55.582 8.473 55.68 8.73
 55.879 8.922 c 56.074 9.117 56.344 9.207 56.688 9.207 c 57.02 9.207 57.289
 9.109 57.496 8.902 c 57.703 8.695 57.812 8.426 57.812 8.082 c 58.621 6.637
 m 58.621 9.082 l 59.344 9.082 l 59.344 9.551 l 57.812 9.551 l 57.812 9.047
 l 57.633 9.262 57.426 9.426 57.191 9.523 c 56.957 9.613 56.68 9.668 56.371
 9.668 c 55.852 9.668 55.438 9.531 55.129 9.262 c 54.824 8.992 54.68 8.613
 54.68 8.148 c 54.68 7.668 54.852 7.301 55.203 7.031 c 55.543 6.762 56.039
 6.625 56.68 6.625 c 57.812 6.625 l 57.812 6.301 l 57.812 5.949 57.703 5.68
 57.488 5.484 c 57.273 5.285 56.965 5.188 56.578 5.188 c 56.254 5.188 56.004
 5.266 55.816 5.41 c 55.617 5.555 55.5 5.77 55.453 6.059 c 55.039 6.059 
l 55.039 5.113 l 55.32 4.996 55.59 4.906 55.859 4.844 c 56.121 4.789 56.383
 4.754 56.633 4.754 c 57.281 4.754 57.766 4.914 58.109 5.238 c 58.453 5.562
 58.621 6.023 58.621 6.637 c f
2 J
0 j
q 1 0 0 -1 0 0 cm
30.754 -153.391 m 30.754 -13.426 l S Q
q 1 0 0 -1 0 0 cm
215.07 -153.391 m 215.07 -13.426 l S Q
q 1 0 0 -1 0 0 cm
30.754 -153.391 m 215.07 -153.391 l S Q
q 1 0 0 -1 0 0 cm
30.754 -13.426 m 215.07 -13.426 l S Q
0.910431 w
0 J
1 j
q 1 0 0 -0.959824 0 0 cm
158.824 -62.78 m 158.961 -62.951 l 159.164 -63.118 l 159.367 -63.289 l 
159.574 -63.541 l 159.777 -63.712 l 159.914 -63.879 l 160.117 -64.135 l 
160.32 -64.302 l 160.527 -64.555 l 160.66 -64.811 l 160.867 -65.063 l 161.07
 -65.316 l 161.273 -65.572 l 161.41 -65.91 l 161.617 -66.333 l 161.82 -66.671
 l 162.023 -66.923 l 162.16 -67.261 l 162.363 -67.513 l 162.566 -67.77 l
 162.773 -68.193 l 162.91 -68.616 l 163.113 -69.121 l 163.316 -69.715 l 
163.52 -70.305 l 163.656 -70.899 l 163.859 -71.318 l 164.066 -71.742 l 164.27
 -72.25 l 164.406 -72.755 l 164.609 -73.435 l 164.816 -74.11 l 165.02 -74.786
 l 165.152 -75.291 l 165.359 -75.714 l 165.562 -76.056 l 165.766 -76.475
 l 165.902 -76.984 l 166.109 -77.574 l 166.312 -78.335 l 166.516 -79.014
 l 166.652 -79.604 l 166.859 -79.942 l 167.062 -80.195 l 167.266 -80.366
 l 167.402 -80.703 l 167.605 -81.212 l 167.809 -81.969 l 168.016 -82.734
 l 168.152 -83.495 l 168.355 -84 l 168.559 -84.423 l 168.762 -84.675 l 168.898
 -85.099 l 169.102 -85.607 l 169.309 -86.368 l 169.512 -87.296 l 169.648
 -88.314 l 169.852 -89.242 l 170.055 -89.917 l 170.262 -90.255 l 170.398
 -90.255 l 170.602 -90.174 l 170.805 -90.174 l 171.012 -90.34 l 171.145 
-90.764 l 171.352 -91.354 l 171.555 -91.948 l 171.758 -92.538 l 171.895 
-92.961 l 172.098 -93.218 l 172.305 -93.47 l 172.508 -93.808 l 172.645 -94.231
 l 172.848 -94.74 l 173.051 -95.245 l 173.258 -95.668 l 173.395 -95.92 l
 173.598 -96.006 l 173.801 -96.006 l 174.004 -96.091 l 174.141 -96.514 l
 174.344 -97.275 l 174.551 -98.374 l 174.754 -99.554 l 174.891 -100.739 
l 175.094 -101.671 l 175.297 -102.261 l 175.504 -102.513 l 175.641 -102.684
 l 175.844 -102.77 l 176.047 -102.936 l 176.254 -103.274 l 176.387 -103.616
 l 176.59 -104.035 l 176.797 -104.292 l 177.547 -104.292 l 177.75 -104.377
 l 177.887 -104.544 l 178.09 -104.715 l 178.293 -105.053 l 178.5 -105.39
 l 178.633 -105.895 l 178.84 -106.404 l 179.043 -106.913 l 179.246 -107.336
 l 179.383 -107.755 l 179.59 -108.011 l 179.793 -108.178 l 180.336 -108.178
 l 180.539 -108.264 l 180.746 -108.516 l 180.883 -108.854 l 181.086 -109.363
 l 181.492 -110.714 l 181.629 -111.56 l 181.832 -112.24 l 182.039 -112.745
 l 182.242 -112.915 l 182.379 -112.83 l 182.582 -112.492 l 182.789 -111.983
 l 182.992 -111.475 l 183.125 -111.137 l 183.332 -110.885 l 183.535 -110.885
 l 183.738 -110.97 l 183.875 -111.222 l 184.082 -111.475 l 184.285 -111.646
 l 184.488 -111.898 l 184.625 -112.321 l 184.832 -112.83 l 185.441 -114.857
 l 185.578 -115.536 l 185.781 -116.212 l 185.988 -116.973 l 186.191 -117.815
 l 186.328 -118.747 l 186.531 -119.675 l 186.734 -120.522 l 186.941 -121.116
 l 187.074 -121.454 l 187.281 -121.621 l 187.484 -121.535 l 187.688 -121.368
 l 187.824 -121.031 l 188.027 -120.693 l 188.234 -120.184 l 188.438 -119.675
 l 188.574 -119.171 l 188.777 -118.662 l 188.984 -118.239 l 189.188 -118.072
 l 189.324 -117.986 l 189.73 -118.157 l 189.938 -118.239 l 190.07 -118.41
 l 190.277 -118.576 l 190.48 -119 l 190.684 -119.594 l 190.82 -120.355 l
 191.023 -121.197 l 191.23 -122.129 l 191.434 -122.976 l 191.57 -123.818
 l 191.773 -124.327 l 191.977 -124.579 l 192.184 -124.498 l 192.316 -124.156
 l 192.523 -123.737 l 192.727 -123.395 l 192.93 -123.057 l 193.066 -122.89
 l 193.27 -122.719 l 193.477 -122.805 l 193.68 -122.976 l 193.816 -123.228
 l 194.02 -123.481 l 194.227 -123.737 l 194.43 -123.904 l 194.566 -123.904
 l 194.77 -123.737 l 194.973 -123.314 l 195.176 -122.719 l 195.312 -121.958
 l 195.52 -121.197 l 195.723 -120.522 l 195.926 -120.184 l 196.062 -120.099
 l 196.266 -120.436 l 196.473 -121.116 l 196.676 -122.129 l 196.812 -123.228
 l 197.016 -124.498 l 197.219 -125.764 l 197.426 -127.033 l 197.562 -128.299
 l 197.766 -129.483 l 197.969 -130.501 l 198.172 -131.343 l 198.309 -132.019
 l 198.512 -132.442 l 198.719 -132.613 l 198.922 -132.528 l 199.059 -132.104
 l 199.262 -131.176 l 199.465 -129.992 l 199.672 -128.47 l 199.805 -126.777
 l 200.012 -125.255 l 200.215 -123.818 l 200.418 -122.719 l 200.555 -121.958
 l 200.762 -121.621 l 200.965 -121.877 l 201.168 -122.553 l 201.305 -123.651
 l 201.508 -125.003 l 201.711 -126.61 l 201.918 -128.218 l 202.055 -129.992
 l 202.258 -131.767 l 202.461 -133.374 l 202.668 -134.811 l 202.805 -135.91
 l 203.008 -136.756 l 203.211 -137.008 l 203.414 -136.756 l 203.551 -136.081
 l 203.754 -134.896 l 203.961 -133.374 l 204.164 -131.681 l 204.301 -129.821
 l 204.504 -128.047 l 204.707 -126.525 l 204.914 -125.426 l 205.047 -124.75
 l 205.254 -124.579 l 205.457 -124.665 l 205.66 -124.917 l 205.797 -125.255
 l 206 -125.678 l 206.207 -126.187 l 206.41 -126.696 l 206.547 -127.286 
l 206.75 -127.961 l 206.953 -128.722 l 207.16 -129.736 l 207.297 -130.835
 l 207.5 -132.19 l 207.703 -133.541 l 207.91 -134.811 l 208.043 -135.824
 l 208.25 -136.418 l 208.453 -136.671 l 208.656 -136.585 l 208.793 -136.081
 l 208.996 -135.315 l 209.203 -134.387 l 209.406 -133.456 l 209.543 -132.694
 l 209.746 -132.019 l 209.949 -131.681 l 210.156 -131.514 l 210.289 -131.596
 l 210.496 -131.767 l 210.699 -131.937 l 210.902 -132.019 l 211.105 -131.937
 l 211.242 -131.596 l 211.449 -131.091 l 211.652 -130.582 l 211.855 -130.159
 l 211.992 -129.907 l 212.199 -129.821 l 212.402 -130.159 l 212.605 -130.753
 l 212.742 -131.596 l 212.945 -132.528 l 213.148 -133.541 l 213.355 -134.387
 l 213.492 -135.063 l 213.695 -135.572 l 213.898 -135.91 l 214.102 -135.995
 l 214.238 -135.824 l 214.445 -135.572 l 214.648 -135.234 l 214.852 -135.063
 l S Q
q 1 0 0 -0.959824 0 0 cm
102.797 -35.049 m 103 -35.138 l 103.137 -35.305 l 103.34 -35.391 l 103.543
 -35.472 l 103.75 -35.557 l 103.883 -35.643 l 104.09 -35.728 l 104.293 -35.81
 l 104.496 -35.895 l 104.633 -35.981 l 104.836 -36.066 l 105.043 -36.152
 l 105.246 -36.233 l 105.383 -36.319 l 105.789 -36.489 l 105.996 -36.571
 l 106.129 -36.656 l 106.336 -36.742 l 106.539 -36.913 l 106.742 -36.994
 l 106.879 -37.08 l 107.082 -37.165 l 107.289 -37.25 l 107.492 -37.332 l
 107.629 -37.417 l 107.832 -37.503 l 108.039 -37.588 l 108.242 -37.674 l
 108.445 -37.755 l 108.582 -37.841 l 108.988 -38.012 l 109.195 -38.093 l
 109.332 -38.178 l 109.535 -38.264 l 109.738 -38.435 l 109.941 -38.516 l
 110.078 -38.602 l 110.285 -38.687 l 110.488 -38.773 l 110.691 -38.854 l
 110.828 -38.939 l 111.234 -39.11 l 111.441 -39.192 l 111.578 -39.277 l 
111.984 -39.448 l 112.191 -39.534 l 112.324 -39.615 l 112.531 -39.7 l 112.734
 -39.786 l 112.938 -39.953 l 113.074 -40.038 l 113.277 -40.124 l 113.484
 -40.209 l 113.688 -40.295 l 113.824 -40.376 l 114.027 -40.462 l 114.234
 -40.547 l 114.438 -40.632 l 114.574 -40.714 l 115.184 -40.97 l 115.32 -41.056
 l 115.527 -41.137 l 115.934 -41.308 l 116.07 -41.394 l 116.273 -41.56 l
 116.48 -41.646 l 116.684 -41.731 l 116.82 -41.817 l 117.023 -41.898 l 117.227
 -41.984 l 117.434 -42.069 l 117.566 -42.15 l 117.773 -42.236 l 118.18 -42.407
 l 118.316 -42.492 l 118.52 -42.578 l 118.727 -42.659 l 118.93 -42.745 l
 119.066 -42.83 l 119.27 -42.912 l 119.477 -42.997 l 119.68 -43.082 l 119.812
 -43.253 l 120.02 -43.339 l 120.223 -43.42 l 120.426 -43.506 l 120.562 -43.591
 l 120.77 -43.673 l 121.176 -43.844 l 121.312 -43.929 l 121.516 -44.014 
l 121.723 -44.096 l 121.926 -44.181 l 122.062 -44.267 l 122.266 -44.352 
l 122.469 -44.434 l 122.672 -44.519 l 122.809 -44.605 l 123.016 -44.69 l
 123.219 -44.775 l 123.422 -44.857 l 123.559 -44.942 l 123.762 -45.113 l
 123.969 -45.195 l 124.172 -45.28 l 124.309 -45.366 l 124.715 -45.537 l 
124.922 -45.618 l 125.059 -45.703 l 125.465 -45.874 l 125.668 -45.956 l 
125.805 -46.041 l 126.012 -46.127 l 126.418 -46.298 l 126.555 -46.379 l 
126.758 -46.464 l 126.965 -46.55 l 127.168 -46.631 l 127.305 -46.717 l 127.711
 -46.888 l 127.914 -46.969 l 128.051 -47.059 l 128.258 -47.14 l 128.461 
-47.225 l 128.664 -47.392 l 128.801 -47.478 l 129.207 -47.649 l 129.414 
-47.734 l 129.551 -47.816 l 129.957 -47.987 l 130.164 -48.072 l 130.297 
-48.153 l 130.504 -48.239 l 130.91 -48.41 l 131.047 -48.491 l 131.25 -48.577
 l 131.457 -48.662 l 131.66 -48.748 l 131.797 -48.833 l 132 -48.914 l 132.207
 -49 l 132.41 -49.085 l 132.547 -49.171 l 132.75 -49.252 l 133.156 -49.423
 l 133.293 -49.509 l 133.5 -49.594 l 133.703 -49.675 l 134.109 -49.846 l
 134.246 -49.932 l 134.453 -50.013 l 134.859 -50.184 l 134.996 -50.27 l 
135.199 -50.355 l 135.406 -50.437 l 135.609 -50.522 l 135.746 -50.607 l 
136.152 -50.778 l 136.355 -50.86 l 136.492 -50.945 l 136.699 -51.031 l 136.902
 -51.116 l 137.105 -51.198 l 137.242 -51.283 l 137.449 -51.368 l 137.652
 -51.454 l 137.855 -51.535 l 137.992 -51.621 l 138.398 -51.792 l 138.605
 -51.877 l 138.742 -51.959 l 139.352 -52.215 l 139.488 -52.382 l 139.695
 -52.467 l 140.102 -52.638 l 140.238 -52.72 l 140.645 -52.891 l 140.852 
-52.972 l 140.988 -53.057 l 141.395 -53.228 l 141.602 -53.314 l 141.734 
-53.395 l 141.941 -53.481 l 142.348 -53.652 l 142.484 -53.733 l 142.688 
-53.818 l 142.895 -53.904 l 143.098 -53.989 l 143.234 -54.075 l 143.438 
-54.156 l 143.645 -54.242 l 143.848 -54.327 l 143.984 -54.413 l 144.188 
-54.498 l 144.391 -54.58 l 144.594 -54.665 l 144.73 -54.75 l 144.938 -54.832
 l 145.344 -55.003 l 145.48 -55.088 l 145.887 -55.259 l 146.094 -55.341 
l 146.23 -55.426 l 146.434 -55.512 l 146.637 -55.593 l 146.844 -55.678 l
 146.977 -55.764 l 147.18 -55.849 l 147.387 -55.935 l 147.59 -56.016 l 147.727
 -56.102 l 147.93 -56.187 l 148.137 -56.273 l 148.34 -56.354 l 148.477 -56.439
 l 148.883 -56.61 l 149.09 -56.696 l 149.223 -56.777 l 149.43 -56.863 l 
149.836 -57.034 l 149.973 -57.115 l 150.18 -57.2 l 150.383 -57.286 l 150.586
 -57.367 l 150.723 -57.457 l 150.926 -57.624 l 151.129 -57.709 l 151.336
 -57.795 l 151.473 -57.876 l 151.879 -58.047 l 152.082 -58.128 l 152.219
 -58.218 l 152.426 -58.299 l 152.629 -58.47 l 152.832 -58.552 l 152.969 
-58.637 l 153.172 -58.723 l 153.379 -58.808 l 153.582 -58.893 l 153.719 
-59.06 l 154.125 -59.231 l 154.332 -59.313 l 154.465 -59.484 l 154.672 -59.569
 l 154.875 -59.736 l 155.078 -59.821 l 155.215 -59.907 l 155.422 -60.074
 l 155.625 -60.159 l 155.828 -60.33 l 155.965 -60.497 l 156.168 -60.582 
l 156.371 -60.753 l 156.578 -60.92 l 156.715 -61.006 l 156.918 -61.173 l
 157.324 -61.514 l 157.461 -61.681 l 157.668 -61.767 l 157.871 -61.934 l
 158.074 -62.105 l 158.211 -62.275 l 158.414 -62.442 l 158.617 -62.613 l
 158.824 -62.78 l S Q
q 1 0 0 -0.959824 0 0 cm
46.766 -19.832 m 46.969 -19.751 l 47.176 -19.751 l 47.312 -19.665 l 47.516
 -19.58 l 47.719 -19.58 l 47.922 -19.494 l 48.059 -19.494 l 48.266 -19.413
 l 48.469 -19.327 l 48.672 -19.327 l 48.809 -19.242 l 49.012 -19.242 l 49.219
 -19.156 l 49.559 -19.156 l 49.762 -19.071 l 49.965 -19.071 l 50.172 -18.989
 l 50.512 -18.989 l 50.715 -18.904 l 51.258 -18.904 l 51.465 -18.819 l 52.211
 -18.819 l 52.418 -18.737 l 53.711 -18.737 l 53.914 -18.652 l 55.547 -18.652
 l 55.754 -18.737 l 57.25 -18.737 l 57.453 -18.819 l 58.203 -18.819 l 58.406
 -18.904 l 58.953 -18.904 l 59.156 -18.989 l 59.699 -18.989 l 59.906 -19.071
 l 60.246 -19.071 l 60.449 -19.156 l 60.859 -19.156 l 60.996 -19.242 l 61.402
 -19.242 l 61.605 -19.327 l 61.742 -19.327 l 61.949 -19.413 l 62.355 -19.413
 l 62.492 -19.494 l 62.695 -19.494 l 62.902 -19.58 l 63.105 -19.58 l 63.242
 -19.665 l 63.648 -19.665 l 63.855 -19.751 l 63.988 -19.751 l 64.195 -19.832
 l 64.398 -19.832 l 64.602 -19.917 l 64.738 -19.917 l 64.941 -20.003 l 65.148
 -20.003 l 65.352 -20.088 l 65.488 -20.088 l 65.691 -20.174 l 65.895 -20.255
 l 66.102 -20.255 l 66.238 -20.341 l 66.441 -20.341 l 66.645 -20.426 l 66.848
 -20.426 l 66.984 -20.512 l 67.191 -20.593 l 67.395 -20.593 l 67.598 -20.678
 l 67.734 -20.678 l 67.938 -20.764 l 68.145 -20.849 l 68.348 -20.849 l 68.484
 -20.935 l 68.688 -20.935 l 68.891 -21.016 l 69.098 -21.102 l 69.23 -21.102
 l 69.438 -21.187 l 69.641 -21.273 l 69.844 -21.273 l 69.98 -21.354 l 70.184
 -21.439 l 70.391 -21.439 l 70.594 -21.525 l 70.73 -21.61 l 70.934 -21.61
 l 71.137 -21.696 l 71.344 -21.777 l 71.48 -21.863 l 71.684 -21.863 l 71.887
 -21.948 l 72.09 -22.03 l 72.227 -22.03 l 72.434 -22.115 l 72.84 -22.286
 l 72.977 -22.286 l 73.18 -22.371 l 73.387 -22.457 l 73.59 -22.538 l 73.727
 -22.538 l 74.133 -22.709 l 74.34 -22.791 l 74.473 -22.876 l 74.68 -22.876
 l 75.086 -23.047 l 75.223 -23.133 l 75.426 -23.214 l 75.633 -23.214 l 75.836
 -23.299 l 75.973 -23.385 l 76.176 -23.47 l 76.379 -23.552 l 76.586 -23.552
 l 76.719 -23.637 l 76.926 -23.723 l 77.129 -23.808 l 77.332 -23.889 l 77.469
 -23.975 l 77.676 -23.975 l 78.082 -24.146 l 78.219 -24.231 l 78.422 -24.313
 l 78.629 -24.398 l 78.832 -24.484 l 78.969 -24.484 l 79.172 -24.569 l 79.375
 -24.651 l 79.582 -24.736 l 79.715 -24.821 l 79.922 -24.907 l 80.125 -24.992
 l 80.328 -24.992 l 80.465 -25.074 l 80.668 -25.159 l 80.875 -25.245 l 81.078
 -25.33 l 81.215 -25.412 l 81.621 -25.582 l 81.828 -25.668 l 81.961 -25.753
 l 82.168 -25.753 l 82.371 -25.835 l 82.574 -25.92 l 82.781 -26.006 l 82.918
 -26.091 l 83.121 -26.173 l 83.527 -26.344 l 83.664 -26.429 l 83.867 -26.51
 l 84.074 -26.596 l 84.277 -26.681 l 84.414 -26.767 l 84.617 -26.852 l 84.824
 -26.852 l 85.027 -26.934 l 85.164 -27.019 l 85.57 -27.19 l 85.777 -27.276
 l 85.91 -27.357 l 86.117 -27.442 l 86.523 -27.613 l 86.66 -27.695 l 86.863
 -27.78 l 87.07 -27.866 l 87.273 -27.951 l 87.41 -28.037 l 87.613 -28.118
 l 87.816 -28.203 l 88.023 -28.289 l 88.156 -28.374 l 88.363 -28.456 l 88.77
 -28.627 l 88.906 -28.712 l 89.109 -28.794 l 89.316 -28.879 l 89.52 -28.964
 l 89.656 -29.05 l 89.859 -29.131 l 90.066 -29.217 l 90.27 -29.302 l 90.402
 -29.388 l 90.609 -29.473 l 90.812 -29.559 l 91.016 -29.64 l 91.152 -29.726
 l 91.359 -29.811 l 91.562 -29.892 l 91.766 -29.978 l 91.902 -30.063 l 92.105
 -30.149 l 92.312 -30.23 l 92.516 -30.316 l 92.652 -30.401 l 93.262 -30.657
 l 93.398 -30.739 l 93.605 -30.824 l 93.809 -30.91 l 94.012 -30.991 l 94.148
 -31.077 l 94.352 -31.162 l 94.559 -31.248 l 94.762 -31.333 l 94.898 -31.414
 l 95.305 -31.585 l 95.512 -31.671 l 95.648 -31.752 l 96.258 -32.009 l 96.395
 -32.094 l 96.602 -32.176 l 97.008 -32.346 l 97.145 -32.432 l 97.348 -32.513
 l 97.555 -32.599 l 97.758 -32.684 l 97.895 -32.77 l 98.098 -32.855 l 98.301
 -32.937 l 98.508 -33.022 l 98.645 -33.107 l 98.848 -33.193 l 99.051 -33.36
 l 99.254 -33.445 l 99.391 -33.527 l 99.594 -33.616 l 99.801 -33.698 l 100.004
 -33.783 l 100.141 -33.869 l 100.344 -33.95 l 100.547 -34.035 l 100.754 
-34.121 l 100.891 -34.206 l 101.094 -34.288 l 101.297 -34.377 l 101.504 
-34.459 l 101.637 -34.544 l 101.84 -34.63 l 102.047 -34.711 l 102.25 -34.796
 l 102.387 -34.882 l 102.59 -34.967 l 102.797 -35.049 l S Q
0.906203 w
q 1 0 0 -0.959824 0 0 cm
30.848 -92.795 m 30.984 -37.332 l 31.188 -36.827 l 31.387 -36.319 l 31.59
 -35.895 l 31.727 -35.391 l 31.93 -34.967 l 32.129 -34.544 l 32.332 -34.121
 l 32.469 -33.783 l 32.672 -33.36 l 32.871 -33.022 l 33.074 -32.599 l 33.211
 -32.261 l 33.41 -31.923 l 33.816 -31.248 l 33.953 -30.91 l 34.152 -30.572
 l 34.355 -30.316 l 34.559 -29.978 l 34.691 -29.64 l 34.895 -29.388 l 35.098
 -29.131 l 35.301 -28.794 l 35.434 -28.541 l 35.84 -28.037 l 36.043 -27.78
 l 36.176 -27.528 l 36.379 -27.276 l 36.582 -27.105 l 36.785 -26.852 l 36.918
 -26.596 l 37.121 -26.429 l 37.324 -26.173 l 37.527 -26.006 l 37.66 -25.753
 l 37.863 -25.582 l 38.066 -25.33 l 38.27 -25.159 l 38.402 -24.992 l 38.809
 -24.651 l 39.012 -24.484 l 39.145 -24.313 l 39.348 -24.146 l 39.551 -23.975
 l 39.754 -23.808 l 39.887 -23.637 l 40.09 -23.47 l 40.293 -23.299 l 40.492
 -23.214 l 40.629 -23.047 l 40.832 -22.876 l 41.031 -22.791 l 41.234 -22.624
 l 41.371 -22.457 l 41.574 -22.371 l 41.773 -22.286 l 41.977 -22.115 l 42.113
 -22.03 l 42.316 -21.863 l 42.516 -21.777 l 42.719 -21.696 l 42.855 -21.525
 l 43.055 -21.439 l 43.258 -21.354 l 43.461 -21.273 l 43.598 -21.187 l 43.801
 -21.016 l 44 -20.935 l 44.203 -20.849 l 44.34 -20.764 l 44.539 -20.678 
l 44.742 -20.593 l 44.945 -20.512 l 45.082 -20.426 l 45.281 -20.341 l 45.484
 -20.341 l 45.688 -20.255 l 45.82 -20.174 l 46.43 -19.917 l 46.562 -19.917
 l 46.766 -19.832 l S Q
Q Q
showpage
%%Trailer
end restore
%%EOF
