%!PS-Adobe-3.0 EPSF-3.0
%%Title: T.eps
%%Creator: matplotlib version 2.0.0, http://matplotlib.org/
%%CreationDate: Tue Mar 27 15:01:59 2018
%%Orientation: portrait
%%BoundingBox: 190 309 421 482
%%EndComments
%%BeginProlog
/mpldict 10 dict def
mpldict begin
/m { moveto } bind def
/l { lineto } bind def
/r { rlineto } bind def
/c { curveto } bind def
/cl { closepath } bind def
/box {
m
1 index 0 r
0 exch r
neg 0 r
cl
} bind def
/clipbox {
box
clip
newpath
} bind def
%!PS-Adobe-3.0 Resource-Font
%%Title: DejaVu Serif
%%Copyright: Copyright (c) 2003 by Bitstream, Inc. All Rights Reserved. DejaVu changes are in public domain 
%%Creator: Converted from TrueType to type 3 by PPR
25 dict begin
/_d{bind def}bind def
/_m{moveto}_d
/_l{lineto}_d
/_cl{closepath eofill}_d
/_c{curveto}_d
/_sc{7 -1 roll{setcachedevice}{pop pop pop pop pop pop}ifelse}_d
/_e{exec}_d
/FontName /DejaVuSerif def
/PaintType 0 def
/FontMatrix[.001 0 0 .001 0 0]def
/FontBBox[-770 -347 2105 1109]def
/FontType 3 def
/Encoding [ /space /comma /period /zero /two /four /five /six /seven /eight /nine /equal /C /T /y /uni043C ] def
/FontInfo 10 dict dup begin
/FamilyName (DejaVu Serif) def
/FullName (DejaVu Serif) def
/Notice (Copyright (c) 2003 by Bitstream, Inc. All Rights Reserved. DejaVu changes are in public domain ) def
/Weight (Book) def
/Version (Version 2.35) def
/ItalicAngle 0.0 def
/isFixedPitch false def
/UnderlinePosition -130 def
/UnderlineThickness 90 def
end readonly def
/CharStrings 16 dict dup begin
/space{318 0 0 0 0 0 _sc
}_d
/comma{318 0 36 -135 221 111 _sc
36 -96 _m
66 -73 89 -47 103 -17 _c
117 13 125 49 125 93 _c
125 111 _l
221 111 _l
218 55 205 7 181 -32 _c
157 -71 122 -105 75 -135 _c
36 -96 _l
_cl}_d
/period{318 0 94 -13 224 116 _sc
94 51 _m
94 69 100 84 112 97 _c
124 109 140 116 159 116 _c
177 116 192 109 205 97 _c
217 84 224 69 224 51 _c
224 33 217 17 205 5 _c
192 -7 177 -13 159 -13 _c
140 -13 124 -7 112 5 _c
100 17 94 32 94 51 _c
_cl}_d
/zero{636 0 66 -13 570 742 _sc
318 34 _m
368 34 405 61 430 116 _c
454 170 467 253 467 364 _c
467 474 454 557 430 612 _c
405 666 368 694 318 694 _c
268 694 230 666 206 612 _c
181 557 169 474 169 364 _c
169 253 181 170 206 116 _c
230 61 268 34 318 34 _c
318 -13 _m
238 -13 176 20 132 86 _c
88 152 66 244 66 364 _c
66 483 88 576 132 642 _c
176 708 238 742 318 742 _c
397 742 459 708 503 642 _c
547 576 570 483 570 364 _c
570 244 547 152 503 86 _c
459 20 397 -13 318 -13 _c
_cl}_d
/two{{636 0 68 0 538 742 _sc
128 555 _m
73 555 _l
73 685 _l
107 703 142 717 178 727 _c
213 737 248 742 282 742 _c
358 742 418 723 462 687 _c
506 650 528 600 528 537 _c
528 465 478 380 378 281 _c
370 273 365 268 361 264 _c
177 80 _l
481 80 _l
481 170 _l
538 170 _l
538 0 _l
68 0 _l
68 53 _l
289 274 _l
337 322 372 367 393 408 _c
414 449 425 492 425 537 _c
}_e{425 586 412 624 386 652 _c
360 680 325 694 281 694 _c
234 694 198 682 173 659 _c
147 636 132 601 128 555 _c
_cl}_e}_d
/four{636 0 31 0 586 742 _sc
349 247 _m
349 635 _l
100 247 _l
349 247 _l
564 0 _m
232 0 _l
232 52 _l
349 52 _l
349 195 _l
31 195 _l
31 248 _l
350 742 _l
447 742 _l
447 247 _l
586 247 _l
586 195 _l
447 195 _l
447 52 _l
564 52 _l
564 0 _l
_cl}_d
/five{{636 0 85 -13 559 729 _sc
503 729 _m
503 649 _l
169 649 _l
169 440 _l
185 452 205 460 228 466 _c
250 472 276 475 304 475 _c
382 475 444 453 490 409 _c
536 365 559 306 559 231 _c
559 153 536 93 490 51 _c
444 8 379 -13 296 -13 _c
262 -13 228 -9 193 -1 _c
157 6 121 18 85 35 _c
85 177 _l
140 177 _l
143 130 158 94 184 70 _c
210 46 248 34 296 34 _c
}_e{347 34 386 51 414 85 _c
442 119 456 167 456 231 _c
456 294 442 342 415 376 _c
387 410 348 427 296 427 _c
266 427 240 421 218 411 _c
196 401 176 385 159 363 _c
117 363 _l
117 729 _l
503 729 _l
_cl}_e}_d
/six{{636 0 67 -13 573 742 _sc
327 34 _m
373 34 408 50 433 84 _c
457 118 470 166 470 230 _c
470 293 457 341 433 375 _c
408 409 373 426 327 426 _c
280 426 244 409 220 377 _c
196 344 184 297 184 236 _c
184 171 196 121 221 86 _c
245 51 281 34 327 34 _c
168 401 _m
190 425 215 444 243 456 _c
271 468 302 474 338 474 _c
410 474 468 452 510 408 _c
552 364 573 305 573 230 _c
}_e{573 156 550 97 505 53 _c
459 9 399 -13 323 -13 _c
241 -13 177 17 133 78 _c
89 139 67 227 67 341 _c
67 468 93 567 145 637 _c
197 707 271 742 367 742 _c
393 742 420 739 448 735 _c
476 730 505 723 535 713 _c
535 593 _l
480 593 _l
476 625 463 650 442 668 _c
421 685 393 694 357 694 _c
293 694 246 670 215 622 _c
184 574 168 500 168 401 _c
_cl}_e}_d
/seven{636 0 84 0 564 729 _sc
564 679 _m
279 0 _l
206 0 _l
478 649 _l
141 649 _l
141 559 _l
84 559 _l
84 729 _l
564 729 _l
564 679 _l
_cl}_d
/eight{{636 0 67 -13 569 742 _sc
466 199 _m
466 251 453 291 427 320 _c
401 349 364 364 318 364 _c
271 364 235 349 209 320 _c
183 291 170 251 170 199 _c
170 147 183 106 209 77 _c
235 48 271 34 318 34 _c
364 34 401 48 427 77 _c
453 106 466 147 466 199 _c
446 553 _m
446 597 434 632 412 657 _c
389 681 358 694 318 694 _c
278 694 246 681 224 657 _c
201 632 190 597 190 553 _c
}_e{190 508 201 473 224 449 _c
246 424 278 412 318 412 _c
358 412 389 424 412 449 _c
434 473 446 508 446 553 _c
393 388 _m
448 380 491 360 522 327 _c
553 293 569 251 569 199 _c
569 131 547 78 504 42 _c
460 5 398 -13 318 -13 _c
237 -13 175 5 132 42 _c
88 78 67 131 67 199 _c
67 251 82 293 113 327 _c
144 360 187 380 243 388 _c
193 396 156 415 130 444 _c
}_e{104 472 91 509 91 553 _c
91 611 111 657 151 691 _c
191 725 247 742 318 742 _c
388 742 444 725 484 691 _c
524 657 545 611 545 553 _c
545 509 531 472 505 444 _c
479 415 441 396 393 388 _c
_cl}_e}_d
/nine{{636 0 63 -13 569 742 _sc
468 327 _m
446 302 420 284 392 272 _c
364 260 332 254 297 254 _c
224 254 167 275 125 319 _c
83 363 63 422 63 498 _c
63 572 85 631 131 675 _c
176 719 237 742 313 742 _c
395 742 459 711 503 650 _c
547 588 569 501 569 387 _c
569 259 542 161 490 91 _c
438 21 364 -13 269 -13 _c
243 -13 216 -10 188 -6 _c
160 -2 131 5 101 15 _c
101 136 _l
}_e{156 136 _l
160 103 172 78 194 60 _c
215 42 243 34 279 34 _c
342 34 389 57 420 105 _c
450 153 466 227 468 327 _c
309 694 _m
263 694 227 677 203 643 _c
178 609 166 561 166 498 _c
166 434 178 386 203 352 _c
227 318 263 302 309 302 _c
355 302 390 318 415 351 _c
439 383 452 430 452 492 _c
452 556 439 606 415 641 _c
390 676 355 694 309 694 _c
_cl}_e}_d
/equal{838 0 106 175 732 452 _sc
106 452 _m
732 452 _l
732 374 _l
106 374 _l
106 452 _l
106 253 _m
732 253 _l
732 175 _l
106 175 _l
106 253 _l
_cl}_d
/C{{765 0 56 -13 705 742 _sc
705 193 _m
683 125 647 73 597 39 _c
546 4 482 -13 405 -13 _c
357 -13 312 -5 272 11 _c
231 27 195 50 164 82 _c
127 118 100 160 82 206 _c
64 252 56 305 56 364 _c
56 477 88 568 154 638 _c
219 707 305 742 413 742 _c
453 742 495 736 540 726 _c
584 716 633 700 685 679 _c
685 511 _l
630 511 _l
618 572 593 617 557 646 _c
}_e{521 675 470 690 405 690 _c
327 690 268 662 228 607 _c
188 551 168 470 168 364 _c
168 257 188 176 228 121 _c
268 65 327 38 405 38 _c
459 38 503 51 539 77 _c
574 103 599 141 615 193 _c
705 193 _l
_cl}_e}_d
/T{667 0 10 0 657 729 _sc
191 0 _m
191 52 _l
284 52 _l
284 671 _l
70 671 _l
70 557 _l
10 557 _l
10 729 _l
657 729 _l
657 557 _l
597 557 _l
597 671 _l
383 671 _l
383 52 _l
476 52 _l
476 0 _l
191 0 _l
_cl}_d
/y{{565 0 -2 -221 562 519 _sc
216 -94 _m
250 -8 _l
56 467 _l
-2 467 _l
-2 519 _l
236 519 _l
236 467 _l
153 467 _l
299 110 _l
445 467 _l
367 467 _l
367 519 _l
562 519 _l
562 467 _l
504 467 _l
266 -116 _l
250 -156 232 -184 212 -199 _c
192 -213 164 -221 128 -221 _c
112 -221 97 -219 81 -217 _c
65 -214 48 -210 32 -206 _c
32 -107 _l
78 -107 _l
80 -129 85 -144 95 -154 _c
}_e{104 -164 118 -169 138 -169 _c
156 -169 170 -164 181 -154 _c
192 -144 204 -124 216 -94 _c
_cl}_e}_d
/uni043C{778 0 36 0 742 519 _sc
36 0 _m
36 52 _l
117 52 _l
117 467 _l
36 467 _l
36 519 _l
247 519 _l
393 162 _l
539 519 _l
742 519 _l
742 467 _l
661 467 _l
661 52 _l
742 52 _l
742 0 _l
490 0 _l
490 52 _l
571 52 _l
571 453 _l
407 52 _l
341 52 _l
177 453 _l
177 52 _l
258 52 _l
258 0 _l
36 0 _l
_cl}_d
end readonly def

/BuildGlyph
 {exch begin
 CharStrings exch
 2 copy known not{pop /.notdef}if
 true 3 1 roll get exec
 end}_d

/BuildChar {
 1 index /Encoding get exch get
 1 index /BuildGlyph get exec
}_d

FontName currentdict end definefont pop
%!PS-Adobe-3.0 Resource-Font
%%Title: DejaVu Sans
%%Copyright: Copyright (c) 2003 by Bitstream, Inc. All Rights Reserved. Copyright (c) 2006 by Tavmjong Bah. All Rights Reserved. DejaVu changes are in public domain 
%%Creator: Converted from TrueType to type 3 by PPR
25 dict begin
/_d{bind def}bind def
/_m{moveto}_d
/_l{lineto}_d
/_cl{closepath eofill}_d
/_c{curveto}_d
/_sc{7 -1 roll{setcachedevice}{pop pop pop pop pop pop}ifelse}_d
/_e{exec}_d
/FontName /DejaVuSans def
/PaintType 0 def
/FontMatrix[.001 0 0 .001 0 0]def
/FontBBox[-1021 -463 1793 1232]def
/FontType 3 def
/Encoding [ /o /degree /uni043C /uni043D /uni043E /uni2218 ] def
/FontInfo 10 dict dup begin
/FamilyName (DejaVu Sans) def
/FullName (DejaVu Sans) def
/Notice (Copyright (c) 2003 by Bitstream, Inc. All Rights Reserved. Copyright (c) 2006 by Tavmjong Bah. All Rights Reserved. DejaVu changes are in public domain ) def
/Weight (Book) def
/Version (Version 2.35) def
/ItalicAngle 0.0 def
/isFixedPitch false def
/UnderlinePosition -130 def
/UnderlineThickness 90 def
end readonly def
/CharStrings 6 dict dup begin
/o{612 0 55 -13 557 560 _sc
306 484 _m
258 484 220 465 192 427 _c
164 389 150 338 150 273 _c
150 207 163 156 191 118 _c
219 80 257 62 306 62 _c
354 62 392 80 420 118 _c
448 156 462 207 462 273 _c
462 337 448 389 420 427 _c
392 465 354 484 306 484 _c
306 560 _m
384 560 445 534 490 484 _c
534 433 557 363 557 273 _c
557 183 534 113 490 63 _c
445 12 384 -13 306 -13 _c
227 -13 165 12 121 63 _c
77 113 55 183 55 273 _c
55 363 77 433 121 484 _c
165 534 227 560 306 560 _c
_cl}_d
/degree{{500 0 95 432 405 742 _sc
250 679 _m
224 679 202 670 184 652 _c
166 634 157 612 157 586 _c
157 560 166 538 184 520 _c
202 502 224 494 250 494 _c
276 494 298 502 316 520 _c
334 538 343 560 343 586 _c
343 612 334 634 316 652 _c
298 670 276 679 250 679 _c
250 742 _m
270 742 290 738 310 730 _c
329 722 346 710 360 696 _c
374 681 385 664 393 646 _c
401 627 405 607 405 586 _c
}_e{405 542 389 506 359 476 _c
329 446 292 432 249 432 _c
205 432 168 446 139 476 _c
109 505 95 542 95 586 _c
95 629 110 666 140 696 _c
170 726 206 742 250 742 _c
_cl}_e}_d
/uni043C{754 0 91 0 664 547 _sc
91 547 _m
222 547 _l
377 181 _l
533 547 _l
664 547 _l
664 0 _l
573 0 _l
573 461 _l
422 105 _l
333 105 _l
181 461 _l
181 0 _l
91 0 _l
91 547 _l
_cl}_d
/uni043D{654 0 91 0 563 547 _sc
91 547 _m
181 547 _l
181 324 _l
473 324 _l
473 547 _l
563 547 _l
563 0 _l
473 0 _l
473 252 _l
181 252 _l
181 0 _l
91 0 _l
91 547 _l
_cl}_d
/uni043E{612 0 55 -13 557 560 _sc
false CharStrings /o get exec
}_d
/uni2218{626 0 158 160 468 470 _sc
gsave 63 -271 translate
false CharStrings /degree get exec
grestore }_d
end readonly def

/BuildGlyph
 {exch begin
 CharStrings exch
 2 copy known not{pop /.notdef}if
 true 3 1 roll get exec
 end}_d

/BuildChar {
 1 index /Encoding get exch get
 1 index /BuildGlyph get exec
}_d

FontName currentdict end definefont pop
%!PS-Adobe-3.0 Resource-Font
%%Title: DejaVu Sans Oblique
%%Copyright: Copyright (c) 2003 by Bitstream, Inc. All Rights Reserved. Copyright (c) 2006 by Tavmjong Bah. All Rights Reserved. DejaVu changes are in public domain 
%%Creator: Converted from TrueType to type 3 by PPR
25 dict begin
/_d{bind def}bind def
/_m{moveto}_d
/_l{lineto}_d
/_cl{closepath eofill}_d
/_c{curveto}_d
/_sc{7 -1 roll{setcachedevice}{pop pop pop pop pop pop}ifelse}_d
/_e{exec}_d
/FontName /DejaVuSans-Oblique def
/PaintType 0 def
/FontMatrix[.001 0 0 .001 0 0]def
/FontBBox[-1016 -350 1659 1068]def
/FontType 3 def
/Encoding [ /epsilon ] def
/FontInfo 10 dict dup begin
/FamilyName (DejaVu Sans) def
/FullName (DejaVu Sans Oblique) def
/Notice (Copyright (c) 2003 by Bitstream, Inc. All Rights Reserved. Copyright (c) 2006 by Tavmjong Bah. All Rights Reserved. DejaVu changes are in public domain ) def
/Weight (Oblique) def
/Version (Version 2.35) def
/ItalicAngle -11.0 def
/isFixedPitch false def
/UnderlinePosition -130 def
/UnderlineThickness 90 def
end readonly def
/CharStrings 1 dict dup begin
/epsilon{{541 0 39 -13 506 561 _sc
197 295 _m
162 303 137 317 122 338 _c
110 353 104 371 104 391 _c
104 446 130 490 184 522 _c
225 548 278 561 342 561 _c
366 561 392 559 419 555 _c
446 551 475 545 505 537 _c
490 456 _l
460 465 432 472 407 476 _c
381 480 357 482 334 482 _c
295 482 263 474 238 460 _c
207 442 192 420 192 394 _c
192 376 200 362 216 350 _c
234 336 263 329 301 329 _c
}_e{376 329 _l
362 254 _l
290 254 _l
245 254 209 245 183 229 _c
147 207 129 178 129 143 _c
129 121 138 102 158 88 _c
182 70 218 61 268 61 _c
298 61 327 63 357 69 _c
385 75 412 85 438 97 _c
422 13 _l
390 4 361 -2 333 -6 _c
305 -10 277 -13 251 -13 _c
173 -13 117 1 81 30 _c
53 52 39 83 39 122 _c
39 174 57 216 94 248 _c
120 271 155 287 197 295 _c
_cl}_e}_d
end readonly def

/BuildGlyph
 {exch begin
 CharStrings exch
 2 copy known not{pop /.notdef}if
 true 3 1 roll get exec
 end}_d

/BuildChar {
 1 index /Encoding get exch get
 1 index /BuildGlyph get exec
}_d

FontName currentdict end definefont pop
end
%%EndProlog
mpldict begin
190.8 309.6 translate
230.4 172.8 0 0 clipbox
gsave
0 0 m
230.4 0 l
230.4 172.8 l
0 172.8 l
cl
1.000 setgray
fill
grestore
gsave
29.952 19.008 m
214.272 19.008 l
214.272 158.976 l
29.952 158.976 l
cl
1.000 setgray
fill
grestore
0.800 setlinewidth
1 setlinejoin
0 setlinecap
[] 0 setdash
0.000 setgray
gsave
/o {
gsave
newpath
translate
0.8 setlinewidth
1 setlinejoin
0 setlinecap
0 0 m
0 -3.5 l

gsave
0.000 setgray
fill
grestore
stroke
grestore
} bind def
29.952 19.008 o
grestore
/DejaVuSerif findfont
9.000 scalefont
setfont
gsave
27.084812 5.164250 translate
0.000000 rotate
0.000000 0.000000 m /five glyphshow
grestore
gsave
/o {
gsave
newpath
translate
0.8 setlinewidth
1 setlinejoin
0 setlinecap
0 0 m
0 -3.5 l

gsave
0.000 setgray
fill
grestore
stroke
grestore
} bind def
66.816 19.008 o
grestore
gsave
63.948813 5.164250 translate
0.000000 rotate
0.000000 0.000000 m /six glyphshow
grestore
gsave
/o {
gsave
newpath
translate
0.8 setlinewidth
1 setlinejoin
0 setlinecap
0 0 m
0 -3.5 l

gsave
0.000 setgray
fill
grestore
stroke
grestore
} bind def
103.68 19.008 o
grestore
gsave
100.812812 5.164250 translate
0.000000 rotate
0.000000 0.000000 m /seven glyphshow
grestore
gsave
/o {
gsave
newpath
translate
0.8 setlinewidth
1 setlinejoin
0 setlinecap
0 0 m
0 -3.5 l

gsave
0.000 setgray
fill
grestore
stroke
grestore
} bind def
140.544 19.008 o
grestore
gsave
137.676813 5.164250 translate
0.000000 rotate
0.000000 0.000000 m /eight glyphshow
grestore
gsave
/o {
gsave
newpath
translate
0.8 setlinewidth
1 setlinejoin
0 setlinecap
0 0 m
0 -3.5 l

gsave
0.000 setgray
fill
grestore
stroke
grestore
} bind def
177.408 19.008 o
grestore
gsave
174.540813 5.164250 translate
0.000000 rotate
0.000000 0.000000 m /nine glyphshow
grestore
gsave
201.881375 5.289250 translate
0.000000 rotate
0.000000 0.000000 m /y glyphshow
5.068848 0.000000 m /comma glyphshow
7.929688 0.000000 m /space glyphshow
10.790527 0.000000 m /uni043C glyphshow
17.791016 0.000000 m /uni043C glyphshow
grestore
gsave
/o {
gsave
newpath
translate
0.8 setlinewidth
1 setlinejoin
0 setlinecap
0 0 m
-3.5 0 l

gsave
0.000 setgray
fill
grestore
stroke
grestore
} bind def
29.952 19.008 o
grestore
gsave
17.217625 15.586125 translate
0.000000 rotate
0.000000 0.000000 m /zero glyphshow
grestore
gsave
/o {
gsave
newpath
translate
0.8 setlinewidth
1 setlinejoin
0 setlinecap
0 0 m
-3.5 0 l

gsave
0.000 setgray
fill
grestore
stroke
grestore
} bind def
29.952 54 o
grestore
gsave
5.748875 50.578125 translate
0.000000 rotate
0.000000 0.000000 m /two glyphshow
5.726074 0.000000 m /zero glyphshow
11.452148 0.000000 m /zero glyphshow
grestore
gsave
/o {
gsave
newpath
translate
0.8 setlinewidth
1 setlinejoin
0 setlinecap
0 0 m
-3.5 0 l

gsave
0.000 setgray
fill
grestore
stroke
grestore
} bind def
29.952 88.992 o
grestore
gsave
5.748875 85.570125 translate
0.000000 rotate
0.000000 0.000000 m /four glyphshow
5.726074 0.000000 m /zero glyphshow
11.452148 0.000000 m /zero glyphshow
grestore
gsave
/o {
gsave
newpath
translate
0.8 setlinewidth
1 setlinejoin
0 setlinecap
0 0 m
-3.5 0 l

gsave
0.000 setgray
fill
grestore
stroke
grestore
} bind def
29.952 123.984 o
grestore
gsave
5.748875 120.562125 translate
0.000000 rotate
0.000000 0.000000 m /six glyphshow
5.726074 0.000000 m /zero glyphshow
11.452148 0.000000 m /zero glyphshow
grestore
gsave
11.452000 160.976000 translate
0.000000 rotate
/DejaVuSerif findfont
9.0 scalefont
setfont
0.000000 0.273438 moveto
/T glyphshow

6.002930 0.273438 moveto
/comma glyphshow

8.863770 0.273438 moveto
/space glyphshow

/DejaVuSans findfont
6.3 scalefont
setfont
11.810742 3.718750 moveto
/uni2218 glyphshow

/DejaVuSerif findfont
9.0 scalefont
setfont
16.000488 0.273438 moveto
/C glyphshow


grestore
1.000 setlinewidth
1 setlinecap
gsave
184.3 140 29.95 19.01 clipbox
29.915136 40.423391 m
214.308864 40.425741 l
214.308864 40.425741 l
stroke
grestore
[5.6 2.4] 0 setdash
gsave
184.3 140 29.95 19.01 clipbox
29.915136 75.037351 m
30.357504 72.812157 l
31.42656 67.295173 l
32.090112 65.099043 l
32.790528 63.521982 l
33.527808 62.401211 l
34.265088 61.66983 l
35.002368 61.240944 l
35.739648 61.07182 l
36.440064 61.137671 l
37.14048 61.429573 l
37.840896 61.972979 l
38.504448 62.768888 l
39.168 63.927845 l
39.794688 65.504016 l
40.384512 67.645376 l
40.937472 70.522488 l
42.227712 77.893487 l
42.448896 78.065169 l
42.596352 77.889027 l
42.817536 77.216526 l
43.186176 75.250245 l
44.439552 67.903448 l
45.06624 65.782866 l
45.729792 64.304308 l
46.430208 63.267795 l
47.167488 62.551947 l
47.978496 62.072268 l
48.826368 61.829133 l
49.711104 61.804926 l
50.632704 62.00279 l
51.554304 62.426605 l
52.475904 63.101879 l
53.323776 63.999221 l
54.134784 65.194471 l
54.872064 66.684111 l
55.646208 68.784541 l
57.010176 72.631248 l
57.341952 72.974697 l
57.6 72.960026 l
57.858048 72.697768 l
58.226688 71.948956 l
58.89024 69.94423 l
59.99616 66.703805 l
60.807168 65.037482 l
61.618176 63.865162 l
62.466048 63.022894 l
63.31392 62.480727 l
64.198656 62.17903 l
65.083392 62.117731 l
65.968128 62.287094 l
66.816 62.673276 l
67.663872 63.305299 l
68.47488 64.191983 l
69.249024 65.38433 l
69.94944 66.878936 l
70.649856 68.926449 l
72.382464 74.441524 l
72.640512 74.543606 l
72.861696 74.365076 l
73.156608 73.765798 l
73.63584 72.138117 l
75.036672 67.036786 l
75.84768 65.075118 l
76.695552 63.596586 l
77.617152 62.432926 l
78.575616 61.573824 l
79.570944 60.979964 l
80.529408 60.659891 l
81.451008 60.578815 l
82.335744 60.724532 l
83.146752 61.081192 l
83.920896 61.670378 l
84.621312 62.483477 l
85.284864 63.60621 l
85.874688 65.042317 l
86.427648 66.987816 l
86.943744 69.662437 l
87.422976 73.34422 l
88.123392 80.901206 l
88.56576 84.586595 l
88.823808 85.363893 l
88.9344 85.329037 l
89.081856 84.938881 l
89.339904 83.384692 l
89.782272 78.93644 l
90.556416 71.358125 l
91.109376 68.073346 l
91.6992 65.844538 l
92.325888 64.313751 l
92.98944 63.255608 l
93.689856 62.53835 l
94.427136 62.085201 l
95.238144 61.841367 l
96.196608 61.796027 l
97.449984 61.979248 l
101.357568 62.688423 l
102.832128 63.000463 l
103.753728 63.423674 l
104.527872 64.025658 l
105.228288 64.857719 l
105.89184 66.01038 l
106.518528 67.570402 l
107.145216 69.757916 l
108.619776 75.363108 l
108.877824 75.57657 l
109.062144 75.488644 l
109.320192 75.039335 l
109.688832 73.843323 l
111.753216 66.025402 l
112.453632 64.646823 l
113.190912 63.664669 l
113.965056 62.993698 l
114.776064 62.580052 l
115.6608 62.385133 l
116.619264 62.407305 l
117.725184 62.664396 l
119.015424 63.205733 l
120.342528 64.007005 l
121.448448 64.923964 l
122.370048 65.972976 l
123.181056 67.239339 l
123.9552 68.868715 l
125.98272 73.496599 l
126.277632 73.599088 l
126.53568 73.457031 l
126.867456 72.959929 l
127.346688 71.733137 l
129.337344 66.014696 l
130.185216 64.470906 l
131.106816 63.242355 l
132.102144 62.278933 l
133.1712 61.543749 l
134.313984 61.019778 l
135.493632 60.723379 l
136.599552 60.672945 l
137.59488 60.844701 l
138.479616 61.213843 l
139.290624 61.78924 l
140.027904 62.586261 l
140.691456 63.630771 l
141.318144 65.058375 l
141.871104 66.892298 l
142.3872 69.408425 l
142.866432 72.870965 l
143.49312 79.316252 l
144.04608 84.094358 l
144.304128 84.922203 l
144.41472 84.932811 l
144.562176 84.622996 l
144.78336 83.503893 l
145.152 80.267166 l
146.221056 70.210729 l
146.774016 67.317779 l
147.36384 65.346485 l
147.990528 63.994597 l
148.65408 63.085327 l
149.317632 62.547768 l
149.981184 62.297606 l
150.644736 62.29306 l
151.308288 62.514667 l
152.008704 62.983931 l
152.819712 63.809718 l
155.031552 66.289816 l
155.437056 66.327549 l
155.84256 66.134719 l
156.358656 65.613797 l
157.538304 63.970198 l
158.533632 62.787532 l
159.381504 62.112823 l
160.155648 61.763605 l
160.929792 61.650941 l
161.703936 61.761945 l
162.47808 62.09338 l
163.289088 62.687111 l
164.100096 63.562901 l
164.911104 64.780793 l
165.685248 66.359289 l
166.459392 68.476944 l
167.491584 72.089737 l
168.228864 74.349241 l
168.671232 75.100172 l
169.003008 75.284511 l
169.29792 75.180674 l
169.629696 74.794704 l
170.108928 73.838817 l
170.9568 71.526103 l
172.24704 68.134413 l
173.242368 66.169892 l
174.27456 64.612142 l
175.38048 63.337916 l
176.4864 62.392 l
177.59232 61.732392 l
178.69824 61.33217 l
179.80416 61.16899 l
180.946944 61.227815 l
182.126592 61.512693 l
183.343104 62.040484 l
184.485888 62.782335 l
185.481216 63.698527 l
186.292224 64.742971 l
186.99264 66.010261 l
187.619328 67.637654 l
188.172288 69.731898 l
188.725248 72.800465 l
190.015488 80.774878 l
190.236672 80.993043 l
190.384128 80.821714 l
190.605312 80.097988 l
190.973952 77.852863 l
192.33792 68.457923 l
193.001472 65.848558 l
193.701888 63.948959 l
194.476032 62.474714 l
195.28704 61.397038 l
196.098048 60.670564 l
196.909056 60.233385 l
197.6832 60.063081 l
198.42048 60.1256 l
199.120896 60.404945 l
199.821312 60.934401 l
200.484864 61.7264 l
201.111552 62.827105 l
201.701376 64.318012 l
202.254336 66.327957 l
202.807296 69.266089 l
203.39712 73.807899 l
204.097536 79.005199 l
204.355584 79.615229 l
204.466176 79.562356 l
204.650496 79.06027 l
204.945408 77.339357 l
206.493696 66.59012 l
207.08352 64.670735 l
207.673344 63.463908 l
208.263168 62.723692 l
208.852992 62.322571 l
209.405952 62.197746 l
209.958912 62.293576 l
210.511872 62.609287 l
211.101696 63.208877 l
211.69152 64.126609 l
212.318208 65.537674 l
212.98176 67.636646 l
214.272 72.025095 l
214.308864 72.076761 l
214.308864 72.076761 l
stroke
grestore
[2.2 2.2] 0 setdash
gsave
184.3 140 29.95 19.01 clipbox
29.915136 95.917953 m
31.463424 74.300454 l
32.090112 69.560177 l
32.7168 66.466219 l
33.343488 64.477421 l
33.970176 63.215222 l
34.596864 62.441148 l
35.223552 62.018295 l
35.813376 61.879182 l
36.4032 61.972412 l
36.95616 62.283921 l
37.50912 62.85544 l
38.06208 63.770088 l
38.578176 65.057838 l
39.094272 66.950144 l
39.610368 69.716266 l
40.126464 73.733251 l
40.64256 79.499293 l
41.19552 88.295565 l
42.190848 104.993087 l
42.448896 106.154459 l
42.522624 106.118257 l
42.67008 105.551911 l
42.891264 103.52831 l
43.259904 97.652102 l
44.402688 77.946377 l
44.992512 72.064326 l
45.582336 68.293852 l
46.17216 65.904137 l
46.761984 64.392102 l
47.388672 63.389008 l
48.01536 62.78148 l
48.715776 62.410749 l
49.453056 62.271178 l
50.2272 62.345779 l
51.038208 62.649349 l
51.812352 63.173304 l
52.549632 63.939583 l
53.250048 65.002086 l
53.9136 66.440364 l
54.577152 68.465579 l
55.277568 71.398028 l
57.23136 80.281433 l
57.489408 80.490498 l
57.673728 80.385878 l
57.931776 79.893473 l
58.300416 78.585834 l
58.963968 75.17294 l
60.106752 69.432505 l
60.844032 66.881175 l
61.544448 65.22741 l
62.244864 64.113574 l
62.982144 63.347181 l
63.756288 62.865015 l
64.530432 62.641035 l
65.304576 62.642608 l
66.07872 62.866607 l
66.816 63.310613 l
67.516416 63.993683 l
68.179968 64.961506 l
68.806656 66.280269 l
69.433344 68.140523 l
70.096896 70.841619 l
71.092224 76.016337 l
71.829504 79.345127 l
72.235008 80.279015 l
72.493056 80.40959 l
72.71424 80.221666 l
73.009152 79.567226 l
73.45152 77.885765 l
74.37312 73.163135 l
75.331584 68.741016 l
76.105728 66.175869 l
76.843008 64.452072 l
77.617152 63.178844 l
78.42816 62.250585 l
79.276032 61.598111 l
80.160768 61.19196 l
81.00864 61.041759 l
81.782784 61.118559 l
82.520064 61.419126 l
83.183616 61.944505 l
83.77344 62.706809 l
84.3264 63.803737 l
84.842496 65.336228 l
85.358592 67.614831 l
85.874688 71.01281 l
86.390784 76.059726 l
86.90688 83.452444 l
87.45984 94.85816 l
88.418304 115.460466 l
88.713216 118.012501 l
88.860672 118.337192 l
88.897536 118.317369 l
89.008128 118.016092 l
89.192448 116.720145 l
89.48736 112.710486 l
89.966592 102.339792 l
90.851328 83.051306 l
91.441152 75.146505 l
92.030976 70.093692 l
92.6208 66.920724 l
93.210624 64.946646 l
93.800448 63.722792 l
94.427136 62.93172 l
95.090688 62.448535 l
95.864832 62.168165 l
96.823296 62.072824 l
98.187264 62.184394 l
100.767744 62.657407 l
102.20544 63.105054 l
103.12704 63.623123 l
103.86432 64.299194 l
104.491008 65.176228 l
105.080832 66.391476 l
105.670656 68.161947 l
106.26048 70.712645 l
106.887168 74.542713 l
107.587584 80.33861 l
108.619776 89.057533 l
108.877824 89.860502 l
109.02528 89.8708 l
109.172736 89.545949 l
109.430784 88.24136 l
109.873152 84.495585 l
111.126528 73.367424 l
111.79008 69.496102 l
112.416768 67.016365 l
113.043456 65.3632 l
113.707008 64.224891 l
114.37056 63.505939 l
115.10784 63.036135 l
115.881984 62.801324 l
116.76672 62.766974 l
117.762048 62.956458 l
118.831104 63.387428 l
119.863296 64.035884 l
120.784896 64.876372 l
121.55904 65.884762 l
122.259456 67.179283 l
122.923008 68.904173 l
123.623424 71.402495 l
124.69248 76.253781 l
125.392896 78.973519 l
125.7984 79.809423 l
126.056448 79.951644 l
126.277632 79.817712 l
126.572544 79.286754 l
126.978048 77.997529 l
127.678464 74.86124 l
128.968704 69.153197 l
129.742848 66.714401 l
130.516992 64.96915 l
131.328 63.668711 l
132.212736 62.662427 l
133.1712 61.90205 l
134.203392 61.362817 l
135.272448 61.056828 l
136.267776 60.996619 l
137.189376 61.163171 l
137.96352 61.521025 l
138.663936 62.095384 l
139.25376 62.862035 l
139.80672 63.947495 l
140.322816 65.454343 l
140.838912 67.688168 l
141.355008 71.008982 l
141.871104 75.913163 l
142.3872 83.032333 l
142.94016 93.924527 l
143.935488 114.742534 l
144.2304 117.121182 l
144.377856 117.352325 l
144.488448 117.098365 l
144.672768 115.873492 l
144.96768 111.966881 l
145.446912 101.833459 l
146.331648 83.171067 l
146.921472 75.361137 l
147.511296 70.306985 l
148.064256 67.28911 l
148.617216 65.385057 l
149.170176 64.221929 l
149.723136 63.555092 l
150.276096 63.230444 l
150.86592 63.153511 l
151.529472 63.307447 l
152.377344 63.750017 l
154.626048 65.045961 l
155.326464 65.133058 l
155.990016 64.995789 l
156.76416 64.594274 l
158.017536 63.637987 l
159.381504 62.682193 l
160.26624 62.327237 l
161.040384 62.24801 l
161.777664 62.393598 l
162.514944 62.773862 l
163.252224 63.421872 l
163.95264 64.342888 l
164.616192 65.580632 l
165.279744 67.319637 l
165.906432 69.6249 l
166.53312 72.840945 l
167.159808 77.256172 l
167.897088 84.181083 l
168.855552 93.224691 l
169.1136 94.010622 l
169.224192 93.978479 l
169.371648 93.587706 l
169.629696 92.042414 l
170.108928 87.332887 l
171.104256 77.623823 l
171.804672 72.933806 l
172.468224 69.867488 l
173.16864 67.627155 l
173.942784 65.896522 l
174.790656 64.539183 l
175.74912 63.420716 l
176.781312 62.552879 l
177.850368 61.93988 l
178.919424 61.575614 l
180.025344 61.434368 l
181.131264 61.516839 l
182.237184 61.82151 l
183.269376 62.332223 l
184.154112 63.006981 l
184.891392 63.835153 l
185.554944 64.930754 l
186.144768 66.371904 l
186.697728 68.369573 l
187.213824 71.101447 l
187.72992 75.061599 l
188.28288 81.229803 l
188.83584 90.087831 l
189.831168 106.991668 l
190.089216 108.358701 l
190.162944 108.396421 l
190.199808 108.355334 l
190.347264 107.794797 l
190.568448 105.820971 l
190.937088 100.089216 l
192.190464 78.628771 l
192.817152 72.336574 l
193.44384 68.181194 l
194.070528 65.452232 l
194.697216 63.646429 l
195.360768 62.380834 l
196.061184 61.521357 l
196.7616 61.011691 l
197.425152 60.792645 l
198.05184 60.810043 l
198.641664 61.042956 l
199.231488 61.53068 l
199.784448 62.291907 l
200.337408 63.460649 l
200.890368 65.206413 l
201.443328 67.767913 l
201.996288 71.448329 l
202.586112 76.976942 l
203.249664 85.529379 l
204.171264 97.79432 l
204.429312 98.970714 l
204.539904 98.968905 l
204.68736 98.485411 l
204.908544 96.800009 l
205.314048 91.499047 l
206.419968 76.13009 l
207.046656 70.69573 l
207.63648 67.381564 l
208.18944 65.442273 l
208.705536 64.369698 l
209.184768 63.846535 l
209.627136 63.681082 l
210.03264 63.755246 l
210.511872 64.091045 l
211.064832 64.784296 l
211.765248 66.07316 l
214.050816 70.697902 l
214.308864 70.87647 l
214.308864 70.87647 l
stroke
grestore
0.800 setlinewidth
0 setlinejoin
2 setlinecap
[] 0 setdash
gsave
29.952 19.008 m
29.952 158.976 l
stroke
grestore
gsave
214.272 19.008 m
214.272 158.976 l
stroke
grestore
gsave
29.952 19.008 m
214.272 19.008 l
stroke
grestore
gsave
29.952 158.976 m
214.272 158.976 l
stroke
grestore
1.000 setlinewidth
1 setlinejoin
1 setlinecap
[] 0 setdash
gsave
135.672 148.497875 m
159.672 148.497875 l
stroke
grestore
gsave
166.072000 145.697875 translate
0.000000 rotate
/DejaVuSans-Oblique findfont
8.0 scalefont
setfont
0.000000 0.062500 moveto
/epsilon glyphshow

/DejaVuSans findfont
5.6 scalefont
setfont
4.324219 -1.250000 moveto
/uni043D glyphshow

7.985547 -1.250000 moveto
/uni043E glyphshow

11.411719 -1.250000 moveto
/uni043C glyphshow

/DejaVuSerif findfont
8.0 scalefont
setfont
15.855078 0.062500 moveto
/space glyphshow

18.398047 0.062500 moveto
/equal glyphshow

25.101172 0.062500 moveto
/space glyphshow

27.644141 0.062500 moveto
/two glyphshow

32.733984 0.062500 moveto
/period glyphshow

35.276953 0.062500 moveto
/zero glyphshow


grestore
[5.6 2.4] 0 setdash
gsave
135.672 136.41975 m
159.672 136.41975 l
stroke
grestore
gsave
166.072000 133.619750 translate
0.000000 rotate
/DejaVuSans-Oblique findfont
8.0 scalefont
setfont
0.000000 0.062500 moveto
/epsilon glyphshow

/DejaVuSans findfont
5.6 scalefont
setfont
4.324219 -1.250000 moveto
/uni043D glyphshow

7.985547 -1.250000 moveto
/uni043E glyphshow

11.411719 -1.250000 moveto
/uni043C glyphshow

/DejaVuSerif findfont
8.0 scalefont
setfont
15.855078 0.062500 moveto
/space glyphshow

18.398047 0.062500 moveto
/equal glyphshow

25.101172 0.062500 moveto
/space glyphshow

27.644141 0.062500 moveto
/five glyphshow

32.733984 0.062500 moveto
/period glyphshow

35.276953 0.062500 moveto
/zero glyphshow


grestore
[2.2 2.2] 0 setdash
gsave
135.672 124.341625 m
159.672 124.341625 l
stroke
grestore
gsave
166.072000 121.541625 translate
0.000000 rotate
/DejaVuSans-Oblique findfont
8.0 scalefont
setfont
0.000000 0.062500 moveto
/epsilon glyphshow

/DejaVuSans findfont
5.6 scalefont
setfont
4.324219 -1.250000 moveto
/uni043D glyphshow

7.985547 -1.250000 moveto
/uni043E glyphshow

11.411719 -1.250000 moveto
/uni043C glyphshow

/DejaVuSerif findfont
8.0 scalefont
setfont
15.855078 0.062500 moveto
/space glyphshow

18.398047 0.062500 moveto
/equal glyphshow

25.101172 0.062500 moveto
/space glyphshow

27.644141 0.062500 moveto
/six glyphshow

32.733984 0.062500 moveto
/period glyphshow

35.276953 0.062500 moveto
/zero glyphshow


grestore

end
showpage
