%!PS-Adobe-3.0 EPSF-3.0
%%Title: full.eps
%%Creator: matplotlib version 2.0.0, http://matplotlib.org/
%%CreationDate: Sun Mar 25 12:09:57 2018
%%Orientation: portrait
%%BoundingBox: 190 309 421 482
%%EndComments
%%BeginProlog
/mpldict 10 dict def
mpldict begin
/m { moveto } bind def
/l { lineto } bind def
/r { rlineto } bind def
/c { curveto } bind def
/cl { closepath } bind def
/box {
m
1 index 0 r
0 exch r
neg 0 r
cl
} bind def
/clipbox {
box
clip
newpath
} bind def
%!PS-Adobe-3.0 Resource-Font
%%Title: DejaVu Serif
%%Copyright: Copyright (c) 2003 by Bitstream, Inc. All Rights Reserved. DejaVu changes are in public domain 
%%Creator: Converted from TrueType to type 3 by PPR
25 dict begin
/_d{bind def}bind def
/_m{moveto}_d
/_l{lineto}_d
/_cl{closepath eofill}_d
/_c{curveto}_d
/_sc{7 -1 roll{setcachedevice}{pop pop pop pop pop pop}ifelse}_d
/_e{exec}_d
/FontName /DejaVuSerif def
/PaintType 0 def
/FontMatrix[.001 0 0 .001 0 0]def
/FontBBox[-770 -347 2105 1109]def
/FontType 3 def
/Encoding [ /space /comma /period /zero /one /two /three /four /five /six /y /uni043C ] def
/FontInfo 10 dict dup begin
/FamilyName (DejaVu Serif) def
/FullName (DejaVu Serif) def
/Notice (Copyright (c) 2003 by Bitstream, Inc. All Rights Reserved. DejaVu changes are in public domain ) def
/Weight (Book) def
/Version (Version 2.35) def
/ItalicAngle 0.0 def
/isFixedPitch false def
/UnderlinePosition -130 def
/UnderlineThickness 90 def
end readonly def
/CharStrings 12 dict dup begin
/space{318 0 0 0 0 0 _sc
}_d
/comma{318 0 36 -135 221 111 _sc
36 -96 _m
66 -73 89 -47 103 -17 _c
117 13 125 49 125 93 _c
125 111 _l
221 111 _l
218 55 205 7 181 -32 _c
157 -71 122 -105 75 -135 _c
36 -96 _l
_cl}_d
/period{318 0 94 -13 224 116 _sc
94 51 _m
94 69 100 84 112 97 _c
124 109 140 116 159 116 _c
177 116 192 109 205 97 _c
217 84 224 69 224 51 _c
224 33 217 17 205 5 _c
192 -7 177 -13 159 -13 _c
140 -13 124 -7 112 5 _c
100 17 94 32 94 51 _c
_cl}_d
/zero{636 0 66 -13 570 742 _sc
318 34 _m
368 34 405 61 430 116 _c
454 170 467 253 467 364 _c
467 474 454 557 430 612 _c
405 666 368 694 318 694 _c
268 694 230 666 206 612 _c
181 557 169 474 169 364 _c
169 253 181 170 206 116 _c
230 61 268 34 318 34 _c
318 -13 _m
238 -13 176 20 132 86 _c
88 152 66 244 66 364 _c
66 483 88 576 132 642 _c
176 708 238 742 318 742 _c
397 742 459 708 503 642 _c
547 576 570 483 570 364 _c
570 244 547 152 503 86 _c
459 20 397 -13 318 -13 _c
_cl}_d
/one{636 0 122 0 494 742 _sc
142 0 _m
142 52 _l
269 52 _l
269 658 _l
122 563 _l
122 627 _l
300 742 _l
367 742 _l
367 52 _l
494 52 _l
494 0 _l
142 0 _l
_cl}_d
/two{{636 0 68 0 538 742 _sc
128 555 _m
73 555 _l
73 685 _l
107 703 142 717 178 727 _c
213 737 248 742 282 742 _c
358 742 418 723 462 687 _c
506 650 528 600 528 537 _c
528 465 478 380 378 281 _c
370 273 365 268 361 264 _c
177 80 _l
481 80 _l
481 170 _l
538 170 _l
538 0 _l
68 0 _l
68 53 _l
289 274 _l
337 322 372 367 393 408 _c
414 449 425 492 425 537 _c
}_e{425 586 412 624 386 652 _c
360 680 325 694 281 694 _c
234 694 198 682 173 659 _c
147 636 132 601 128 555 _c
_cl}_e}_d
/three{{636 0 76 -13 562 742 _sc
97 698 _m
135 712 171 723 206 731 _c
241 738 274 742 305 742 _c
376 742 432 726 472 696 _c
512 665 532 622 532 568 _c
532 524 518 487 490 458 _c
462 428 423 408 373 398 _c
433 389 479 367 512 332 _c
545 297 562 252 562 197 _c
562 129 539 77 493 41 _c
447 5 382 -13 296 -13 _c
258 -13 220 -9 184 -1 _c
148 6 112 18 76 35 _c
76 177 _l
}_e{131 177 _l
134 129 150 94 178 70 _c
206 46 246 34 298 34 _c
348 34 387 48 416 77 _c
444 106 459 146 459 196 _c
459 253 444 296 414 326 _c
384 355 341 370 284 370 _c
238 370 _l
238 420 _l
262 420 _l
319 420 362 431 390 455 _c
418 479 433 514 433 562 _c
433 604 421 637 398 660 _c
374 682 341 694 297 694 _c
253 694 218 683 194 662 _c
170 641 156 610 152 570 _c
}_e{97 570 _l
97 698 _l
_cl}_e}_d
/four{636 0 31 0 586 742 _sc
349 247 _m
349 635 _l
100 247 _l
349 247 _l
564 0 _m
232 0 _l
232 52 _l
349 52 _l
349 195 _l
31 195 _l
31 248 _l
350 742 _l
447 742 _l
447 247 _l
586 247 _l
586 195 _l
447 195 _l
447 52 _l
564 52 _l
564 0 _l
_cl}_d
/five{{636 0 85 -13 559 729 _sc
503 729 _m
503 649 _l
169 649 _l
169 440 _l
185 452 205 460 228 466 _c
250 472 276 475 304 475 _c
382 475 444 453 490 409 _c
536 365 559 306 559 231 _c
559 153 536 93 490 51 _c
444 8 379 -13 296 -13 _c
262 -13 228 -9 193 -1 _c
157 6 121 18 85 35 _c
85 177 _l
140 177 _l
143 130 158 94 184 70 _c
210 46 248 34 296 34 _c
}_e{347 34 386 51 414 85 _c
442 119 456 167 456 231 _c
456 294 442 342 415 376 _c
387 410 348 427 296 427 _c
266 427 240 421 218 411 _c
196 401 176 385 159 363 _c
117 363 _l
117 729 _l
503 729 _l
_cl}_e}_d
/six{{636 0 67 -13 573 742 _sc
327 34 _m
373 34 408 50 433 84 _c
457 118 470 166 470 230 _c
470 293 457 341 433 375 _c
408 409 373 426 327 426 _c
280 426 244 409 220 377 _c
196 344 184 297 184 236 _c
184 171 196 121 221 86 _c
245 51 281 34 327 34 _c
168 401 _m
190 425 215 444 243 456 _c
271 468 302 474 338 474 _c
410 474 468 452 510 408 _c
552 364 573 305 573 230 _c
}_e{573 156 550 97 505 53 _c
459 9 399 -13 323 -13 _c
241 -13 177 17 133 78 _c
89 139 67 227 67 341 _c
67 468 93 567 145 637 _c
197 707 271 742 367 742 _c
393 742 420 739 448 735 _c
476 730 505 723 535 713 _c
535 593 _l
480 593 _l
476 625 463 650 442 668 _c
421 685 393 694 357 694 _c
293 694 246 670 215 622 _c
184 574 168 500 168 401 _c
_cl}_e}_d
/y{{565 0 -2 -221 562 519 _sc
216 -94 _m
250 -8 _l
56 467 _l
-2 467 _l
-2 519 _l
236 519 _l
236 467 _l
153 467 _l
299 110 _l
445 467 _l
367 467 _l
367 519 _l
562 519 _l
562 467 _l
504 467 _l
266 -116 _l
250 -156 232 -184 212 -199 _c
192 -213 164 -221 128 -221 _c
112 -221 97 -219 81 -217 _c
65 -214 48 -210 32 -206 _c
32 -107 _l
78 -107 _l
80 -129 85 -144 95 -154 _c
}_e{104 -164 118 -169 138 -169 _c
156 -169 170 -164 181 -154 _c
192 -144 204 -124 216 -94 _c
_cl}_e}_d
/uni043C{778 0 36 0 742 519 _sc
36 0 _m
36 52 _l
117 52 _l
117 467 _l
36 467 _l
36 519 _l
247 519 _l
393 162 _l
539 519 _l
742 519 _l
742 467 _l
661 467 _l
661 52 _l
742 52 _l
742 0 _l
490 0 _l
490 52 _l
571 52 _l
571 453 _l
407 52 _l
341 52 _l
177 453 _l
177 52 _l
258 52 _l
258 0 _l
36 0 _l
_cl}_d
end readonly def

/BuildGlyph
 {exch begin
 CharStrings exch
 2 copy known not{pop /.notdef}if
 true 3 1 roll get exec
 end}_d

/BuildChar {
 1 index /Encoding get exch get
 1 index /BuildGlyph get exec
}_d

FontName currentdict end definefont pop
%!PS-Adobe-3.0 Resource-Font
%%Title: DejaVu Sans Oblique
%%Copyright: Copyright (c) 2003 by Bitstream, Inc. All Rights Reserved. Copyright (c) 2006 by Tavmjong Bah. All Rights Reserved. DejaVu changes are in public domain 
%%Creator: Converted from TrueType to type 3 by PPR
25 dict begin
/_d{bind def}bind def
/_m{moveto}_d
/_l{lineto}_d
/_cl{closepath eofill}_d
/_c{curveto}_d
/_sc{7 -1 roll{setcachedevice}{pop pop pop pop pop pop}ifelse}_d
/_e{exec}_d
/FontName /DejaVuSans-Oblique def
/PaintType 0 def
/FontMatrix[.001 0 0 .001 0 0]def
/FontBBox[-1016 -350 1659 1068]def
/FontType 3 def
/Encoding [ /epsilon ] def
/FontInfo 10 dict dup begin
/FamilyName (DejaVu Sans) def
/FullName (DejaVu Sans Oblique) def
/Notice (Copyright (c) 2003 by Bitstream, Inc. All Rights Reserved. Copyright (c) 2006 by Tavmjong Bah. All Rights Reserved. DejaVu changes are in public domain ) def
/Weight (Oblique) def
/Version (Version 2.35) def
/ItalicAngle -11.0 def
/isFixedPitch false def
/UnderlinePosition -130 def
/UnderlineThickness 90 def
end readonly def
/CharStrings 1 dict dup begin
/epsilon{{541 0 39 -13 506 561 _sc
197 295 _m
162 303 137 317 122 338 _c
110 353 104 371 104 391 _c
104 446 130 490 184 522 _c
225 548 278 561 342 561 _c
366 561 392 559 419 555 _c
446 551 475 545 505 537 _c
490 456 _l
460 465 432 472 407 476 _c
381 480 357 482 334 482 _c
295 482 263 474 238 460 _c
207 442 192 420 192 394 _c
192 376 200 362 216 350 _c
234 336 263 329 301 329 _c
}_e{376 329 _l
362 254 _l
290 254 _l
245 254 209 245 183 229 _c
147 207 129 178 129 143 _c
129 121 138 102 158 88 _c
182 70 218 61 268 61 _c
298 61 327 63 357 69 _c
385 75 412 85 438 97 _c
422 13 _l
390 4 361 -2 333 -6 _c
305 -10 277 -13 251 -13 _c
173 -13 117 1 81 30 _c
53 52 39 83 39 122 _c
39 174 57 216 94 248 _c
120 271 155 287 197 295 _c
_cl}_e}_d
end readonly def

/BuildGlyph
 {exch begin
 CharStrings exch
 2 copy known not{pop /.notdef}if
 true 3 1 roll get exec
 end}_d

/BuildChar {
 1 index /Encoding get exch get
 1 index /BuildGlyph get exec
}_d

FontName currentdict end definefont pop
%!PS-Adobe-3.0 Resource-Font
%%Title: DejaVu Sans
%%Copyright: Copyright (c) 2003 by Bitstream, Inc. All Rights Reserved. Copyright (c) 2006 by Tavmjong Bah. All Rights Reserved. DejaVu changes are in public domain 
%%Creator: Converted from TrueType to type 3 by PPR
25 dict begin
/_d{bind def}bind def
/_m{moveto}_d
/_l{lineto}_d
/_cl{closepath eofill}_d
/_c{curveto}_d
/_sc{7 -1 roll{setcachedevice}{pop pop pop pop pop pop}ifelse}_d
/_e{exec}_d
/FontName /DejaVuSans def
/PaintType 0 def
/FontMatrix[.001 0 0 .001 0 0]def
/FontBBox[-1021 -463 1793 1232]def
/FontType 3 def
/Encoding [ /m /n /o ] def
/FontInfo 10 dict dup begin
/FamilyName (DejaVu Sans) def
/FullName (DejaVu Sans) def
/Notice (Copyright (c) 2003 by Bitstream, Inc. All Rights Reserved. Copyright (c) 2006 by Tavmjong Bah. All Rights Reserved. DejaVu changes are in public domain ) def
/Weight (Book) def
/Version (Version 2.35) def
/ItalicAngle 0.0 def
/isFixedPitch false def
/UnderlinePosition -130 def
/UnderlineThickness 90 def
end readonly def
/CharStrings 3 dict dup begin
/m{{974 0 91 0 889 560 _sc
520 442 _m
542 482 569 511 600 531 _c
631 550 668 560 711 560 _c
767 560 811 540 842 500 _c
873 460 889 403 889 330 _c
889 0 _l
799 0 _l
799 327 _l
799 379 789 418 771 444 _c
752 469 724 482 686 482 _c
639 482 602 466 575 435 _c
548 404 535 362 535 309 _c
535 0 _l
445 0 _l
445 327 _l
445 379 435 418 417 444 _c
398 469 369 482 331 482 _c
}_e{285 482 248 466 221 435 _c
194 404 181 362 181 309 _c
181 0 _l
91 0 _l
91 547 _l
181 547 _l
181 462 _l
201 495 226 520 255 536 _c
283 552 317 560 357 560 _c
397 560 430 550 458 530 _c
486 510 506 480 520 442 _c
_cl}_e}_d
/n{634 0 91 0 549 560 _sc
549 330 _m
549 0 _l
459 0 _l
459 327 _l
459 379 448 417 428 443 _c
408 469 378 482 338 482 _c
289 482 251 466 223 435 _c
195 404 181 362 181 309 _c
181 0 _l
91 0 _l
91 547 _l
181 547 _l
181 462 _l
202 494 227 519 257 535 _c
286 551 320 560 358 560 _c
420 560 468 540 500 501 _c
532 462 549 405 549 330 _c
_cl}_d
/o{612 0 55 -13 557 560 _sc
306 484 _m
258 484 220 465 192 427 _c
164 389 150 338 150 273 _c
150 207 163 156 191 118 _c
219 80 257 62 306 62 _c
354 62 392 80 420 118 _c
448 156 462 207 462 273 _c
462 337 448 389 420 427 _c
392 465 354 484 306 484 _c
306 560 _m
384 560 445 534 490 484 _c
534 433 557 363 557 273 _c
557 183 534 113 490 63 _c
445 12 384 -13 306 -13 _c
227 -13 165 12 121 63 _c
77 113 55 183 55 273 _c
55 363 77 433 121 484 _c
165 534 227 560 306 560 _c
_cl}_d
end readonly def

/BuildGlyph
 {exch begin
 CharStrings exch
 2 copy known not{pop /.notdef}if
 true 3 1 roll get exec
 end}_d

/BuildChar {
 1 index /Encoding get exch get
 1 index /BuildGlyph get exec
}_d

FontName currentdict end definefont pop
end
%%EndProlog
mpldict begin
190.8 309.6 translate
230.4 172.8 0 0 clipbox
gsave
0 0 m
230.4 0 l
230.4 172.8 l
0 172.8 l
cl
1.000 setgray
fill
grestore
gsave
29.952 19.008 m
214.272 19.008 l
214.272 158.976 l
29.952 158.976 l
cl
1.000 setgray
fill
grestore
0.800 setlinewidth
1 setlinejoin
0 setlinecap
[] 0 setdash
0.000 setgray
gsave
/o {
gsave
newpath
translate
0.8 setlinewidth
1 setlinejoin
0 setlinecap
0 0 m
0 -3.5 l

gsave
0.000 setgray
fill
grestore
stroke
grestore
} bind def
29.952 19.008 o
grestore
/DejaVuSerif findfont
9.000 scalefont
setfont
gsave
27.084813 5.164250 translate
0.000000 rotate
0.000000 0.000000 m /zero glyphshow
grestore
gsave
/o {
gsave
newpath
translate
0.8 setlinewidth
1 setlinejoin
0 setlinecap
0 0 m
0 -3.5 l

gsave
0.000 setgray
fill
grestore
stroke
grestore
} bind def
83.0702 19.008 o
grestore
gsave
80.202968 5.164250 translate
0.000000 rotate
0.000000 0.000000 m /two glyphshow
grestore
gsave
/o {
gsave
newpath
translate
0.8 setlinewidth
1 setlinejoin
0 setlinecap
0 0 m
0 -3.5 l

gsave
0.000 setgray
fill
grestore
stroke
grestore
} bind def
136.188 19.008 o
grestore
gsave
133.321124 5.164250 translate
0.000000 rotate
0.000000 0.000000 m /four glyphshow
grestore
gsave
/o {
gsave
newpath
translate
0.8 setlinewidth
1 setlinejoin
0 setlinecap
0 0 m
0 -3.5 l

gsave
0.000 setgray
fill
grestore
stroke
grestore
} bind def
189.306 19.008 o
grestore
gsave
186.439279 5.164250 translate
0.000000 rotate
0.000000 0.000000 m /six glyphshow
grestore
gsave
201.881375 5.289250 translate
0.000000 rotate
0.000000 0.000000 m /y glyphshow
5.068848 0.000000 m /comma glyphshow
7.929688 0.000000 m /space glyphshow
10.790527 0.000000 m /uni043C glyphshow
17.791016 0.000000 m /uni043C glyphshow
grestore
gsave
/o {
gsave
newpath
translate
0.8 setlinewidth
1 setlinejoin
0 setlinecap
0 0 m
-3.5 0 l

gsave
0.000 setgray
fill
grestore
stroke
grestore
} bind def
29.952 19.008 o
grestore
gsave
2.889500 15.586125 translate
0.000000 rotate
0.000000 0.000000 m /zero glyphshow
5.726074 0.000000 m /period glyphshow
8.586914 0.000000 m /zero glyphshow
14.312988 0.000000 m /zero glyphshow
grestore
gsave
/o {
gsave
newpath
translate
0.8 setlinewidth
1 setlinejoin
0 setlinecap
0 0 m
-3.5 0 l

gsave
0.000 setgray
fill
grestore
stroke
grestore
} bind def
29.952 39.0034 o
grestore
gsave
2.889500 35.581554 translate
0.000000 rotate
0.000000 0.000000 m /zero glyphshow
5.726074 0.000000 m /period glyphshow
8.586914 0.000000 m /zero glyphshow
14.312988 0.000000 m /five glyphshow
grestore
gsave
/o {
gsave
newpath
translate
0.8 setlinewidth
1 setlinejoin
0 setlinecap
0 0 m
-3.5 0 l

gsave
0.000 setgray
fill
grestore
stroke
grestore
} bind def
29.952 58.9989 o
grestore
gsave
2.889500 55.576982 translate
0.000000 rotate
0.000000 0.000000 m /zero glyphshow
5.726074 0.000000 m /period glyphshow
8.586914 0.000000 m /one glyphshow
14.312988 0.000000 m /zero glyphshow
grestore
gsave
/o {
gsave
newpath
translate
0.8 setlinewidth
1 setlinejoin
0 setlinecap
0 0 m
-3.5 0 l

gsave
0.000 setgray
fill
grestore
stroke
grestore
} bind def
29.952 78.9943 o
grestore
gsave
2.889500 75.572411 translate
0.000000 rotate
0.000000 0.000000 m /zero glyphshow
5.726074 0.000000 m /period glyphshow
8.586914 0.000000 m /one glyphshow
14.312988 0.000000 m /five glyphshow
grestore
gsave
/o {
gsave
newpath
translate
0.8 setlinewidth
1 setlinejoin
0 setlinecap
0 0 m
-3.5 0 l

gsave
0.000 setgray
fill
grestore
stroke
grestore
} bind def
29.952 98.9897 o
grestore
gsave
2.889500 95.567839 translate
0.000000 rotate
0.000000 0.000000 m /zero glyphshow
5.726074 0.000000 m /period glyphshow
8.586914 0.000000 m /two glyphshow
14.312988 0.000000 m /zero glyphshow
grestore
gsave
/o {
gsave
newpath
translate
0.8 setlinewidth
1 setlinejoin
0 setlinecap
0 0 m
-3.5 0 l

gsave
0.000 setgray
fill
grestore
stroke
grestore
} bind def
29.952 118.985 o
grestore
gsave
2.889500 115.563268 translate
0.000000 rotate
0.000000 0.000000 m /zero glyphshow
5.726074 0.000000 m /period glyphshow
8.586914 0.000000 m /two glyphshow
14.312988 0.000000 m /five glyphshow
grestore
gsave
/o {
gsave
newpath
translate
0.8 setlinewidth
1 setlinejoin
0 setlinecap
0 0 m
-3.5 0 l

gsave
0.000 setgray
fill
grestore
stroke
grestore
} bind def
29.952 138.981 o
grestore
gsave
2.889500 135.558696 translate
0.000000 rotate
0.000000 0.000000 m /zero glyphshow
5.726074 0.000000 m /period glyphshow
8.586914 0.000000 m /three glyphshow
14.312988 0.000000 m /zero glyphshow
grestore
gsave
12.952000 160.976000 translate
0.000000 rotate
/DejaVuSans-Oblique findfont
9.0 scalefont
setfont
0.000000 0.953125 moveto
/epsilon glyphshow

/DejaVuSans findfont
6.3 scalefont
setfont
4.864746 -0.523438 moveto
/n glyphshow

8.857617 -0.523438 moveto
/o glyphshow

12.712061 -0.523438 moveto
/m glyphshow


grestore
1.000 setlinewidth
1 setlinecap
gsave
184.3 140 29.95 19.01 clipbox
29.952 19.008 m
29.952 158.906037 l
29.952 158.906037 l
stroke
grestore
gsave
184.3 140 29.95 19.01 clipbox
36.096 19.008 m
36.196868 25.166934 l
36.589149 26.636675 l
37.531286 29.99582 l
37.944506 32.445147 l
38.246283 35.664249 l
38.506639 41.193069 l
39.812751 80.943967 l
40.325191 100.119509 l
40.367181 109.567404 l
40.185614 115.795903 l
39.848019 120.204936 l
39.390601 123.424183 l
38.835413 125.803625 l
38.592084 126.993346 l
38.798787 127.693179 l
39.202336 128.952908 l
39.090842 129.232832 l
38.62848 129.582748 l
37.39074 130.07265 l
36.741766 130.492513 l
36.475787 130.912422 l
36.521461 131.1224 l
37.202285 131.822234 l
36.875457 132.242143 l
36.58514 132.732045 l
36.58064 133.011969 l
36.838753 133.851788 l
36.567739 134.761552 l
36.656425 135.741357 l
36.541784 136.651121 l
36.508872 137.700871 l
36.398885 140.500251 l
36.353225 157.296392 l
36.353234 158.906037 l
36.353234 158.906037 l
stroke
grestore
gsave
184.3 140 29.95 19.01 clipbox
42.24 19.008 m
42.342977 24.747051 l
42.718539 25.656576 l
43.694309 27.266418 l
44.837223 29.295808 l
45.550379 31.045443 l
46.093708 33.005162 l
46.524354 35.454559 l
46.901499 39.023475 l
47.42016 46.58175 l
50.724302 100.889318 l
50.811941 107.60777 l
50.664172 112.6466 l
50.332753 116.565703 l
49.856666 119.645074 l
49.26427 122.094487 l
48.549105 124.123985 l
47.754462 125.733639 l
47.209664 126.853361 l
47.357413 127.27327 l
47.946152 128.043096 l
48.449878 128.812922 l
48.402516 129.092846 l
48.092329 129.302824 l
46.979542 129.652741 l
43.656479 130.422567 l
43.046046 130.842476 l
43.007386 131.052408 l
43.486614 131.262339 l
44.398996 131.612302 l
44.445852 131.822234 l
44.027776 132.102158 l
43.323014 132.59206 l
43.163943 132.871984 l
43.281388 133.081962 l
43.813672 133.64181 l
43.661972 133.921734 l
43.17657 134.621614 l
43.250469 134.901538 l
43.456221 135.391393 l
43.324294 135.811302 l
43.116216 136.511183 l
43.104595 137.49094 l
43.014129 138.400704 l
42.865286 139.940357 l
42.83445 142.459813 l
42.754469 158.906037 l
42.754469 158.906037 l
stroke
grestore
gsave
184.3 140 29.95 19.01 clipbox
48.384 19.008 m
48.478358 24.397414 l
48.836541 25.097066 l
49.622839 26.076807 l
52.351326 29.226082 l
53.252991 30.695805 l
53.972206 32.305014 l
54.557211 34.194688 l
55.045889 36.574122 l
55.526239 40.143522 l
56.318525 48.191542 l
58.805424 73.455658 l
60.476844 91.161706 l
61.046936 99.489678 l
61.242258 105.438352 l
61.178808 110.057249 l
60.911415 113.766338 l
60.480344 116.77568 l
59.902659 119.295143 l
59.203172 121.394639 l
58.365755 123.214181 l
57.413862 124.753827 l
56.325854 126.083558 l
55.842409 126.713422 l
55.921883 127.063339 l
56.362037 127.553194 l
57.719484 128.812922 l
57.704613 129.022853 l
57.380821 129.232832 l
56.241813 129.512755 l
54.26158 129.792679 l
50.980653 130.282582 l
49.918334 130.632498 l
49.485824 130.982415 l
49.731319 131.1224 l
51.738888 131.752241 l
51.553253 131.892226 l
49.827735 132.732045 l
49.79707 132.941976 l
50.104459 133.151908 l
50.740212 133.571817 l
50.65898 133.781795 l
49.785506 134.69156 l
49.979716 134.971531 l
50.205475 135.321447 l
50.136565 135.601371 l
49.699815 136.511183 l
49.741327 137.280962 l
49.547132 138.330759 l
49.410209 139.380509 l
49.294028 140.430259 l
49.155652 148.688367 l
49.155704 158.906037 l
49.155704 158.906037 l
stroke
grestore
gsave
184.3 140 29.95 19.01 clipbox
54.528 19.008 m
54.638612 24.117128 l
55.113402 24.816983 l
55.992085 25.656576 l
59.975606 29.155703 l
61.083412 30.555387 l
61.950257 32.025429 l
62.637601 33.634885 l
63.226474 35.594273 l
63.776537 38.253927 l
64.416448 42.592875 l
70.295282 88.082227 l
71.162607 96.480296 l
71.562367 102.428942 l
71.657736 107.047948 l
71.522053 110.757034 l
71.188637 113.906315 l
70.684543 116.565703 l
70.038767 118.805184 l
69.243868 120.764788 l
68.327305 122.444406 l
67.278935 123.914068 l
66.052475 125.243765 l
64.47834 126.853361 l
64.731062 127.203277 l
65.540265 127.763172 l
66.969101 128.742929 l
67.025027 128.952908 l
66.897778 129.092846 l
66.229924 129.302824 l
64.325764 129.582748 l
57.197159 130.422567 l
56.197895 130.772484 l
56.00472 130.982415 l
56.415622 131.1224 l
59.013716 131.682248 l
58.87711 131.822234 l
57.489954 132.242143 l
56.513544 132.662052 l
56.377199 132.871984 l
56.539759 133.011969 l
57.668675 133.64181 l
57.427637 133.851788 l
56.412343 134.551621 l
56.443135 134.761552 l
56.958272 135.391393 l
56.79047 135.671364 l
56.281871 136.371197 l
56.344403 136.721114 l
56.352566 137.211016 l
56.070421 138.470697 l
55.817667 139.660433 l
55.73316 140.640237 l
55.556807 150.997845 l
55.556939 158.906037 l
55.556939 158.906037 l
stroke
grestore
gsave
184.3 140 29.95 19.01 clipbox
60.672 19.008 m
60.763319 23.697371 l
60.959194 24.046952 l
61.605896 24.677187 l
63.003901 25.656576 l
66.60243 28.106259 l
68.106529 29.435797 l
69.269239 30.76559 l
70.191725 32.165418 l
70.940166 33.704689 l
71.601764 35.594273 l
72.226969 38.1137 l
72.954006 42.102762 l
75.488335 58.269354 l
80.753023 91.791563 l
81.502276 98.439969 l
81.854657 103.478719 l
81.920774 107.537781 l
81.755871 110.897044 l
81.402086 113.696403 l
80.887592 116.075809 l
80.21215 118.175378 l
79.401375 119.994952 l
78.450972 121.604588 l
77.327124 123.074232 l
76.024764 124.403938 l
74.541517 125.593664 l
73.080099 126.713422 l
73.206026 126.993346 l
73.67258 127.343263 l
75.224731 128.113089 l
76.261428 128.742929 l
76.323977 128.952908 l
76.155239 129.092846 l
75.274863 129.302824 l
72.637555 129.582748 l
64.640796 130.282582 l
63.059871 130.632498 l
62.479599 130.912422 l
62.542495 130.982415 l
63.192201 131.1224 l
66.255377 131.612302 l
66.222097 131.752241 l
65.478996 131.962219 l
63.383048 132.522067 l
62.967434 132.801991 l
63.087553 132.941976 l
63.958941 133.2219 l
64.600061 133.501824 l
64.585448 133.64181 l
64.083688 133.921734 l
63.05794 134.481628 l
63.024515 134.69156 l
63.411328 134.971531 l
63.707554 135.251455 l
63.668475 135.461386 l
63.15392 135.951288 l
62.85613 136.371197 l
62.970538 136.791107 l
62.943419 137.211016 l
62.616106 138.190773 l
62.461116 138.960599 l
62.171311 140.850168 l
61.976477 144.839237 l
61.958161 148.128519 l
61.958175 158.906037 l
61.958175 158.906037 l
stroke
grestore
gsave
184.3 140 29.95 19.01 clipbox
66.816 19.008 m
66.903147 23.067937 l
67.276658 23.837467 l
68.05213 24.397414 l
69.960446 25.446807 l
73.338353 27.336161 l
75.137229 28.595877 l
76.556338 29.855685 l
77.653717 31.115588 l
78.577799 32.515071 l
79.362837 34.124986 l
80.056111 36.084467 l
80.740561 38.743577 l
81.613088 43.152704 l
89.743747 88.292303 l
90.837005 95.780567 l
91.428484 101.309227 l
91.675115 105.648249 l
91.657849 109.147415 l
91.424473 112.086781 l
91.015762 114.536183 l
90.430894 116.705718 l
89.691913 118.595249 l
88.795654 120.274904 l
87.766944 121.744559 l
86.576479 123.074232 l
85.145462 124.333927 l
83.538138 125.453688 l
81.639198 126.713422 l
81.755365 126.923353 l
82.279926 127.27327 l
83.761286 127.903111 l
85.424682 128.672937 l
85.588323 128.882915 l
85.502754 129.022853 l
85.124688 129.162839 l
83.572794 129.37277 l
78.343886 129.722734 l
72.468665 130.142596 l
70.09858 130.492513 l
68.992957 130.842476 l
68.960565 130.912422 l
69.508417 131.052408 l
73.602151 131.612302 l
73.581808 131.682248 l
73.138649 131.822234 l
69.797954 132.59206 l
69.554771 132.801991 l
69.779394 132.941976 l
71.559893 133.571817 l
71.196675 133.781795 l
69.634801 134.481628 l
69.601439 134.621614 l
69.891983 134.831545 l
70.44754 135.181462 l
70.444859 135.391393 l
70.027232 135.741357 l
69.476921 136.231212 l
69.441524 136.44119 l
69.605171 137.001038 l
69.389458 137.420947 l
69.167085 137.980842 l
68.921243 139.100585 l
68.609451 141.130092 l
68.482851 144.069411 l
68.379539 144.839237 l
68.359416 147.918541 l
68.359411 158.906037 l
68.359411 158.906037 l
stroke
grestore
gsave
184.3 140 29.95 19.01 clipbox
72.96 19.008 m
73.047414 22.857143 l
73.450862 23.347448 l
74.151489 23.907506 l
76.159425 24.816983 l
79.794955 26.496336 l
81.845681 27.686383 l
83.47304 28.876099 l
84.813126 30.135896 l
85.890258 31.465557 l
86.780668 32.934963 l
87.531228 34.61444 l
88.239724 36.784211 l
88.987292 39.863352 l
90.169467 45.881952 l
98.740181 92.141366 l
99.712334 99.069874 l
100.20694 104.108651 l
100.37934 108.027727 l
100.303263 111.176957 l
100.026033 113.766338 l
99.580468 115.935932 l
98.97273 117.825444 l
98.199347 119.505059 l
97.281823 120.974745 l
96.195021 122.304449 l
94.867484 123.564111 l
93.363127 124.683885 l
91.578007 125.733639 l
90.038561 126.643429 l
90.146395 126.853361 l
90.57266 127.133285 l
91.787175 127.623187 l
94.46837 128.672937 l
94.64953 128.882915 l
94.549337 129.022853 l
94.110116 129.162839 l
92.211579 129.37277 l
84.200549 129.792679 l
78.395969 130.212589 l
76.246072 130.562505 l
75.409159 130.842476 l
75.457114 130.912422 l
76.372528 131.052408 l
80.906325 131.54231 l
80.963396 131.612302 l
80.54968 131.752241 l
76.324453 132.59206 l
76.149495 132.801991 l
76.524624 132.941976 l
78.522564 133.431878 l
78.486849 133.571817 l
77.962381 133.781795 l
76.389369 134.341643 l
76.173337 134.551621 l
76.320418 134.69156 l
77.252288 135.251455 l
77.089418 135.461386 l
75.998775 136.301205 l
76.078401 136.511183 l
76.221679 136.931045 l
76.101738 137.211016 l
75.720307 137.840857 l
75.294029 139.380509 l
75.120975 139.940357 l
75.051312 141.200085 l
74.941907 143.929472 l
74.800814 144.559313 l
74.76178 146.238951 l
74.760648 158.906037 l
74.760648 158.906037 l
stroke
grestore
gsave
184.3 140 29.95 19.01 clipbox
79.104 19.008 m
79.181411 22.717792 l
79.498307 22.997741 l
80.800507 23.697371 l
82.514011 24.326941 l
85.960214 25.656576 l
88.078108 26.706437 l
89.844065 27.826267 l
91.29765 29.015971 l
92.476811 30.275438 l
93.420643 31.605339 l
94.235296 33.14484 l
94.941537 34.964509 l
95.636395 37.414213 l
96.447634 41.193069 l
98.197982 50.781003 l
105.074434 89.692046 l
106.440296 98.859886 l
107.136904 104.948431 l
107.421245 109.287366 l
107.421696 112.506641 l
107.213162 115.026127 l
106.822337 117.125572 l
106.274566 118.875226 l
105.593648 120.344895 l
104.738856 121.674601 l
103.715072 122.864324 l
102.452272 123.984008 l
100.914557 125.033775 l
99.059566 126.013573 l
98.101187 126.573437 l
98.199402 126.783368 l
98.649043 127.063339 l
99.958204 127.553194 l
103.0606 128.672937 l
103.257083 128.882915 l
103.157306 129.022853 l
102.697218 129.162839 l
101.538633 129.302824 l
97.640608 129.512755 l
86.262813 130.07265 l
83.290393 130.422567 l
81.897067 130.772484 l
81.809655 130.842476 l
82.001868 130.912422 l
84.5199 131.1224 l
87.890292 131.402324 l
88.384791 131.54231 l
88.31364 131.612302 l
87.048346 131.822234 l
83.744964 132.312136 l
82.683275 132.662052 l
82.661583 132.732045 l
82.999868 132.871984 l
85.554834 133.431878 l
85.387357 133.571817 l
83.860923 133.991726 l
82.800831 134.411636 l
82.758243 134.551621 l
83.209614 134.761552 l
84.003595 135.111469 l
84.025058 135.251455 l
83.766322 135.461386 l
82.562803 136.231212 l
82.635837 136.44119 l
82.826191 136.791107 l
82.761609 137.071031 l
82.213035 138.050788 l
82.066434 138.610683 l
81.645846 139.59044 l
81.526742 140.290273 l
81.479297 142.459813 l
81.38336 143.85948 l
81.227551 144.349382 l
81.166178 145.539117 l
81.161862 158.416135 l
81.161885 158.906037 l
81.161885 158.906037 l
stroke
grestore
gsave
184.3 140 29.95 19.01 clipbox
85.248 19.008 m
85.330789 22.647306 l
85.646368 22.857143 l
87.063078 23.347448 l
93.598646 25.656576 l
95.374405 26.636675 l
96.815886 27.686383 l
98.060446 28.876099 l
99.059785 30.135896 l
99.894392 31.535502 l
100.629824 33.214777 l
101.29068 35.314575 l
101.958862 38.253927 l
102.86754 43.432776 l
106.428745 65.967379 l
110.187556 90.671629 l
111.804294 102.63899 l
112.495791 109.287366 l
112.715985 113.416465 l
112.65637 116.28577 l
112.403532 118.385291 l
111.986267 120.064914 l
111.410877 121.464641 l
110.68171 122.654351 l
109.778661 123.7041 l
108.632055 124.683885 l
107.208139 125.593664 l
105.555179 126.573437 l
105.730961 126.783368 l
106.43926 127.133285 l
108.572527 127.833165 l
110.665865 128.602991 l
110.98787 128.882915 l
110.911419 129.022853 l
110.501691 129.162839 l
109.391388 129.302824 l
104.9239 129.512755 l
93.377818 130.002658 l
89.964843 130.352574 l
88.391106 130.702491 l
88.220017 130.842476 l
89.528153 130.982415 l
95.636619 131.402324 l
95.872573 131.54231 l
95.127075 131.682248 l
90.161012 132.312136 l
89.159713 132.662052 l
89.216406 132.732045 l
89.793195 132.871984 l
92.60003 133.361886 l
92.589585 133.431878 l
92.242228 133.571817 l
89.407036 134.341643 l
89.278707 134.481628 l
89.529478 134.621614 l
90.839522 135.111469 l
90.788605 135.251455 l
90.245251 135.531378 l
89.212347 136.091273 l
89.112912 136.301205 l
89.449681 136.931045 l
88.743652 137.980842 l
88.598823 138.54069 l
88.400137 138.960599 l
88.181833 139.380509 l
88.016238 139.870411 l
87.9366 141.060099 l
87.833954 143.789487 l
87.650621 144.209396 l
87.572329 145.189154 l
87.562814 151.277769 l
87.563124 158.906037 l
87.563124 158.906037 l
stroke
grestore
gsave
184.3 140 29.95 19.01 clipbox
91.392 19.008 m
91.462769 22.577899 l
91.827373 22.787843 l
93.494016 23.207443 l
96.543596 24.046952 l
98.757362 24.816983 l
100.336859 25.586646 l
101.697374 26.496336 l
102.854102 27.546197 l
103.833196 28.736073 l
104.689626 30.135896 l
105.407294 31.745163 l
106.029836 33.704689 l
106.621109 36.364338 l
107.295444 40.563207 l
108.745097 51.480936 l
113.481016 88.922199 l
115.71248 108.097671 l
116.292935 114.746134 l
116.392427 118.175378 l
116.254044 120.344895 l
115.952591 121.884518 l
115.510231 123.074232 l
114.923745 124.054025 l
114.181236 124.893828 l
113.222553 125.663647 l
112.062063 126.573437 l
112.432885 126.853361 l
113.642482 127.343263 l
116.749551 128.532998 l
117.140816 128.882915 l
117.108396 129.022853 l
116.839295 129.162839 l
116.031511 129.302824 l
113.706655 129.442763 l
99.304014 130.002658 l
96.104487 130.352574 l
94.631454 130.702491 l
94.481313 130.772484 l
94.687277 130.842476 l
96.798593 130.982415 l
103.150997 131.332331 l
103.5414 131.472317 l
102.810095 131.612302 l
96.491334 132.312136 l
95.650136 132.59206 l
95.631096 132.662052 l
96.174462 132.801991 l
99.724122 133.361886 l
99.360781 133.501824 l
95.865879 134.341643 l
95.82588 134.481628 l
96.567609 134.69156 l
97.662403 135.041476 l
97.632835 135.181462 l
97.200214 135.391393 l
95.801118 136.021281 l
95.619298 136.231212 l
96.077933 136.861099 l
95.963971 137.001038 l
95.300999 137.700871 l
94.808027 139.170531 l
94.514576 139.59044 l
94.403291 140.360266 l
94.361158 142.669744 l
94.308153 143.719494 l
94.099491 143.999465 l
93.99416 144.629306 l
93.964665 146.868791 l
93.964363 158.906037 l
93.964363 158.906037 l
stroke
grestore
gsave
184.3 140 29.95 19.01 clipbox
97.536 19.008 m
97.63895 22.577899 l
97.907347 22.717792 l
99.482886 23.067937 l
101.798316 23.627283 l
104.23492 24.46718 l
105.563836 25.166934 l
106.670055 26.006656 l
107.585041 26.986209 l
108.3912 28.176165 l
109.11392 29.645653 l
109.748373 31.465557 l
110.284696 33.704689 l
110.805411 36.924108 l
111.47816 42.732843 l
113.768281 65.547433 l
118.130849 110.967053 l
118.786028 119.295143 l
118.80823 122.164466 l
118.620725 123.7041 l
118.287954 124.753827 l
117.785078 125.593664 l
117.136963 126.573437 l
117.656975 126.923353 l
120.298016 128.393013 l
120.591123 128.882915 l
120.524474 129.162839 l
120.252437 129.302824 l
119.095805 129.442763 l
102.958475 130.212589 l
101.229225 130.562505 l
100.745493 130.772484 l
102.590517 130.912422 l
111.253075 131.332331 l
111.365705 131.402324 l
111.189501 131.472317 l
109.831466 131.612302 l
103.902796 132.102158 l
102.291192 132.452074 l
102.022664 132.59206 l
102.125404 132.662052 l
103.040833 132.801991 l
106.864322 133.2219 l
106.939531 133.291893 l
106.566667 133.431878 l
102.400631 134.27165 l
102.25658 134.411636 l
102.696153 134.551621 l
104.527285 134.971531 l
104.527355 135.111469 l
104.030349 135.321447 l
102.59998 135.811302 l
102.114498 136.161219 l
102.260189 136.301205 l
102.68959 136.581128 l
102.696663 136.861099 l
102.423206 137.071031 l
101.788783 137.840857 l
101.726557 138.400704 l
101.434551 138.680675 l
101.021645 139.380509 l
100.887642 139.870411 l
100.820148 141.270078 l
100.780662 143.649548 l
100.46066 144.069411 l
100.379476 144.90923 l
100.365297 149.248262 l
100.365604 158.906037 l
100.365604 158.906037 l
stroke
grestore
gsave
184.3 140 29.95 19.01 clipbox
103.68 19.008 m
103.739134 22.507863 l
103.92306 22.647306 l
104.693795 22.857143 l
107.363056 23.487736 l
109.11835 24.187164 l
110.15561 24.816983 l
111.001257 25.586646 l
111.727896 26.566644 l
112.369384 27.826267 l
112.960425 29.506061 l
113.475143 31.675537 l
113.924735 34.61444 l
114.387749 39.30375 l
115.38414 52.530675 l
120.327189 122.0245 l
120.370295 124.82385 l
120.190729 126.013573 l
120.123875 126.433451 l
120.483841 126.853361 l
121.156988 127.623187 l
121.304859 128.113089 l
121.288514 129.442763 l
121.005814 129.512755 l
108.728161 130.212589 l
107.107152 130.632498 l
106.968229 130.702491 l
107.055294 130.772484 l
110.152288 130.912422 l
119.24326 131.262339 l
119.375977 131.332331 l
119.221499 131.402324 l
117.836857 131.54231 l
110.493033 132.032165 l
108.916746 132.312136 l
108.392625 132.59206 l
109.273867 132.732045 l
114.268203 133.2219 l
114.175959 133.291893 l
112.885403 133.501824 l
109.500928 133.991726 l
108.702763 134.341643 l
108.759405 134.411636 l
109.972139 134.621614 l
111.401165 134.901538 l
111.446477 135.041476 l
111.134135 135.181462 l
108.940163 135.881295 l
108.585474 136.161219 l
109.355694 136.581128 l
109.309664 136.861099 l
108.33688 137.560933 l
108.302029 137.840857 l
108.22024 138.400704 l
107.916786 138.610683 l
107.543452 139.240523 l
107.376444 139.520494 l
107.275744 140.430259 l
107.244663 143.019661 l
107.213511 143.649548 l
106.905687 143.85948 l
106.804306 144.349382 l
106.767846 146.308896 l
106.766845 158.906037 l
106.766845 158.906037 l
stroke
grestore
gsave
184.3 140 29.95 19.01 clipbox
109.824 19.008 m
109.880575 22.507863 l
110.051311 22.647306 l
110.988471 22.927476 l
112.550372 23.417414 l
113.696318 24.046952 l
114.435998 24.677187 l
115.052816 25.516925 l
115.568465 26.636675 l
116.040534 28.246401 l
116.470594 30.555387 l
116.840153 33.844956 l
117.20414 39.373577 l
118.13615 58.688955 l
121.3964 126.503444 l
121.580818 127.343263 l
121.580818 129.582748 l
121.134082 129.652741 l
115.647035 130.002658 l
113.944183 130.352574 l
113.084643 130.702491 l
113.512973 130.772484 l
121.580818 131.1224 l
121.544463 131.612302 l
119.759462 131.752241 l
116.376657 132.032165 l
115.035008 132.312136 l
114.7077 132.522067 l
114.818251 132.59206 l
116.250152 132.732045 l
121.213843 133.151908 l
121.228647 133.2219 l
120.761667 133.361886 l
115.550262 134.061719 l
115.125913 134.27165 l
115.096551 134.341643 l
115.817222 134.481628 l
118.469912 134.901538 l
118.463845 134.971531 l
117.811546 135.181462 l
115.664957 135.671364 l
115.05637 136.091273 l
115.052958 136.161219 l
115.982405 136.44119 l
116.008182 136.651121 l
115.911988 136.861099 l
115.054153 137.211016 l
114.837003 137.49094 l
114.804065 137.770864 l
114.800003 138.260766 l
114.684037 138.400704 l
114.351631 138.610683 l
114.128141 139.170531 l
113.81851 139.380509 l
113.729003 140.150335 l
113.684291 142.599751 l
113.642248 143.649548 l
113.258425 143.85948 l
113.187328 144.48932 l
113.167885 148.058527 l
113.168088 158.906037 l
113.168088 158.906037 l
stroke
grestore
gsave
184.3 140 29.95 19.01 clipbox
115.968 19.008 m
116.04139 22.577899 l
116.340848 22.787843 l
117.4597 23.417414 l
118.08612 24.117128 l
118.514767 24.957114 l
118.848534 26.146636 l
119.158898 28.176165 l
119.443324 31.675537 l
119.682922 37.764041 l
120.239353 61.068672 l
121.825842 129.792679 l
121.195124 129.932665 l
119.992057 130.212589 l
119.186112 130.702491 l
121.846409 130.912422 l
121.823569 131.962219 l
121.576325 132.102158 l
121.0875 132.312136 l
120.951936 132.522067 l
121.846409 132.801991 l
121.806813 133.851788 l
121.369905 134.27165 l
121.386144 134.341643 l
121.846409 134.551621 l
121.745735 135.601371 l
121.387812 136.021281 l
121.4107 136.161219 l
121.813935 136.371197 l
121.801654 136.861099 l
121.310644 137.280962 l
121.219717 137.700871 l
121.280935 137.980842 l
121.222315 138.330759 l
120.778335 138.610683 l
120.649065 139.100585 l
120.206785 139.380509 l
120.146819 141.270078 l
120.06235 143.649548 l
119.616844 143.789487 l
119.577224 144.629306 l
119.568922 153.587248 l
119.569333 158.906037 l
119.569333 158.906037 l
stroke
grestore
gsave
184.3 140 29.95 19.01 clipbox
122.112 19.008 m
122.112 158.906037 l
122.112 158.906037 l
stroke
grestore
gsave
184.3 140 29.95 19.01 clipbox
128.256 19.008 m
128.18261 22.577899 l
127.883152 22.787843 l
126.7643 23.417414 l
126.13788 24.117128 l
125.709233 24.957114 l
125.375466 26.146636 l
125.065102 28.176165 l
124.780676 31.675537 l
124.541078 37.764041 l
123.984647 61.068672 l
122.398158 129.792679 l
123.028876 129.932665 l
124.231943 130.212589 l
125.037888 130.702491 l
122.377591 130.912422 l
122.400431 131.962219 l
122.647675 132.102158 l
123.1365 132.312136 l
123.272064 132.522067 l
122.377591 132.801991 l
122.417187 133.851788 l
122.854095 134.27165 l
122.837856 134.341643 l
122.377591 134.551621 l
122.478265 135.601371 l
122.836188 136.021281 l
122.8133 136.161219 l
122.410065 136.371197 l
122.422346 136.861099 l
122.913356 137.280962 l
123.004283 137.700871 l
122.943065 137.980842 l
123.001685 138.330759 l
123.445665 138.610683 l
123.574935 139.100585 l
124.017215 139.380509 l
124.077181 141.270078 l
124.16165 143.649548 l
124.607156 143.789487 l
124.646776 144.629306 l
124.655078 153.587248 l
124.654667 158.906037 l
124.654667 158.906037 l
stroke
grestore
gsave
184.3 140 29.95 19.01 clipbox
134.4 19.008 m
134.343425 22.507863 l
134.172689 22.647306 l
133.235529 22.927476 l
131.673628 23.417414 l
130.527682 24.046952 l
129.788002 24.677187 l
129.171184 25.516925 l
128.655535 26.636675 l
128.183466 28.246401 l
127.753406 30.555387 l
127.383847 33.844956 l
127.01986 39.373577 l
126.08785 58.688955 l
122.8276 126.503444 l
122.643182 127.343263 l
122.643182 129.582748 l
123.089918 129.652741 l
128.576965 130.002658 l
130.279817 130.352574 l
131.139357 130.702491 l
130.711027 130.772484 l
122.643182 131.1224 l
122.679537 131.612302 l
124.464538 131.752241 l
127.847343 132.032165 l
129.188992 132.312136 l
129.5163 132.522067 l
129.405749 132.59206 l
127.973848 132.732045 l
123.010157 133.151908 l
122.995353 133.2219 l
123.462333 133.361886 l
128.673738 134.061719 l
129.098087 134.27165 l
129.127449 134.341643 l
128.406778 134.481628 l
125.754088 134.901538 l
125.760155 134.971531 l
126.412454 135.181462 l
128.559043 135.671364 l
129.16763 136.091273 l
129.171042 136.161219 l
128.241595 136.44119 l
128.215818 136.651121 l
128.312012 136.861099 l
129.169847 137.211016 l
129.386997 137.49094 l
129.419935 137.770864 l
129.423997 138.260766 l
129.539963 138.400704 l
129.872369 138.610683 l
130.095859 139.170531 l
130.40549 139.380509 l
130.494997 140.150335 l
130.539709 142.599751 l
130.581752 143.649548 l
130.965575 143.85948 l
131.036672 144.48932 l
131.056115 148.058527 l
131.055912 158.906037 l
131.055912 158.906037 l
stroke
grestore
gsave
184.3 140 29.95 19.01 clipbox
140.544 19.008 m
140.484866 22.507863 l
140.30094 22.647306 l
139.530205 22.857143 l
136.860944 23.487736 l
135.10565 24.187164 l
134.06839 24.816983 l
133.222743 25.586646 l
132.496104 26.566644 l
131.854616 27.826267 l
131.263575 29.506061 l
130.748857 31.675537 l
130.299265 34.61444 l
129.836251 39.30375 l
128.83986 52.530675 l
123.896811 122.0245 l
123.853705 124.82385 l
124.033271 126.013573 l
124.100125 126.433451 l
123.740159 126.853361 l
123.067012 127.623187 l
122.919141 128.113089 l
122.935486 129.442763 l
123.218186 129.512755 l
135.495839 130.212589 l
137.116848 130.632498 l
137.255771 130.702491 l
137.168706 130.772484 l
134.071712 130.912422 l
124.98074 131.262339 l
124.848023 131.332331 l
125.002501 131.402324 l
126.387143 131.54231 l
133.730967 132.032165 l
135.307254 132.312136 l
135.831375 132.59206 l
134.950133 132.732045 l
129.955797 133.2219 l
130.048041 133.291893 l
131.338597 133.501824 l
134.723072 133.991726 l
135.521237 134.341643 l
135.464595 134.411636 l
134.251861 134.621614 l
132.822835 134.901538 l
132.777523 135.041476 l
133.089865 135.181462 l
135.283837 135.881295 l
135.638526 136.161219 l
134.868306 136.581128 l
134.914336 136.861099 l
135.88712 137.560933 l
135.921971 137.840857 l
136.00376 138.400704 l
136.307214 138.610683 l
136.680548 139.240523 l
136.847556 139.520494 l
136.948256 140.430259 l
136.979337 143.019661 l
137.010489 143.649548 l
137.318313 143.85948 l
137.419694 144.349382 l
137.456154 146.308896 l
137.457155 158.906037 l
137.457155 158.906037 l
stroke
grestore
gsave
184.3 140 29.95 19.01 clipbox
146.688 19.008 m
146.58505 22.577899 l
146.316653 22.717792 l
144.741114 23.067937 l
142.425684 23.627283 l
139.98908 24.46718 l
138.660164 25.166934 l
137.553945 26.006656 l
136.638959 26.986209 l
135.8328 28.176165 l
135.11008 29.645653 l
134.475627 31.465557 l
133.939304 33.704689 l
133.418589 36.924108 l
132.74584 42.732843 l
130.455719 65.547433 l
126.093151 110.967053 l
125.437972 119.295143 l
125.41577 122.164466 l
125.603275 123.7041 l
125.936046 124.753827 l
126.438922 125.593664 l
127.087037 126.573437 l
126.567025 126.923353 l
123.925984 128.393013 l
123.632877 128.882915 l
123.699526 129.162839 l
123.971563 129.302824 l
125.128195 129.442763 l
141.265525 130.212589 l
142.994775 130.562505 l
143.478507 130.772484 l
141.633483 130.912422 l
132.970925 131.332331 l
132.858295 131.402324 l
133.034499 131.472317 l
134.392534 131.612302 l
140.321204 132.102158 l
141.932808 132.452074 l
142.201336 132.59206 l
142.098596 132.662052 l
141.183167 132.801991 l
137.359678 133.2219 l
137.284469 133.291893 l
137.657333 133.431878 l
141.823369 134.27165 l
141.96742 134.411636 l
141.527847 134.551621 l
139.696715 134.971531 l
139.696645 135.111469 l
140.193651 135.321447 l
141.62402 135.811302 l
142.109502 136.161219 l
141.963811 136.301205 l
141.53441 136.581128 l
141.527337 136.861099 l
141.800794 137.071031 l
142.435217 137.840857 l
142.497443 138.400704 l
142.789449 138.680675 l
143.202355 139.380509 l
143.336358 139.870411 l
143.403852 141.270078 l
143.443338 143.649548 l
143.76334 144.069411 l
143.844524 144.90923 l
143.858703 149.248262 l
143.858396 158.906037 l
143.858396 158.906037 l
stroke
grestore
gsave
184.3 140 29.95 19.01 clipbox
152.832 19.008 m
152.761231 22.577899 l
152.396627 22.787843 l
150.729984 23.207443 l
147.680404 24.046952 l
145.466638 24.816983 l
143.887141 25.586646 l
142.526626 26.496336 l
141.369898 27.546197 l
140.390804 28.736073 l
139.534374 30.135896 l
138.816706 31.745163 l
138.194164 33.704689 l
137.602891 36.364338 l
136.928556 40.563207 l
135.478903 51.480936 l
130.742984 88.922199 l
128.51152 108.097671 l
127.931065 114.746134 l
127.831573 118.175378 l
127.969956 120.344895 l
128.271409 121.884518 l
128.713769 123.074232 l
129.300255 124.054025 l
130.042764 124.893828 l
131.001447 125.663647 l
132.161937 126.573437 l
131.791115 126.853361 l
130.581518 127.343263 l
127.474449 128.532998 l
127.083184 128.882915 l
127.115604 129.022853 l
127.384705 129.162839 l
128.192489 129.302824 l
130.517345 129.442763 l
144.919986 130.002658 l
148.119513 130.352574 l
149.592546 130.702491 l
149.742687 130.772484 l
149.536723 130.842476 l
147.425407 130.982415 l
141.073003 131.332331 l
140.6826 131.472317 l
141.413905 131.612302 l
147.732666 132.312136 l
148.573864 132.59206 l
148.592904 132.662052 l
148.049538 132.801991 l
144.499878 133.361886 l
144.863219 133.501824 l
148.358121 134.341643 l
148.39812 134.481628 l
147.656391 134.69156 l
146.561597 135.041476 l
146.591165 135.181462 l
147.023786 135.391393 l
148.422882 136.021281 l
148.604702 136.231212 l
148.146067 136.861099 l
148.260029 137.001038 l
148.923001 137.700871 l
149.415973 139.170531 l
149.709424 139.59044 l
149.820709 140.360266 l
149.862842 142.669744 l
149.915847 143.719494 l
150.124509 143.999465 l
150.22984 144.629306 l
150.259335 146.868791 l
150.259637 158.906037 l
150.259637 158.906037 l
stroke
grestore
gsave
184.3 140 29.95 19.01 clipbox
158.976 19.008 m
158.893211 22.647306 l
158.577632 22.857143 l
157.160922 23.347448 l
150.625354 25.656576 l
148.849595 26.636675 l
147.408114 27.686383 l
146.163554 28.876099 l
145.164215 30.135896 l
144.329608 31.535502 l
143.594176 33.214777 l
142.93332 35.314575 l
142.265138 38.253927 l
141.35646 43.432776 l
137.795255 65.967379 l
134.036444 90.671629 l
132.419706 102.63899 l
131.728209 109.287366 l
131.508015 113.416465 l
131.56763 116.28577 l
131.820468 118.385291 l
132.237733 120.064914 l
132.813123 121.464641 l
133.54229 122.654351 l
134.445339 123.7041 l
135.591945 124.683885 l
137.015861 125.593664 l
138.668821 126.573437 l
138.493039 126.783368 l
137.78474 127.133285 l
135.651473 127.833165 l
133.558135 128.602991 l
133.23613 128.882915 l
133.312581 129.022853 l
133.722309 129.162839 l
134.832612 129.302824 l
139.3001 129.512755 l
150.846182 130.002658 l
154.259157 130.352574 l
155.832894 130.702491 l
156.003983 130.842476 l
154.695847 130.982415 l
148.587381 131.402324 l
148.351427 131.54231 l
149.096925 131.682248 l
154.062988 132.312136 l
155.064287 132.662052 l
155.007594 132.732045 l
154.430805 132.871984 l
151.62397 133.361886 l
151.634415 133.431878 l
151.981772 133.571817 l
154.816964 134.341643 l
154.945293 134.481628 l
154.694522 134.621614 l
153.384478 135.111469 l
153.435395 135.251455 l
153.978749 135.531378 l
155.011653 136.091273 l
155.111088 136.301205 l
154.774319 136.931045 l
155.480348 137.980842 l
155.625177 138.54069 l
155.823863 138.960599 l
156.042167 139.380509 l
156.207762 139.870411 l
156.2874 141.060099 l
156.390046 143.789487 l
156.573379 144.209396 l
156.651671 145.189154 l
156.661186 151.277769 l
156.660876 158.906037 l
156.660876 158.906037 l
stroke
grestore
gsave
184.3 140 29.95 19.01 clipbox
165.12 19.008 m
165.042589 22.717792 l
164.725693 22.997741 l
163.423493 23.697371 l
161.709989 24.326941 l
158.263786 25.656576 l
156.145892 26.706437 l
154.379935 27.826267 l
152.92635 29.015971 l
151.747189 30.275438 l
150.803357 31.605339 l
149.988704 33.14484 l
149.282463 34.964509 l
148.587605 37.414213 l
147.776366 41.193069 l
146.026018 50.781003 l
139.149566 89.692046 l
137.783704 98.859886 l
137.087096 104.948431 l
136.802755 109.287366 l
136.802304 112.506641 l
137.010838 115.026127 l
137.401663 117.125572 l
137.949434 118.875226 l
138.630352 120.344895 l
139.485144 121.674601 l
140.508928 122.864324 l
141.771728 123.984008 l
143.309443 125.033775 l
145.164434 126.013573 l
146.122813 126.573437 l
146.024598 126.783368 l
145.574957 127.063339 l
144.265796 127.553194 l
141.1634 128.672937 l
140.966917 128.882915 l
141.066694 129.022853 l
141.526782 129.162839 l
142.685367 129.302824 l
146.583392 129.512755 l
157.961187 130.07265 l
160.933607 130.422567 l
162.326933 130.772484 l
162.414345 130.842476 l
162.222132 130.912422 l
159.7041 131.1224 l
156.333708 131.402324 l
155.839209 131.54231 l
155.91036 131.612302 l
157.175654 131.822234 l
160.479036 132.312136 l
161.540725 132.662052 l
161.562417 132.732045 l
161.224132 132.871984 l
158.669166 133.431878 l
158.836643 133.571817 l
160.363077 133.991726 l
161.423169 134.411636 l
161.465757 134.551621 l
161.014386 134.761552 l
160.220405 135.111469 l
160.198942 135.251455 l
160.457678 135.461386 l
161.661197 136.231212 l
161.588163 136.44119 l
161.397809 136.791107 l
161.462391 137.071031 l
162.010965 138.050788 l
162.157566 138.610683 l
162.578154 139.59044 l
162.697258 140.290273 l
162.744703 142.459813 l
162.84064 143.85948 l
162.996449 144.349382 l
163.057822 145.539117 l
163.062138 158.416135 l
163.062115 158.906037 l
163.062115 158.906037 l
stroke
grestore
gsave
184.3 140 29.95 19.01 clipbox
171.264 19.008 m
171.176586 22.857143 l
170.773138 23.347448 l
170.072511 23.907506 l
168.064575 24.816983 l
164.429045 26.496336 l
162.378319 27.686383 l
160.75096 28.876099 l
159.410874 30.135896 l
158.333742 31.465557 l
157.443332 32.934963 l
156.692772 34.61444 l
155.984276 36.784211 l
155.236708 39.863352 l
154.054533 45.881952 l
145.483819 92.141366 l
144.511666 99.069874 l
144.01706 104.108651 l
143.84466 108.027727 l
143.920737 111.176957 l
144.197967 113.766338 l
144.643532 115.935932 l
145.25127 117.825444 l
146.024653 119.505059 l
146.942177 120.974745 l
148.028979 122.304449 l
149.356516 123.564111 l
150.860873 124.683885 l
152.645993 125.733639 l
154.185439 126.643429 l
154.077605 126.853361 l
153.65134 127.133285 l
152.436825 127.623187 l
149.75563 128.672937 l
149.57447 128.882915 l
149.674663 129.022853 l
150.113884 129.162839 l
152.012421 129.37277 l
160.023451 129.792679 l
165.828031 130.212589 l
167.977928 130.562505 l
168.814841 130.842476 l
168.766886 130.912422 l
167.851472 131.052408 l
163.317675 131.54231 l
163.260604 131.612302 l
163.67432 131.752241 l
167.899547 132.59206 l
168.074505 132.801991 l
167.699376 132.941976 l
165.701436 133.431878 l
165.737151 133.571817 l
166.261619 133.781795 l
167.834631 134.341643 l
168.050663 134.551621 l
167.903582 134.69156 l
166.971712 135.251455 l
167.134582 135.461386 l
168.225225 136.301205 l
168.145599 136.511183 l
168.002321 136.931045 l
168.122262 137.211016 l
168.503693 137.840857 l
168.929971 139.380509 l
169.103025 139.940357 l
169.172688 141.200085 l
169.282093 143.929472 l
169.423186 144.559313 l
169.46222 146.238951 l
169.463352 158.906037 l
169.463352 158.906037 l
stroke
grestore
gsave
184.3 140 29.95 19.01 clipbox
177.408 19.008 m
177.320853 23.067937 l
176.947342 23.837467 l
176.17187 24.397414 l
174.263554 25.446807 l
170.885647 27.336161 l
169.086771 28.595877 l
167.667662 29.855685 l
166.570283 31.115588 l
165.646201 32.515071 l
164.861163 34.124986 l
164.167889 36.084467 l
163.483439 38.743577 l
162.610912 43.152704 l
154.480253 88.292303 l
153.386995 95.780567 l
152.795516 101.309227 l
152.548885 105.648249 l
152.566151 109.147415 l
152.799527 112.086781 l
153.208238 114.536183 l
153.793106 116.705718 l
154.532087 118.595249 l
155.428346 120.274904 l
156.457056 121.744559 l
157.647521 123.074232 l
159.078538 124.333927 l
160.685862 125.453688 l
162.584802 126.713422 l
162.468635 126.923353 l
161.944074 127.27327 l
160.462714 127.903111 l
158.799318 128.672937 l
158.635677 128.882915 l
158.721246 129.022853 l
159.099312 129.162839 l
160.651206 129.37277 l
165.880114 129.722734 l
171.755335 130.142596 l
174.12542 130.492513 l
175.231043 130.842476 l
175.263435 130.912422 l
174.715583 131.052408 l
170.621849 131.612302 l
170.642192 131.682248 l
171.085351 131.822234 l
174.426046 132.59206 l
174.669229 132.801991 l
174.444606 132.941976 l
172.664107 133.571817 l
173.027325 133.781795 l
174.589199 134.481628 l
174.622561 134.621614 l
174.332017 134.831545 l
173.77646 135.181462 l
173.779141 135.391393 l
174.196768 135.741357 l
174.747079 136.231212 l
174.782476 136.44119 l
174.618829 137.001038 l
174.834542 137.420947 l
175.056915 137.980842 l
175.302757 139.100585 l
175.614549 141.130092 l
175.741149 144.069411 l
175.844461 144.839237 l
175.864584 147.918541 l
175.864589 158.906037 l
175.864589 158.906037 l
stroke
grestore
gsave
184.3 140 29.95 19.01 clipbox
183.552 19.008 m
183.460681 23.697371 l
183.264806 24.046952 l
182.618104 24.677187 l
181.220099 25.656576 l
177.62157 28.106259 l
176.117471 29.435797 l
174.954761 30.76559 l
174.032275 32.165418 l
173.283834 33.704689 l
172.622236 35.594273 l
171.997031 38.1137 l
171.269994 42.102762 l
168.735665 58.269354 l
163.470977 91.791563 l
162.721724 98.439969 l
162.369343 103.478719 l
162.303226 107.537781 l
162.468129 110.897044 l
162.821914 113.696403 l
163.336408 116.075809 l
164.01185 118.175378 l
164.822625 119.994952 l
165.773028 121.604588 l
166.896876 123.074232 l
168.199236 124.403938 l
169.682483 125.593664 l
171.143901 126.713422 l
171.017974 126.993346 l
170.55142 127.343263 l
168.999269 128.113089 l
167.962572 128.742929 l
167.900023 128.952908 l
168.068761 129.092846 l
168.949137 129.302824 l
171.586445 129.582748 l
179.583204 130.282582 l
181.164129 130.632498 l
181.744401 130.912422 l
181.681505 130.982415 l
181.031799 131.1224 l
177.968623 131.612302 l
178.001903 131.752241 l
178.745004 131.962219 l
180.840952 132.522067 l
181.256566 132.801991 l
181.136447 132.941976 l
180.265059 133.2219 l
179.623939 133.501824 l
179.638552 133.64181 l
180.140312 133.921734 l
181.16606 134.481628 l
181.199485 134.69156 l
180.812672 134.971531 l
180.516446 135.251455 l
180.555525 135.461386 l
181.07008 135.951288 l
181.36787 136.371197 l
181.253462 136.791107 l
181.280581 137.211016 l
181.607894 138.190773 l
181.762884 138.960599 l
182.052689 140.850168 l
182.247523 144.839237 l
182.265839 148.128519 l
182.265825 158.906037 l
182.265825 158.906037 l
stroke
grestore
gsave
184.3 140 29.95 19.01 clipbox
189.696 19.008 m
189.585388 24.117128 l
189.110598 24.816983 l
188.231915 25.656576 l
184.248394 29.155703 l
183.140588 30.555387 l
182.273743 32.025429 l
181.586399 33.634885 l
180.997526 35.594273 l
180.447463 38.253927 l
179.807552 42.592875 l
173.928718 88.082227 l
173.061393 96.480296 l
172.661633 102.428942 l
172.566264 107.047948 l
172.701947 110.757034 l
173.035363 113.906315 l
173.539457 116.565703 l
174.185233 118.805184 l
174.980132 120.764788 l
175.896695 122.444406 l
176.945065 123.914068 l
178.171525 125.243765 l
179.74566 126.853361 l
179.492938 127.203277 l
178.683735 127.763172 l
177.254899 128.742929 l
177.198973 128.952908 l
177.326222 129.092846 l
177.994076 129.302824 l
179.898236 129.582748 l
187.026841 130.422567 l
188.026105 130.772484 l
188.21928 130.982415 l
187.808378 131.1224 l
185.210284 131.682248 l
185.34689 131.822234 l
186.734046 132.242143 l
187.710456 132.662052 l
187.846801 132.871984 l
187.684241 133.011969 l
186.555325 133.64181 l
186.796363 133.851788 l
187.811657 134.551621 l
187.780865 134.761552 l
187.265728 135.391393 l
187.43353 135.671364 l
187.942129 136.371197 l
187.879597 136.721114 l
187.871434 137.211016 l
188.153579 138.470697 l
188.406333 139.660433 l
188.49084 140.640237 l
188.667193 150.997845 l
188.667061 158.906037 l
188.667061 158.906037 l
stroke
grestore
gsave
184.3 140 29.95 19.01 clipbox
195.84 19.008 m
195.745642 24.397414 l
195.387459 25.097066 l
194.601161 26.076807 l
191.872674 29.226082 l
190.971009 30.695805 l
190.251794 32.305014 l
189.666789 34.194688 l
189.178111 36.574122 l
188.697761 40.143522 l
187.905475 48.191542 l
185.418576 73.455658 l
183.747156 91.161706 l
183.177064 99.489678 l
182.981742 105.438352 l
183.045192 110.057249 l
183.312585 113.766338 l
183.743656 116.77568 l
184.321341 119.295143 l
185.020828 121.394639 l
185.858245 123.214181 l
186.810138 124.753827 l
187.898146 126.083558 l
188.381591 126.713422 l
188.302117 127.063339 l
187.861963 127.553194 l
186.504516 128.812922 l
186.519387 129.022853 l
186.843179 129.232832 l
187.982187 129.512755 l
189.96242 129.792679 l
193.243347 130.282582 l
194.305666 130.632498 l
194.738176 130.982415 l
194.492681 131.1224 l
192.485112 131.752241 l
192.670747 131.892226 l
194.396265 132.732045 l
194.42693 132.941976 l
194.119541 133.151908 l
193.483788 133.571817 l
193.56502 133.781795 l
194.438494 134.69156 l
194.244284 134.971531 l
194.018525 135.321447 l
194.087435 135.601371 l
194.524185 136.511183 l
194.482673 137.280962 l
194.676868 138.330759 l
194.813791 139.380509 l
194.929972 140.430259 l
195.068348 148.688367 l
195.068296 158.906037 l
195.068296 158.906037 l
stroke
grestore
gsave
184.3 140 29.95 19.01 clipbox
201.984 19.008 m
201.881023 24.747051 l
201.505461 25.656576 l
200.529691 27.266418 l
199.386777 29.295808 l
198.673621 31.045443 l
198.130292 33.005162 l
197.699646 35.454559 l
197.322501 39.023475 l
196.80384 46.58175 l
193.499698 100.889318 l
193.412059 107.60777 l
193.559828 112.6466 l
193.891247 116.565703 l
194.367334 119.645074 l
194.95973 122.094487 l
195.674895 124.123985 l
196.469538 125.733639 l
197.014336 126.853361 l
196.866587 127.27327 l
196.277848 128.043096 l
195.774122 128.812922 l
195.821484 129.092846 l
196.131671 129.302824 l
197.244458 129.652741 l
200.567521 130.422567 l
201.177954 130.842476 l
201.216614 131.052408 l
200.737386 131.262339 l
199.825004 131.612302 l
199.778148 131.822234 l
200.196224 132.102158 l
200.900986 132.59206 l
201.060057 132.871984 l
200.942612 133.081962 l
200.410328 133.64181 l
200.562028 133.921734 l
201.04743 134.621614 l
200.973531 134.901538 l
200.767779 135.391393 l
200.899706 135.811302 l
201.107784 136.511183 l
201.119405 137.49094 l
201.209871 138.400704 l
201.358714 139.940357 l
201.38955 142.459813 l
201.469531 158.906037 l
201.469531 158.906037 l
stroke
grestore
gsave
184.3 140 29.95 19.01 clipbox
208.128 19.008 m
208.027132 25.166934 l
207.634851 26.636675 l
206.692714 29.99582 l
206.279494 32.445147 l
205.977717 35.664249 l
205.717361 41.193069 l
204.411249 80.943967 l
203.898809 100.119509 l
203.856819 109.567404 l
204.038386 115.795903 l
204.375981 120.204936 l
204.833399 123.424183 l
205.388587 125.803625 l
205.631916 126.993346 l
205.425213 127.693179 l
205.021664 128.952908 l
205.133158 129.232832 l
205.59552 129.582748 l
206.83326 130.07265 l
207.482234 130.492513 l
207.748213 130.912422 l
207.702539 131.1224 l
207.021715 131.822234 l
207.348543 132.242143 l
207.63886 132.732045 l
207.64336 133.011969 l
207.385247 133.851788 l
207.656261 134.761552 l
207.567575 135.741357 l
207.682216 136.651121 l
207.715128 137.700871 l
207.825115 140.500251 l
207.870775 157.296392 l
207.870766 158.906037 l
207.870766 158.906037 l
stroke
grestore
gsave
184.3 140 29.95 19.01 clipbox
214.272 19.008 m
214.272 158.906037 l
214.272 158.906037 l
stroke
grestore
0.800 setlinewidth
0 setlinejoin
2 setlinecap
[] 0 setdash
gsave
29.952 19.008 m
29.952 158.976 l
stroke
grestore
gsave
214.272 19.008 m
214.272 158.976 l
stroke
grestore
gsave
29.952 19.008 m
214.272 19.008 l
stroke
grestore
gsave
29.952 158.976 m
214.272 158.976 l
stroke
grestore

end
showpage
