%!PS-Adobe-3.0 EPSF-3.0
%%Title: part.eps
%%Creator: matplotlib version 2.0.0, http://matplotlib.org/
%%CreationDate: Sun Mar 25 12:12:30 2018
%%Orientation: portrait
%%BoundingBox: 190 309 421 482
%%EndComments
%%BeginProlog
/mpldict 10 dict def
mpldict begin
/m { moveto } bind def
/l { lineto } bind def
/r { rlineto } bind def
/c { curveto } bind def
/cl { closepath } bind def
/box {
m
1 index 0 r
0 exch r
neg 0 r
cl
} bind def
/clipbox {
box
clip
newpath
} bind def
%!PS-Adobe-3.0 Resource-Font
%%Title: DejaVu Serif
%%Copyright: Copyright (c) 2003 by Bitstream, Inc. All Rights Reserved. DejaVu changes are in public domain 
%%Creator: Converted from TrueType to type 3 by PPR
25 dict begin
/_d{bind def}bind def
/_m{moveto}_d
/_l{lineto}_d
/_cl{closepath eofill}_d
/_c{curveto}_d
/_sc{7 -1 roll{setcachedevice}{pop pop pop pop pop pop}ifelse}_d
/_e{exec}_d
/FontName /DejaVuSerif def
/PaintType 0 def
/FontMatrix[.001 0 0 .001 0 0]def
/FontBBox[-770 -347 2105 1109]def
/FontType 3 def
/Encoding [ /space /comma /period /zero /one /two /three /four /six /seven /eight /nine /y /uni043C ] def
/FontInfo 10 dict dup begin
/FamilyName (DejaVu Serif) def
/FullName (DejaVu Serif) def
/Notice (Copyright (c) 2003 by Bitstream, Inc. All Rights Reserved. DejaVu changes are in public domain ) def
/Weight (Book) def
/Version (Version 2.35) def
/ItalicAngle 0.0 def
/isFixedPitch false def
/UnderlinePosition -130 def
/UnderlineThickness 90 def
end readonly def
/CharStrings 14 dict dup begin
/space{318 0 0 0 0 0 _sc
}_d
/comma{318 0 36 -135 221 111 _sc
36 -96 _m
66 -73 89 -47 103 -17 _c
117 13 125 49 125 93 _c
125 111 _l
221 111 _l
218 55 205 7 181 -32 _c
157 -71 122 -105 75 -135 _c
36 -96 _l
_cl}_d
/period{318 0 94 -13 224 116 _sc
94 51 _m
94 69 100 84 112 97 _c
124 109 140 116 159 116 _c
177 116 192 109 205 97 _c
217 84 224 69 224 51 _c
224 33 217 17 205 5 _c
192 -7 177 -13 159 -13 _c
140 -13 124 -7 112 5 _c
100 17 94 32 94 51 _c
_cl}_d
/zero{636 0 66 -13 570 742 _sc
318 34 _m
368 34 405 61 430 116 _c
454 170 467 253 467 364 _c
467 474 454 557 430 612 _c
405 666 368 694 318 694 _c
268 694 230 666 206 612 _c
181 557 169 474 169 364 _c
169 253 181 170 206 116 _c
230 61 268 34 318 34 _c
318 -13 _m
238 -13 176 20 132 86 _c
88 152 66 244 66 364 _c
66 483 88 576 132 642 _c
176 708 238 742 318 742 _c
397 742 459 708 503 642 _c
547 576 570 483 570 364 _c
570 244 547 152 503 86 _c
459 20 397 -13 318 -13 _c
_cl}_d
/one{636 0 122 0 494 742 _sc
142 0 _m
142 52 _l
269 52 _l
269 658 _l
122 563 _l
122 627 _l
300 742 _l
367 742 _l
367 52 _l
494 52 _l
494 0 _l
142 0 _l
_cl}_d
/two{{636 0 68 0 538 742 _sc
128 555 _m
73 555 _l
73 685 _l
107 703 142 717 178 727 _c
213 737 248 742 282 742 _c
358 742 418 723 462 687 _c
506 650 528 600 528 537 _c
528 465 478 380 378 281 _c
370 273 365 268 361 264 _c
177 80 _l
481 80 _l
481 170 _l
538 170 _l
538 0 _l
68 0 _l
68 53 _l
289 274 _l
337 322 372 367 393 408 _c
414 449 425 492 425 537 _c
}_e{425 586 412 624 386 652 _c
360 680 325 694 281 694 _c
234 694 198 682 173 659 _c
147 636 132 601 128 555 _c
_cl}_e}_d
/three{{636 0 76 -13 562 742 _sc
97 698 _m
135 712 171 723 206 731 _c
241 738 274 742 305 742 _c
376 742 432 726 472 696 _c
512 665 532 622 532 568 _c
532 524 518 487 490 458 _c
462 428 423 408 373 398 _c
433 389 479 367 512 332 _c
545 297 562 252 562 197 _c
562 129 539 77 493 41 _c
447 5 382 -13 296 -13 _c
258 -13 220 -9 184 -1 _c
148 6 112 18 76 35 _c
76 177 _l
}_e{131 177 _l
134 129 150 94 178 70 _c
206 46 246 34 298 34 _c
348 34 387 48 416 77 _c
444 106 459 146 459 196 _c
459 253 444 296 414 326 _c
384 355 341 370 284 370 _c
238 370 _l
238 420 _l
262 420 _l
319 420 362 431 390 455 _c
418 479 433 514 433 562 _c
433 604 421 637 398 660 _c
374 682 341 694 297 694 _c
253 694 218 683 194 662 _c
170 641 156 610 152 570 _c
}_e{97 570 _l
97 698 _l
_cl}_e}_d
/four{636 0 31 0 586 742 _sc
349 247 _m
349 635 _l
100 247 _l
349 247 _l
564 0 _m
232 0 _l
232 52 _l
349 52 _l
349 195 _l
31 195 _l
31 248 _l
350 742 _l
447 742 _l
447 247 _l
586 247 _l
586 195 _l
447 195 _l
447 52 _l
564 52 _l
564 0 _l
_cl}_d
/six{{636 0 67 -13 573 742 _sc
327 34 _m
373 34 408 50 433 84 _c
457 118 470 166 470 230 _c
470 293 457 341 433 375 _c
408 409 373 426 327 426 _c
280 426 244 409 220 377 _c
196 344 184 297 184 236 _c
184 171 196 121 221 86 _c
245 51 281 34 327 34 _c
168 401 _m
190 425 215 444 243 456 _c
271 468 302 474 338 474 _c
410 474 468 452 510 408 _c
552 364 573 305 573 230 _c
}_e{573 156 550 97 505 53 _c
459 9 399 -13 323 -13 _c
241 -13 177 17 133 78 _c
89 139 67 227 67 341 _c
67 468 93 567 145 637 _c
197 707 271 742 367 742 _c
393 742 420 739 448 735 _c
476 730 505 723 535 713 _c
535 593 _l
480 593 _l
476 625 463 650 442 668 _c
421 685 393 694 357 694 _c
293 694 246 670 215 622 _c
184 574 168 500 168 401 _c
_cl}_e}_d
/seven{636 0 84 0 564 729 _sc
564 679 _m
279 0 _l
206 0 _l
478 649 _l
141 649 _l
141 559 _l
84 559 _l
84 729 _l
564 729 _l
564 679 _l
_cl}_d
/eight{{636 0 67 -13 569 742 _sc
466 199 _m
466 251 453 291 427 320 _c
401 349 364 364 318 364 _c
271 364 235 349 209 320 _c
183 291 170 251 170 199 _c
170 147 183 106 209 77 _c
235 48 271 34 318 34 _c
364 34 401 48 427 77 _c
453 106 466 147 466 199 _c
446 553 _m
446 597 434 632 412 657 _c
389 681 358 694 318 694 _c
278 694 246 681 224 657 _c
201 632 190 597 190 553 _c
}_e{190 508 201 473 224 449 _c
246 424 278 412 318 412 _c
358 412 389 424 412 449 _c
434 473 446 508 446 553 _c
393 388 _m
448 380 491 360 522 327 _c
553 293 569 251 569 199 _c
569 131 547 78 504 42 _c
460 5 398 -13 318 -13 _c
237 -13 175 5 132 42 _c
88 78 67 131 67 199 _c
67 251 82 293 113 327 _c
144 360 187 380 243 388 _c
193 396 156 415 130 444 _c
}_e{104 472 91 509 91 553 _c
91 611 111 657 151 691 _c
191 725 247 742 318 742 _c
388 742 444 725 484 691 _c
524 657 545 611 545 553 _c
545 509 531 472 505 444 _c
479 415 441 396 393 388 _c
_cl}_e}_d
/nine{{636 0 63 -13 569 742 _sc
468 327 _m
446 302 420 284 392 272 _c
364 260 332 254 297 254 _c
224 254 167 275 125 319 _c
83 363 63 422 63 498 _c
63 572 85 631 131 675 _c
176 719 237 742 313 742 _c
395 742 459 711 503 650 _c
547 588 569 501 569 387 _c
569 259 542 161 490 91 _c
438 21 364 -13 269 -13 _c
243 -13 216 -10 188 -6 _c
160 -2 131 5 101 15 _c
101 136 _l
}_e{156 136 _l
160 103 172 78 194 60 _c
215 42 243 34 279 34 _c
342 34 389 57 420 105 _c
450 153 466 227 468 327 _c
309 694 _m
263 694 227 677 203 643 _c
178 609 166 561 166 498 _c
166 434 178 386 203 352 _c
227 318 263 302 309 302 _c
355 302 390 318 415 351 _c
439 383 452 430 452 492 _c
452 556 439 606 415 641 _c
390 676 355 694 309 694 _c
_cl}_e}_d
/y{{565 0 -2 -221 562 519 _sc
216 -94 _m
250 -8 _l
56 467 _l
-2 467 _l
-2 519 _l
236 519 _l
236 467 _l
153 467 _l
299 110 _l
445 467 _l
367 467 _l
367 519 _l
562 519 _l
562 467 _l
504 467 _l
266 -116 _l
250 -156 232 -184 212 -199 _c
192 -213 164 -221 128 -221 _c
112 -221 97 -219 81 -217 _c
65 -214 48 -210 32 -206 _c
32 -107 _l
78 -107 _l
80 -129 85 -144 95 -154 _c
}_e{104 -164 118 -169 138 -169 _c
156 -169 170 -164 181 -154 _c
192 -144 204 -124 216 -94 _c
_cl}_e}_d
/uni043C{778 0 36 0 742 519 _sc
36 0 _m
36 52 _l
117 52 _l
117 467 _l
36 467 _l
36 519 _l
247 519 _l
393 162 _l
539 519 _l
742 519 _l
742 467 _l
661 467 _l
661 52 _l
742 52 _l
742 0 _l
490 0 _l
490 52 _l
571 52 _l
571 453 _l
407 52 _l
341 52 _l
177 453 _l
177 52 _l
258 52 _l
258 0 _l
36 0 _l
_cl}_d
end readonly def

/BuildGlyph
 {exch begin
 CharStrings exch
 2 copy known not{pop /.notdef}if
 true 3 1 roll get exec
 end}_d

/BuildChar {
 1 index /Encoding get exch get
 1 index /BuildGlyph get exec
}_d

FontName currentdict end definefont pop
%!PS-Adobe-3.0 Resource-Font
%%Title: DejaVu Sans Oblique
%%Copyright: Copyright (c) 2003 by Bitstream, Inc. All Rights Reserved. Copyright (c) 2006 by Tavmjong Bah. All Rights Reserved. DejaVu changes are in public domain 
%%Creator: Converted from TrueType to type 3 by PPR
25 dict begin
/_d{bind def}bind def
/_m{moveto}_d
/_l{lineto}_d
/_cl{closepath eofill}_d
/_c{curveto}_d
/_sc{7 -1 roll{setcachedevice}{pop pop pop pop pop pop}ifelse}_d
/_e{exec}_d
/FontName /DejaVuSans-Oblique def
/PaintType 0 def
/FontMatrix[.001 0 0 .001 0 0]def
/FontBBox[-1016 -350 1659 1068]def
/FontType 3 def
/Encoding [ /epsilon ] def
/FontInfo 10 dict dup begin
/FamilyName (DejaVu Sans) def
/FullName (DejaVu Sans Oblique) def
/Notice (Copyright (c) 2003 by Bitstream, Inc. All Rights Reserved. Copyright (c) 2006 by Tavmjong Bah. All Rights Reserved. DejaVu changes are in public domain ) def
/Weight (Oblique) def
/Version (Version 2.35) def
/ItalicAngle -11.0 def
/isFixedPitch false def
/UnderlinePosition -130 def
/UnderlineThickness 90 def
end readonly def
/CharStrings 1 dict dup begin
/epsilon{{541 0 39 -13 506 561 _sc
197 295 _m
162 303 137 317 122 338 _c
110 353 104 371 104 391 _c
104 446 130 490 184 522 _c
225 548 278 561 342 561 _c
366 561 392 559 419 555 _c
446 551 475 545 505 537 _c
490 456 _l
460 465 432 472 407 476 _c
381 480 357 482 334 482 _c
295 482 263 474 238 460 _c
207 442 192 420 192 394 _c
192 376 200 362 216 350 _c
234 336 263 329 301 329 _c
}_e{376 329 _l
362 254 _l
290 254 _l
245 254 209 245 183 229 _c
147 207 129 178 129 143 _c
129 121 138 102 158 88 _c
182 70 218 61 268 61 _c
298 61 327 63 357 69 _c
385 75 412 85 438 97 _c
422 13 _l
390 4 361 -2 333 -6 _c
305 -10 277 -13 251 -13 _c
173 -13 117 1 81 30 _c
53 52 39 83 39 122 _c
39 174 57 216 94 248 _c
120 271 155 287 197 295 _c
_cl}_e}_d
end readonly def

/BuildGlyph
 {exch begin
 CharStrings exch
 2 copy known not{pop /.notdef}if
 true 3 1 roll get exec
 end}_d

/BuildChar {
 1 index /Encoding get exch get
 1 index /BuildGlyph get exec
}_d

FontName currentdict end definefont pop
%!PS-Adobe-3.0 Resource-Font
%%Title: DejaVu Sans
%%Copyright: Copyright (c) 2003 by Bitstream, Inc. All Rights Reserved. Copyright (c) 2006 by Tavmjong Bah. All Rights Reserved. DejaVu changes are in public domain 
%%Creator: Converted from TrueType to type 3 by PPR
25 dict begin
/_d{bind def}bind def
/_m{moveto}_d
/_l{lineto}_d
/_cl{closepath eofill}_d
/_c{curveto}_d
/_sc{7 -1 roll{setcachedevice}{pop pop pop pop pop pop}ifelse}_d
/_e{exec}_d
/FontName /DejaVuSans def
/PaintType 0 def
/FontMatrix[.001 0 0 .001 0 0]def
/FontBBox[-1021 -463 1793 1232]def
/FontType 3 def
/Encoding [ /m /n /o ] def
/FontInfo 10 dict dup begin
/FamilyName (DejaVu Sans) def
/FullName (DejaVu Sans) def
/Notice (Copyright (c) 2003 by Bitstream, Inc. All Rights Reserved. Copyright (c) 2006 by Tavmjong Bah. All Rights Reserved. DejaVu changes are in public domain ) def
/Weight (Book) def
/Version (Version 2.35) def
/ItalicAngle 0.0 def
/isFixedPitch false def
/UnderlinePosition -130 def
/UnderlineThickness 90 def
end readonly def
/CharStrings 3 dict dup begin
/m{{974 0 91 0 889 560 _sc
520 442 _m
542 482 569 511 600 531 _c
631 550 668 560 711 560 _c
767 560 811 540 842 500 _c
873 460 889 403 889 330 _c
889 0 _l
799 0 _l
799 327 _l
799 379 789 418 771 444 _c
752 469 724 482 686 482 _c
639 482 602 466 575 435 _c
548 404 535 362 535 309 _c
535 0 _l
445 0 _l
445 327 _l
445 379 435 418 417 444 _c
398 469 369 482 331 482 _c
}_e{285 482 248 466 221 435 _c
194 404 181 362 181 309 _c
181 0 _l
91 0 _l
91 547 _l
181 547 _l
181 462 _l
201 495 226 520 255 536 _c
283 552 317 560 357 560 _c
397 560 430 550 458 530 _c
486 510 506 480 520 442 _c
_cl}_e}_d
/n{634 0 91 0 549 560 _sc
549 330 _m
549 0 _l
459 0 _l
459 327 _l
459 379 448 417 428 443 _c
408 469 378 482 338 482 _c
289 482 251 466 223 435 _c
195 404 181 362 181 309 _c
181 0 _l
91 0 _l
91 547 _l
181 547 _l
181 462 _l
202 494 227 519 257 535 _c
286 551 320 560 358 560 _c
420 560 468 540 500 501 _c
532 462 549 405 549 330 _c
_cl}_d
/o{612 0 55 -13 557 560 _sc
306 484 _m
258 484 220 465 192 427 _c
164 389 150 338 150 273 _c
150 207 163 156 191 118 _c
219 80 257 62 306 62 _c
354 62 392 80 420 118 _c
448 156 462 207 462 273 _c
462 337 448 389 420 427 _c
392 465 354 484 306 484 _c
306 560 _m
384 560 445 534 490 484 _c
534 433 557 363 557 273 _c
557 183 534 113 490 63 _c
445 12 384 -13 306 -13 _c
227 -13 165 12 121 63 _c
77 113 55 183 55 273 _c
55 363 77 433 121 484 _c
165 534 227 560 306 560 _c
_cl}_d
end readonly def

/BuildGlyph
 {exch begin
 CharStrings exch
 2 copy known not{pop /.notdef}if
 true 3 1 roll get exec
 end}_d

/BuildChar {
 1 index /Encoding get exch get
 1 index /BuildGlyph get exec
}_d

FontName currentdict end definefont pop
end
%%EndProlog
mpldict begin
190.8 309.6 translate
230.4 172.8 0 0 clipbox
gsave
0 0 m
230.4 0 l
230.4 172.8 l
0 172.8 l
cl
1.000 setgray
fill
grestore
gsave
29.952 19.008 m
214.272 19.008 l
214.272 158.976 l
29.952 158.976 l
cl
1.000 setgray
fill
grestore
0.800 setlinewidth
1 setlinejoin
0 setlinecap
[] 0 setdash
0.000 setgray
gsave
/o {
gsave
newpath
translate
0.8 setlinewidth
1 setlinejoin
0 setlinecap
0 0 m
0 -3.5 l

gsave
0.000 setgray
fill
grestore
stroke
grestore
} bind def
29.952 19.008 o
grestore
/DejaVuSerif findfont
9.000 scalefont
setfont
gsave
27.084813 5.164250 translate
0.000000 rotate
0.000000 0.000000 m /zero glyphshow
grestore
gsave
/o {
gsave
newpath
translate
0.8 setlinewidth
1 setlinejoin
0 setlinecap
0 0 m
0 -3.5 l

gsave
0.000 setgray
fill
grestore
stroke
grestore
} bind def
83.0702 19.008 o
grestore
gsave
80.202968 5.164250 translate
0.000000 rotate
0.000000 0.000000 m /two glyphshow
grestore
gsave
/o {
gsave
newpath
translate
0.8 setlinewidth
1 setlinejoin
0 setlinecap
0 0 m
0 -3.5 l

gsave
0.000 setgray
fill
grestore
stroke
grestore
} bind def
136.188 19.008 o
grestore
gsave
133.321124 5.164250 translate
0.000000 rotate
0.000000 0.000000 m /four glyphshow
grestore
gsave
/o {
gsave
newpath
translate
0.8 setlinewidth
1 setlinejoin
0 setlinecap
0 0 m
0 -3.5 l

gsave
0.000 setgray
fill
grestore
stroke
grestore
} bind def
189.306 19.008 o
grestore
gsave
186.439279 5.164250 translate
0.000000 rotate
0.000000 0.000000 m /six glyphshow
grestore
gsave
201.881375 5.289250 translate
0.000000 rotate
0.000000 0.000000 m /y glyphshow
5.068848 0.000000 m /comma glyphshow
7.929688 0.000000 m /space glyphshow
10.790527 0.000000 m /uni043C glyphshow
17.791016 0.000000 m /uni043C glyphshow
grestore
gsave
/o {
gsave
newpath
translate
0.8 setlinewidth
1 setlinejoin
0 setlinecap
0 0 m
-3.5 0 l

gsave
0.000 setgray
fill
grestore
stroke
grestore
} bind def
29.952 19.008 o
grestore
gsave
2.889500 15.586125 translate
0.000000 rotate
0.000000 0.000000 m /zero glyphshow
5.726074 0.000000 m /period glyphshow
8.586914 0.000000 m /two glyphshow
14.312988 0.000000 m /seven glyphshow
grestore
gsave
/o {
gsave
newpath
translate
0.8 setlinewidth
1 setlinejoin
0 setlinecap
0 0 m
-3.5 0 l

gsave
0.000 setgray
fill
grestore
stroke
grestore
} bind def
29.952 47.0016 o
grestore
gsave
2.889500 43.579725 translate
0.000000 rotate
0.000000 0.000000 m /zero glyphshow
5.726074 0.000000 m /period glyphshow
8.586914 0.000000 m /two glyphshow
14.312988 0.000000 m /eight glyphshow
grestore
gsave
/o {
gsave
newpath
translate
0.8 setlinewidth
1 setlinejoin
0 setlinecap
0 0 m
-3.5 0 l

gsave
0.000 setgray
fill
grestore
stroke
grestore
} bind def
29.952 74.9952 o
grestore
gsave
2.889500 71.573325 translate
0.000000 rotate
0.000000 0.000000 m /zero glyphshow
5.726074 0.000000 m /period glyphshow
8.586914 0.000000 m /two glyphshow
14.312988 0.000000 m /nine glyphshow
grestore
gsave
/o {
gsave
newpath
translate
0.8 setlinewidth
1 setlinejoin
0 setlinecap
0 0 m
-3.5 0 l

gsave
0.000 setgray
fill
grestore
stroke
grestore
} bind def
29.952 102.989 o
grestore
gsave
2.889500 99.566925 translate
0.000000 rotate
0.000000 0.000000 m /zero glyphshow
5.726074 0.000000 m /period glyphshow
8.586914 0.000000 m /three glyphshow
14.312988 0.000000 m /zero glyphshow
grestore
gsave
/o {
gsave
newpath
translate
0.8 setlinewidth
1 setlinejoin
0 setlinecap
0 0 m
-3.5 0 l

gsave
0.000 setgray
fill
grestore
stroke
grestore
} bind def
29.952 130.982 o
grestore
gsave
2.889500 127.560525 translate
0.000000 rotate
0.000000 0.000000 m /zero glyphshow
5.726074 0.000000 m /period glyphshow
8.586914 0.000000 m /three glyphshow
14.312988 0.000000 m /one glyphshow
grestore
gsave
12.952000 160.976000 translate
0.000000 rotate
/DejaVuSans-Oblique findfont
9.0 scalefont
setfont
0.000000 0.953125 moveto
/epsilon glyphshow

/DejaVuSans findfont
6.3 scalefont
setfont
4.864746 -0.523438 moveto
/n glyphshow

8.857617 -0.523438 moveto
/o glyphshow

12.712061 -0.523438 moveto
/m glyphshow


grestore
1.000 setlinewidth
1 setlinecap
gsave
184.3 140 29.95 19.01 clipbox
29.952 -1 m
29.952 173.8 l
29.952 173.8 l
stroke
grestore
gsave
184.3 140 29.95 19.01 clipbox
34.602536 -1 m
34.347723 22.997157 l
34.546169 34.264671 l
34.292125 37.204037 l
33.847394 39.653454 l
33.477365 42.102871 l
33.26595 45.042236 l
33.235689 47.981602 l
33.560805 53.370385 l
33.265909 61.208584 l
33.381979 67.576935 l
33.274909 74.435565 l
33.304474 80.314297 l
33.256208 89.622014 l
33.152606 173.8 l
33.152606 173.8 l
stroke
grestore
gsave
184.3 140 29.95 19.01 clipbox
39.252527 -1 m
38.683242 14.179384 l
38.584351 18.588273 l
38.771154 23.487107 l
39.202336 32.795153 l
39.090842 34.754621 l
38.741313 36.714088 l
38.315437 38.183936 l
37.243272 41.122972 l
36.814805 43.082769 l
36.537979 45.532185 l
36.475768 47.491653 l
36.704231 48.961171 l
37.169158 51.410917 l
37.202285 52.880435 l
36.935815 55.329852 l
36.610949 58.759167 l
36.58064 61.208584 l
36.861546 66.597366 l
36.598498 74.435565 l
36.694985 78.844449 l
36.555029 90.601912 l
36.394882 119.015343 l
36.353211 173.8 l
36.353211 173.8 l
stroke
grestore
gsave
184.3 140 29.95 19.01 clipbox
43.901421 -1 m
43.244389 11.239913 l
42.894591 18.098324 l
43.03449 21.527639 l
43.689606 29.365838 l
43.829887 32.795153 l
43.737011 34.264671 l
43.426816 35.73419 l
42.741107 37.693986 l
40.513795 42.102871 l
40.037867 44.062338 l
39.735842 46.511755 l
39.740039 47.491653 l
39.9324 48.471551 l
40.781746 51.410917 l
40.825369 52.880435 l
40.516226 54.839903 l
40.037949 57.779269 l
39.861167 60.228685 l
39.944663 61.698533 l
40.34838 65.617468 l
40.191812 68.066884 l
39.87118 72.476098 l
39.955788 74.925514 l
40.080177 77.864551 l
39.958621 81.293866 l
39.829872 86.192699 l
39.817342 92.56138 l
39.728438 101.379477 l
39.617007 117.545495 l
39.553817 173.8 l
39.553817 173.8 l
stroke
grestore
gsave
184.3 140 29.95 19.01 clipbox
48.548664 -1 m
47.79472 9.77033 l
47.209664 18.098324 l
47.357413 21.03769 l
47.887244 25.936523 l
48.428065 31.325306 l
48.4423 33.284773 l
48.232929 34.754621 l
47.720122 36.224139 l
46.979542 37.693986 l
44.241557 41.612921 l
43.656479 43.082769 l
43.193224 45.042236 l
42.97379 47.001704 l
43.108047 47.981602 l
43.717407 49.45112 l
44.286836 50.920968 l
44.463777 51.900537 l
44.445852 52.880435 l
44.152837 54.349954 l
43.475412 57.28932 l
43.177429 59.738736 l
43.216035 61.208584 l
43.648815 63.658 l
43.806608 65.127519 l
43.765808 66.597366 l
43.185984 73.455667 l
43.413911 79.334398 l
43.123169 86.192699 l
43.134795 91.581482 l
43.014129 98.929731 l
42.865286 109.707296 l
42.83445 127.343491 l
42.754422 173.8 l
42.754422 173.8 l
stroke
grestore
gsave
184.3 140 29.95 19.01 clipbox
53.193652 -1 m
52.349003 8.79039 l
51.525515 18.098324 l
51.666884 20.547741 l
52.159703 24.467005 l
53.017992 30.835357 l
53.094448 32.795153 l
52.935191 34.264671 l
52.627866 35.24457 l
51.883919 36.714088 l
51.196405 37.693986 l
47.783648 41.612921 l
47.063006 43.082769 l
46.605703 44.552287 l
46.249064 46.511755 l
46.279192 47.491653 l
46.628618 48.471551 l
47.887696 50.920968 l
48.097022 51.900537 l
48.062649 52.880435 l
47.687581 54.349954 l
46.845255 57.28932 l
46.521739 59.249116 l
46.485441 60.718634 l
46.73149 62.188153 l
47.237603 64.637569 l
47.257708 66.107417 l
47.004257 68.066884 l
46.540189 71.496199 l
46.496959 73.455667 l
46.804218 78.844449 l
46.429464 86.682648 l
46.444807 91.091532 l
46.277176 99.419681 l
45.955542 154.287074 l
45.955028 173.8 l
45.955028 173.8 l
stroke
grestore
gsave
184.3 140 29.95 19.01 clipbox
57.835626 -1 m
56.935967 7.810881 l
55.842315 18.098324 l
56.017643 20.547741 l
56.527448 23.977056 l
57.643213 30.835357 l
57.733151 32.795153 l
57.538307 34.264671 l
57.163238 35.24457 l
56.241813 36.714088 l
55.385718 37.693986 l
51.678383 41.122972 l
50.698881 42.59282 l
50.071964 44.062338 l
49.57231 46.022135 l
49.485824 47.001704 l
49.731319 47.981602 l
50.330047 48.961171 l
51.28029 50.431019 l
51.652494 51.410917 l
51.738888 52.390486 l
51.553253 53.370385 l
49.898625 58.759167 l
49.769504 60.228685 l
49.865888 61.208584 l
50.395106 63.168051 l
50.702412 64.637569 l
50.714219 66.107417 l
50.403051 68.066884 l
49.907513 71.00625 l
49.785506 72.965718 l
49.979716 74.925514 l
50.205475 77.374931 l
50.136565 79.334398 l
49.699815 85.703079 l
49.741327 91.091532 l
49.547132 98.440111 l
49.410209 105.788361 l
49.294028 113.136611 l
49.155652 170.943371 l
49.155633 173.8 l
49.155633 173.8 l
stroke
grestore
gsave
184.3 140 29.95 19.01 clipbox
62.473352 -1 m
61.488519 7.320901 l
60.39497 14.669009 l
60.174748 16.628806 l
60.181468 18.588273 l
60.441477 21.03769 l
61.073695 24.467005 l
62.211656 30.345736 l
62.38115 32.305204 l
62.268632 33.774722 l
61.957027 34.754621 l
61.370196 35.73419 l
60.106314 37.204037 l
58.897461 38.183936 l
56.26322 40.143403 l
55.230913 41.122972 l
54.433112 42.102871 l
53.599571 43.572389 l
53.069324 45.042236 l
52.750231 46.511755 l
52.843329 47.491653 l
53.391852 48.471551 l
54.878589 50.431019 l
55.290655 51.410917 l
55.366234 52.390486 l
55.129913 53.370385 l
53.309047 58.269218 l
53.080826 59.738736 l
53.111962 60.718634 l
53.328356 61.698533 l
54.170938 64.637569 l
54.206625 65.617468 l
54.009207 67.087315 l
53.159021 71.496199 l
53.09276 72.965718 l
53.329008 74.925514 l
53.564394 76.884982 l
53.536225 78.844449 l
53.007342 86.192699 l
53.069604 90.111963 l
52.523139 112.156713 l
52.495292 133.711843 l
52.379327 142.52994 l
52.3564 161.145704 l
52.356238 173.8 l
52.356238 173.8 l
stroke
grestore
gsave
184.3 140 29.95 19.01 clipbox
67.104482 -1 m
66.052475 6.831154 l
64.910776 13.689409 l
64.522283 16.138857 l
64.47834 18.098324 l
64.659187 20.057792 l
65.201284 22.997157 l
66.969101 31.325306 l
67.025027 32.795153 l
66.897778 33.774722 l
66.533749 34.754621 l
65.843856 35.73419 l
64.898163 36.714088 l
63.655959 37.693986 l
59.295591 40.633352 l
58.277073 41.612921 l
57.504203 42.59282 l
56.708973 44.062338 l
56.197895 45.532185 l
55.995955 46.511755 l
56.00472 47.001704 l
56.140296 47.491653 l
56.808587 48.471551 l
58.495788 50.431019 l
58.937193 51.410917 l
58.990307 52.390486 l
58.69482 53.370385 l
56.755004 57.779269 l
56.427243 59.249116 l
56.377199 60.228685 l
56.539759 61.208584 l
57.267982 63.168051 l
57.560466 64.147949 l
57.678996 65.127519 l
57.617728 66.107417 l
57.180388 68.066884 l
56.617282 70.516301 l
56.390467 72.476098 l
56.510075 73.945616 l
56.943565 76.884982 l
56.936355 78.3545 l
56.661232 80.803917 l
56.303001 84.233232 l
56.304117 86.192699 l
56.369858 90.111963 l
55.76687 110.197245 l
55.721877 122.444658 l
55.606581 140.570473 l
55.558917 150.368139 l
55.556843 173.8 l
55.556843 173.8 l
stroke
grestore
gsave
184.3 140 29.95 19.01 clipbox
71.724467 -1 m
70.623947 6.340978 l
69.45898 12.709705 l
68.830761 16.138857 l
68.795713 18.098324 l
69.009705 20.057792 l
69.50854 22.507208 l
71.616007 31.325306 l
71.675694 32.795153 l
71.528182 33.774722 l
71.108748 34.754621 l
70.307121 35.73419 l
69.18539 36.714088 l
67.722998 37.693986 l
63.511652 40.143403 l
62.24079 41.122972 l
61.265717 42.102871 l
60.539765 43.082769 l
59.793342 44.552287 l
59.316005 46.022135 l
59.270168 47.001704 l
59.451158 47.491653 l
60.254631 48.471551 l
61.757325 49.94107 l
62.415056 50.920968 l
62.656932 51.900537 l
62.464104 52.880435 l
61.700885 54.349954 l
60.644972 56.30975 l
60.07419 57.779269 l
59.720089 59.249116 l
59.683324 60.228685 l
59.889402 61.208584 l
61.119837 64.637569 l
61.128574 65.617468 l
60.838341 67.087315 l
59.839069 71.00625 l
59.692498 72.476098 l
59.845335 73.945616 l
60.324641 76.884982 l
60.303696 78.3545 l
59.985793 80.803917 l
59.590112 84.233232 l
59.602262 86.192699 l
59.684814 89.622014 l
59.435872 94.030898 l
59.342784 98.440111 l
59.199717 103.338945 l
58.946261 117.545495 l
58.803237 141.060422 l
58.758947 151.837657 l
58.757448 173.8 l
58.757448 173.8 l
stroke
grestore
gsave
184.3 140 29.95 19.01 clipbox
76.325066 -1 m
75.106323 6.340978 l
73.814905 12.709705 l
73.130206 16.138857 l
73.085433 17.608375 l
73.276467 19.568172 l
73.794403 22.017588 l
74.930902 25.936523 l
76.003041 29.855787 l
76.310998 31.815255 l
76.323977 32.795153 l
76.155239 33.774722 l
75.677671 34.754621 l
74.754848 35.73419 l
73.436148 36.714088 l
71.73468 37.693986 l
67.066058 40.143403 l
65.691276 41.122972 l
64.640796 42.102871 l
63.861626 43.082769 l
63.059871 44.552287 l
62.549325 46.022135 l
62.479599 46.511755 l
62.542495 47.001704 l
62.779675 47.491653 l
63.734778 48.471551 l
65.395641 49.94107 l
66.08361 50.920968 l
66.255377 51.410917 l
66.300612 51.900537 l
66.03853 52.880435 l
65.161808 54.349954 l
64.000083 56.30975 l
63.383048 57.779269 l
63.008147 59.249116 l
62.992212 60.228685 l
63.249889 61.208584 l
64.519524 64.147949 l
64.620739 65.127519 l
64.502577 66.107417 l
63.923471 68.066884 l
63.237592 70.516301 l
63.006493 71.986148 l
63.024515 72.965718 l
63.29824 74.435565 l
63.669016 76.395033 l
63.705048 77.864551 l
63.469955 79.824347 l
62.914041 83.743282 l
62.857202 85.21313 l
62.967047 90.111963 l
62.461116 102.848996 l
62.171311 116.075977 l
61.976477 143.999458 l
61.958161 167.024436 l
61.958053 173.8 l
61.958053 173.8 l
stroke
grestore
gsave
184.3 140 29.95 19.01 clipbox
80.892727 -1 m
79.65982 5.851227 l
78.385421 11.729718 l
77.414359 16.138857 l
77.381731 17.608375 l
77.608442 19.568172 l
78.189908 22.017588 l
79.443752 25.936523 l
80.494111 29.365838 l
80.896295 31.325306 l
80.960992 32.795153 l
80.770651 33.774722 l
80.233177 34.754621 l
79.17989 35.73419 l
77.642205 36.714088 l
75.683004 37.693986 l
71.450543 39.653454 l
69.786357 40.633352 l
68.50371 41.612921 l
67.540855 42.59282 l
66.836768 43.572389 l
66.100809 45.042236 l
65.77492 46.022135 l
65.719554 46.511755 l
65.824699 47.001704 l
66.13033 47.491653 l
67.254095 48.471551 l
69.064088 49.94107 l
69.767745 50.920968 l
69.925832 51.410917 l
69.943009 51.900537 l
69.597716 52.880435 l
68.601312 54.349954 l
67.338607 56.30975 l
66.680803 57.779269 l
66.291526 59.249116 l
66.305145 60.228685 l
66.623279 61.208584 l
68.010147 64.147949 l
68.091137 65.127519 l
67.935213 66.107417 l
67.279442 68.066884 l
66.658765 70.026352 l
66.348663 71.496199 l
66.297298 72.476098 l
66.535242 73.945616 l
67.056568 76.395033 l
67.0761 77.864551 l
66.802083 79.824347 l
66.252517 83.253333 l
66.142168 84.723181 l
66.157576 91.581482 l
65.913568 95.500746 l
65.546865 106.76826 l
65.421702 111.667093 l
65.378571 126.853542 l
65.259231 139.100625 l
65.172842 144.979357 l
65.158658 173.8 l
65.158658 173.8 l
stroke
grestore
gsave
184.3 140 29.95 19.01 clipbox
85.407203 -1 m
84.184784 5.361226 l
82.83002 11.239913 l
81.67341 16.138857 l
81.657533 17.608375 l
81.923706 19.568172 l
82.420659 21.527639 l
83.406743 24.467005 l
85.07415 29.365838 l
85.506077 31.325306 l
85.572582 32.795153 l
85.361302 33.774722 l
85.124688 34.264671 l
84.764097 34.754621 l
84.250666 35.24457 l
82.745958 36.224139 l
80.725744 37.204037 l
74.014802 40.143403 l
72.468665 41.122972 l
71.297923 42.102871 l
70.437354 43.082769 l
69.548963 44.552287 l
68.992957 46.022135 l
68.960565 46.511755 l
69.120577 47.001704 l
69.508417 47.491653 l
70.817882 48.471551 l
72.215268 49.45112 l
73.183861 50.431019 l
73.467036 50.920968 l
73.602151 51.410917 l
73.581808 51.900537 l
73.138649 52.880435 l
70.395431 56.79937 l
69.797954 58.269218 l
69.570576 59.249116 l
69.623724 60.228685 l
70.011869 61.208584 l
71.372149 63.658 l
71.569902 64.637569 l
71.485597 65.617468 l
71.011879 67.087315 l
69.957712 70.026352 l
69.634801 71.496199 l
69.601439 72.476098 l
69.891983 73.945616 l
70.383293 75.905083 l
70.476121 77.374931 l
70.313289 78.844449 l
69.476921 83.743282 l
69.441524 85.21313 l
69.605171 89.132065 l
69.389458 92.071431 l
69.178517 95.500746 l
68.834216 105.788361 l
68.665351 110.197245 l
68.607735 120.484861 l
68.504605 138.121056 l
68.387173 143.019889 l
68.359655 159.186236 l
68.359263 173.8 l
68.359263 173.8 l
stroke
grestore
gsave
184.3 140 29.95 19.01 clipbox
89.840761 -1 m
88.547165 5.361226 l
87.236819 10.750176 l
85.893209 16.138857 l
85.898901 17.608375 l
86.104079 19.078222 l
86.602459 21.03769 l
87.636601 23.977056 l
89.610931 29.365838 l
90.069718 31.325306 l
90.138258 32.795153 l
89.908248 33.774722 l
89.650317 34.264671 l
89.254663 34.754621 l
88.68491 35.24457 l
86.976538 36.224139 l
84.66307 37.204037 l
78.384797 39.653454 l
76.540061 40.633352 l
75.138756 41.612921 l
74.097193 42.59282 l
73.339262 43.572389 l
72.541119 45.042236 l
72.204006 46.022135 l
72.20525 46.511755 l
72.434851 47.001704 l
72.920111 47.491653 l
74.431597 48.471551 l
75.933253 49.45112 l
76.914396 50.431019 l
77.180461 50.920968 l
77.282265 51.410917 l
77.214081 51.900537 l
76.657986 52.880435 l
73.961161 56.30975 l
73.240492 57.779269 l
72.926492 58.759167 l
72.850391 59.738736 l
73.144002 60.718634 l
74.08456 62.188153 l
74.679761 63.168051 l
75.012372 64.147949 l
75.025672 65.127519 l
74.773925 66.107417 l
73.000383 71.00625 l
72.882858 71.986148 l
72.987385 72.965718 l
73.86499 76.884982 l
73.74134 78.3545 l
72.713386 84.723181 l
72.8512 90.111963 l
72.410245 97.460213 l
72.26455 101.379477 l
71.880415 110.687195 l
71.828023 121.954709 l
71.710126 138.121056 l
71.588588 143.019889 l
71.560331 158.696287 l
71.559867 173.8 l
71.559867 173.8 l
stroke
grestore
gsave
184.3 140 29.95 19.01 clipbox
94.15808 -1 m
92.927429 4.871451 l
91.578007 10.260276 l
90.054744 16.138857 l
90.086848 17.608375 l
90.325601 19.078222 l
90.874146 21.03769 l
91.986212 23.977056 l
93.917224 28.875889 l
94.46837 30.835357 l
94.64953 32.305204 l
94.549337 33.284773 l
94.110116 34.264671 l
93.683657 34.754621 l
93.060892 35.24457 l
91.14165 36.224139 l
88.515731 37.204037 l
82.907423 39.163505 l
80.727861 40.143403 l
79.066093 41.122972 l
77.82061 42.102871 l
76.915268 43.082769 l
75.97434 44.552287 l
75.541872 45.532185 l
75.409159 46.022135 l
75.457114 46.511755 l
75.773297 47.001704 l
76.372528 47.491653 l
80.26229 49.94107 l
80.66793 50.431019 l
80.906325 50.920968 l
80.963396 51.410917 l
80.83624 51.900537 l
80.152062 52.880435 l
77.570216 55.819801 l
76.711736 57.28932 l
76.185799 58.759167 l
76.149495 59.738736 l
76.524624 60.718634 l
78.409724 63.658 l
78.546081 64.637569 l
78.357867 65.617468 l
77.732181 67.087315 l
76.862438 69.046783 l
76.274086 71.00625 l
76.173337 71.986148 l
76.320418 72.965718 l
77.23868 76.395033 l
77.17261 77.864551 l
76.760202 79.824347 l
76.244733 82.273764 l
75.998775 84.233232 l
76.078401 85.703079 l
76.215941 88.152496 l
76.141816 90.111963 l
75.67998 96.970264 l
75.54027 100.889528 l
75.132321 109.217676 l
75.053559 117.055875 l
74.913993 138.121056 l
74.794785 142.52994 l
74.761308 156.246871 l
74.760471 173.8 l
74.760471 173.8 l
stroke
grestore
gsave
184.3 140 29.95 19.01 clipbox
98.316722 -1 m
97.066225 4.871451 l
95.681031 10.260276 l
94.171797 15.648908 l
94.14921 17.118755 l
94.360052 18.588273 l
94.899395 20.547741 l
95.833811 22.997157 l
98.436321 29.365838 l
98.936597 31.325306 l
99.031881 32.305204 l
98.92939 33.284773 l
98.76007 33.774722 l
98.472691 34.264671 l
98.023193 34.754621 l
97.355514 35.24457 l
96.42477 35.73419 l
93.817829 36.714088 l
86.240925 39.163505 l
83.98954 40.143403 l
82.293171 41.122972 l
81.028965 42.102871 l
80.115825 43.082769 l
79.161807 44.552287 l
78.725413 45.532185 l
78.610174 46.022135 l
78.72072 46.511755 l
79.142866 47.001704 l
79.873772 47.491653 l
83.497969 49.45112 l
84.060478 49.94107 l
84.443137 50.431019 l
84.64219 50.920968 l
84.641987 51.410917 l
84.444 51.900537 l
83.61692 52.880435 l
81.64314 54.839903 l
80.50464 56.30975 l
79.749537 57.779269 l
79.437807 58.759167 l
79.389843 59.249116 l
79.454243 59.738736 l
79.92438 60.718634 l
81.753726 63.168051 l
82.037272 64.147949 l
81.941492 65.127519 l
81.565983 66.107417 l
79.962283 69.536732 l
79.540875 71.00625 l
79.464655 71.986148 l
79.661977 72.965718 l
80.591283 75.905083 l
80.639269 76.884982 l
80.431374 78.3545 l
79.355945 83.253333 l
79.286659 84.723181 l
79.525526 88.152496 l
79.429928 90.111963 l
78.950102 96.480315 l
78.785325 100.889528 l
78.354539 109.217676 l
78.274604 117.055875 l
78.145348 137.631107 l
78.008789 141.550042 l
77.963079 151.837657 l
77.961075 173.8 l
77.961075 173.8 l
stroke
grestore
gsave
184.3 140 29.95 19.01 clipbox
102.267935 -1 m
101.143365 4.381598 l
99.912995 9.280451 l
98.59526 13.689409 l
98.191428 15.158958 l
98.105937 16.628806 l
98.282517 18.098324 l
98.803811 20.057792 l
99.74659 22.507208 l
102.800211 29.855787 l
103.157064 31.325306 l
103.257083 32.305204 l
103.157306 33.284773 l
102.987821 33.774722 l
102.697218 34.264671 l
102.236676 34.754621 l
101.538633 35.24457 l
100.538767 35.73419 l
97.640608 36.714088 l
90.898431 38.673556 l
88.254279 39.653454 l
86.262813 40.633352 l
84.784543 41.612921 l
83.708692 42.59282 l
82.928274 43.572389 l
82.094793 45.042236 l
81.809655 46.022135 l
82.001868 46.511755 l
82.551819 47.001704 l
84.5199 47.981602 l
86.592385 48.961171 l
87.346 49.45112 l
87.890292 49.94107 l
88.237943 50.431019 l
88.384791 50.920968 l
88.31364 51.410917 l
88.032351 51.900537 l
87.048346 52.880435 l
84.920202 54.839903 l
83.744964 56.30975 l
82.984518 57.779269 l
82.683275 58.759167 l
82.661583 59.249116 l
82.76727 59.738736 l
83.346757 60.718634 l
85.033114 62.678102 l
85.48913 63.658 l
85.516483 64.637569 l
85.187311 65.617468 l
83.057376 70.026352 l
82.739478 71.496199 l
82.855802 72.476098 l
83.424682 73.945616 l
83.922643 75.415134 l
84.03857 76.395033 l
83.96843 77.374931 l
83.636374 78.844449 l
82.883816 81.783815 l
82.562803 83.743282 l
82.635837 85.21313 l
82.809317 87.172597 l
82.809165 89.132065 l
82.220429 95.990695 l
82.066434 100.399579 l
81.867741 104.318514 l
81.526742 112.156713 l
81.479297 127.343491 l
81.38336 137.141158 l
81.227551 140.570473 l
81.166178 148.898621 l
81.16168 173.8 l
81.16168 173.8 l
stroke
grestore
gsave
184.3 140 29.95 19.01 clipbox
105.957641 -1 m
104.880606 4.381598 l
103.680784 9.280451 l
102.37592 13.689409 l
101.987464 15.158958 l
101.939507 16.628806 l
102.153386 18.098324 l
102.718205 20.057792 l
103.703309 22.507208 l
106.64757 29.365838 l
107.162581 31.325306 l
107.267072 32.305204 l
107.175891 33.284773 l
107.013161 33.774722 l
106.730412 34.264671 l
106.275419 34.754621 l
105.569627 35.24457 l
104.524252 35.73419 l
101.34789 36.714088 l
94.098921 38.673556 l
91.392304 39.653454 l
89.390096 40.633352 l
87.915118 41.612921 l
86.851749 42.59282 l
86.079178 43.572389 l
85.250156 45.042236 l
85.057277 45.532185 l
85.011272 46.022135 l
85.307798 46.511755 l
86.009842 47.001704 l
88.294164 47.981602 l
90.492522 48.961171 l
91.237348 49.45112 l
91.749907 49.94107 l
92.049451 50.431019 l
92.129968 50.920968 l
91.973046 51.410917 l
91.59554 51.900537 l
90.441929 52.880435 l
88.667718 54.349954 l
87.313371 55.819801 l
86.667834 56.79937 l
86.033304 58.269218 l
85.923359 58.759167 l
85.936125 59.249116 l
86.091734 59.738736 l
86.79561 60.718634 l
88.619528 62.678102 l
89.041583 63.658 l
88.994088 64.637569 l
88.580297 65.617468 l
86.671037 69.046783 l
86.165453 70.516301 l
86.009164 71.496199 l
86.186999 72.476098 l
87.419927 75.905083 l
87.408595 76.884982 l
87.093342 78.3545 l
86.151754 81.783815 l
85.827412 83.743282 l
85.943472 85.21313 l
86.124108 87.172597 l
86.104301 89.132065 l
85.490639 95.500746 l
85.308303 100.399579 l
85.123889 103.828894 l
84.924195 106.27831 l
84.775609 110.197245 l
84.714062 119.994912 l
84.631858 136.651208 l
84.452776 139.590574 l
84.373594 145.959255 l
84.362283 173.8 l
84.362283 173.8 l
stroke
grestore
gsave
184.3 140 29.95 19.01 clipbox
109.327676 -1 m
108.338287 4.381598 l
107.208139 9.280451 l
105.952732 13.689409 l
105.591739 15.158958 l
105.586798 16.628806 l
105.837652 18.098324 l
106.43926 20.057792 l
107.450518 22.507208 l
110.209072 28.875889 l
110.783846 30.835357 l
110.98787 32.305204 l
110.911419 33.284773 l
110.501691 34.264671 l
110.0732 34.754621 l
109.391388 35.24457 l
108.339905 35.73419 l
106.82374 36.224139 l
95.715613 39.163505 l
93.377818 40.143403 l
91.678431 41.122972 l
90.438939 42.102871 l
89.561966 43.082769 l
88.620974 44.552287 l
88.206914 45.532185 l
88.220017 46.022135 l
88.647401 46.511755 l
89.528153 47.001704 l
94.451048 48.961171 l
95.170514 49.45112 l
95.636619 49.94107 l
95.873874 50.431019 l
95.872573 50.920968 l
95.61394 51.410917 l
94.489277 52.390486 l
92.474811 53.860334 l
91.380388 54.839903 l
90.511212 55.819801 l
89.867943 56.79937 l
89.248456 58.269218 l
89.159713 58.759167 l
89.216406 59.249116 l
89.431372 59.738736 l
90.275149 60.718634 l
91.847535 62.188153 l
92.481876 63.168051 l
92.60003 63.658 l
92.589585 64.147949 l
92.242228 65.127519 l
90.972056 67.087315 l
90.129811 68.556833 l
89.545564 70.026352 l
89.301468 71.00625 l
89.35975 71.986148 l
89.756903 72.965718 l
90.665328 74.925514 l
90.839522 75.905083 l
90.788605 76.884982 l
90.411471 78.3545 l
89.512933 81.293866 l
89.090731 83.743282 l
89.256096 85.21313 l
89.440178 87.172597 l
89.39568 89.132065 l
88.773991 94.520847 l
88.473573 101.379477 l
87.968253 112.156713 l
87.919614 127.343491 l
87.833954 136.651208 l
87.667075 139.100625 l
87.577983 144.979357 l
87.562888 173.392787 l
87.562887 173.8 l
87.562887 173.8 l
stroke
grestore
gsave
184.3 140 29.95 19.01 clipbox
112.317909 -1 m
111.458582 4.381598 l
110.441828 9.280451 l
109.421256 13.199618 l
108.957912 15.158958 l
108.999652 16.628806 l
109.284404 18.098324 l
109.911405 20.057792 l
111.143499 22.997157 l
113.238576 27.895991 l
114.01289 30.345736 l
114.284844 31.815255 l
114.320363 32.795153 l
114.141347 33.774722 l
113.915405 34.264671 l
113.537732 34.754621 l
112.92034 35.24457 l
111.922284 35.73419 l
110.382124 36.224139 l
100.184594 38.673556 l
97.433959 39.653454 l
95.474009 40.633352 l
94.050405 41.612921 l
93.04873 42.59282 l
92.005483 44.062338 l
91.51802 45.042236 l
91.347467 45.532185 l
91.442501 46.022135 l
92.031438 46.511755 l
93.119579 47.001704 l
97.456232 48.471551 l
98.467295 48.961171 l
99.142955 49.45112 l
99.546774 49.94107 l
99.706457 50.431019 l
99.606398 50.920968 l
99.229055 51.410917 l
97.874542 52.390486 l
95.690693 53.860334 l
94.561482 54.839903 l
93.683569 55.819801 l
93.049986 56.79937 l
92.612373 57.779269 l
92.394613 58.759167 l
92.506035 59.249116 l
92.790574 59.738736 l
93.789926 60.718634 l
95.483446 62.188153 l
95.858399 62.678102 l
96.084665 63.168051 l
96.161919 63.658 l
96.101053 64.147949 l
95.645233 65.127519 l
93.359758 68.556833 l
92.774048 70.026352 l
92.543478 71.00625 l
92.550075 71.496199 l
92.885826 72.476098 l
94.11718 74.925514 l
94.261417 75.905083 l
94.163552 76.884982 l
93.719687 78.3545 l
92.882589 80.803917 l
92.386124 83.253333 l
92.394638 84.233232 l
92.757362 87.172597 l
92.75436 88.642116 l
92.050657 94.030898 l
91.982646 97.950162 l
91.907798 99.419681 l
91.709401 101.379477 l
91.183367 112.646662 l
91.140608 128.813009 l
91.102543 136.161259 l
90.906465 138.121056 l
90.795141 142.52994 l
90.764235 157.22644 l
90.763491 173.8 l
90.763491 173.8 l
stroke
grestore
gsave
184.3 140 29.95 19.01 clipbox
114.870775 -1 m
114.181236 4.381598 l
113.323259 9.280451 l
112.426831 13.199618 l
112.074463 14.669009 l
112.030691 15.648908 l
112.204936 17.118755 l
112.72561 19.078222 l
113.642482 21.527639 l
116.181542 27.895991 l
116.863369 30.345736 l
117.140816 32.305204 l
117.108396 33.284773 l
116.839295 34.264671 l
116.538279 34.754621 l
116.031511 35.24457 l
115.167064 35.73419 l
113.706655 36.224139 l
101.576423 39.163505 l
99.304014 40.143403 l
97.689865 41.122972 l
96.538455 42.102871 l
95.73319 43.082769 l
94.842722 44.552287 l
94.481313 45.532185 l
94.687277 46.022135 l
95.472766 46.511755 l
96.798593 47.001704 l
101.556435 48.471551 l
102.539241 48.961171 l
103.150997 49.45112 l
103.475701 49.94107 l
103.5414 50.431019 l
103.324067 50.920968 l
102.810095 51.410917 l
101.207627 52.390486 l
99.562282 53.370385 l
98.25076 54.349954 l
97.239529 55.329852 l
96.491334 56.30975 l
95.983631 57.28932 l
95.650136 58.269218 l
95.631096 58.759167 l
95.809371 59.249116 l
96.174462 59.738736 l
97.344829 60.718634 l
98.643927 61.698533 l
99.509202 62.678102 l
99.697339 63.168051 l
99.724122 63.658 l
99.603894 64.147949 l
99.027485 65.127519 l
96.831012 68.066884 l
96.157334 69.536732 l
95.865879 70.516301 l
95.781633 71.00625 l
95.82588 71.496199 l
96.25882 72.476098 l
97.406059 74.435565 l
97.662403 75.415134 l
97.632835 76.395033 l
97.379759 77.374931 l
96.016433 81.293866 l
95.619298 83.743282 l
95.898729 85.21313 l
96.060443 86.682648 l
96.056588 88.642116 l
95.416234 92.56138 l
95.275314 95.010796 l
95.148493 99.419681 l
94.943233 101.379477 l
94.398723 113.136611 l
94.362611 130.282857 l
94.308153 136.161259 l
94.12907 137.631107 l
94.012365 141.060422 l
93.966122 151.837657 l
93.964094 173.8 l
93.964094 173.8 l
stroke
grestore
gsave
184.3 140 29.95 19.01 clipbox
116.941284 -1 m
116.393608 4.871451 l
115.710275 9.77033 l
114.953608 13.689409 l
114.773564 14.669009 l
114.814849 16.138857 l
115.085142 17.608375 l
115.823326 20.057792 l
118.65605 28.38594 l
119.134788 30.835357 l
119.285898 32.795153 l
119.210254 33.774722 l
118.89676 34.754621 l
118.544623 35.24457 l
117.902875 35.73419 l
116.684036 36.224139 l
112.160707 37.204037 l
107.621826 38.183936 l
104.369774 39.163505 l
102.17011 40.143403 l
100.624835 41.122972 l
99.539825 42.102871 l
98.458581 43.572389 l
97.929787 44.552287 l
97.612136 45.532185 l
97.965186 46.022135 l
98.986565 46.511755 l
102.482385 47.491653 l
105.73709 48.471551 l
106.663341 48.961171 l
107.189757 49.45112 l
107.417646 49.94107 l
107.371788 50.431019 l
107.016922 50.920968 l
106.347714 51.410917 l
101.993979 53.860334 l
100.822734 54.839903 l
99.952338 55.819801 l
99.361727 56.79937 l
98.970874 57.779269 l
98.838972 58.269218 l
98.873083 58.759167 l
99.131574 59.249116 l
99.588969 59.738736 l
100.945076 60.718634 l
102.341242 61.698533 l
102.842771 62.188153 l
103.178724 62.678102 l
103.316865 63.168051 l
103.282908 63.658 l
103.093957 64.147949 l
102.385282 65.127519 l
100.680294 67.087315 l
99.772681 68.556833 l
99.201079 70.026352 l
99.018188 71.00625 l
99.109546 71.496199 l
99.651314 72.476098 l
100.662049 73.945616 l
101.04928 74.925514 l
101.107002 75.905083 l
100.890424 76.884982 l
99.883407 79.334398 l
99.368957 80.803917 l
98.875256 83.253333 l
98.967466 84.233232 l
99.31083 85.703079 l
99.395535 87.662547 l
99.354814 88.642116 l
98.773313 91.581482 l
98.549531 94.030898 l
98.299935 99.90963 l
98.126306 102.359046 l
97.950676 104.808463 l
97.77865 106.27831 l
97.653083 110.197245 l
97.597571 120.97481 l
97.507822 136.161259 l
97.318915 137.631107 l
97.203156 141.550042 l
97.166071 154.287074 l
97.164698 173.8 l
97.164698 173.8 l
stroke
grestore
gsave
184.3 140 29.95 19.01 clipbox
118.515713 -1 m
118.150543 5.361226 l
117.670533 10.260276 l
117.0811 15.648908 l
117.411105 17.608375 l
118.230024 20.547741 l
119.645636 25.446574 l
120.225551 28.38594 l
120.508994 30.835357 l
120.595193 33.284773 l
120.429468 34.754621 l
120.252437 35.24457 l
119.893904 35.73419 l
119.095805 36.224139 l
117.393574 36.714088 l
110.268148 38.183936 l
107.074125 39.163505 l
104.974353 40.143403 l
103.515124 41.122972 l
102.51151 42.102871 l
101.500101 43.572389 l
101.00211 44.552287 l
100.745493 45.532185 l
101.289691 46.022135 l
102.590517 46.511755 l
109.996753 48.471551 l
110.834399 48.961171 l
111.253075 49.45112 l
111.365705 49.94107 l
111.189501 50.431019 l
110.674855 50.920968 l
108.782169 51.900537 l
106.684588 52.880435 l
105.078605 53.860334 l
103.902796 54.839903 l
103.049756 55.819801 l
102.492857 56.79937 l
102.134233 57.779269 l
102.022664 58.269218 l
102.125404 58.759167 l
102.478596 59.249116 l
103.040833 59.738736 l
106.564999 62.188153 l
106.864322 62.678102 l
106.939531 63.168051 l
106.833941 63.658 l
106.179774 64.637569 l
103.525458 67.576935 l
102.956076 68.556833 l
102.400631 70.026352 l
102.25658 71.00625 l
102.405456 71.496199 l
103.066083 72.476098 l
104.159776 73.945616 l
104.527285 74.925514 l
104.527355 75.905083 l
104.237367 76.884982 l
102.491715 81.293866 l
102.114498 83.253333 l
102.260189 84.233232 l
102.567362 85.21313 l
102.708189 86.682648 l
102.646676 88.642116 l
102.423206 89.622014 l
102.211304 90.601912 l
101.950469 92.071431 l
101.789173 94.520847 l
101.726557 98.929731 l
101.472122 100.399579 l
100.887642 109.217676 l
100.820148 119.015343 l
100.780662 135.671639 l
100.480447 138.121056 l
100.3876 143.019889 l
100.365599 163.595121 l
100.365301 173.8 l
100.365301 173.8 l
stroke
grestore
gsave
184.3 140 29.95 19.01 clipbox
119.633953 -1 m
119.407168 6.831154 l
119.051559 12.219808 l
118.852265 15.158958 l
119.108497 17.118755 l
119.961777 21.03769 l
120.624677 24.467005 l
120.965403 27.406371 l
121.127192 30.835357 l
121.122059 34.754621 l
120.973899 35.73419 l
120.652951 36.224139 l
119.634788 36.714088 l
111.055976 38.673556 l
108.60649 39.653454 l
107.002659 40.633352 l
105.858135 41.612921 l
105.118229 42.59282 l
104.268841 44.062338 l
103.899303 45.042236 l
103.889484 45.532185 l
104.677263 46.022135 l
106.304868 46.511755 l
112.961333 47.981602 l
114.331766 48.471551 l
115.04545 48.961171 l
115.333455 49.45112 l
115.311758 49.94107 l
114.985053 50.431019 l
114.286117 50.920968 l
112.03437 51.900537 l
109.759294 52.880435 l
108.117113 53.860334 l
106.949829 54.839903 l
106.123746 55.819801 l
105.608794 56.79937 l
105.288327 57.779269 l
105.205157 58.269218 l
105.39367 58.759167 l
105.857042 59.249116 l
107.386204 60.228685 l
109.15799 61.208584 l
109.856183 61.698533 l
110.313738 62.188153 l
110.562389 62.678102 l
110.560932 63.168051 l
110.372272 63.658 l
109.549103 64.637569 l
107.459149 66.597366 l
106.684591 67.576935 l
106.124706 68.556833 l
105.591841 70.026352 l
105.501638 71.00625 l
105.71888 71.496199 l
106.505649 72.476098 l
107.367887 73.455667 l
107.883387 74.435565 l
108.010838 74.925514 l
107.943145 75.905083 l
107.337001 77.374931 l
106.549629 78.844449 l
105.823186 80.803917 l
105.350972 83.253333 l
105.55819 84.233232 l
105.911833 85.21313 l
106.033306 86.682648 l
105.928805 88.642116 l
105.684391 89.622014 l
105.438476 90.601912 l
105.186006 92.071431 l
105.042072 94.520847 l
104.975916 98.929731 l
104.745658 99.90963 l
104.588651 102.359046 l
104.491714 104.318514 l
104.271455 105.298412 l
104.136043 107.747829 l
104.042513 115.586028 l
103.997459 135.671639 l
103.725828 137.141158 l
103.616668 140.080523 l
103.568274 150.368139 l
103.565905 173.8 l
103.565905 173.8 l
stroke
grestore
gsave
184.3 140 29.95 19.01 clipbox
120.391196 -1 m
120.273184 9.77033 l
120.164918 15.648908 l
120.6306 19.078222 l
121.116639 22.997157 l
121.295587 26.426472 l
121.315228 33.284773 l
121.288514 36.224139 l
121.005814 36.714088 l
119.636566 37.204037 l
115.165447 38.183936 l
112.230888 39.163505 l
110.410264 40.143403 l
109.172737 41.122972 l
108.375681 42.102871 l
107.292818 44.062338 l
106.968229 45.042236 l
107.055294 45.532185 l
108.147997 46.022135 l
110.152288 46.511755 l
117.458748 47.981602 l
118.717021 48.471551 l
119.24326 48.961171 l
119.375977 49.45112 l
119.221499 49.94107 l
118.742155 50.431019 l
117.836857 50.920968 l
111.855107 53.370385 l
110.493033 54.349954 l
109.525494 55.329852 l
108.916746 56.30975 l
108.551333 57.28932 l
108.392625 58.269218 l
108.68395 58.759167 l
109.273867 59.249116 l
111.059822 60.228685 l
112.97058 61.208584 l
113.672563 61.698533 l
114.086675 62.188153 l
114.268203 62.678102 l
114.175959 63.168051 l
113.892297 63.658 l
112.885403 64.637569 l
111.101874 66.107417 l
110.165207 67.087315 l
109.500928 68.066884 l
108.892761 69.536732 l
108.702763 70.516301 l
108.759405 71.00625 l
109.05553 71.496199 l
111.204827 73.945616 l
111.497254 74.925514 l
111.3514 75.905083 l
110.628958 77.374931 l
109.768166 78.844449 l
109.038897 80.803917 l
108.585474 83.253333 l
109.329633 85.703079 l
109.336665 87.662547 l
109.196879 88.642116 l
108.940698 89.622014 l
108.857823 90.111963 l
108.538891 91.091532 l
108.305973 93.541278 l
108.304943 95.990695 l
108.22024 98.929731 l
107.962202 99.90963 l
107.797676 102.848996 l
107.711929 104.318514 l
107.466496 105.298412 l
107.347748 107.747829 l
107.261378 116.565926 l
107.213511 135.671639 l
106.954212 136.651208 l
106.840077 138.610676 l
106.774975 145.469306 l
106.766508 173.8 l
106.766508 173.8 l
stroke
grestore
gsave
184.3 140 29.95 19.01 clipbox
120.90236 -1 m
121.115156 17.608375 l
121.411961 22.017588 l
121.448023 26.916422 l
121.446377 36.714088 l
121.124746 37.204037 l
114.69482 39.163505 l
113.050675 40.143403 l
111.947341 41.122972 l
111.273875 42.102871 l
110.302593 44.062338 l
110.029404 45.042236 l
110.257276 45.532185 l
111.726617 46.022135 l
117.121419 47.001704 l
119.825825 47.491653 l
121.007387 47.981602 l
121.303329 48.471551 l
121.382701 49.45112 l
121.272325 50.431019 l
120.91021 50.920968 l
119.819698 51.410917 l
116.870797 52.390486 l
114.790412 53.370385 l
113.454996 54.349954 l
112.526843 55.329852 l
111.982121 56.30975 l
111.667026 57.28932 l
111.573648 57.779269 l
111.593666 58.269218 l
112.002375 58.759167 l
112.735986 59.249116 l
114.800957 60.228685 l
116.833829 61.208584 l
117.525044 61.698533 l
117.880659 62.188153 l
117.97578 62.678102 l
117.778791 63.168051 l
117.38767 63.658 l
116.183004 64.637569 l
114.233728 66.107417 l
113.276475 67.087315 l
112.62354 68.066884 l
112.049862 69.536732 l
111.900593 70.516301 l
112.036268 71.00625 l
112.9258 71.986148 l
114.490238 73.455667 l
114.930399 74.435565 l
114.983038 74.925514 l
114.748244 75.905083 l
113.903878 77.374931 l
113.266777 78.3545 l
112.492138 79.824347 l
111.898818 82.273764 l
111.819027 83.253333 l
112.619948 85.21313 l
112.683819 86.682648 l
112.612558 88.152496 l
112.192108 89.622014 l
112.100502 90.111963 l
111.859551 90.601912 l
111.647187 92.071431 l
111.549191 94.520847 l
111.522913 98.440111 l
111.457356 98.929731 l
111.247097 99.419681 l
111.107388 100.889528 l
110.925272 104.318514 l
110.72598 104.808463 l
110.59933 106.27831 l
110.502461 112.156713 l
110.465528 129.302959 l
110.428571 135.671639 l
110.124772 136.651208 l
110.018522 139.100625 l
109.969733 148.898621 l
109.967111 173.8 l
109.967111 173.8 l
stroke
grestore
gsave
184.3 140 29.95 19.01 clipbox
121.261561 -1 m
121.493147 17.608375 l
121.580818 22.017588 l
121.580818 37.204037 l
121.134082 37.693986 l
118.126022 38.673556 l
116.300597 39.653454 l
115.176439 40.633352 l
114.691958 41.122972 l
114.153727 42.102871 l
113.169163 44.552287 l
113.084643 45.042236 l
113.512973 45.532185 l
115.443055 46.022135 l
121.018022 47.001704 l
121.559156 47.491653 l
121.580818 50.431019 l
121.544463 51.410917 l
121.047689 51.900537 l
118.587097 52.880435 l
116.950095 53.860334 l
115.907575 54.839903 l
115.220697 55.819801 l
114.775336 57.28932 l
114.7077 57.779269 l
114.818251 58.269218 l
115.355049 58.759167 l
117.365716 59.738736 l
119.808964 60.718634 l
120.628683 61.208584 l
121.065617 61.698533 l
121.213843 62.188153 l
121.228647 62.678102 l
121.089507 63.168051 l
120.761667 63.658 l
119.434351 64.637569 l
117.943135 65.617468 l
116.824133 66.597366 l
116.00917 67.576935 l
115.550262 68.556833 l
115.19859 69.536732 l
115.096551 70.516301 l
115.337401 71.00625 l
116.397303 71.986148 l
118.089816 73.455667 l
118.469912 74.435565 l
118.463845 74.925514 l
118.128534 75.905083 l
115.664957 79.824347 l
115.05637 82.763713 l
115.052958 83.253333 l
115.367995 83.743282 l
115.493742 84.233232 l
115.883842 84.723181 l
116.024289 85.703079 l
115.958303 87.662547 l
115.911988 88.152496 l
115.51274 89.132065 l
115.334198 90.111963 l
115.054153 90.601912 l
114.87334 92.071431 l
114.775933 94.030898 l
114.823344 96.480315 l
114.775952 98.440111 l
114.684037 98.929731 l
114.444139 99.419681 l
114.308406 101.379477 l
114.128141 104.318514 l
113.901603 104.808463 l
113.787648 106.76826 l
113.701788 116.075977 l
113.642248 135.671639 l
113.369662 136.161259 l
113.238922 137.631107 l
113.177478 143.999458 l
113.167715 173.8 l
113.167715 173.8 l
stroke
grestore
gsave
184.3 140 29.95 19.01 clipbox
121.530833 -1 m
121.713614 37.693986 l
121.36211 38.183936 l
119.43613 39.163505 l
118.206705 40.143403 l
117.199948 41.612921 l
116.188467 44.552287 l
116.136051 45.042236 l
116.846406 45.532185 l
121.54166 46.511755 l
121.713614 47.001704 l
121.667635 52.390486 l
121.244189 52.880435 l
119.800877 53.860334 l
118.840601 54.839903 l
118.456875 55.329852 l
118.077519 56.30975 l
117.878134 57.28932 l
117.838121 57.779269 l
118.074922 58.269218 l
118.749066 58.759167 l
120.973826 59.738736 l
121.588276 60.228685 l
121.713614 61.208584 l
121.673494 64.637569 l
121.452644 65.127519 l
119.063255 67.576935 l
118.462297 69.046783 l
118.295169 70.026352 l
118.292434 70.516301 l
118.664936 71.00625 l
121.043914 72.965718 l
121.382017 73.455667 l
121.522017 74.435565 l
121.431245 75.415134 l
121.055859 76.395033 l
119.587443 78.3545 l
118.72993 80.314297 l
118.289047 83.253333 l
118.697916 83.743282 l
118.82526 84.233232 l
119.276346 84.723181 l
119.373824 85.703079 l
119.206902 88.152496 l
118.876062 88.642116 l
118.556735 90.111963 l
118.239831 90.601912 l
118.064581 92.56138 l
118.060167 94.520847 l
118.056258 97.950162 l
117.894692 98.929731 l
117.635072 99.419681 l
117.514331 101.869097 l
117.428655 103.828894 l
117.31494 104.318514 l
117.071436 104.808463 l
116.984828 107.25788 l
116.92213 120.97481 l
116.853891 135.671639 l
116.512023 136.161259 l
116.418664 137.631107 l
116.372466 145.959255 l
116.368318 173.8 l
116.368318 173.8 l
stroke
grestore
gsave
184.3 140 29.95 19.01 clipbox
121.747972 -1 m
121.846409 38.183936 l
121.825842 38.673556 l
121.611026 39.163505 l
120.438147 40.633352 l
120.114609 41.122972 l
119.186112 45.042236 l
120.304065 45.532185 l
121.822846 46.022135 l
121.846409 48.471551 l
121.823569 53.860334 l
121.576325 54.839903 l
121.16941 55.819801 l
120.951936 57.779269 l
121.842097 59.249116 l
121.806813 67.087315 l
121.383165 69.536732 l
121.386144 70.516301 l
121.811188 71.496199 l
121.846409 73.455667 l
121.745735 79.334398 l
121.597967 80.803917 l
121.4107 83.253333 l
121.669654 83.743282 l
121.816252 86.682648 l
121.698386 88.642116 l
121.563773 90.111963 l
121.344507 90.601912 l
121.203338 93.541278 l
121.253883 97.950162 l
121.222315 98.440111 l
120.794132 99.90963 l
120.649065 103.828894 l
120.216542 105.298412 l
120.141569 114.606459 l
120.06235 135.671639 l
119.647443 136.161259 l
119.589461 138.610676 l
119.569274 162.125602 l
119.568921 173.8 l
119.568921 173.8 l
stroke
grestore
gsave
184.3 140 29.95 19.01 clipbox
121.936388 -1 m
121.957532 42.59282 l
121.867288 45.042236 l
121.979205 46.022135 l
121.957574 173.8 l
121.957574 173.8 l
stroke
grestore
gsave
184.3 140 29.95 19.01 clipbox
122.112 -1 m
122.112 173.8 l
122.112 173.8 l
stroke
grestore
gsave
184.3 140 29.95 19.01 clipbox
122.287612 -1 m
122.266468 42.59282 l
122.356712 45.042236 l
122.244795 46.022135 l
122.266426 173.8 l
122.266426 173.8 l
stroke
grestore
gsave
184.3 140 29.95 19.01 clipbox
122.476028 -1 m
122.377591 38.183936 l
122.398158 38.673556 l
122.612974 39.163505 l
123.785853 40.633352 l
124.109391 41.122972 l
125.037888 45.042236 l
123.919935 45.532185 l
122.401154 46.022135 l
122.377591 48.471551 l
122.400431 53.860334 l
122.647675 54.839903 l
123.05459 55.819801 l
123.272064 57.779269 l
122.381903 59.249116 l
122.417187 67.087315 l
122.840835 69.536732 l
122.837856 70.516301 l
122.412812 71.496199 l
122.377591 73.455667 l
122.478265 79.334398 l
122.626033 80.803917 l
122.8133 83.253333 l
122.554346 83.743282 l
122.407748 86.682648 l
122.525614 88.642116 l
122.660227 90.111963 l
122.879493 90.601912 l
123.020662 93.541278 l
122.970117 97.950162 l
123.001685 98.440111 l
123.429868 99.90963 l
123.574935 103.828894 l
124.007458 105.298412 l
124.082431 114.606459 l
124.16165 135.671639 l
124.576557 136.161259 l
124.634539 138.610676 l
124.654726 162.125602 l
124.655079 173.8 l
124.655079 173.8 l
stroke
grestore
gsave
184.3 140 29.95 19.01 clipbox
122.693167 -1 m
122.510386 37.693986 l
122.86189 38.183936 l
124.78787 39.163505 l
126.017295 40.143403 l
127.024052 41.612921 l
128.035533 44.552287 l
128.087949 45.042236 l
127.377594 45.532185 l
122.68234 46.511755 l
122.510386 47.001704 l
122.556365 52.390486 l
122.979811 52.880435 l
124.423123 53.860334 l
125.383399 54.839903 l
125.767125 55.329852 l
126.146481 56.30975 l
126.345866 57.28932 l
126.385879 57.779269 l
126.149078 58.269218 l
125.474934 58.759167 l
123.250174 59.738736 l
122.635724 60.228685 l
122.510386 61.208584 l
122.550506 64.637569 l
122.771356 65.127519 l
125.160745 67.576935 l
125.761703 69.046783 l
125.928831 70.026352 l
125.931566 70.516301 l
125.559064 71.00625 l
123.180086 72.965718 l
122.841983 73.455667 l
122.701983 74.435565 l
122.792755 75.415134 l
123.168141 76.395033 l
124.636557 78.3545 l
125.49407 80.314297 l
125.934953 83.253333 l
125.526084 83.743282 l
125.39874 84.233232 l
124.947654 84.723181 l
124.850176 85.703079 l
125.017098 88.152496 l
125.347938 88.642116 l
125.667265 90.111963 l
125.984169 90.601912 l
126.159419 92.56138 l
126.163833 94.520847 l
126.167742 97.950162 l
126.329308 98.929731 l
126.588928 99.419681 l
126.709669 101.869097 l
126.795345 103.828894 l
126.90906 104.318514 l
127.152564 104.808463 l
127.239172 107.25788 l
127.30187 120.97481 l
127.370109 135.671639 l
127.711977 136.161259 l
127.805336 137.631107 l
127.851534 145.959255 l
127.855682 173.8 l
127.855682 173.8 l
stroke
grestore
gsave
184.3 140 29.95 19.01 clipbox
122.962439 -1 m
122.730853 17.608375 l
122.643182 22.017588 l
122.643182 37.204037 l
123.089918 37.693986 l
126.097978 38.673556 l
127.923403 39.653454 l
129.047561 40.633352 l
129.532042 41.122972 l
130.070273 42.102871 l
131.054837 44.552287 l
131.139357 45.042236 l
130.711027 45.532185 l
128.780945 46.022135 l
123.205978 47.001704 l
122.664844 47.491653 l
122.643182 50.431019 l
122.679537 51.410917 l
123.176311 51.900537 l
125.636903 52.880435 l
127.273905 53.860334 l
128.316425 54.839903 l
129.003303 55.819801 l
129.448664 57.28932 l
129.5163 57.779269 l
129.405749 58.269218 l
128.868951 58.759167 l
126.858284 59.738736 l
124.415036 60.718634 l
123.595317 61.208584 l
123.158383 61.698533 l
123.010157 62.188153 l
122.995353 62.678102 l
123.134493 63.168051 l
123.462333 63.658 l
124.789649 64.637569 l
126.280865 65.617468 l
127.399867 66.597366 l
128.21483 67.576935 l
128.673738 68.556833 l
129.02541 69.536732 l
129.127449 70.516301 l
128.886599 71.00625 l
127.826697 71.986148 l
126.134184 73.455667 l
125.754088 74.435565 l
125.760155 74.925514 l
126.095466 75.905083 l
128.559043 79.824347 l
129.16763 82.763713 l
129.171042 83.253333 l
128.856005 83.743282 l
128.730258 84.233232 l
128.340158 84.723181 l
128.199711 85.703079 l
128.265697 87.662547 l
128.312012 88.152496 l
128.71126 89.132065 l
128.889802 90.111963 l
129.169847 90.601912 l
129.35066 92.071431 l
129.448067 94.030898 l
129.400656 96.480315 l
129.448048 98.440111 l
129.539963 98.929731 l
129.779861 99.419681 l
129.915594 101.379477 l
130.095859 104.318514 l
130.322397 104.808463 l
130.436352 106.76826 l
130.522212 116.075977 l
130.581752 135.671639 l
130.854338 136.161259 l
130.985078 137.631107 l
131.046522 143.999458 l
131.056285 173.8 l
131.056285 173.8 l
stroke
grestore
gsave
184.3 140 29.95 19.01 clipbox
123.32164 -1 m
123.108844 17.608375 l
122.812039 22.017588 l
122.775977 26.916422 l
122.777623 36.714088 l
123.099254 37.204037 l
129.52918 39.163505 l
131.173325 40.143403 l
132.276659 41.122972 l
132.950125 42.102871 l
133.921407 44.062338 l
134.194596 45.042236 l
133.966724 45.532185 l
132.497383 46.022135 l
127.102581 47.001704 l
124.398175 47.491653 l
123.216613 47.981602 l
122.920671 48.471551 l
122.841299 49.45112 l
122.951675 50.431019 l
123.31379 50.920968 l
124.404302 51.410917 l
127.353203 52.390486 l
129.433588 53.370385 l
130.769004 54.349954 l
131.697157 55.329852 l
132.241879 56.30975 l
132.556974 57.28932 l
132.650352 57.779269 l
132.630334 58.269218 l
132.221625 58.759167 l
131.488014 59.249116 l
129.423043 60.228685 l
127.390171 61.208584 l
126.698956 61.698533 l
126.343341 62.188153 l
126.24822 62.678102 l
126.445209 63.168051 l
126.83633 63.658 l
128.040996 64.637569 l
129.990272 66.107417 l
130.947525 67.087315 l
131.60046 68.066884 l
132.174138 69.536732 l
132.323407 70.516301 l
132.187732 71.00625 l
131.2982 71.986148 l
129.733762 73.455667 l
129.293601 74.435565 l
129.240962 74.925514 l
129.475756 75.905083 l
130.320122 77.374931 l
130.957223 78.3545 l
131.731862 79.824347 l
132.325182 82.273764 l
132.404973 83.253333 l
131.604052 85.21313 l
131.540181 86.682648 l
131.611442 88.152496 l
132.031892 89.622014 l
132.123498 90.111963 l
132.364449 90.601912 l
132.576813 92.071431 l
132.674809 94.520847 l
132.701087 98.440111 l
132.766644 98.929731 l
132.976903 99.419681 l
133.116612 100.889528 l
133.298728 104.318514 l
133.49802 104.808463 l
133.62467 106.27831 l
133.721539 112.156713 l
133.758472 129.302959 l
133.795429 135.671639 l
134.099228 136.651208 l
134.205478 139.100625 l
134.254267 148.898621 l
134.256889 173.8 l
134.256889 173.8 l
stroke
grestore
gsave
184.3 140 29.95 19.01 clipbox
123.832804 -1 m
123.950816 9.77033 l
124.059082 15.648908 l
123.5934 19.078222 l
123.107361 22.997157 l
122.928413 26.426472 l
122.908772 33.284773 l
122.935486 36.224139 l
123.218186 36.714088 l
124.587434 37.204037 l
129.058553 38.183936 l
131.993112 39.163505 l
133.813736 40.143403 l
135.051263 41.122972 l
135.848319 42.102871 l
136.931182 44.062338 l
137.255771 45.042236 l
137.168706 45.532185 l
136.076003 46.022135 l
134.071712 46.511755 l
126.765252 47.981602 l
125.506979 48.471551 l
124.98074 48.961171 l
124.848023 49.45112 l
125.002501 49.94107 l
125.481845 50.431019 l
126.387143 50.920968 l
132.368893 53.370385 l
133.730967 54.349954 l
134.698506 55.329852 l
135.307254 56.30975 l
135.672667 57.28932 l
135.831375 58.269218 l
135.54005 58.759167 l
134.950133 59.249116 l
133.164178 60.228685 l
131.25342 61.208584 l
130.551437 61.698533 l
130.137325 62.188153 l
129.955797 62.678102 l
130.048041 63.168051 l
130.331703 63.658 l
131.338597 64.637569 l
133.122126 66.107417 l
134.058793 67.087315 l
134.723072 68.066884 l
135.331239 69.536732 l
135.521237 70.516301 l
135.464595 71.00625 l
135.16847 71.496199 l
133.019173 73.945616 l
132.726746 74.925514 l
132.8726 75.905083 l
133.595042 77.374931 l
134.455834 78.844449 l
135.185103 80.803917 l
135.638526 83.253333 l
134.894367 85.703079 l
134.887335 87.662547 l
135.027121 88.642116 l
135.283302 89.622014 l
135.366177 90.111963 l
135.685109 91.091532 l
135.918027 93.541278 l
135.919057 95.990695 l
136.00376 98.929731 l
136.261798 99.90963 l
136.426324 102.848996 l
136.512071 104.318514 l
136.757504 105.298412 l
136.876252 107.747829 l
136.962622 116.565926 l
137.010489 135.671639 l
137.269788 136.651208 l
137.383923 138.610676 l
137.449025 145.469306 l
137.457492 173.8 l
137.457492 173.8 l
stroke
grestore
gsave
184.3 140 29.95 19.01 clipbox
124.590047 -1 m
124.816832 6.831154 l
125.172441 12.219808 l
125.371735 15.158958 l
125.115503 17.118755 l
124.262223 21.03769 l
123.599323 24.467005 l
123.258597 27.406371 l
123.096808 30.835357 l
123.101941 34.754621 l
123.250101 35.73419 l
123.571049 36.224139 l
124.589212 36.714088 l
133.168024 38.673556 l
135.61751 39.653454 l
137.221341 40.633352 l
138.365865 41.612921 l
139.105771 42.59282 l
139.955159 44.062338 l
140.324697 45.042236 l
140.334516 45.532185 l
139.546737 46.022135 l
137.919132 46.511755 l
131.262667 47.981602 l
129.892234 48.471551 l
129.17855 48.961171 l
128.890545 49.45112 l
128.912242 49.94107 l
129.238947 50.431019 l
129.937883 50.920968 l
132.18963 51.900537 l
134.464706 52.880435 l
136.106887 53.860334 l
137.274171 54.839903 l
138.100254 55.819801 l
138.615206 56.79937 l
138.935673 57.779269 l
139.018843 58.269218 l
138.83033 58.759167 l
138.366958 59.249116 l
136.837796 60.228685 l
135.06601 61.208584 l
134.367817 61.698533 l
133.910262 62.188153 l
133.661611 62.678102 l
133.663068 63.168051 l
133.851728 63.658 l
134.674897 64.637569 l
136.764851 66.597366 l
137.539409 67.576935 l
138.099294 68.556833 l
138.632159 70.026352 l
138.722362 71.00625 l
138.50512 71.496199 l
137.718351 72.476098 l
136.856113 73.455667 l
136.340613 74.435565 l
136.213162 74.925514 l
136.280855 75.905083 l
136.886999 77.374931 l
137.674371 78.844449 l
138.400814 80.803917 l
138.873028 83.253333 l
138.66581 84.233232 l
138.312167 85.21313 l
138.190694 86.682648 l
138.295195 88.642116 l
138.539609 89.622014 l
138.785524 90.601912 l
139.037994 92.071431 l
139.181928 94.520847 l
139.248084 98.929731 l
139.478342 99.90963 l
139.635349 102.359046 l
139.732286 104.318514 l
139.952545 105.298412 l
140.087957 107.747829 l
140.181487 115.586028 l
140.226541 135.671639 l
140.498172 137.141158 l
140.607332 140.080523 l
140.655726 150.368139 l
140.658095 173.8 l
140.658095 173.8 l
stroke
grestore
gsave
184.3 140 29.95 19.01 clipbox
125.708287 -1 m
126.073457 5.361226 l
126.553467 10.260276 l
127.1429 15.648908 l
126.812895 17.608375 l
125.993976 20.547741 l
124.578364 25.446574 l
123.998449 28.38594 l
123.715006 30.835357 l
123.628807 33.284773 l
123.794532 34.754621 l
123.971563 35.24457 l
124.330096 35.73419 l
125.128195 36.224139 l
126.830426 36.714088 l
133.955852 38.183936 l
137.149875 39.163505 l
139.249647 40.143403 l
140.708876 41.122972 l
141.71249 42.102871 l
142.723899 43.572389 l
143.22189 44.552287 l
143.478507 45.532185 l
142.934309 46.022135 l
141.633483 46.511755 l
134.227247 48.471551 l
133.389601 48.961171 l
132.970925 49.45112 l
132.858295 49.94107 l
133.034499 50.431019 l
133.549145 50.920968 l
135.441831 51.900537 l
137.539412 52.880435 l
139.145395 53.860334 l
140.321204 54.839903 l
141.174244 55.819801 l
141.731143 56.79937 l
142.089767 57.779269 l
142.201336 58.269218 l
142.098596 58.759167 l
141.745404 59.249116 l
141.183167 59.738736 l
137.659001 62.188153 l
137.359678 62.678102 l
137.284469 63.168051 l
137.390059 63.658 l
138.044226 64.637569 l
140.698542 67.576935 l
141.267924 68.556833 l
141.823369 70.026352 l
141.96742 71.00625 l
141.818544 71.496199 l
141.157917 72.476098 l
140.064224 73.945616 l
139.696715 74.925514 l
139.696645 75.905083 l
139.986633 76.884982 l
141.732285 81.293866 l
142.109502 83.253333 l
141.963811 84.233232 l
141.656638 85.21313 l
141.515811 86.682648 l
141.577324 88.642116 l
141.800794 89.622014 l
142.012696 90.601912 l
142.273531 92.071431 l
142.434827 94.520847 l
142.497443 98.929731 l
142.751878 100.399579 l
143.336358 109.217676 l
143.403852 119.015343 l
143.443338 135.671639 l
143.743553 138.121056 l
143.8364 143.019889 l
143.858401 163.595121 l
143.858699 173.8 l
143.858699 173.8 l
stroke
grestore
gsave
184.3 140 29.95 19.01 clipbox
127.282716 -1 m
127.830392 4.871451 l
128.513725 9.77033 l
129.270392 13.689409 l
129.450436 14.669009 l
129.409151 16.138857 l
129.138858 17.608375 l
128.400674 20.057792 l
125.56795 28.38594 l
125.089212 30.835357 l
124.938102 32.795153 l
125.013746 33.774722 l
125.32724 34.754621 l
125.679377 35.24457 l
126.321125 35.73419 l
127.539964 36.224139 l
132.063293 37.204037 l
136.602174 38.183936 l
139.854226 39.163505 l
142.05389 40.143403 l
143.599165 41.122972 l
144.684175 42.102871 l
145.765419 43.572389 l
146.294213 44.552287 l
146.611864 45.532185 l
146.258814 46.022135 l
145.237435 46.511755 l
141.741615 47.491653 l
138.48691 48.471551 l
137.560659 48.961171 l
137.034243 49.45112 l
136.806354 49.94107 l
136.852212 50.431019 l
137.207078 50.920968 l
137.876286 51.410917 l
142.230021 53.860334 l
143.401266 54.839903 l
144.271662 55.819801 l
144.862273 56.79937 l
145.253126 57.779269 l
145.385028 58.269218 l
145.350917 58.759167 l
145.092426 59.249116 l
144.635031 59.738736 l
143.278924 60.718634 l
141.882758 61.698533 l
141.381229 62.188153 l
141.045276 62.678102 l
140.907135 63.168051 l
140.941092 63.658 l
141.130043 64.147949 l
141.838718 65.127519 l
143.543706 67.087315 l
144.451319 68.556833 l
145.022921 70.026352 l
145.205812 71.00625 l
145.114454 71.496199 l
144.572686 72.476098 l
143.561951 73.945616 l
143.17472 74.925514 l
143.116998 75.905083 l
143.333576 76.884982 l
144.340593 79.334398 l
144.855043 80.803917 l
145.348744 83.253333 l
145.256534 84.233232 l
144.91317 85.703079 l
144.828465 87.662547 l
144.869186 88.642116 l
145.450687 91.581482 l
145.674469 94.030898 l
145.924065 99.90963 l
146.097694 102.359046 l
146.273324 104.808463 l
146.44535 106.27831 l
146.570917 110.197245 l
146.626429 120.97481 l
146.716178 136.161259 l
146.905085 137.631107 l
147.020844 141.550042 l
147.057929 154.287074 l
147.059302 173.8 l
147.059302 173.8 l
stroke
grestore
gsave
184.3 140 29.95 19.01 clipbox
129.353225 -1 m
130.042764 4.381598 l
130.900741 9.280451 l
131.797169 13.199618 l
132.149537 14.669009 l
132.193309 15.648908 l
132.019064 17.118755 l
131.49839 19.078222 l
130.581518 21.527639 l
128.042458 27.895991 l
127.360631 30.345736 l
127.083184 32.305204 l
127.115604 33.284773 l
127.384705 34.264671 l
127.685721 34.754621 l
128.192489 35.24457 l
129.056936 35.73419 l
130.517345 36.224139 l
142.647577 39.163505 l
144.919986 40.143403 l
146.534135 41.122972 l
147.685545 42.102871 l
148.49081 43.082769 l
149.381278 44.552287 l
149.742687 45.532185 l
149.536723 46.022135 l
148.751234 46.511755 l
147.425407 47.001704 l
142.667565 48.471551 l
141.684759 48.961171 l
141.073003 49.45112 l
140.748299 49.94107 l
140.6826 50.431019 l
140.899933 50.920968 l
141.413905 51.410917 l
143.016373 52.390486 l
144.661718 53.370385 l
145.97324 54.349954 l
146.984471 55.329852 l
147.732666 56.30975 l
148.240369 57.28932 l
148.573864 58.269218 l
148.592904 58.759167 l
148.414629 59.249116 l
148.049538 59.738736 l
146.879171 60.718634 l
145.580073 61.698533 l
144.714798 62.678102 l
144.526661 63.168051 l
144.499878 63.658 l
144.620106 64.147949 l
145.196515 65.127519 l
147.392988 68.066884 l
148.066666 69.536732 l
148.358121 70.516301 l
148.442367 71.00625 l
148.39812 71.496199 l
147.96518 72.476098 l
146.817941 74.435565 l
146.561597 75.415134 l
146.591165 76.395033 l
146.844241 77.374931 l
148.207567 81.293866 l
148.604702 83.743282 l
148.325271 85.21313 l
148.163557 86.682648 l
148.167412 88.642116 l
148.807766 92.56138 l
148.948686 95.010796 l
149.075507 99.419681 l
149.280767 101.379477 l
149.825277 113.136611 l
149.861389 130.282857 l
149.915847 136.161259 l
150.09493 137.631107 l
150.211635 141.060422 l
150.257878 151.837657 l
150.259906 173.8 l
150.259906 173.8 l
stroke
grestore
gsave
184.3 140 29.95 19.01 clipbox
131.906091 -1 m
132.765418 4.381598 l
133.782172 9.280451 l
134.802744 13.199618 l
135.266088 15.158958 l
135.224348 16.628806 l
134.939596 18.098324 l
134.312595 20.057792 l
133.080501 22.997157 l
130.985424 27.895991 l
130.21111 30.345736 l
129.939156 31.815255 l
129.903637 32.795153 l
130.082653 33.774722 l
130.308595 34.264671 l
130.686268 34.754621 l
131.30366 35.24457 l
132.301716 35.73419 l
133.841876 36.224139 l
144.039406 38.673556 l
146.790041 39.653454 l
148.749991 40.633352 l
150.173595 41.612921 l
151.17527 42.59282 l
152.218517 44.062338 l
152.70598 45.042236 l
152.876533 45.532185 l
152.781499 46.022135 l
152.192562 46.511755 l
151.104421 47.001704 l
146.767768 48.471551 l
145.756705 48.961171 l
145.081045 49.45112 l
144.677226 49.94107 l
144.517543 50.431019 l
144.617602 50.920968 l
144.994945 51.410917 l
146.349458 52.390486 l
148.533307 53.860334 l
149.662518 54.839903 l
150.540431 55.819801 l
151.174014 56.79937 l
151.611627 57.779269 l
151.829387 58.759167 l
151.717965 59.249116 l
151.433426 59.738736 l
150.434074 60.718634 l
148.740554 62.188153 l
148.365601 62.678102 l
148.139335 63.168051 l
148.062081 63.658 l
148.122947 64.147949 l
148.578767 65.127519 l
150.864242 68.556833 l
151.449952 70.026352 l
151.680522 71.00625 l
151.673925 71.496199 l
151.338174 72.476098 l
150.10682 74.925514 l
149.962583 75.905083 l
150.060448 76.884982 l
150.504313 78.3545 l
151.341411 80.803917 l
151.837876 83.253333 l
151.829362 84.233232 l
151.466638 87.172597 l
151.46964 88.642116 l
152.173343 94.030898 l
152.241354 97.950162 l
152.316202 99.419681 l
152.514599 101.379477 l
153.040633 112.646662 l
153.083392 128.813009 l
153.121457 136.161259 l
153.317535 138.121056 l
153.428859 142.52994 l
153.459765 157.22644 l
153.460509 173.8 l
153.460509 173.8 l
stroke
grestore
gsave
184.3 140 29.95 19.01 clipbox
134.896324 -1 m
135.885713 4.381598 l
137.015861 9.280451 l
138.271268 13.689409 l
138.632261 15.158958 l
138.637202 16.628806 l
138.386348 18.098324 l
137.78474 20.057792 l
136.773482 22.507208 l
134.014928 28.875889 l
133.440154 30.835357 l
133.23613 32.305204 l
133.312581 33.284773 l
133.722309 34.264671 l
134.1508 34.754621 l
134.832612 35.24457 l
135.884095 35.73419 l
137.40026 36.224139 l
148.508387 39.163505 l
150.846182 40.143403 l
152.545569 41.122972 l
153.785061 42.102871 l
154.662034 43.082769 l
155.603026 44.552287 l
156.017086 45.532185 l
156.003983 46.022135 l
155.576599 46.511755 l
154.695847 47.001704 l
149.772952 48.961171 l
149.053486 49.45112 l
148.587381 49.94107 l
148.350126 50.431019 l
148.351427 50.920968 l
148.61006 51.410917 l
149.734723 52.390486 l
151.749189 53.860334 l
152.843612 54.839903 l
153.712788 55.819801 l
154.356057 56.79937 l
154.975544 58.269218 l
155.064287 58.759167 l
155.007594 59.249116 l
154.792628 59.738736 l
153.948851 60.718634 l
152.376465 62.188153 l
151.742124 63.168051 l
151.62397 63.658 l
151.634415 64.147949 l
151.981772 65.127519 l
153.251944 67.087315 l
154.094189 68.556833 l
154.678436 70.026352 l
154.922532 71.00625 l
154.86425 71.986148 l
154.467097 72.965718 l
153.558672 74.925514 l
153.384478 75.905083 l
153.435395 76.884982 l
153.812529 78.3545 l
154.711067 81.293866 l
155.133269 83.743282 l
154.967904 85.21313 l
154.783822 87.172597 l
154.82832 89.132065 l
155.450009 94.520847 l
155.750427 101.379477 l
156.255747 112.156713 l
156.304386 127.343491 l
156.390046 136.651208 l
156.556925 139.100625 l
156.646017 144.979357 l
156.661112 173.392787 l
156.661113 173.8 l
156.661113 173.8 l
stroke
grestore
gsave
184.3 140 29.95 19.01 clipbox
138.266359 -1 m
139.343394 4.381598 l
140.543216 9.280451 l
141.84808 13.689409 l
142.236536 15.158958 l
142.284493 16.628806 l
142.070614 18.098324 l
141.505795 20.057792 l
140.520691 22.507208 l
137.57643 29.365838 l
137.061419 31.325306 l
136.956928 32.305204 l
137.048109 33.284773 l
137.210839 33.774722 l
137.493588 34.264671 l
137.948581 34.754621 l
138.654373 35.24457 l
139.699748 35.73419 l
142.87611 36.714088 l
150.125079 38.673556 l
152.831696 39.653454 l
154.833904 40.633352 l
156.308882 41.612921 l
157.372251 42.59282 l
158.144822 43.572389 l
158.973844 45.042236 l
159.166723 45.532185 l
159.212728 46.022135 l
158.916202 46.511755 l
158.214158 47.001704 l
155.929836 47.981602 l
153.731478 48.961171 l
152.986652 49.45112 l
152.474093 49.94107 l
152.174549 50.431019 l
152.094032 50.920968 l
152.250954 51.410917 l
152.62846 51.900537 l
153.782071 52.880435 l
155.556282 54.349954 l
156.910629 55.819801 l
157.556166 56.79937 l
158.190696 58.269218 l
158.300641 58.759167 l
158.287875 59.249116 l
158.132266 59.738736 l
157.42839 60.718634 l
155.604472 62.678102 l
155.182417 63.658 l
155.229912 64.637569 l
155.643703 65.617468 l
157.552963 69.046783 l
158.058547 70.516301 l
158.214836 71.496199 l
158.037001 72.476098 l
156.804073 75.905083 l
156.815405 76.884982 l
157.130658 78.3545 l
158.072246 81.783815 l
158.396588 83.743282 l
158.280528 85.21313 l
158.099892 87.172597 l
158.119699 89.132065 l
158.733361 95.500746 l
158.915697 100.399579 l
159.100111 103.828894 l
159.299805 106.27831 l
159.448391 110.197245 l
159.509938 119.994912 l
159.592142 136.651208 l
159.771224 139.590574 l
159.850406 145.959255 l
159.861717 173.8 l
159.861717 173.8 l
stroke
grestore
gsave
184.3 140 29.95 19.01 clipbox
141.956065 -1 m
143.080635 4.381598 l
144.311005 9.280451 l
145.62874 13.689409 l
146.032572 15.158958 l
146.118063 16.628806 l
145.941483 18.098324 l
145.420189 20.057792 l
144.47741 22.507208 l
141.423789 29.855787 l
141.066936 31.325306 l
140.966917 32.305204 l
141.066694 33.284773 l
141.236179 33.774722 l
141.526782 34.264671 l
141.987324 34.754621 l
142.685367 35.24457 l
143.685233 35.73419 l
146.583392 36.714088 l
153.325569 38.673556 l
155.969721 39.653454 l
157.961187 40.633352 l
159.439457 41.612921 l
160.515308 42.59282 l
161.295726 43.572389 l
162.129207 45.042236 l
162.414345 46.022135 l
162.222132 46.511755 l
161.672181 47.001704 l
159.7041 47.981602 l
157.631615 48.961171 l
156.878 49.45112 l
156.333708 49.94107 l
155.986057 50.431019 l
155.839209 50.920968 l
155.91036 51.410917 l
156.191649 51.900537 l
157.175654 52.880435 l
159.303798 54.839903 l
160.479036 56.30975 l
161.239482 57.779269 l
161.540725 58.759167 l
161.562417 59.249116 l
161.45673 59.738736 l
160.877243 60.718634 l
159.190886 62.678102 l
158.73487 63.658 l
158.707517 64.637569 l
159.036689 65.617468 l
161.166624 70.026352 l
161.484522 71.496199 l
161.368198 72.476098 l
160.799318 73.945616 l
160.301357 75.415134 l
160.18543 76.395033 l
160.25557 77.374931 l
160.587626 78.844449 l
161.340184 81.783815 l
161.661197 83.743282 l
161.588163 85.21313 l
161.414683 87.172597 l
161.414835 89.132065 l
162.003571 95.990695 l
162.157566 100.399579 l
162.356259 104.318514 l
162.697258 112.156713 l
162.744703 127.343491 l
162.84064 137.141158 l
162.996449 140.570473 l
163.057822 148.898621 l
163.06232 173.8 l
163.06232 173.8 l
stroke
grestore
gsave
184.3 140 29.95 19.01 clipbox
145.907278 -1 m
147.157775 4.871451 l
148.542969 10.260276 l
150.052203 15.648908 l
150.07479 17.118755 l
149.863948 18.588273 l
149.324605 20.547741 l
148.390189 22.997157 l
145.787679 29.365838 l
145.287403 31.325306 l
145.192119 32.305204 l
145.29461 33.284773 l
145.46393 33.774722 l
145.751309 34.264671 l
146.200807 34.754621 l
146.868486 35.24457 l
147.79923 35.73419 l
150.406171 36.714088 l
157.983075 39.163505 l
160.23446 40.143403 l
161.930829 41.122972 l
163.195035 42.102871 l
164.108175 43.082769 l
165.062193 44.552287 l
165.498587 45.532185 l
165.613826 46.022135 l
165.50328 46.511755 l
165.081134 47.001704 l
164.350228 47.491653 l
160.726031 49.45112 l
160.163522 49.94107 l
159.780863 50.431019 l
159.58181 50.920968 l
159.582013 51.410917 l
159.78 51.900537 l
160.60708 52.880435 l
162.58086 54.839903 l
163.71936 56.30975 l
164.474463 57.779269 l
164.786193 58.759167 l
164.834157 59.249116 l
164.769757 59.738736 l
164.29962 60.718634 l
162.470274 63.168051 l
162.186728 64.147949 l
162.282508 65.127519 l
162.658017 66.107417 l
164.261717 69.536732 l
164.683125 71.00625 l
164.759345 71.986148 l
164.562023 72.965718 l
163.632717 75.905083 l
163.584731 76.884982 l
163.792626 78.3545 l
164.868055 83.253333 l
164.937341 84.723181 l
164.698474 88.152496 l
164.794072 90.111963 l
165.273898 96.480315 l
165.438675 100.889528 l
165.869461 109.217676 l
165.949396 117.055875 l
166.078652 137.631107 l
166.215211 141.550042 l
166.260921 151.837657 l
166.262925 173.8 l
166.262925 173.8 l
stroke
grestore
gsave
184.3 140 29.95 19.01 clipbox
150.06592 -1 m
151.296571 4.871451 l
152.645993 10.260276 l
154.169256 16.138857 l
154.137152 17.608375 l
153.898399 19.078222 l
153.349854 21.03769 l
152.237788 23.977056 l
150.306776 28.875889 l
149.75563 30.835357 l
149.57447 32.305204 l
149.674663 33.284773 l
150.113884 34.264671 l
150.540343 34.754621 l
151.163108 35.24457 l
153.08235 36.224139 l
155.708269 37.204037 l
161.316577 39.163505 l
163.496139 40.143403 l
165.157907 41.122972 l
166.40339 42.102871 l
167.308732 43.082769 l
168.24966 44.552287 l
168.682128 45.532185 l
168.814841 46.022135 l
168.766886 46.511755 l
168.450703 47.001704 l
167.851472 47.491653 l
163.96171 49.94107 l
163.55607 50.431019 l
163.317675 50.920968 l
163.260604 51.410917 l
163.38776 51.900537 l
164.071938 52.880435 l
166.653784 55.819801 l
167.512264 57.28932 l
168.038201 58.759167 l
168.074505 59.738736 l
167.699376 60.718634 l
165.814276 63.658 l
165.677919 64.637569 l
165.866133 65.617468 l
166.491819 67.087315 l
167.361562 69.046783 l
167.949914 71.00625 l
168.050663 71.986148 l
167.903582 72.965718 l
166.98532 76.395033 l
167.05139 77.864551 l
167.463798 79.824347 l
167.979267 82.273764 l
168.225225 84.233232 l
168.145599 85.703079 l
168.008059 88.152496 l
168.082184 90.111963 l
168.54402 96.970264 l
168.68373 100.889528 l
169.091679 109.217676 l
169.170441 117.055875 l
169.310007 138.121056 l
169.429215 142.52994 l
169.462692 156.246871 l
169.463529 173.8 l
169.463529 173.8 l
stroke
grestore
gsave
184.3 140 29.95 19.01 clipbox
154.383239 -1 m
155.676835 5.361226 l
156.987181 10.750176 l
158.330791 16.138857 l
158.325099 17.608375 l
158.119921 19.078222 l
157.621541 21.03769 l
156.587399 23.977056 l
154.613069 29.365838 l
154.154282 31.325306 l
154.085742 32.795153 l
154.315752 33.774722 l
154.573683 34.264671 l
154.969337 34.754621 l
155.53909 35.24457 l
157.247462 36.224139 l
159.56093 37.204037 l
165.839203 39.653454 l
167.683939 40.633352 l
169.085244 41.612921 l
170.126807 42.59282 l
170.884738 43.572389 l
171.682881 45.042236 l
172.019994 46.022135 l
172.01875 46.511755 l
171.789149 47.001704 l
171.303889 47.491653 l
169.792403 48.471551 l
168.290747 49.45112 l
167.309604 50.431019 l
167.043539 50.920968 l
166.941735 51.410917 l
167.009919 51.900537 l
167.566014 52.880435 l
170.262839 56.30975 l
170.983508 57.779269 l
171.297508 58.759167 l
171.373609 59.738736 l
171.079998 60.718634 l
170.13944 62.188153 l
169.544239 63.168051 l
169.211628 64.147949 l
169.198328 65.127519 l
169.450075 66.107417 l
171.223617 71.00625 l
171.341142 71.986148 l
171.236615 72.965718 l
170.35901 76.884982 l
170.48266 78.3545 l
171.510614 84.723181 l
171.3728 90.111963 l
171.813755 97.460213 l
171.95945 101.379477 l
172.343585 110.687195 l
172.395977 121.954709 l
172.513874 138.121056 l
172.635412 143.019889 l
172.663669 158.696287 l
172.664133 173.8 l
172.664133 173.8 l
stroke
grestore
gsave
184.3 140 29.95 19.01 clipbox
158.816797 -1 m
160.039216 5.361226 l
161.39398 11.239913 l
162.55059 16.138857 l
162.566467 17.608375 l
162.300294 19.568172 l
161.803341 21.527639 l
160.817257 24.467005 l
159.14985 29.365838 l
158.717923 31.325306 l
158.651418 32.795153 l
158.862698 33.774722 l
159.099312 34.264671 l
159.459903 34.754621 l
159.973334 35.24457 l
161.478042 36.224139 l
163.498256 37.204037 l
170.209198 40.143403 l
171.755335 41.122972 l
172.926077 42.102871 l
173.786646 43.082769 l
174.675037 44.552287 l
175.231043 46.022135 l
175.263435 46.511755 l
175.103423 47.001704 l
174.715583 47.491653 l
173.406118 48.471551 l
172.008732 49.45112 l
171.040139 50.431019 l
170.756964 50.920968 l
170.621849 51.410917 l
170.642192 51.900537 l
171.085351 52.880435 l
173.828569 56.79937 l
174.426046 58.269218 l
174.653424 59.249116 l
174.600276 60.228685 l
174.212131 61.208584 l
172.851851 63.658 l
172.654098 64.637569 l
172.738403 65.617468 l
173.212121 67.087315 l
174.266288 70.026352 l
174.589199 71.496199 l
174.622561 72.476098 l
174.332017 73.945616 l
173.840707 75.905083 l
173.747879 77.374931 l
173.910711 78.844449 l
174.747079 83.743282 l
174.782476 85.21313 l
174.618829 89.132065 l
174.834542 92.071431 l
175.045483 95.500746 l
175.389784 105.788361 l
175.558649 110.197245 l
175.616265 120.484861 l
175.719395 138.121056 l
175.836827 143.019889 l
175.864345 159.186236 l
175.864737 173.8 l
175.864737 173.8 l
stroke
grestore
gsave
184.3 140 29.95 19.01 clipbox
163.331273 -1 m
164.56418 5.851227 l
165.838579 11.729718 l
166.809641 16.138857 l
166.842269 17.608375 l
166.615558 19.568172 l
166.034092 22.017588 l
164.780248 25.936523 l
163.729889 29.365838 l
163.327705 31.325306 l
163.263008 32.795153 l
163.453349 33.774722 l
163.990823 34.754621 l
165.04411 35.73419 l
166.581795 36.714088 l
168.540996 37.693986 l
172.773457 39.653454 l
174.437643 40.633352 l
175.72029 41.612921 l
176.683145 42.59282 l
177.387232 43.572389 l
178.123191 45.042236 l
178.44908 46.022135 l
178.504446 46.511755 l
178.399301 47.001704 l
178.09367 47.491653 l
176.969905 48.471551 l
175.159912 49.94107 l
174.456255 50.920968 l
174.298168 51.410917 l
174.280991 51.900537 l
174.626284 52.880435 l
175.622688 54.349954 l
176.885393 56.30975 l
177.543197 57.779269 l
177.932474 59.249116 l
177.918855 60.228685 l
177.600721 61.208584 l
176.213853 64.147949 l
176.132863 65.127519 l
176.288787 66.107417 l
176.944558 68.066884 l
177.565235 70.026352 l
177.875337 71.496199 l
177.926702 72.476098 l
177.688758 73.945616 l
177.167432 76.395033 l
177.1479 77.864551 l
177.421917 79.824347 l
177.971483 83.253333 l
178.081832 84.723181 l
178.066424 91.581482 l
178.310432 95.500746 l
178.677135 106.76826 l
178.802298 111.667093 l
178.845429 126.853542 l
178.964769 139.100625 l
179.051158 144.979357 l
179.065342 173.8 l
179.065342 173.8 l
stroke
grestore
gsave
184.3 140 29.95 19.01 clipbox
167.898934 -1 m
169.117677 6.340978 l
170.409095 12.709705 l
171.093794 16.138857 l
171.138567 17.608375 l
170.947533 19.568172 l
170.429597 22.017588 l
169.293098 25.936523 l
168.220959 29.855787 l
167.913002 31.815255 l
167.900023 32.795153 l
168.068761 33.774722 l
168.546329 34.754621 l
169.469152 35.73419 l
170.787852 36.714088 l
172.48932 37.693986 l
177.157942 40.143403 l
178.532724 41.122972 l
179.583204 42.102871 l
180.362374 43.082769 l
181.164129 44.552287 l
181.674675 46.022135 l
181.744401 46.511755 l
181.681505 47.001704 l
181.444325 47.491653 l
180.489222 48.471551 l
178.828359 49.94107 l
178.14039 50.920968 l
177.968623 51.410917 l
177.923388 51.900537 l
178.18547 52.880435 l
179.062192 54.349954 l
180.223917 56.30975 l
180.840952 57.779269 l
181.215853 59.249116 l
181.231788 60.228685 l
180.974111 61.208584 l
179.704476 64.147949 l
179.603261 65.127519 l
179.721423 66.107417 l
180.300529 68.066884 l
180.986408 70.516301 l
181.217507 71.986148 l
181.199485 72.965718 l
180.92576 74.435565 l
180.554984 76.395033 l
180.518952 77.864551 l
180.754045 79.824347 l
181.309959 83.743282 l
181.366798 85.21313 l
181.256953 90.111963 l
181.762884 102.848996 l
182.052689 116.075977 l
182.247523 143.999458 l
182.265839 167.024436 l
182.265947 173.8 l
182.265947 173.8 l
stroke
grestore
gsave
184.3 140 29.95 19.01 clipbox
172.499533 -1 m
173.600053 6.340978 l
174.76502 12.709705 l
175.393239 16.138857 l
175.428287 18.098324 l
175.214295 20.057792 l
174.71546 22.507208 l
172.607993 31.325306 l
172.548306 32.795153 l
172.695818 33.774722 l
173.115252 34.754621 l
173.916879 35.73419 l
175.03861 36.714088 l
176.501002 37.693986 l
180.712348 40.143403 l
181.98321 41.122972 l
182.958283 42.102871 l
183.684235 43.082769 l
184.430658 44.552287 l
184.907995 46.022135 l
184.953832 47.001704 l
184.772842 47.491653 l
183.969369 48.471551 l
182.466675 49.94107 l
181.808944 50.920968 l
181.567068 51.900537 l
181.759896 52.880435 l
182.523115 54.349954 l
183.579028 56.30975 l
184.14981 57.779269 l
184.503911 59.249116 l
184.540676 60.228685 l
184.334598 61.208584 l
183.104163 64.637569 l
183.095426 65.617468 l
183.385659 67.087315 l
184.384931 71.00625 l
184.531502 72.476098 l
184.378665 73.945616 l
183.899359 76.884982 l
183.920304 78.3545 l
184.238207 80.803917 l
184.633888 84.233232 l
184.621738 86.192699 l
184.539186 89.622014 l
184.788128 94.030898 l
184.881216 98.440111 l
185.024283 103.338945 l
185.277739 117.545495 l
185.420763 141.060422 l
185.465053 151.837657 l
185.466552 173.8 l
185.466552 173.8 l
stroke
grestore
gsave
184.3 140 29.95 19.01 clipbox
177.119518 -1 m
178.171525 6.831154 l
179.313224 13.689409 l
179.701717 16.138857 l
179.74566 18.098324 l
179.564813 20.057792 l
179.022716 22.997157 l
177.254899 31.325306 l
177.198973 32.795153 l
177.326222 33.774722 l
177.690251 34.754621 l
178.380144 35.73419 l
179.325837 36.714088 l
180.568041 37.693986 l
184.928409 40.633352 l
185.946927 41.612921 l
186.719797 42.59282 l
187.515027 44.062338 l
188.026105 45.532185 l
188.228045 46.511755 l
188.21928 47.001704 l
188.083704 47.491653 l
187.415413 48.471551 l
185.728212 50.431019 l
185.286807 51.410917 l
185.233693 52.390486 l
185.52918 53.370385 l
187.468996 57.779269 l
187.796757 59.249116 l
187.846801 60.228685 l
187.684241 61.208584 l
186.956018 63.168051 l
186.663534 64.147949 l
186.545004 65.127519 l
186.606272 66.107417 l
187.043612 68.066884 l
187.606718 70.516301 l
187.833533 72.476098 l
187.713925 73.945616 l
187.280435 76.884982 l
187.287645 78.3545 l
187.562768 80.803917 l
187.920999 84.233232 l
187.919883 86.192699 l
187.854142 90.111963 l
188.45713 110.197245 l
188.502123 122.444658 l
188.617419 140.570473 l
188.665083 150.368139 l
188.667157 173.8 l
188.667157 173.8 l
stroke
grestore
gsave
184.3 140 29.95 19.01 clipbox
181.750648 -1 m
182.735481 7.320901 l
183.82903 14.669009 l
184.049252 16.628806 l
184.042532 18.588273 l
183.782523 21.03769 l
183.150305 24.467005 l
182.012344 30.345736 l
181.84285 32.305204 l
181.955368 33.774722 l
182.266973 34.754621 l
182.853804 35.73419 l
184.117686 37.204037 l
185.326539 38.183936 l
187.96078 40.143403 l
188.993087 41.122972 l
189.790888 42.102871 l
190.624429 43.572389 l
191.154676 45.042236 l
191.473769 46.511755 l
191.380671 47.491653 l
190.832148 48.471551 l
189.345411 50.431019 l
188.933345 51.410917 l
188.857766 52.390486 l
189.094087 53.370385 l
190.914953 58.269218 l
191.143174 59.738736 l
191.112038 60.718634 l
190.895644 61.698533 l
190.053062 64.637569 l
190.017375 65.617468 l
190.214793 67.087315 l
191.064979 71.496199 l
191.13124 72.965718 l
190.894992 74.925514 l
190.659606 76.884982 l
190.687775 78.844449 l
191.216658 86.192699 l
191.154396 90.111963 l
191.700861 112.156713 l
191.728708 133.711843 l
191.844673 142.52994 l
191.8676 161.145704 l
191.867762 173.8 l
191.867762 173.8 l
stroke
grestore
gsave
184.3 140 29.95 19.01 clipbox
186.388374 -1 m
187.288033 7.810881 l
188.381685 18.098324 l
188.206357 20.547741 l
187.696552 23.977056 l
186.580787 30.835357 l
186.490849 32.795153 l
186.685693 34.264671 l
187.060762 35.24457 l
187.982187 36.714088 l
188.838282 37.693986 l
192.545617 41.122972 l
193.525119 42.59282 l
194.152036 44.062338 l
194.65169 46.022135 l
194.738176 47.001704 l
194.492681 47.981602 l
193.893953 48.961171 l
192.94371 50.431019 l
192.571506 51.410917 l
192.485112 52.390486 l
192.670747 53.370385 l
194.325375 58.759167 l
194.454496 60.228685 l
194.358112 61.208584 l
193.828894 63.168051 l
193.521588 64.637569 l
193.509781 66.107417 l
193.820949 68.066884 l
194.316487 71.00625 l
194.438494 72.965718 l
194.244284 74.925514 l
194.018525 77.374931 l
194.087435 79.334398 l
194.524185 85.703079 l
194.482673 91.091532 l
194.676868 98.440111 l
194.813791 105.788361 l
194.929972 113.136611 l
195.068348 170.943371 l
195.068367 173.8 l
195.068367 173.8 l
stroke
grestore
gsave
184.3 140 29.95 19.01 clipbox
191.030348 -1 m
191.874997 8.79039 l
192.698485 18.098324 l
192.557116 20.547741 l
192.064297 24.467005 l
191.206008 30.835357 l
191.129552 32.795153 l
191.288809 34.264671 l
191.596134 35.24457 l
192.340081 36.714088 l
193.027595 37.693986 l
196.440352 41.612921 l
197.160994 43.082769 l
197.618297 44.552287 l
197.974936 46.511755 l
197.944808 47.491653 l
197.595382 48.471551 l
196.336304 50.920968 l
196.126978 51.900537 l
196.161351 52.880435 l
196.536419 54.349954 l
197.378745 57.28932 l
197.702261 59.249116 l
197.738559 60.718634 l
197.49251 62.188153 l
196.986397 64.637569 l
196.966292 66.107417 l
197.219743 68.066884 l
197.683811 71.496199 l
197.727041 73.455667 l
197.419782 78.844449 l
197.794536 86.682648 l
197.779193 91.091532 l
197.946824 99.419681 l
198.268458 154.287074 l
198.268972 173.8 l
198.268972 173.8 l
stroke
grestore
gsave
184.3 140 29.95 19.01 clipbox
195.675336 -1 m
196.42928 9.77033 l
197.014336 18.098324 l
196.866587 21.03769 l
196.336756 25.936523 l
195.795935 31.325306 l
195.7817 33.284773 l
195.991071 34.754621 l
196.503878 36.224139 l
197.244458 37.693986 l
199.982443 41.612921 l
200.567521 43.082769 l
201.030776 45.042236 l
201.25021 47.001704 l
201.115953 47.981602 l
200.506593 49.45112 l
199.937164 50.920968 l
199.760223 51.900537 l
199.778148 52.880435 l
200.071163 54.349954 l
200.748588 57.28932 l
201.046571 59.738736 l
201.007965 61.208584 l
200.575185 63.658 l
200.417392 65.127519 l
200.458192 66.597366 l
201.038016 73.455667 l
200.810089 79.334398 l
201.100831 86.192699 l
201.089205 91.581482 l
201.209871 98.929731 l
201.358714 109.707296 l
201.38955 127.343491 l
201.469578 173.8 l
201.469578 173.8 l
stroke
grestore
gsave
184.3 140 29.95 19.01 clipbox
200.322579 -1 m
200.979611 11.239913 l
201.329409 18.098324 l
201.18951 21.527639 l
200.534394 29.365838 l
200.394113 32.795153 l
200.486989 34.264671 l
200.797184 35.73419 l
201.482893 37.693986 l
203.710205 42.102871 l
204.186133 44.062338 l
204.488158 46.511755 l
204.483961 47.491653 l
204.2916 48.471551 l
203.442254 51.410917 l
203.398631 52.880435 l
203.707774 54.839903 l
204.186051 57.779269 l
204.362833 60.228685 l
204.279337 61.698533 l
203.87562 65.617468 l
204.032188 68.066884 l
204.35282 72.476098 l
204.268212 74.925514 l
204.143823 77.864551 l
204.265379 81.293866 l
204.394128 86.192699 l
204.406658 92.56138 l
204.495562 101.379477 l
204.606993 117.545495 l
204.670183 173.8 l
204.670183 173.8 l
stroke
grestore
gsave
184.3 140 29.95 19.01 clipbox
204.971473 -1 m
205.540758 14.179384 l
205.639649 18.588273 l
205.452846 23.487107 l
205.021664 32.795153 l
205.133158 34.754621 l
205.482687 36.714088 l
205.908563 38.183936 l
206.980728 41.122972 l
207.409195 43.082769 l
207.686021 45.532185 l
207.748232 47.491653 l
207.519769 48.961171 l
207.054842 51.410917 l
207.021715 52.880435 l
207.288185 55.329852 l
207.613051 58.759167 l
207.64336 61.208584 l
207.362454 66.597366 l
207.625502 74.435565 l
207.529015 78.844449 l
207.668971 90.601912 l
207.829118 119.015343 l
207.870789 173.8 l
207.870789 173.8 l
stroke
grestore
gsave
184.3 140 29.95 19.01 clipbox
209.621464 -1 m
209.876277 22.997157 l
209.677831 34.264671 l
209.931875 37.204037 l
210.376606 39.653454 l
210.746635 42.102871 l
210.95805 45.042236 l
210.988311 47.981602 l
210.663195 53.370385 l
210.958091 61.208584 l
210.842021 67.576935 l
210.949091 74.435565 l
210.919526 80.314297 l
210.967792 89.622014 l
211.071394 173.8 l
211.071394 173.8 l
stroke
grestore
gsave
184.3 140 29.95 19.01 clipbox
214.272 -1 m
214.272 173.8 l
214.272 173.8 l
stroke
grestore
0.800 setlinewidth
0 setlinejoin
2 setlinecap
[] 0 setdash
gsave
29.952 19.008 m
29.952 158.976 l
stroke
grestore
gsave
214.272 19.008 m
214.272 158.976 l
stroke
grestore
gsave
29.952 19.008 m
214.272 19.008 l
stroke
grestore
gsave
29.952 158.976 m
214.272 158.976 l
stroke
grestore

end
showpage
