%!PS-Adobe-3.0 EPSF-3.0
%%Title: L_ru.eps
%%Creator: matplotlib version 2.0.0, http://matplotlib.org/
%%CreationDate: Tue Mar 27 14:47:11 2018
%%Orientation: portrait
%%BoundingBox: 190 309 421 482
%%EndComments
%%BeginProlog
/mpldict 8 dict def
mpldict begin
/m { moveto } bind def
/l { lineto } bind def
/r { rlineto } bind def
/c { curveto } bind def
/cl { closepath } bind def
/box {
m
1 index 0 r
0 exch r
neg 0 r
cl
} bind def
/clipbox {
box
clip
newpath
} bind def
%!PS-Adobe-3.0 Resource-Font
%%Title: DejaVu Serif
%%Copyright: Copyright (c) 2003 by Bitstream, Inc. All Rights Reserved. DejaVu changes are in public domain 
%%Creator: Converted from TrueType to type 3 by PPR
25 dict begin
/_d{bind def}bind def
/_m{moveto}_d
/_l{lineto}_d
/_cl{closepath eofill}_d
/_c{curveto}_d
/_sc{7 -1 roll{setcachedevice}{pop pop pop pop pop pop}ifelse}_d
/_e{exec}_d
/FontName /DejaVuSerif def
/PaintType 0 def
/FontMatrix[.001 0 0 .001 0 0]def
/FontBBox[-770 -347 2105 1109]def
/FontType 3 def
/Encoding [ /space /comma /period /zero /one /five /L /l /uni043A /uni043C ] def
/FontInfo 10 dict dup begin
/FamilyName (DejaVu Serif) def
/FullName (DejaVu Serif) def
/Notice (Copyright (c) 2003 by Bitstream, Inc. All Rights Reserved. DejaVu changes are in public domain ) def
/Weight (Book) def
/Version (Version 2.35) def
/ItalicAngle 0.0 def
/isFixedPitch false def
/UnderlinePosition -130 def
/UnderlineThickness 90 def
end readonly def
/CharStrings 10 dict dup begin
/space{318 0 0 0 0 0 _sc
}_d
/comma{318 0 36 -135 221 111 _sc
36 -96 _m
66 -73 89 -47 103 -17 _c
117 13 125 49 125 93 _c
125 111 _l
221 111 _l
218 55 205 7 181 -32 _c
157 -71 122 -105 75 -135 _c
36 -96 _l
_cl}_d
/period{318 0 94 -13 224 116 _sc
94 51 _m
94 69 100 84 112 97 _c
124 109 140 116 159 116 _c
177 116 192 109 205 97 _c
217 84 224 69 224 51 _c
224 33 217 17 205 5 _c
192 -7 177 -13 159 -13 _c
140 -13 124 -7 112 5 _c
100 17 94 32 94 51 _c
_cl}_d
/zero{636 0 66 -13 570 742 _sc
318 34 _m
368 34 405 61 430 116 _c
454 170 467 253 467 364 _c
467 474 454 557 430 612 _c
405 666 368 694 318 694 _c
268 694 230 666 206 612 _c
181 557 169 474 169 364 _c
169 253 181 170 206 116 _c
230 61 268 34 318 34 _c
318 -13 _m
238 -13 176 20 132 86 _c
88 152 66 244 66 364 _c
66 483 88 576 132 642 _c
176 708 238 742 318 742 _c
397 742 459 708 503 642 _c
547 576 570 483 570 364 _c
570 244 547 152 503 86 _c
459 20 397 -13 318 -13 _c
_cl}_d
/one{636 0 122 0 494 742 _sc
142 0 _m
142 52 _l
269 52 _l
269 658 _l
122 563 _l
122 627 _l
300 742 _l
367 742 _l
367 52 _l
494 52 _l
494 0 _l
142 0 _l
_cl}_d
/five{{636 0 85 -13 559 729 _sc
503 729 _m
503 649 _l
169 649 _l
169 440 _l
185 452 205 460 228 466 _c
250 472 276 475 304 475 _c
382 475 444 453 490 409 _c
536 365 559 306 559 231 _c
559 153 536 93 490 51 _c
444 8 379 -13 296 -13 _c
262 -13 228 -9 193 -1 _c
157 6 121 18 85 35 _c
85 177 _l
140 177 _l
143 130 158 94 184 70 _c
210 46 248 34 296 34 _c
}_e{347 34 386 51 414 85 _c
442 119 456 167 456 231 _c
456 294 442 342 415 376 _c
387 410 348 427 296 427 _c
266 427 240 421 218 411 _c
196 401 176 385 159 363 _c
117 363 _l
117 729 _l
503 729 _l
_cl}_e}_d
/L{664 0 55 0 640 729 _sc
55 0 _m
55 52 _l
148 52 _l
148 677 _l
55 677 _l
55 729 _l
340 729 _l
340 677 _l
247 677 _l
247 60 _l
580 60 _l
580 182 _l
640 182 _l
640 0 _l
55 0 _l
_cl}_d
/l{320 0 29 0 290 760 _sc
205 52 _m
290 52 _l
290 0 _l
29 0 _l
29 52 _l
115 52 _l
115 708 _l
29 708 _l
29 760 _l
205 760 _l
205 52 _l
_cl}_d
/uni043A{{625 0 34 0 613 519 _sc
286 519 _m
286 467 _l
205 467 _l
205 265 _l
424 467 _l
349 467 _l
349 519 _l
584 519 _l
584 467 _l
495 467 _l
341 324 _l
538 52 _l
613 52 _l
613 0 _l
357 0 _l
357 52 _l
431 52 _l
276 265 _l
205 199 _l
205 52 _l
286 52 _l
286 0 _l
34 0 _l
34 52 _l
115 52 _l
115 467 _l
34 467 _l
34 519 _l
286 519 _l
_cl}_e}_d
/uni043C{778 0 36 0 742 519 _sc
36 0 _m
36 52 _l
117 52 _l
117 467 _l
36 467 _l
36 519 _l
247 519 _l
393 162 _l
539 519 _l
742 519 _l
742 467 _l
661 467 _l
661 52 _l
742 52 _l
742 0 _l
490 0 _l
490 52 _l
571 52 _l
571 453 _l
407 52 _l
341 52 _l
177 453 _l
177 52 _l
258 52 _l
258 0 _l
36 0 _l
_cl}_d
end readonly def

/BuildGlyph
 {exch begin
 CharStrings exch
 2 copy known not{pop /.notdef}if
 true 3 1 roll get exec
 end}_d

/BuildChar {
 1 index /Encoding get exch get
 1 index /BuildGlyph get exec
}_d

FontName currentdict end definefont pop
end
%%EndProlog
mpldict begin
190.8 309.6 translate
230.4 172.8 0 0 clipbox
gsave
0 0 m
230.4 0 l
230.4 172.8 l
0 172.8 l
cl
1.000 setgray
fill
grestore
gsave
29.952 19.008 m
214.272 19.008 l
214.272 158.976 l
29.952 158.976 l
cl
1.000 setgray
fill
grestore
0.800 setlinewidth
1 setlinejoin
0 setlinecap
[] 0 setdash
0.000 setgray
gsave
/o {
gsave
newpath
translate
0.8 setlinewidth
1 setlinejoin
0 setlinecap
0 0 m
0 -3.5 l

gsave
0.000 setgray
fill
grestore
stroke
grestore
} bind def
56.2834 19.008 o
grestore
/DejaVuSerif findfont
9.000 scalefont
setfont
gsave
53.416241 5.164250 translate
0.000000 rotate
0.000000 0.000000 m /zero glyphshow
grestore
gsave
/o {
gsave
newpath
translate
0.8 setlinewidth
1 setlinejoin
0 setlinecap
0 0 m
0 -3.5 l

gsave
0.000 setgray
fill
grestore
stroke
grestore
} bind def
122.112 19.008 o
grestore
gsave
119.244813 5.164250 translate
0.000000 rotate
0.000000 0.000000 m /five glyphshow
grestore
gsave
/o {
gsave
newpath
translate
0.8 setlinewidth
1 setlinejoin
0 setlinecap
0 0 m
0 -3.5 l

gsave
0.000 setgray
fill
grestore
stroke
grestore
} bind def
187.941 19.008 o
grestore
gsave
182.206196 5.164250 translate
0.000000 rotate
0.000000 0.000000 m /one glyphshow
5.726074 0.000000 m /zero glyphshow
grestore
gsave
200.162625 5.164250 translate
0.000000 rotate
0.000000 0.000000 m /l glyphshow
2.878418 0.000000 m /comma glyphshow
5.739258 0.000000 m /space glyphshow
8.600098 0.000000 m /uni043C glyphshow
15.600586 0.000000 m /uni043A glyphshow
21.225586 0.000000 m /uni043C glyphshow
grestore
gsave
/o {
gsave
newpath
translate
0.8 setlinewidth
1 setlinejoin
0 setlinecap
0 0 m
-3.5 0 l

gsave
0.000 setgray
fill
grestore
stroke
grestore
} bind def
29.952 19.008 o
grestore
gsave
8.623875 15.586125 translate
0.000000 rotate
0.000000 0.000000 m /zero glyphshow
5.726074 0.000000 m /period glyphshow
8.586914 0.000000 m /zero glyphshow
grestore
gsave
/o {
gsave
newpath
translate
0.8 setlinewidth
1 setlinejoin
0 setlinecap
0 0 m
-3.5 0 l

gsave
0.000 setgray
fill
grestore
stroke
grestore
} bind def
29.952 54 o
grestore
gsave
8.623875 50.578125 translate
0.000000 rotate
0.000000 0.000000 m /zero glyphshow
5.726074 0.000000 m /period glyphshow
8.586914 0.000000 m /five glyphshow
grestore
gsave
/o {
gsave
newpath
translate
0.8 setlinewidth
1 setlinejoin
0 setlinecap
0 0 m
-3.5 0 l

gsave
0.000 setgray
fill
grestore
stroke
grestore
} bind def
29.952 88.992 o
grestore
gsave
8.623875 85.570125 translate
0.000000 rotate
0.000000 0.000000 m /one glyphshow
5.726074 0.000000 m /period glyphshow
8.586914 0.000000 m /zero glyphshow
grestore
gsave
/o {
gsave
newpath
translate
0.8 setlinewidth
1 setlinejoin
0 setlinecap
0 0 m
-3.5 0 l

gsave
0.000 setgray
fill
grestore
stroke
grestore
} bind def
29.952 123.984 o
grestore
gsave
8.623875 120.562125 translate
0.000000 rotate
0.000000 0.000000 m /one glyphshow
5.726074 0.000000 m /period glyphshow
8.586914 0.000000 m /five glyphshow
grestore
gsave
10.100438 160.851000 translate
0.000000 rotate
0.000000 0.000000 m /L glyphshow
5.976562 0.000000 m /comma glyphshow
8.837402 0.000000 m /space glyphshow
11.698242 0.000000 m /uni043C glyphshow
18.698730 0.000000 m /uni043C glyphshow
grestore
1.000 setlinewidth
1 setlinecap
gsave
184.3 140 29.95 19.01 clipbox
46.409143 63.867744 m
66.157714 63.867744 l
66.157714 95.675472 l
46.409143 95.675472 l
46.409143 63.867744 l
stroke
grestore
gsave
184.3 140 29.95 19.01 clipbox
56.283429 63.867744 m
56.283429 34.40448 l
stroke
grestore
gsave
184.3 140 29.95 19.01 clipbox
56.283429 95.675472 m
56.283429 140.360256 l
stroke
grestore
gsave
184.3 140 29.95 19.01 clipbox
51.346286 34.40448 m
61.220571 34.40448 l
stroke
grestore
gsave
184.3 140 29.95 19.01 clipbox
51.346286 140.360256 m
61.220571 140.360256 l
stroke
grestore
0 setlinecap
gsave
184.3 140 29.95 19.01 clipbox
/o {
gsave
newpath
translate
1.0 setlinewidth
1 setlinejoin
0 setlinecap
0 -1 m
0.265203 -1 0.51958 -0.894634 0.707107 -0.707107 c
0.894634 -0.51958 1 -0.265203 1 0 c
1 0.265203 0.894634 0.51958 0.707107 0.707107 c
0.51958 0.894634 0.265203 1 0 1 c
-0.265203 1 -0.51958 0.894634 -0.707107 0.707107 c
-0.894634 0.51958 -1 0.265203 -1 0 c
-1 -0.265203 -0.894634 -0.51958 -0.707107 -0.707107 c
-0.51958 -0.894634 -0.265203 -1 0 -1 c
cl

gsave
1.000 setgray
fill
grestore
stroke
grestore
} bind def
56.2834 147.219 o
grestore
1 setlinecap
gsave
184.3 140 29.95 19.01 clipbox
112.237714 57.4992 m
131.986286 57.4992 l
131.986286 85.4928 l
112.237714 85.4928 l
112.237714 57.4992 l
stroke
grestore
gsave
184.3 140 29.95 19.01 clipbox
122.112 57.4992 m
122.112 44.622144 l
stroke
grestore
gsave
184.3 140 29.95 19.01 clipbox
122.112 85.4928 m
122.112 127.063296 l
stroke
grestore
gsave
184.3 140 29.95 19.01 clipbox
117.174857 44.622144 m
127.049143 44.622144 l
stroke
grestore
gsave
184.3 140 29.95 19.01 clipbox
117.174857 127.063296 m
127.049143 127.063296 l
stroke
grestore
0 setlinecap
gsave
184.3 140 29.95 19.01 clipbox
/o {
gsave
newpath
translate
1.0 setlinewidth
1 setlinejoin
0 setlinecap
0 -1 m
0.265203 -1 0.51958 -0.894634 0.707107 -0.707107 c
0.894634 -0.51958 1 -0.265203 1 0 c
1 0.265203 0.894634 0.51958 0.707107 0.707107 c
0.51958 0.894634 0.265203 1 0 1 c
-0.265203 1 -0.51958 0.894634 -0.707107 0.707107 c
-0.894634 0.51958 -1 0.265203 -1 0 c
-1 -0.265203 -0.894634 -0.51958 -0.707107 -0.707107 c
-0.51958 -0.894634 -0.265203 -1 0 -1 c
cl

gsave
1.000 setgray
fill
grestore
stroke
grestore
} bind def
122.112 130.283 o
122.112 137.701 o
122.112 146.379 o
122.112 128.463 o
grestore
1 setlinecap
gsave
184.3 140 29.95 19.01 clipbox
178.066286 66.177216 m
197.814857 66.177216 l
197.814857 92.911104 l
178.066286 92.911104 l
178.066286 66.177216 l
stroke
grestore
gsave
184.3 140 29.95 19.01 clipbox
187.940571 66.177216 m
187.940571 55.679616 l
stroke
grestore
gsave
184.3 140 29.95 19.01 clipbox
187.940571 92.911104 m
187.940571 127.203264 l
stroke
grestore
gsave
184.3 140 29.95 19.01 clipbox
183.003429 55.679616 m
192.877714 55.679616 l
stroke
grestore
gsave
184.3 140 29.95 19.01 clipbox
183.003429 127.203264 m
192.877714 127.203264 l
stroke
grestore
gsave
184.3 140 29.95 19.01 clipbox
46.409143 77.864544 m
66.157714 77.864544 l
stroke
grestore
gsave
184.3 140 29.95 19.01 clipbox
112.237714 65.757312 m
131.986286 65.757312 l
stroke
grestore
gsave
184.3 140 29.95 19.01 clipbox
178.066286 74.9952 m
197.814857 74.9952 l
stroke
grestore
0.800 setlinewidth
0 setlinejoin
2 setlinecap
[] 0 setdash
gsave
29.952 19.008 m
29.952 158.976 l
stroke
grestore
gsave
214.272 19.008 m
214.272 158.976 l
stroke
grestore
gsave
29.952 19.008 m
214.272 19.008 l
stroke
grestore
gsave
29.952 158.976 m
214.272 158.976 l
stroke
grestore

end
showpage
