%!PS-Adobe-3.0 EPSF-3.0
%%Title: T.eps
%%Creator: matplotlib version 2.0.0, http://matplotlib.org/
%%CreationDate: Tue Mar 27 10:29:46 2018
%%Orientation: portrait
%%BoundingBox: 190 309 421 482
%%EndComments
%%BeginProlog
/mpldict 10 dict def
mpldict begin
/m { moveto } bind def
/l { lineto } bind def
/r { rlineto } bind def
/c { curveto } bind def
/cl { closepath } bind def
/box {
m
1 index 0 r
0 exch r
neg 0 r
cl
} bind def
/clipbox {
box
clip
newpath
} bind def
%!PS-Adobe-3.0 Resource-Font
%%Title: DejaVu Serif
%%Copyright: Copyright (c) 2003 by Bitstream, Inc. All Rights Reserved. DejaVu changes are in public domain 
%%Creator: Converted from TrueType to type 3 by PPR
25 dict begin
/_d{bind def}bind def
/_m{moveto}_d
/_l{lineto}_d
/_cl{closepath eofill}_d
/_c{curveto}_d
/_sc{7 -1 roll{setcachedevice}{pop pop pop pop pop pop}ifelse}_d
/_e{exec}_d
/FontName /DejaVuSerif def
/PaintType 0 def
/FontMatrix[.001 0 0 .001 0 0]def
/FontBBox[-770 -347 2105 1109]def
/FontType 3 def
/Encoding [ /space /comma /period /zero /two /four /six /eight /equal /C /T /y /uni043C ] def
/FontInfo 10 dict dup begin
/FamilyName (DejaVu Serif) def
/FullName (DejaVu Serif) def
/Notice (Copyright (c) 2003 by Bitstream, Inc. All Rights Reserved. DejaVu changes are in public domain ) def
/Weight (Book) def
/Version (Version 2.35) def
/ItalicAngle 0.0 def
/isFixedPitch false def
/UnderlinePosition -130 def
/UnderlineThickness 90 def
end readonly def
/CharStrings 13 dict dup begin
/space{318 0 0 0 0 0 _sc
}_d
/comma{318 0 36 -135 221 111 _sc
36 -96 _m
66 -73 89 -47 103 -17 _c
117 13 125 49 125 93 _c
125 111 _l
221 111 _l
218 55 205 7 181 -32 _c
157 -71 122 -105 75 -135 _c
36 -96 _l
_cl}_d
/period{318 0 94 -13 224 116 _sc
94 51 _m
94 69 100 84 112 97 _c
124 109 140 116 159 116 _c
177 116 192 109 205 97 _c
217 84 224 69 224 51 _c
224 33 217 17 205 5 _c
192 -7 177 -13 159 -13 _c
140 -13 124 -7 112 5 _c
100 17 94 32 94 51 _c
_cl}_d
/zero{636 0 66 -13 570 742 _sc
318 34 _m
368 34 405 61 430 116 _c
454 170 467 253 467 364 _c
467 474 454 557 430 612 _c
405 666 368 694 318 694 _c
268 694 230 666 206 612 _c
181 557 169 474 169 364 _c
169 253 181 170 206 116 _c
230 61 268 34 318 34 _c
318 -13 _m
238 -13 176 20 132 86 _c
88 152 66 244 66 364 _c
66 483 88 576 132 642 _c
176 708 238 742 318 742 _c
397 742 459 708 503 642 _c
547 576 570 483 570 364 _c
570 244 547 152 503 86 _c
459 20 397 -13 318 -13 _c
_cl}_d
/two{{636 0 68 0 538 742 _sc
128 555 _m
73 555 _l
73 685 _l
107 703 142 717 178 727 _c
213 737 248 742 282 742 _c
358 742 418 723 462 687 _c
506 650 528 600 528 537 _c
528 465 478 380 378 281 _c
370 273 365 268 361 264 _c
177 80 _l
481 80 _l
481 170 _l
538 170 _l
538 0 _l
68 0 _l
68 53 _l
289 274 _l
337 322 372 367 393 408 _c
414 449 425 492 425 537 _c
}_e{425 586 412 624 386 652 _c
360 680 325 694 281 694 _c
234 694 198 682 173 659 _c
147 636 132 601 128 555 _c
_cl}_e}_d
/four{636 0 31 0 586 742 _sc
349 247 _m
349 635 _l
100 247 _l
349 247 _l
564 0 _m
232 0 _l
232 52 _l
349 52 _l
349 195 _l
31 195 _l
31 248 _l
350 742 _l
447 742 _l
447 247 _l
586 247 _l
586 195 _l
447 195 _l
447 52 _l
564 52 _l
564 0 _l
_cl}_d
/six{{636 0 67 -13 573 742 _sc
327 34 _m
373 34 408 50 433 84 _c
457 118 470 166 470 230 _c
470 293 457 341 433 375 _c
408 409 373 426 327 426 _c
280 426 244 409 220 377 _c
196 344 184 297 184 236 _c
184 171 196 121 221 86 _c
245 51 281 34 327 34 _c
168 401 _m
190 425 215 444 243 456 _c
271 468 302 474 338 474 _c
410 474 468 452 510 408 _c
552 364 573 305 573 230 _c
}_e{573 156 550 97 505 53 _c
459 9 399 -13 323 -13 _c
241 -13 177 17 133 78 _c
89 139 67 227 67 341 _c
67 468 93 567 145 637 _c
197 707 271 742 367 742 _c
393 742 420 739 448 735 _c
476 730 505 723 535 713 _c
535 593 _l
480 593 _l
476 625 463 650 442 668 _c
421 685 393 694 357 694 _c
293 694 246 670 215 622 _c
184 574 168 500 168 401 _c
_cl}_e}_d
/eight{{636 0 67 -13 569 742 _sc
466 199 _m
466 251 453 291 427 320 _c
401 349 364 364 318 364 _c
271 364 235 349 209 320 _c
183 291 170 251 170 199 _c
170 147 183 106 209 77 _c
235 48 271 34 318 34 _c
364 34 401 48 427 77 _c
453 106 466 147 466 199 _c
446 553 _m
446 597 434 632 412 657 _c
389 681 358 694 318 694 _c
278 694 246 681 224 657 _c
201 632 190 597 190 553 _c
}_e{190 508 201 473 224 449 _c
246 424 278 412 318 412 _c
358 412 389 424 412 449 _c
434 473 446 508 446 553 _c
393 388 _m
448 380 491 360 522 327 _c
553 293 569 251 569 199 _c
569 131 547 78 504 42 _c
460 5 398 -13 318 -13 _c
237 -13 175 5 132 42 _c
88 78 67 131 67 199 _c
67 251 82 293 113 327 _c
144 360 187 380 243 388 _c
193 396 156 415 130 444 _c
}_e{104 472 91 509 91 553 _c
91 611 111 657 151 691 _c
191 725 247 742 318 742 _c
388 742 444 725 484 691 _c
524 657 545 611 545 553 _c
545 509 531 472 505 444 _c
479 415 441 396 393 388 _c
_cl}_e}_d
/equal{838 0 106 175 732 452 _sc
106 452 _m
732 452 _l
732 374 _l
106 374 _l
106 452 _l
106 253 _m
732 253 _l
732 175 _l
106 175 _l
106 253 _l
_cl}_d
/C{{765 0 56 -13 705 742 _sc
705 193 _m
683 125 647 73 597 39 _c
546 4 482 -13 405 -13 _c
357 -13 312 -5 272 11 _c
231 27 195 50 164 82 _c
127 118 100 160 82 206 _c
64 252 56 305 56 364 _c
56 477 88 568 154 638 _c
219 707 305 742 413 742 _c
453 742 495 736 540 726 _c
584 716 633 700 685 679 _c
685 511 _l
630 511 _l
618 572 593 617 557 646 _c
}_e{521 675 470 690 405 690 _c
327 690 268 662 228 607 _c
188 551 168 470 168 364 _c
168 257 188 176 228 121 _c
268 65 327 38 405 38 _c
459 38 503 51 539 77 _c
574 103 599 141 615 193 _c
705 193 _l
_cl}_e}_d
/T{667 0 10 0 657 729 _sc
191 0 _m
191 52 _l
284 52 _l
284 671 _l
70 671 _l
70 557 _l
10 557 _l
10 729 _l
657 729 _l
657 557 _l
597 557 _l
597 671 _l
383 671 _l
383 52 _l
476 52 _l
476 0 _l
191 0 _l
_cl}_d
/y{{565 0 -2 -221 562 519 _sc
216 -94 _m
250 -8 _l
56 467 _l
-2 467 _l
-2 519 _l
236 519 _l
236 467 _l
153 467 _l
299 110 _l
445 467 _l
367 467 _l
367 519 _l
562 519 _l
562 467 _l
504 467 _l
266 -116 _l
250 -156 232 -184 212 -199 _c
192 -213 164 -221 128 -221 _c
112 -221 97 -219 81 -217 _c
65 -214 48 -210 32 -206 _c
32 -107 _l
78 -107 _l
80 -129 85 -144 95 -154 _c
}_e{104 -164 118 -169 138 -169 _c
156 -169 170 -164 181 -154 _c
192 -144 204 -124 216 -94 _c
_cl}_e}_d
/uni043C{778 0 36 0 742 519 _sc
36 0 _m
36 52 _l
117 52 _l
117 467 _l
36 467 _l
36 519 _l
247 519 _l
393 162 _l
539 519 _l
742 519 _l
742 467 _l
661 467 _l
661 52 _l
742 52 _l
742 0 _l
490 0 _l
490 52 _l
571 52 _l
571 453 _l
407 52 _l
341 52 _l
177 453 _l
177 52 _l
258 52 _l
258 0 _l
36 0 _l
_cl}_d
end readonly def

/BuildGlyph
 {exch begin
 CharStrings exch
 2 copy known not{pop /.notdef}if
 true 3 1 roll get exec
 end}_d

/BuildChar {
 1 index /Encoding get exch get
 1 index /BuildGlyph get exec
}_d

FontName currentdict end definefont pop
%!PS-Adobe-3.0 Resource-Font
%%Title: DejaVu Sans
%%Copyright: Copyright (c) 2003 by Bitstream, Inc. All Rights Reserved. Copyright (c) 2006 by Tavmjong Bah. All Rights Reserved. DejaVu changes are in public domain 
%%Creator: Converted from TrueType to type 3 by PPR
25 dict begin
/_d{bind def}bind def
/_m{moveto}_d
/_l{lineto}_d
/_cl{closepath eofill}_d
/_c{curveto}_d
/_sc{7 -1 roll{setcachedevice}{pop pop pop pop pop pop}ifelse}_d
/_e{exec}_d
/FontName /DejaVuSans def
/PaintType 0 def
/FontMatrix[.001 0 0 .001 0 0]def
/FontBBox[-1021 -463 1793 1232]def
/FontType 3 def
/Encoding [ /o /degree /uni043C /uni043D /uni043E /uni2218 ] def
/FontInfo 10 dict dup begin
/FamilyName (DejaVu Sans) def
/FullName (DejaVu Sans) def
/Notice (Copyright (c) 2003 by Bitstream, Inc. All Rights Reserved. Copyright (c) 2006 by Tavmjong Bah. All Rights Reserved. DejaVu changes are in public domain ) def
/Weight (Book) def
/Version (Version 2.35) def
/ItalicAngle 0.0 def
/isFixedPitch false def
/UnderlinePosition -130 def
/UnderlineThickness 90 def
end readonly def
/CharStrings 6 dict dup begin
/o{612 0 55 -13 557 560 _sc
306 484 _m
258 484 220 465 192 427 _c
164 389 150 338 150 273 _c
150 207 163 156 191 118 _c
219 80 257 62 306 62 _c
354 62 392 80 420 118 _c
448 156 462 207 462 273 _c
462 337 448 389 420 427 _c
392 465 354 484 306 484 _c
306 560 _m
384 560 445 534 490 484 _c
534 433 557 363 557 273 _c
557 183 534 113 490 63 _c
445 12 384 -13 306 -13 _c
227 -13 165 12 121 63 _c
77 113 55 183 55 273 _c
55 363 77 433 121 484 _c
165 534 227 560 306 560 _c
_cl}_d
/degree{{500 0 95 432 405 742 _sc
250 679 _m
224 679 202 670 184 652 _c
166 634 157 612 157 586 _c
157 560 166 538 184 520 _c
202 502 224 494 250 494 _c
276 494 298 502 316 520 _c
334 538 343 560 343 586 _c
343 612 334 634 316 652 _c
298 670 276 679 250 679 _c
250 742 _m
270 742 290 738 310 730 _c
329 722 346 710 360 696 _c
374 681 385 664 393 646 _c
401 627 405 607 405 586 _c
}_e{405 542 389 506 359 476 _c
329 446 292 432 249 432 _c
205 432 168 446 139 476 _c
109 505 95 542 95 586 _c
95 629 110 666 140 696 _c
170 726 206 742 250 742 _c
_cl}_e}_d
/uni043C{754 0 91 0 664 547 _sc
91 547 _m
222 547 _l
377 181 _l
533 547 _l
664 547 _l
664 0 _l
573 0 _l
573 461 _l
422 105 _l
333 105 _l
181 461 _l
181 0 _l
91 0 _l
91 547 _l
_cl}_d
/uni043D{654 0 91 0 563 547 _sc
91 547 _m
181 547 _l
181 324 _l
473 324 _l
473 547 _l
563 547 _l
563 0 _l
473 0 _l
473 252 _l
181 252 _l
181 0 _l
91 0 _l
91 547 _l
_cl}_d
/uni043E{612 0 55 -13 557 560 _sc
false CharStrings /o get exec
}_d
/uni2218{626 0 158 160 468 470 _sc
gsave 63 -271 translate
false CharStrings /degree get exec
grestore }_d
end readonly def

/BuildGlyph
 {exch begin
 CharStrings exch
 2 copy known not{pop /.notdef}if
 true 3 1 roll get exec
 end}_d

/BuildChar {
 1 index /Encoding get exch get
 1 index /BuildGlyph get exec
}_d

FontName currentdict end definefont pop
%!PS-Adobe-3.0 Resource-Font
%%Title: DejaVu Sans Oblique
%%Copyright: Copyright (c) 2003 by Bitstream, Inc. All Rights Reserved. Copyright (c) 2006 by Tavmjong Bah. All Rights Reserved. DejaVu changes are in public domain 
%%Creator: Converted from TrueType to type 3 by PPR
25 dict begin
/_d{bind def}bind def
/_m{moveto}_d
/_l{lineto}_d
/_cl{closepath eofill}_d
/_c{curveto}_d
/_sc{7 -1 roll{setcachedevice}{pop pop pop pop pop pop}ifelse}_d
/_e{exec}_d
/FontName /DejaVuSans-Oblique def
/PaintType 0 def
/FontMatrix[.001 0 0 .001 0 0]def
/FontBBox[-1016 -350 1659 1068]def
/FontType 3 def
/Encoding [ /epsilon ] def
/FontInfo 10 dict dup begin
/FamilyName (DejaVu Sans) def
/FullName (DejaVu Sans Oblique) def
/Notice (Copyright (c) 2003 by Bitstream, Inc. All Rights Reserved. Copyright (c) 2006 by Tavmjong Bah. All Rights Reserved. DejaVu changes are in public domain ) def
/Weight (Oblique) def
/Version (Version 2.35) def
/ItalicAngle -11.0 def
/isFixedPitch false def
/UnderlinePosition -130 def
/UnderlineThickness 90 def
end readonly def
/CharStrings 1 dict dup begin
/epsilon{{541 0 39 -13 506 561 _sc
197 295 _m
162 303 137 317 122 338 _c
110 353 104 371 104 391 _c
104 446 130 490 184 522 _c
225 548 278 561 342 561 _c
366 561 392 559 419 555 _c
446 551 475 545 505 537 _c
490 456 _l
460 465 432 472 407 476 _c
381 480 357 482 334 482 _c
295 482 263 474 238 460 _c
207 442 192 420 192 394 _c
192 376 200 362 216 350 _c
234 336 263 329 301 329 _c
}_e{376 329 _l
362 254 _l
290 254 _l
245 254 209 245 183 229 _c
147 207 129 178 129 143 _c
129 121 138 102 158 88 _c
182 70 218 61 268 61 _c
298 61 327 63 357 69 _c
385 75 412 85 438 97 _c
422 13 _l
390 4 361 -2 333 -6 _c
305 -10 277 -13 251 -13 _c
173 -13 117 1 81 30 _c
53 52 39 83 39 122 _c
39 174 57 216 94 248 _c
120 271 155 287 197 295 _c
_cl}_e}_d
end readonly def

/BuildGlyph
 {exch begin
 CharStrings exch
 2 copy known not{pop /.notdef}if
 true 3 1 roll get exec
 end}_d

/BuildChar {
 1 index /Encoding get exch get
 1 index /BuildGlyph get exec
}_d

FontName currentdict end definefont pop
end
%%EndProlog
mpldict begin
190.8 309.6 translate
230.4 172.8 0 0 clipbox
gsave
0 0 m
230.4 0 l
230.4 172.8 l
0 172.8 l
cl
1.000 setgray
fill
grestore
gsave
29.952 19.008 m
214.272 19.008 l
214.272 158.976 l
29.952 158.976 l
cl
1.000 setgray
fill
grestore
0.800 setlinewidth
1 setlinejoin
0 setlinecap
[] 0 setdash
0.000 setgray
gsave
/o {
gsave
newpath
translate
0.8 setlinewidth
1 setlinejoin
0 setlinecap
0 0 m
0 -3.5 l

gsave
0.000 setgray
fill
grestore
stroke
grestore
} bind def
29.952 19.008 o
grestore
/DejaVuSerif findfont
9.000 scalefont
setfont
gsave
22.787938 5.164250 translate
0.000000 rotate
0.000000 0.000000 m /zero glyphshow
5.726074 0.000000 m /period glyphshow
8.586914 0.000000 m /zero glyphshow
grestore
gsave
/o {
gsave
newpath
translate
0.8 setlinewidth
1 setlinejoin
0 setlinecap
0 0 m
0 -3.5 l

gsave
0.000 setgray
fill
grestore
stroke
grestore
} bind def
66.816 19.008 o
grestore
gsave
59.651938 5.164250 translate
0.000000 rotate
0.000000 0.000000 m /zero glyphshow
5.726074 0.000000 m /period glyphshow
8.586914 0.000000 m /two glyphshow
grestore
gsave
/o {
gsave
newpath
translate
0.8 setlinewidth
1 setlinejoin
0 setlinecap
0 0 m
0 -3.5 l

gsave
0.000 setgray
fill
grestore
stroke
grestore
} bind def
103.68 19.008 o
grestore
gsave
96.515938 5.164250 translate
0.000000 rotate
0.000000 0.000000 m /zero glyphshow
5.726074 0.000000 m /period glyphshow
8.586914 0.000000 m /four glyphshow
grestore
gsave
/o {
gsave
newpath
translate
0.8 setlinewidth
1 setlinejoin
0 setlinecap
0 0 m
0 -3.5 l

gsave
0.000 setgray
fill
grestore
stroke
grestore
} bind def
140.544 19.008 o
grestore
gsave
133.379938 5.164250 translate
0.000000 rotate
0.000000 0.000000 m /zero glyphshow
5.726074 0.000000 m /period glyphshow
8.586914 0.000000 m /six glyphshow
grestore
gsave
/o {
gsave
newpath
translate
0.8 setlinewidth
1 setlinejoin
0 setlinecap
0 0 m
0 -3.5 l

gsave
0.000 setgray
fill
grestore
stroke
grestore
} bind def
177.408 19.008 o
grestore
gsave
170.243938 5.164250 translate
0.000000 rotate
0.000000 0.000000 m /zero glyphshow
5.726074 0.000000 m /period glyphshow
8.586914 0.000000 m /eight glyphshow
grestore
gsave
201.881375 5.289250 translate
0.000000 rotate
0.000000 0.000000 m /y glyphshow
5.068848 0.000000 m /comma glyphshow
7.929688 0.000000 m /space glyphshow
10.790527 0.000000 m /uni043C glyphshow
17.791016 0.000000 m /uni043C glyphshow
grestore
gsave
/o {
gsave
newpath
translate
0.8 setlinewidth
1 setlinejoin
0 setlinecap
0 0 m
-3.5 0 l

gsave
0.000 setgray
fill
grestore
stroke
grestore
} bind def
29.952 19.008 o
grestore
gsave
17.217625 15.586125 translate
0.000000 rotate
0.000000 0.000000 m /zero glyphshow
grestore
gsave
/o {
gsave
newpath
translate
0.8 setlinewidth
1 setlinejoin
0 setlinecap
0 0 m
-3.5 0 l

gsave
0.000 setgray
fill
grestore
stroke
grestore
} bind def
29.952 47.0016 o
grestore
gsave
11.483250 43.579725 translate
0.000000 rotate
0.000000 0.000000 m /two glyphshow
5.726074 0.000000 m /zero glyphshow
grestore
gsave
/o {
gsave
newpath
translate
0.8 setlinewidth
1 setlinejoin
0 setlinecap
0 0 m
-3.5 0 l

gsave
0.000 setgray
fill
grestore
stroke
grestore
} bind def
29.952 74.9952 o
grestore
gsave
11.483250 71.573325 translate
0.000000 rotate
0.000000 0.000000 m /four glyphshow
5.726074 0.000000 m /zero glyphshow
grestore
gsave
/o {
gsave
newpath
translate
0.8 setlinewidth
1 setlinejoin
0 setlinecap
0 0 m
-3.5 0 l

gsave
0.000 setgray
fill
grestore
stroke
grestore
} bind def
29.952 102.989 o
grestore
gsave
11.483250 99.566925 translate
0.000000 rotate
0.000000 0.000000 m /six glyphshow
5.726074 0.000000 m /zero glyphshow
grestore
gsave
/o {
gsave
newpath
translate
0.8 setlinewidth
1 setlinejoin
0 setlinecap
0 0 m
-3.5 0 l

gsave
0.000 setgray
fill
grestore
stroke
grestore
} bind def
29.952 130.982 o
grestore
gsave
11.483250 127.560525 translate
0.000000 rotate
0.000000 0.000000 m /eight glyphshow
5.726074 0.000000 m /zero glyphshow
grestore
gsave
11.452000 160.976000 translate
0.000000 rotate
/DejaVuSerif findfont
9.0 scalefont
setfont
0.000000 0.273438 moveto
/T glyphshow

6.002930 0.273438 moveto
/comma glyphshow

8.863770 0.273438 moveto
/space glyphshow

/DejaVuSans findfont
6.3 scalefont
setfont
11.810742 3.718750 moveto
/uni2218 glyphshow

/DejaVuSerif findfont
9.0 scalefont
setfont
16.000488 0.273438 moveto
/C glyphshow


grestore
1.000 setlinewidth
1 setlinecap
gsave
184.3 140 29.95 19.01 clipbox
29.952 19.008 m
31.381496 19.122266 l
32.334493 19.437632 l
33.049241 19.876137 l
34.002238 20.752067 l
35.431734 22.479177 l
37.337728 24.735489 l
38.290725 25.557798 l
39.243723 26.067031 l
39.958471 26.220804 l
40.673218 26.1785 l
41.626216 25.842804 l
42.579213 25.249139 l
44.246958 23.871835 l
45.914703 22.54223 l
46.8677 21.998327 l
47.820697 21.701705 l
48.535445 21.671747 l
49.250193 21.821912 l
49.964941 22.158298 l
50.917938 22.892524 l
51.870935 23.925791 l
53.062182 25.543953 l
56.159423 29.968853 l
57.11242 30.864067 l
57.827168 31.258934 l
58.541916 31.385057 l
59.256664 31.233309 l
59.971412 30.813482 l
60.68616 30.153074 l
61.639157 28.972645 l
63.306902 26.443923 l
65.451145 23.266727 l
66.642392 21.869557 l
67.833638 20.813689 l
69.024885 20.078052 l
70.216131 19.603513 l
71.645627 19.279316 l
73.551622 19.090636 l
77.125361 19.013767 l
104.047532 19.008 l
231.4 19.008 l
231.4 19.008 l
stroke
grestore
[5.6 2.4] 0 setdash
gsave
184.3 140 29.95 19.01 clipbox
29.952 25.890222 m
30.904997 25.9876 l
31.857994 26.333739 l
32.572742 26.825918 l
33.28749 27.558975 l
34.240487 28.906887 l
35.669983 31.470122 l
37.575978 34.850439 l
38.528975 36.077242 l
39.243723 36.668612 l
39.958471 36.93969 l
40.673218 36.88534 l
41.387966 36.528774 l
42.102714 35.917781 l
43.293961 34.515101 l
45.914703 31.235963 l
46.8677 30.437248 l
47.582448 30.081332 l
48.297196 29.967107 l
49.011944 30.116444 l
49.726692 30.544128 l
50.44144 31.257578 l
51.156188 32.255875 l
52.109185 34.009477 l
53.300431 36.786974 l
56.874171 45.911273 l
57.588919 46.983254 l
58.065417 47.393128 l
58.541916 47.530856 l
59.018414 47.388361 l
59.494913 46.973483 l
60.209661 45.892914 l
61.162658 43.792093 l
62.830403 39.240835 l
64.498148 34.80678 l
65.689395 32.176299 l
66.880641 30.119013 l
67.833638 28.880283 l
68.786636 27.96342 l
69.739633 27.31542 l
70.930879 26.796556 l
72.360375 26.466614 l
74.26637 26.304049 l
77.60186 26.297582 l
105.238778 26.864223 l
135.734689 27.353814 l
170.042588 27.604225 l
219.598442 27.71172 l
231.4 27.718042 l
231.4 27.718042 l
stroke
grestore
[2.2 2.2] 0 setdash
gsave
184.3 140 29.95 19.01 clipbox
29.952 31.214968 m
30.666748 31.302189 l
31.381496 31.579029 l
32.096244 32.085552 l
32.810992 32.867276 l
33.525739 33.953674 l
34.478737 35.867606 l
35.669983 38.842931 l
38.052476 44.973669 l
38.767224 46.282842 l
39.481972 47.108167 l
39.958471 47.347703 l
40.434969 47.329691 l
40.911468 47.064227 l
41.626216 46.258811 l
42.579213 44.626371 l
45.914703 38.175966 l
46.8677 37.023271 l
47.582448 36.507768 l
48.297196 36.326971 l
48.773695 36.405494 l
49.250193 36.651437 l
49.964941 37.3485 l
50.679689 38.458309 l
51.394437 40.002887 l
52.109185 42.007403 l
53.062182 45.454457 l
54.015179 49.910402 l
54.968176 55.653589 l
55.682924 61.195281 l
56.397672 68.584892 l
56.874171 75.508374 l
57.350669 86.124435 l
57.588919 94.482722 l
57.827168 107.104012 l
58.303667 143.725304 l
58.541916 151.643609 l
58.780165 145.732572 l
59.494913 96.04228 l
59.971412 80.896866 l
60.44791 72.231942 l
61.162658 63.672739 l
61.877406 57.523267 l
62.830403 51.254529 l
63.7834 46.37274 l
64.736398 42.495894 l
65.689395 39.43179 l
66.642392 37.054635 l
67.595389 35.260809 l
68.548386 33.953673 l
69.501384 33.040688 l
70.454381 32.435514 l
71.645627 31.995946 l
72.836874 31.794836 l
74.504619 31.745211 l
77.36361 31.92328 l
105.000529 34.210586 l
118.580739 34.970369 l
128.110711 35.369509 l
150.982644 35.937939 l
177.666565 36.381101 l
211.974464 36.710508 l
231.4 36.814964 l
231.4 36.814964 l
stroke
grestore
0.800 setlinewidth
0 setlinejoin
2 setlinecap
[] 0 setdash
gsave
29.952 19.008 m
29.952 158.976 l
stroke
grestore
gsave
214.272 19.008 m
214.272 158.976 l
stroke
grestore
gsave
29.952 19.008 m
214.272 19.008 l
stroke
grestore
gsave
29.952 158.976 m
214.272 158.976 l
stroke
grestore
1.000 setlinewidth
1 setlinejoin
1 setlinecap
[] 0 setdash
gsave
130.672 148.497875 m
154.672 148.497875 l
stroke
grestore
gsave
161.072000 145.697875 translate
0.000000 rotate
/DejaVuSans-Oblique findfont
8.0 scalefont
setfont
0.000000 0.062500 moveto
/epsilon glyphshow

/DejaVuSans findfont
5.6 scalefont
setfont
4.324219 -1.250000 moveto
/uni043D glyphshow

7.985547 -1.250000 moveto
/uni043E glyphshow

11.411719 -1.250000 moveto
/uni043C glyphshow

/DejaVuSerif findfont
8.0 scalefont
setfont
15.855078 0.062500 moveto
/space glyphshow

18.398047 0.062500 moveto
/equal glyphshow

25.101172 0.062500 moveto
/space glyphshow

27.644141 0.062500 moveto
/zero glyphshow

32.733984 0.062500 moveto
/period glyphshow

35.276953 0.062500 moveto
/zero glyphshow

40.366797 0.062500 moveto
/zero glyphshow


grestore
[5.6 2.4] 0 setdash
gsave
130.672 136.41975 m
154.672 136.41975 l
stroke
grestore
gsave
161.072000 133.619750 translate
0.000000 rotate
/DejaVuSans-Oblique findfont
8.0 scalefont
setfont
0.000000 0.062500 moveto
/epsilon glyphshow

/DejaVuSans findfont
5.6 scalefont
setfont
4.324219 -1.250000 moveto
/uni043D glyphshow

7.985547 -1.250000 moveto
/uni043E glyphshow

11.411719 -1.250000 moveto
/uni043C glyphshow

/DejaVuSerif findfont
8.0 scalefont
setfont
15.855078 0.062500 moveto
/space glyphshow

18.398047 0.062500 moveto
/equal glyphshow

25.101172 0.062500 moveto
/space glyphshow

27.644141 0.062500 moveto
/zero glyphshow

32.733984 0.062500 moveto
/period glyphshow

35.276953 0.062500 moveto
/zero glyphshow

40.366797 0.062500 moveto
/four glyphshow


grestore
[2.2 2.2] 0 setdash
gsave
130.672 124.341625 m
154.672 124.341625 l
stroke
grestore
gsave
161.072000 121.541625 translate
0.000000 rotate
/DejaVuSans-Oblique findfont
8.0 scalefont
setfont
0.000000 0.062500 moveto
/epsilon glyphshow

/DejaVuSans findfont
5.6 scalefont
setfont
4.324219 -1.250000 moveto
/uni043D glyphshow

7.985547 -1.250000 moveto
/uni043E glyphshow

11.411719 -1.250000 moveto
/uni043C glyphshow

/DejaVuSerif findfont
8.0 scalefont
setfont
15.855078 0.062500 moveto
/space glyphshow

18.398047 0.062500 moveto
/equal glyphshow

25.101172 0.062500 moveto
/space glyphshow

27.644141 0.062500 moveto
/zero glyphshow

32.733984 0.062500 moveto
/period glyphshow

35.276953 0.062500 moveto
/zero glyphshow

40.366797 0.062500 moveto
/eight glyphshow


grestore

end
showpage
