%!PS-Adobe-3.0 EPSF-3.0
%%Title: L0.eps
%%Creator: matplotlib version 2.0.0, http://matplotlib.org/
%%CreationDate: Sun Apr  1 17:01:45 2018
%%Orientation: portrait
%%BoundingBox: 190 309 421 482
%%EndComments
%%BeginProlog
/mpldict 9 dict def
mpldict begin
/m { moveto } bind def
/l { lineto } bind def
/r { rlineto } bind def
/c { curveto } bind def
/cl { closepath } bind def
/box {
m
1 index 0 r
0 exch r
neg 0 r
cl
} bind def
/clipbox {
box
clip
newpath
} bind def
%!PS-Adobe-3.0 Resource-Font
%%Title: DejaVu Serif
%%Copyright: Copyright (c) 2003 by Bitstream, Inc. All Rights Reserved. DejaVu changes are in public domain 
%%Creator: Converted from TrueType to type 3 by PPR
25 dict begin
/_d{bind def}bind def
/_m{moveto}_d
/_l{lineto}_d
/_cl{closepath eofill}_d
/_c{curveto}_d
/_sc{7 -1 roll{setcachedevice}{pop pop pop pop pop pop}ifelse}_d
/_e{exec}_d
/FontName /DejaVuSerif def
/PaintType 0 def
/FontMatrix[.001 0 0 .001 0 0]def
/FontBBox[-770 -347 2105 1109]def
/FontType 3 def
/Encoding [ /space /comma /period /zero /one /two /four /five /six /L /p /uni043C ] def
/FontInfo 10 dict dup begin
/FamilyName (DejaVu Serif) def
/FullName (DejaVu Serif) def
/Notice (Copyright (c) 2003 by Bitstream, Inc. All Rights Reserved. DejaVu changes are in public domain ) def
/Weight (Book) def
/Version (Version 2.35) def
/ItalicAngle 0.0 def
/isFixedPitch false def
/UnderlinePosition -130 def
/UnderlineThickness 90 def
end readonly def
/CharStrings 12 dict dup begin
/space{318 0 0 0 0 0 _sc
}_d
/comma{318 0 36 -135 221 111 _sc
36 -96 _m
66 -73 89 -47 103 -17 _c
117 13 125 49 125 93 _c
125 111 _l
221 111 _l
218 55 205 7 181 -32 _c
157 -71 122 -105 75 -135 _c
36 -96 _l
_cl}_d
/period{318 0 94 -13 224 116 _sc
94 51 _m
94 69 100 84 112 97 _c
124 109 140 116 159 116 _c
177 116 192 109 205 97 _c
217 84 224 69 224 51 _c
224 33 217 17 205 5 _c
192 -7 177 -13 159 -13 _c
140 -13 124 -7 112 5 _c
100 17 94 32 94 51 _c
_cl}_d
/zero{636 0 66 -13 570 742 _sc
318 34 _m
368 34 405 61 430 116 _c
454 170 467 253 467 364 _c
467 474 454 557 430 612 _c
405 666 368 694 318 694 _c
268 694 230 666 206 612 _c
181 557 169 474 169 364 _c
169 253 181 170 206 116 _c
230 61 268 34 318 34 _c
318 -13 _m
238 -13 176 20 132 86 _c
88 152 66 244 66 364 _c
66 483 88 576 132 642 _c
176 708 238 742 318 742 _c
397 742 459 708 503 642 _c
547 576 570 483 570 364 _c
570 244 547 152 503 86 _c
459 20 397 -13 318 -13 _c
_cl}_d
/one{636 0 122 0 494 742 _sc
142 0 _m
142 52 _l
269 52 _l
269 658 _l
122 563 _l
122 627 _l
300 742 _l
367 742 _l
367 52 _l
494 52 _l
494 0 _l
142 0 _l
_cl}_d
/two{{636 0 68 0 538 742 _sc
128 555 _m
73 555 _l
73 685 _l
107 703 142 717 178 727 _c
213 737 248 742 282 742 _c
358 742 418 723 462 687 _c
506 650 528 600 528 537 _c
528 465 478 380 378 281 _c
370 273 365 268 361 264 _c
177 80 _l
481 80 _l
481 170 _l
538 170 _l
538 0 _l
68 0 _l
68 53 _l
289 274 _l
337 322 372 367 393 408 _c
414 449 425 492 425 537 _c
}_e{425 586 412 624 386 652 _c
360 680 325 694 281 694 _c
234 694 198 682 173 659 _c
147 636 132 601 128 555 _c
_cl}_e}_d
/four{636 0 31 0 586 742 _sc
349 247 _m
349 635 _l
100 247 _l
349 247 _l
564 0 _m
232 0 _l
232 52 _l
349 52 _l
349 195 _l
31 195 _l
31 248 _l
350 742 _l
447 742 _l
447 247 _l
586 247 _l
586 195 _l
447 195 _l
447 52 _l
564 52 _l
564 0 _l
_cl}_d
/five{{636 0 85 -13 559 729 _sc
503 729 _m
503 649 _l
169 649 _l
169 440 _l
185 452 205 460 228 466 _c
250 472 276 475 304 475 _c
382 475 444 453 490 409 _c
536 365 559 306 559 231 _c
559 153 536 93 490 51 _c
444 8 379 -13 296 -13 _c
262 -13 228 -9 193 -1 _c
157 6 121 18 85 35 _c
85 177 _l
140 177 _l
143 130 158 94 184 70 _c
210 46 248 34 296 34 _c
}_e{347 34 386 51 414 85 _c
442 119 456 167 456 231 _c
456 294 442 342 415 376 _c
387 410 348 427 296 427 _c
266 427 240 421 218 411 _c
196 401 176 385 159 363 _c
117 363 _l
117 729 _l
503 729 _l
_cl}_e}_d
/six{{636 0 67 -13 573 742 _sc
327 34 _m
373 34 408 50 433 84 _c
457 118 470 166 470 230 _c
470 293 457 341 433 375 _c
408 409 373 426 327 426 _c
280 426 244 409 220 377 _c
196 344 184 297 184 236 _c
184 171 196 121 221 86 _c
245 51 281 34 327 34 _c
168 401 _m
190 425 215 444 243 456 _c
271 468 302 474 338 474 _c
410 474 468 452 510 408 _c
552 364 573 305 573 230 _c
}_e{573 156 550 97 505 53 _c
459 9 399 -13 323 -13 _c
241 -13 177 17 133 78 _c
89 139 67 227 67 341 _c
67 468 93 567 145 637 _c
197 707 271 742 367 742 _c
393 742 420 739 448 735 _c
476 730 505 723 535 713 _c
535 593 _l
480 593 _l
476 625 463 650 442 668 _c
421 685 393 694 357 694 _c
293 694 246 670 215 622 _c
184 574 168 500 168 401 _c
_cl}_e}_d
/L{664 0 55 0 640 729 _sc
55 0 _m
55 52 _l
148 52 _l
148 677 _l
55 677 _l
55 729 _l
340 729 _l
340 677 _l
247 677 _l
247 60 _l
580 60 _l
580 182 _l
640 182 _l
640 0 _l
55 0 _l
_cl}_d
/p{{640 0 29 -207 590 533 _sc
205 285 _m
205 234 _l
205 171 217 123 241 91 _c
265 58 299 42 345 42 _c
391 42 425 60 449 97 _c
473 133 485 188 485 260 _c
485 332 473 386 449 422 _c
425 458 391 477 345 477 _c
299 477 265 460 241 427 _c
217 394 205 347 205 285 _c
115 467 _m
29 467 _l
29 519 _l
205 519 _l
205 438 _l
222 470 244 494 272 510 _c
299 525 333 533 373 533 _c
}_e{437 533 489 507 529 457 _c
569 407 590 341 590 260 _c
590 178 569 112 529 62 _c
489 12 437 -13 373 -13 _c
333 -13 299 -5 272 9 _c
244 24 222 48 205 81 _c
205 -155 _l
290 -155 _l
290 -207 _l
29 -207 _l
29 -155 _l
115 -155 _l
115 467 _l
_cl}_e}_d
/uni043C{778 0 36 0 742 519 _sc
36 0 _m
36 52 _l
117 52 _l
117 467 _l
36 467 _l
36 519 _l
247 519 _l
393 162 _l
539 519 _l
742 519 _l
742 467 _l
661 467 _l
661 52 _l
742 52 _l
742 0 _l
490 0 _l
490 52 _l
571 52 _l
571 453 _l
407 52 _l
341 52 _l
177 453 _l
177 52 _l
258 52 _l
258 0 _l
36 0 _l
_cl}_d
end readonly def

/BuildGlyph
 {exch begin
 CharStrings exch
 2 copy known not{pop /.notdef}if
 true 3 1 roll get exec
 end}_d

/BuildChar {
 1 index /Encoding get exch get
 1 index /BuildGlyph get exec
}_d

FontName currentdict end definefont pop
%!PS-Adobe-3.0 Resource-Font
%%Title: DejaVu Sans
%%Copyright: Copyright (c) 2003 by Bitstream, Inc. All Rights Reserved. Copyright (c) 2006 by Tavmjong Bah. All Rights Reserved. DejaVu changes are in public domain 
%%Creator: Converted from TrueType to type 3 by PPR
25 dict begin
/_d{bind def}bind def
/_m{moveto}_d
/_l{lineto}_d
/_cl{closepath eofill}_d
/_c{curveto}_d
/_sc{7 -1 roll{setcachedevice}{pop pop pop pop pop pop}ifelse}_d
/_e{exec}_d
/FontName /DejaVuSans def
/PaintType 0 def
/FontMatrix[.001 0 0 .001 0 0]def
/FontBBox[-1021 -463 1793 1232]def
/FontType 3 def
/Encoding [ /one /minus ] def
/FontInfo 10 dict dup begin
/FamilyName (DejaVu Sans) def
/FullName (DejaVu Sans) def
/Notice (Copyright (c) 2003 by Bitstream, Inc. All Rights Reserved. Copyright (c) 2006 by Tavmjong Bah. All Rights Reserved. DejaVu changes are in public domain ) def
/Weight (Book) def
/Version (Version 2.35) def
/ItalicAngle 0.0 def
/isFixedPitch false def
/UnderlinePosition -130 def
/UnderlineThickness 90 def
end readonly def
/CharStrings 2 dict dup begin
/one{636 0 110 0 544 729 _sc
124 83 _m
285 83 _l
285 639 _l
110 604 _l
110 694 _l
284 729 _l
383 729 _l
383 83 _l
544 83 _l
544 0 _l
124 0 _l
124 83 _l
_cl}_d
/minus{838 0 106 272 732 355 _sc
106 355 _m
732 355 _l
732 272 _l
106 272 _l
106 355 _l
_cl}_d
end readonly def

/BuildGlyph
 {exch begin
 CharStrings exch
 2 copy known not{pop /.notdef}if
 true 3 1 roll get exec
 end}_d

/BuildChar {
 1 index /Encoding get exch get
 1 index /BuildGlyph get exec
}_d

FontName currentdict end definefont pop
end
%%EndProlog
mpldict begin
190.8 309.6 translate
230.4 172.8 0 0 clipbox
gsave
0 0 m
230.4 0 l
230.4 172.8 l
0 172.8 l
cl
1.000 setgray
fill
grestore
gsave
29.952 19.008 m
214.272 19.008 l
214.272 158.976 l
29.952 158.976 l
cl
1.000 setgray
fill
grestore
1.000 setlinewidth
0 setlinejoin
0 setlinecap
[] 0 setdash
0.000 setgray
gsave
184.3 140 29.95 19.01 clipbox
42.928128 19.008 m
56.55552 19.008 l
56.55552 51.244556 l
42.928128 51.244556 l
cl
gsave
1.000 setgray
fill
grestore
stroke
grestore
gsave
184.3 140 29.95 19.01 clipbox
56.55552 19.008 m
70.182912 19.008 l
70.182912 115.717668 l
56.55552 115.717668 l
cl
gsave
1.000 setgray
fill
grestore
stroke
grestore
gsave
184.3 140 29.95 19.01 clipbox
70.182912 19.008 m
83.810304 19.008 l
83.810304 136.23184 l
70.182912 136.23184 l
cl
gsave
1.000 setgray
fill
grestore
stroke
grestore
gsave
184.3 140 29.95 19.01 clipbox
83.810304 19.008 m
97.437696 19.008 l
97.437696 153.815416 l
83.810304 153.815416 l
cl
gsave
1.000 setgray
fill
grestore
stroke
grestore
gsave
184.3 140 29.95 19.01 clipbox
97.437696 19.008 m
111.065088 19.008 l
111.065088 154.792281 l
97.437696 154.792281 l
cl
gsave
1.000 setgray
fill
grestore
stroke
grestore
gsave
184.3 140 29.95 19.01 clipbox
111.065088 19.008 m
124.69248 19.008 l
124.69248 149.907954 l
111.065088 149.907954 l
cl
gsave
1.000 setgray
fill
grestore
stroke
grestore
gsave
184.3 140 29.95 19.01 clipbox
124.69248 19.008 m
138.319872 19.008 l
138.319872 120.601995 l
124.69248 120.601995 l
cl
gsave
1.000 setgray
fill
grestore
stroke
grestore
gsave
184.3 140 29.95 19.01 clipbox
138.319872 19.008 m
151.947264 19.008 l
151.947264 105.949015 l
138.319872 105.949015 l
cl
gsave
1.000 setgray
fill
grestore
stroke
grestore
gsave
184.3 140 29.95 19.01 clipbox
151.947264 19.008 m
165.574656 19.008 l
165.574656 75.666189 l
151.947264 75.666189 l
cl
gsave
1.000 setgray
fill
grestore
stroke
grestore
gsave
184.3 140 29.95 19.01 clipbox
165.574656 19.008 m
179.202048 19.008 l
179.202048 50.267691 l
165.574656 50.267691 l
cl
gsave
1.000 setgray
fill
grestore
stroke
grestore
gsave
184.3 140 29.95 19.01 clipbox
179.202048 19.008 m
192.82944 19.008 l
192.82944 33.66098 l
179.202048 33.66098 l
cl
gsave
1.000 setgray
fill
grestore
stroke
grestore
gsave
184.3 140 29.95 19.01 clipbox
192.82944 19.008 m
206.456832 19.008 l
206.456832 26.822923 l
192.82944 26.822923 l
cl
gsave
1.000 setgray
fill
grestore
stroke
grestore
0.800 setlinewidth
1 setlinejoin
[] 0 setdash
gsave
/o {
gsave
newpath
translate
0.8 setlinewidth
1 setlinejoin
0 setlinecap
0 0 m
0 -3.5 l

gsave
0.000 setgray
fill
grestore
stroke
grestore
} bind def
29.952 19.008 o
grestore
/DejaVuSerif findfont
9.000 scalefont
setfont
gsave
22.787938 5.164250 translate
0.000000 rotate
0.000000 0.000000 m /zero glyphshow
5.726074 0.000000 m /period glyphshow
8.586914 0.000000 m /zero glyphshow
grestore
gsave
/o {
gsave
newpath
translate
0.8 setlinewidth
1 setlinejoin
0 setlinecap
0 0 m
0 -3.5 l

gsave
0.000 setgray
fill
grestore
stroke
grestore
} bind def
66.816 19.008 o
grestore
gsave
59.651938 5.164250 translate
0.000000 rotate
0.000000 0.000000 m /zero glyphshow
5.726074 0.000000 m /period glyphshow
8.586914 0.000000 m /five glyphshow
grestore
gsave
/o {
gsave
newpath
translate
0.8 setlinewidth
1 setlinejoin
0 setlinecap
0 0 m
0 -3.5 l

gsave
0.000 setgray
fill
grestore
stroke
grestore
} bind def
103.68 19.008 o
grestore
gsave
96.515938 5.164250 translate
0.000000 rotate
0.000000 0.000000 m /one glyphshow
5.726074 0.000000 m /period glyphshow
8.586914 0.000000 m /zero glyphshow
grestore
gsave
/o {
gsave
newpath
translate
0.8 setlinewidth
1 setlinejoin
0 setlinecap
0 0 m
0 -3.5 l

gsave
0.000 setgray
fill
grestore
stroke
grestore
} bind def
140.544 19.008 o
grestore
gsave
133.379938 5.164250 translate
0.000000 rotate
0.000000 0.000000 m /one glyphshow
5.726074 0.000000 m /period glyphshow
8.586914 0.000000 m /five glyphshow
grestore
gsave
/o {
gsave
newpath
translate
0.8 setlinewidth
1 setlinejoin
0 setlinecap
0 0 m
0 -3.5 l

gsave
0.000 setgray
fill
grestore
stroke
grestore
} bind def
177.408 19.008 o
grestore
gsave
170.243938 5.164250 translate
0.000000 rotate
0.000000 0.000000 m /two glyphshow
5.726074 0.000000 m /period glyphshow
8.586914 0.000000 m /zero glyphshow
grestore
gsave
201.420438 5.164250 translate
0.000000 rotate
0.000000 0.000000 m /L glyphshow
5.976562 0.000000 m /comma glyphshow
8.837402 0.000000 m /space glyphshow
11.698242 0.000000 m /uni043C glyphshow
18.698730 0.000000 m /uni043C glyphshow
grestore
gsave
/o {
gsave
newpath
translate
0.8 setlinewidth
1 setlinejoin
0 setlinecap
0 0 m
-3.5 0 l

gsave
0.000 setgray
fill
grestore
stroke
grestore
} bind def
29.952 19.008 o
grestore
gsave
8.623875 15.586125 translate
0.000000 rotate
0.000000 0.000000 m /zero glyphshow
5.726074 0.000000 m /period glyphshow
8.586914 0.000000 m /zero glyphshow
grestore
gsave
/o {
gsave
newpath
translate
0.8 setlinewidth
1 setlinejoin
0 setlinecap
0 0 m
-3.5 0 l

gsave
0.000 setgray
fill
grestore
stroke
grestore
} bind def
29.952 54 o
grestore
gsave
8.623875 50.578125 translate
0.000000 rotate
0.000000 0.000000 m /zero glyphshow
5.726074 0.000000 m /period glyphshow
8.586914 0.000000 m /two glyphshow
grestore
gsave
/o {
gsave
newpath
translate
0.8 setlinewidth
1 setlinejoin
0 setlinecap
0 0 m
-3.5 0 l

gsave
0.000 setgray
fill
grestore
stroke
grestore
} bind def
29.952 88.992 o
grestore
gsave
8.623875 85.570125 translate
0.000000 rotate
0.000000 0.000000 m /zero glyphshow
5.726074 0.000000 m /period glyphshow
8.586914 0.000000 m /four glyphshow
grestore
gsave
/o {
gsave
newpath
translate
0.8 setlinewidth
1 setlinejoin
0 setlinecap
0 0 m
-3.5 0 l

gsave
0.000 setgray
fill
grestore
stroke
grestore
} bind def
29.952 123.984 o
grestore
gsave
8.623875 120.562125 translate
0.000000 rotate
0.000000 0.000000 m /zero glyphshow
5.726074 0.000000 m /period glyphshow
8.586914 0.000000 m /six glyphshow
grestore
gsave
4.952000 160.976000 translate
0.000000 rotate
/DejaVuSerif findfont
9.0 scalefont
setfont
0.000000 0.960938 moveto
/p glyphshow

5.761230 0.960938 moveto
/comma glyphshow

8.622070 0.960938 moveto
/space glyphshow

11.482910 0.960938 moveto
/uni043C glyphshow

18.483398 0.960938 moveto
/uni043C glyphshow

/DejaVuSans findfont
6.3 scalefont
setfont
25.570020 4.406250 moveto
/minus glyphshow

30.848730 4.406250 moveto
/one glyphshow


grestore
1.000 setlinewidth
1 setlinecap
[2.2 2.2] 0 setdash
gsave
184.3 140 29.95 19.01 clipbox
-1 19.0089 m
13.755922 19.116729 l
18.686436 19.389441 l
21.973445 19.811951 l
25.260454 20.588468 l
26.903959 21.16906 l
28.547463 21.915676 l
30.190968 22.859541 l
31.834472 24.033202 l
33.477977 25.469471 l
35.121481 27.20021 l
36.764986 29.255005 l
38.40849 31.659759 l
40.051995 34.435267 l
41.6955 37.595775 l
43.339004 41.147601 l
44.982509 45.087831 l
46.626013 49.403202 l
49.913022 59.049958 l
53.200032 69.754896 l
61.417554 97.70463 l
64.704563 107.896974 l
67.991573 116.938654 l
69.635077 120.986749 l
71.278582 124.721955 l
72.922086 128.156012 l
74.565591 131.304122 l
76.209095 134.181304 l
77.8526 136.799597 l
79.496105 139.166555 l
81.139609 141.285279 l
82.783114 143.155889 l
84.426618 144.778071 l
86.070123 146.154106 l
87.713627 147.291692 l
89.357132 148.205865 l
91.000636 148.919549 l
92.644141 149.462481 l
95.93115 150.172421 l
99.218159 150.588159 l
102.505168 150.845452 l
105.792178 150.893384 l
107.435682 150.776425 l
109.079187 150.520472 l
110.722691 150.09167 l
112.366196 149.461041 l
114.0097 148.60772 l
115.653205 147.521023 l
117.296709 146.201132 l
118.940214 144.658411 l
120.583719 142.911522 l
123.870728 138.904113 l
127.157737 134.378943 l
130.444746 129.47609 l
133.731755 124.226166 l
137.018764 118.571074 l
140.305773 112.440288 l
143.592782 105.834438 l
148.523296 95.30402 l
155.097314 81.194158 l
158.384324 74.529928 l
161.671333 68.273801 l
164.958342 62.476428 l
168.245351 57.159594 l
171.53236 52.323371 l
174.819369 47.949581 l
178.106378 44.009343 l
181.393387 40.474081 l
184.680397 37.32191 l
187.967406 34.533431 l
191.254415 32.080519 l
194.541424 29.919043 l
197.828433 27.994333 l
202.758947 25.451792 l
206.045956 23.96195 l
209.332965 22.652999 l
212.619974 21.553829 l
215.906983 20.684747 l
219.193992 20.044068 l
222.481001 19.606298 l
227.411515 19.237848 l
231.4 19.103457 l
231.4 19.103457 l
stroke
grestore
0.800 setlinewidth
0 setlinejoin
2 setlinecap
[] 0 setdash
gsave
29.952 19.008 m
29.952 158.976 l
stroke
grestore
gsave
214.272 19.008 m
214.272 158.976 l
stroke
grestore
gsave
29.952 19.008 m
214.272 19.008 l
stroke
grestore
gsave
29.952 158.976 m
214.272 158.976 l
stroke
grestore

end
showpage
