%!PS-Adobe-3.0 EPSF-3.0
%%Title: s_min_ru.eps
%%Creator: matplotlib version 2.0.0, http://matplotlib.org/
%%CreationDate: Mon Mar 26 19:27:38 2018
%%Orientation: portrait
%%BoundingBox: 190 309 421 482
%%EndComments
%%BeginProlog
/mpldict 10 dict def
mpldict begin
/m { moveto } bind def
/l { lineto } bind def
/r { rlineto } bind def
/c { curveto } bind def
/cl { closepath } bind def
/box {
m
1 index 0 r
0 exch r
neg 0 r
cl
} bind def
/clipbox {
box
clip
newpath
} bind def
%!PS-Adobe-3.0 Resource-Font
%%Title: DejaVu Serif
%%Copyright: Copyright (c) 2003 by Bitstream, Inc. All Rights Reserved. DejaVu changes are in public domain 
%%Creator: Converted from TrueType to type 3 by PPR
25 dict begin
/_d{bind def}bind def
/_m{moveto}_d
/_l{lineto}_d
/_cl{closepath eofill}_d
/_c{curveto}_d
/_sc{7 -1 roll{setcachedevice}{pop pop pop pop pop pop}ifelse}_d
/_e{exec}_d
/FontName /DejaVuSerif def
/PaintType 0 def
/FontMatrix[.001 0 0 .001 0 0]def
/FontBBox[-770 -347 2105 1109]def
/FontType 3 def
/Encoding [ /space /comma /period /zero /one /two /five /equal /a /l /s /uni0413 /uni041F /uni0430 /uni043A /uni043C ] def
/FontInfo 10 dict dup begin
/FamilyName (DejaVu Serif) def
/FullName (DejaVu Serif) def
/Notice (Copyright (c) 2003 by Bitstream, Inc. All Rights Reserved. DejaVu changes are in public domain ) def
/Weight (Book) def
/Version (Version 2.35) def
/ItalicAngle 0.0 def
/isFixedPitch false def
/UnderlinePosition -130 def
/UnderlineThickness 90 def
end readonly def
/CharStrings 16 dict dup begin
/space{318 0 0 0 0 0 _sc
}_d
/comma{318 0 36 -135 221 111 _sc
36 -96 _m
66 -73 89 -47 103 -17 _c
117 13 125 49 125 93 _c
125 111 _l
221 111 _l
218 55 205 7 181 -32 _c
157 -71 122 -105 75 -135 _c
36 -96 _l
_cl}_d
/period{318 0 94 -13 224 116 _sc
94 51 _m
94 69 100 84 112 97 _c
124 109 140 116 159 116 _c
177 116 192 109 205 97 _c
217 84 224 69 224 51 _c
224 33 217 17 205 5 _c
192 -7 177 -13 159 -13 _c
140 -13 124 -7 112 5 _c
100 17 94 32 94 51 _c
_cl}_d
/zero{636 0 66 -13 570 742 _sc
318 34 _m
368 34 405 61 430 116 _c
454 170 467 253 467 364 _c
467 474 454 557 430 612 _c
405 666 368 694 318 694 _c
268 694 230 666 206 612 _c
181 557 169 474 169 364 _c
169 253 181 170 206 116 _c
230 61 268 34 318 34 _c
318 -13 _m
238 -13 176 20 132 86 _c
88 152 66 244 66 364 _c
66 483 88 576 132 642 _c
176 708 238 742 318 742 _c
397 742 459 708 503 642 _c
547 576 570 483 570 364 _c
570 244 547 152 503 86 _c
459 20 397 -13 318 -13 _c
_cl}_d
/one{636 0 122 0 494 742 _sc
142 0 _m
142 52 _l
269 52 _l
269 658 _l
122 563 _l
122 627 _l
300 742 _l
367 742 _l
367 52 _l
494 52 _l
494 0 _l
142 0 _l
_cl}_d
/two{{636 0 68 0 538 742 _sc
128 555 _m
73 555 _l
73 685 _l
107 703 142 717 178 727 _c
213 737 248 742 282 742 _c
358 742 418 723 462 687 _c
506 650 528 600 528 537 _c
528 465 478 380 378 281 _c
370 273 365 268 361 264 _c
177 80 _l
481 80 _l
481 170 _l
538 170 _l
538 0 _l
68 0 _l
68 53 _l
289 274 _l
337 322 372 367 393 408 _c
414 449 425 492 425 537 _c
}_e{425 586 412 624 386 652 _c
360 680 325 694 281 694 _c
234 694 198 682 173 659 _c
147 636 132 601 128 555 _c
_cl}_e}_d
/five{{636 0 85 -13 559 729 _sc
503 729 _m
503 649 _l
169 649 _l
169 440 _l
185 452 205 460 228 466 _c
250 472 276 475 304 475 _c
382 475 444 453 490 409 _c
536 365 559 306 559 231 _c
559 153 536 93 490 51 _c
444 8 379 -13 296 -13 _c
262 -13 228 -9 193 -1 _c
157 6 121 18 85 35 _c
85 177 _l
140 177 _l
143 130 158 94 184 70 _c
210 46 248 34 296 34 _c
}_e{347 34 386 51 414 85 _c
442 119 456 167 456 231 _c
456 294 442 342 415 376 _c
387 410 348 427 296 427 _c
266 427 240 421 218 411 _c
196 401 176 385 159 363 _c
117 363 _l
117 729 _l
503 729 _l
_cl}_e}_d
/equal{838 0 106 175 732 452 _sc
106 452 _m
732 452 _l
732 374 _l
106 374 _l
106 452 _l
106 253 _m
732 253 _l
732 175 _l
106 175 _l
106 253 _l
_cl}_d
/a{{596 0 50 -13 568 533 _sc
398 163 _m
398 273 _l
282 273 _l
237 273 204 263 182 244 _c
160 224 150 195 150 156 _c
150 120 161 91 183 70 _c
205 48 235 38 273 38 _c
310 38 340 49 363 72 _c
386 95 398 125 398 163 _c
488 324 _m
488 52 _l
568 52 _l
568 0 _l
398 0 _l
398 56 _l
378 32 355 14 329 3 _c
303 -7 272 -13 238 -13 _c
180 -13 134 2 100 32 _c
}_e{66 62 50 104 50 156 _c
50 209 69 250 108 280 _c
146 310 201 325 272 325 _c
398 325 _l
398 361 _l
398 400 386 430 362 452 _c
338 474 304 485 261 485 _c
225 485 197 476 176 460 _c
154 444 141 420 136 388 _c
90 388 _l
90 493 _l
121 506 151 516 181 523 _c
210 529 239 533 267 533 _c
339 533 393 515 431 479 _c
469 443 488 392 488 324 _c
_cl}_e}_d
/l{320 0 29 0 290 760 _sc
205 52 _m
290 52 _l
290 0 _l
29 0 _l
29 52 _l
115 52 _l
115 708 _l
29 708 _l
29 760 _l
205 760 _l
205 52 _l
_cl}_d
/s{{513 0 56 -13 462 533 _sc
56 29 _m
56 150 _l
108 150 _l
109 111 121 82 144 63 _c
167 43 201 34 246 34 _c
286 34 317 41 338 57 _c
359 72 370 94 370 123 _c
370 145 362 164 347 178 _c
331 192 299 207 249 223 _c
184 245 _l
139 259 107 277 87 299 _c
67 320 57 347 57 381 _c
57 428 74 465 109 492 _c
144 519 192 533 254 533 _c
281 533 310 529 340 522 _c
}_e{370 515 402 505 434 491 _c
434 378 _l
382 378 _l
380 411 369 437 347 456 _c
325 475 295 485 257 485 _c
219 485 190 478 171 465 _c
151 451 142 431 142 405 _c
142 383 149 365 164 352 _c
178 339 208 326 252 312 _c
323 290 _l
372 274 407 255 429 232 _c
451 209 462 180 462 144 _c
462 94 443 56 405 28 _c
367 0 316 -13 250 -13 _c
216 -13 184 -9 152 -3 _c
}_e{120 3 88 14 56 29 _c
_cl}_e}_d
/uni0413{662 0 55 0 620 729 _sc
247 52 _m
364 52 _l
364 0 _l
55 0 _l
55 52 _l
148 52 _l
148 677 _l
55 677 _l
55 729 _l
620 729 _l
620 566 _l
560 566 _l
560 669 _l
247 669 _l
247 52 _l
_cl}_d
/uni041F{872 0 55 0 817 729 _sc
817 729 _m
817 677 _l
724 677 _l
724 52 _l
817 52 _l
817 0 _l
532 0 _l
532 52 _l
625 52 _l
625 669 _l
247 669 _l
247 52 _l
340 52 _l
340 0 _l
55 0 _l
55 52 _l
148 52 _l
148 677 _l
55 677 _l
55 729 _l
817 729 _l
_cl}_d
/uni0430{596 0 50 -13 568 533 _sc
false CharStrings /a get exec
}_d
/uni043A{{625 0 34 0 613 519 _sc
286 519 _m
286 467 _l
205 467 _l
205 265 _l
424 467 _l
349 467 _l
349 519 _l
584 519 _l
584 467 _l
495 467 _l
341 324 _l
538 52 _l
613 52 _l
613 0 _l
357 0 _l
357 52 _l
431 52 _l
276 265 _l
205 199 _l
205 52 _l
286 52 _l
286 0 _l
34 0 _l
34 52 _l
115 52 _l
115 467 _l
34 467 _l
34 519 _l
286 519 _l
_cl}_e}_d
/uni043C{778 0 36 0 742 519 _sc
36 0 _m
36 52 _l
117 52 _l
117 467 _l
36 467 _l
36 519 _l
247 519 _l
393 162 _l
539 519 _l
742 519 _l
742 467 _l
661 467 _l
661 52 _l
742 52 _l
742 0 _l
490 0 _l
490 52 _l
571 52 _l
571 453 _l
407 52 _l
341 52 _l
177 453 _l
177 52 _l
258 52 _l
258 0 _l
36 0 _l
_cl}_d
end readonly def

/BuildGlyph
 {exch begin
 CharStrings exch
 2 copy known not{pop /.notdef}if
 true 3 1 roll get exec
 end}_d

/BuildChar {
 1 index /Encoding get exch get
 1 index /BuildGlyph get exec
}_d

FontName currentdict end definefont pop
%!PS-Adobe-3.0 Resource-Font
%%Title: DejaVu Sans Oblique
%%Copyright: Copyright (c) 2003 by Bitstream, Inc. All Rights Reserved. Copyright (c) 2006 by Tavmjong Bah. All Rights Reserved. DejaVu changes are in public domain 
%%Creator: Converted from TrueType to type 3 by PPR
25 dict begin
/_d{bind def}bind def
/_m{moveto}_d
/_l{lineto}_d
/_cl{closepath eofill}_d
/_c{curveto}_d
/_sc{7 -1 roll{setcachedevice}{pop pop pop pop pop pop}ifelse}_d
/_e{exec}_d
/FontName /DejaVuSans-Oblique def
/PaintType 0 def
/FontMatrix[.001 0 0 .001 0 0]def
/FontBBox[-1016 -350 1659 1068]def
/FontType 3 def
/Encoding [ /epsilon ] def
/FontInfo 10 dict dup begin
/FamilyName (DejaVu Sans) def
/FullName (DejaVu Sans Oblique) def
/Notice (Copyright (c) 2003 by Bitstream, Inc. All Rights Reserved. Copyright (c) 2006 by Tavmjong Bah. All Rights Reserved. DejaVu changes are in public domain ) def
/Weight (Oblique) def
/Version (Version 2.35) def
/ItalicAngle -11.0 def
/isFixedPitch false def
/UnderlinePosition -130 def
/UnderlineThickness 90 def
end readonly def
/CharStrings 1 dict dup begin
/epsilon{{541 0 39 -13 506 561 _sc
197 295 _m
162 303 137 317 122 338 _c
110 353 104 371 104 391 _c
104 446 130 490 184 522 _c
225 548 278 561 342 561 _c
366 561 392 559 419 555 _c
446 551 475 545 505 537 _c
490 456 _l
460 465 432 472 407 476 _c
381 480 357 482 334 482 _c
295 482 263 474 238 460 _c
207 442 192 420 192 394 _c
192 376 200 362 216 350 _c
234 336 263 329 301 329 _c
}_e{376 329 _l
362 254 _l
290 254 _l
245 254 209 245 183 229 _c
147 207 129 178 129 143 _c
129 121 138 102 158 88 _c
182 70 218 61 268 61 _c
298 61 327 63 357 69 _c
385 75 412 85 438 97 _c
422 13 _l
390 4 361 -2 333 -6 _c
305 -10 277 -13 251 -13 _c
173 -13 117 1 81 30 _c
53 52 39 83 39 122 _c
39 174 57 216 94 248 _c
120 271 155 287 197 295 _c
_cl}_e}_d
end readonly def

/BuildGlyph
 {exch begin
 CharStrings exch
 2 copy known not{pop /.notdef}if
 true 3 1 roll get exec
 end}_d

/BuildChar {
 1 index /Encoding get exch get
 1 index /BuildGlyph get exec
}_d

FontName currentdict end definefont pop
%!PS-Adobe-3.0 Resource-Font
%%Title: DejaVu Sans
%%Copyright: Copyright (c) 2003 by Bitstream, Inc. All Rights Reserved. Copyright (c) 2006 by Tavmjong Bah. All Rights Reserved. DejaVu changes are in public domain 
%%Creator: Converted from TrueType to type 3 by PPR
25 dict begin
/_d{bind def}bind def
/_m{moveto}_d
/_l{lineto}_d
/_cl{closepath eofill}_d
/_c{curveto}_d
/_sc{7 -1 roll{setcachedevice}{pop pop pop pop pop pop}ifelse}_d
/_e{exec}_d
/FontName /DejaVuSans def
/PaintType 0 def
/FontMatrix[.001 0 0 .001 0 0]def
/FontBBox[-1021 -463 1793 1232]def
/FontType 3 def
/Encoding [ /comma /e /i /m /n /o /uni043C /uni043D /uni043E ] def
/FontInfo 10 dict dup begin
/FamilyName (DejaVu Sans) def
/FullName (DejaVu Sans) def
/Notice (Copyright (c) 2003 by Bitstream, Inc. All Rights Reserved. Copyright (c) 2006 by Tavmjong Bah. All Rights Reserved. DejaVu changes are in public domain ) def
/Weight (Book) def
/Version (Version 2.35) def
/ItalicAngle 0.0 def
/isFixedPitch false def
/UnderlinePosition -130 def
/UnderlineThickness 90 def
end readonly def
/CharStrings 9 dict dup begin
/comma{318 0 77 -115 220 124 _sc
117 124 _m
220 124 _l
220 40 _l
140 -115 _l
77 -115 _l
117 40 _l
117 124 _l
_cl}_d
/e{{615 0 55 -13 562 560 _sc
562 296 _m
562 252 _l
149 252 _l
153 190 171 142 205 110 _c
238 78 284 62 344 62 _c
378 62 412 66 444 74 _c
476 82 509 95 541 113 _c
541 28 _l
509 14 476 3 442 -3 _c
408 -9 373 -13 339 -13 _c
251 -13 182 12 131 62 _c
80 112 55 181 55 268 _c
55 357 79 428 127 481 _c
175 533 241 560 323 560 _c
397 560 455 536 498 489 _c
}_e{540 441 562 377 562 296 _c
472 322 _m
471 371 457 410 431 440 _c
404 469 368 484 324 484 _c
274 484 234 469 204 441 _c
174 413 156 373 152 322 _c
472 322 _l
_cl}_e}_d
/i{278 0 94 0 184 760 _sc
94 547 _m
184 547 _l
184 0 _l
94 0 _l
94 547 _l
94 760 _m
184 760 _l
184 646 _l
94 646 _l
94 760 _l
_cl}_d
/m{{974 0 91 0 889 560 _sc
520 442 _m
542 482 569 511 600 531 _c
631 550 668 560 711 560 _c
767 560 811 540 842 500 _c
873 460 889 403 889 330 _c
889 0 _l
799 0 _l
799 327 _l
799 379 789 418 771 444 _c
752 469 724 482 686 482 _c
639 482 602 466 575 435 _c
548 404 535 362 535 309 _c
535 0 _l
445 0 _l
445 327 _l
445 379 435 418 417 444 _c
398 469 369 482 331 482 _c
}_e{285 482 248 466 221 435 _c
194 404 181 362 181 309 _c
181 0 _l
91 0 _l
91 547 _l
181 547 _l
181 462 _l
201 495 226 520 255 536 _c
283 552 317 560 357 560 _c
397 560 430 550 458 530 _c
486 510 506 480 520 442 _c
_cl}_e}_d
/n{634 0 91 0 549 560 _sc
549 330 _m
549 0 _l
459 0 _l
459 327 _l
459 379 448 417 428 443 _c
408 469 378 482 338 482 _c
289 482 251 466 223 435 _c
195 404 181 362 181 309 _c
181 0 _l
91 0 _l
91 547 _l
181 547 _l
181 462 _l
202 494 227 519 257 535 _c
286 551 320 560 358 560 _c
420 560 468 540 500 501 _c
532 462 549 405 549 330 _c
_cl}_d
/o{612 0 55 -13 557 560 _sc
306 484 _m
258 484 220 465 192 427 _c
164 389 150 338 150 273 _c
150 207 163 156 191 118 _c
219 80 257 62 306 62 _c
354 62 392 80 420 118 _c
448 156 462 207 462 273 _c
462 337 448 389 420 427 _c
392 465 354 484 306 484 _c
306 560 _m
384 560 445 534 490 484 _c
534 433 557 363 557 273 _c
557 183 534 113 490 63 _c
445 12 384 -13 306 -13 _c
227 -13 165 12 121 63 _c
77 113 55 183 55 273 _c
55 363 77 433 121 484 _c
165 534 227 560 306 560 _c
_cl}_d
/uni043C{754 0 91 0 664 547 _sc
91 547 _m
222 547 _l
377 181 _l
533 547 _l
664 547 _l
664 0 _l
573 0 _l
573 461 _l
422 105 _l
333 105 _l
181 461 _l
181 0 _l
91 0 _l
91 547 _l
_cl}_d
/uni043D{654 0 91 0 563 547 _sc
91 547 _m
181 547 _l
181 324 _l
473 324 _l
473 547 _l
563 547 _l
563 0 _l
473 0 _l
473 252 _l
181 252 _l
181 0 _l
91 0 _l
91 547 _l
_cl}_d
/uni043E{612 0 55 -13 557 560 _sc
false CharStrings /o get exec
}_d
end readonly def

/BuildGlyph
 {exch begin
 CharStrings exch
 2 copy known not{pop /.notdef}if
 true 3 1 roll get exec
 end}_d

/BuildChar {
 1 index /Encoding get exch get
 1 index /BuildGlyph get exec
}_d

FontName currentdict end definefont pop
end
%%EndProlog
mpldict begin
190.8 309.6 translate
230.4 172.8 0 0 clipbox
gsave
0 0 m
230.4 0 l
230.4 172.8 l
0 172.8 l
cl
1.000 setgray
fill
grestore
gsave
29.952 19.008 m
214.272 19.008 l
214.272 158.976 l
29.952 158.976 l
cl
1.000 setgray
fill
grestore
0.800 setlinewidth
1 setlinejoin
0 setlinecap
[] 0 setdash
0.000 setgray
gsave
/o {
gsave
newpath
translate
0.8 setlinewidth
1 setlinejoin
0 setlinecap
0 0 m
0 -3.5 l

gsave
0.000 setgray
fill
grestore
stroke
grestore
} bind def
29.952 19.008 o
grestore
/DejaVuSerif findfont
9.000 scalefont
setfont
gsave
22.787938 5.164250 translate
0.000000 rotate
0.000000 0.000000 m /zero glyphshow
5.726074 0.000000 m /period glyphshow
8.586914 0.000000 m /zero glyphshow
grestore
gsave
/o {
gsave
newpath
translate
0.8 setlinewidth
1 setlinejoin
0 setlinecap
0 0 m
0 -3.5 l

gsave
0.000 setgray
fill
grestore
stroke
grestore
} bind def
81.152 19.008 o
grestore
gsave
73.987938 5.164250 translate
0.000000 rotate
0.000000 0.000000 m /zero glyphshow
5.726074 0.000000 m /period glyphshow
8.586914 0.000000 m /five glyphshow
grestore
gsave
/o {
gsave
newpath
translate
0.8 setlinewidth
1 setlinejoin
0 setlinecap
0 0 m
0 -3.5 l

gsave
0.000 setgray
fill
grestore
stroke
grestore
} bind def
132.352 19.008 o
grestore
gsave
125.187938 5.164250 translate
0.000000 rotate
0.000000 0.000000 m /one glyphshow
5.726074 0.000000 m /period glyphshow
8.586914 0.000000 m /zero glyphshow
grestore
gsave
/o {
gsave
newpath
translate
0.8 setlinewidth
1 setlinejoin
0 setlinecap
0 0 m
0 -3.5 l

gsave
0.000 setgray
fill
grestore
stroke
grestore
} bind def
183.552 19.008 o
grestore
gsave
176.387938 5.164250 translate
0.000000 rotate
0.000000 0.000000 m /one glyphshow
5.726074 0.000000 m /period glyphshow
8.586914 0.000000 m /five glyphshow
grestore
gsave
205.272000 5.289250 translate
0.000000 rotate
/DejaVuSans-Oblique findfont
9.0 scalefont
setfont
0.000000 0.953125 moveto
/epsilon glyphshow

/DejaVuSans findfont
6.3 scalefont
setfont
4.864746 -0.523438 moveto
/uni043D glyphshow

8.983740 -0.523438 moveto
/uni043E glyphshow

12.838184 -0.523438 moveto
/uni043C glyphshow


grestore
gsave
/o {
gsave
newpath
translate
0.8 setlinewidth
1 setlinejoin
0 setlinecap
0 0 m
-3.5 0 l

gsave
0.000 setgray
fill
grestore
stroke
grestore
} bind def
29.952 19.008 o
grestore
gsave
8.623875 15.586125 translate
0.000000 rotate
0.000000 0.000000 m /zero glyphshow
5.726074 0.000000 m /period glyphshow
8.586914 0.000000 m /zero glyphshow
grestore
gsave
/o {
gsave
newpath
translate
0.8 setlinewidth
1 setlinejoin
0 setlinecap
0 0 m
-3.5 0 l

gsave
0.000 setgray
fill
grestore
stroke
grestore
} bind def
29.952 47.0016 o
grestore
gsave
8.623875 43.579725 translate
0.000000 rotate
0.000000 0.000000 m /zero glyphshow
5.726074 0.000000 m /period glyphshow
8.586914 0.000000 m /five glyphshow
grestore
gsave
/o {
gsave
newpath
translate
0.8 setlinewidth
1 setlinejoin
0 setlinecap
0 0 m
-3.5 0 l

gsave
0.000 setgray
fill
grestore
stroke
grestore
} bind def
29.952 74.9952 o
grestore
gsave
8.623875 71.573325 translate
0.000000 rotate
0.000000 0.000000 m /one glyphshow
5.726074 0.000000 m /period glyphshow
8.586914 0.000000 m /zero glyphshow
grestore
gsave
/o {
gsave
newpath
translate
0.8 setlinewidth
1 setlinejoin
0 setlinecap
0 0 m
-3.5 0 l

gsave
0.000 setgray
fill
grestore
stroke
grestore
} bind def
29.952 102.989 o
grestore
gsave
8.623875 99.566925 translate
0.000000 rotate
0.000000 0.000000 m /one glyphshow
5.726074 0.000000 m /period glyphshow
8.586914 0.000000 m /five glyphshow
grestore
gsave
/o {
gsave
newpath
translate
0.8 setlinewidth
1 setlinejoin
0 setlinecap
0 0 m
-3.5 0 l

gsave
0.000 setgray
fill
grestore
stroke
grestore
} bind def
29.952 130.982 o
grestore
gsave
8.623875 127.560525 translate
0.000000 rotate
0.000000 0.000000 m /two glyphshow
5.726074 0.000000 m /period glyphshow
8.586914 0.000000 m /zero glyphshow
grestore
gsave
7.668000 161.976000 translate
0.000000 rotate
/DejaVuSerif findfont
9.0 scalefont
setfont
0.000000 0.437500 moveto
/s glyphshow

/DejaVuSans findfont
6.3 scalefont
setfont
4.704785 -1.039062 moveto
/e glyphshow

8.580762 -1.039062 moveto
/comma glyphshow

11.810742 -1.039062 moveto
/m glyphshow

17.947705 -1.039062 moveto
/i glyphshow

19.698047 -1.039062 moveto
/n glyphshow

/DejaVuSerif findfont
9.0 scalefont
setfont
23.937012 0.437500 moveto
/comma glyphshow

26.797852 0.437500 moveto
/space glyphshow

29.658691 0.437500 moveto
/uni0413 glyphshow

35.617676 0.437500 moveto
/uni041F glyphshow

43.466309 0.437500 moveto
/uni0430 glyphshow


grestore
1.000 setlinewidth
1 setlinecap
gsave
184.3 140 29.95 19.01 clipbox
29.952 52.607414 m
34.054014 124.763578 l
38.156027 135.647789 l
42.258041 139.741214 l
46.360054 140.901557 l
50.462068 141.212015 l
54.564081 141.12521 l
58.666095 140.842063 l
62.768108 139.711639 l
66.870122 138.980793 l
70.972135 139.150839 l
75.074149 137.652533 l
79.176163 136.188526 l
83.278176 132.530978 l
87.38019 34.213356 l
91.482203 22.035792 l
95.584217 19.018949 l
99.68623 21.157354 l
103.788244 20.253359 l
107.890257 20.137956 l
111.992271 19.751691 l
116.094284 19.697129 l
120.196298 19.632795 l
124.298312 19.562685 l
128.400325 19.584654 l
132.502339 19.482753 l
136.604352 19.528039 l
140.706366 19.44984 l
144.808379 19.48386 l
148.910393 19.431705 l
153.012406 19.424903 l
157.11442 19.381503 l
161.216433 19.348262 l
165.318447 19.319254 l
169.42046 19.292206 l
173.522474 19.280993 l
177.624488 19.262072 l
181.726501 19.259129 l
185.828515 19.246065 l
189.930528 19.238585 l
194.032542 19.219712 l
198.134555 19.219866 l
202.236569 19.213942 l
206.338582 19.203846 l
210.440596 19.203211 l
214.542609 19.203008 l
218.644623 19.194963 l
222.746637 19.196282 l
226.84865 19.196399 l
230.950664 19.192105 l
231.4 19.192017 l
stroke
grestore
[5.6 2.4] 0 setdash
gsave
184.3 140 29.95 19.01 clipbox
29.952 52.60201 m
33.024402 138.109491 l
36.096803 142.957612 l
39.169205 144.959261 l
42.241607 145.860174 l
45.314009 146.162191 l
48.38641 146.081017 l
51.458812 145.725269 l
54.531214 145.176922 l
57.603616 144.480351 l
60.676017 143.671664 l
63.748419 142.773972 l
66.820821 141.804321 l
69.893222 140.775816 l
72.965624 139.698732 l
76.038026 138.581247 l
79.110428 137.429924 l
82.182829 136.250059 l
85.255231 135.045913 l
88.327633 133.820873 l
91.400035 132.577566 l
94.472436 131.317912 l
97.544838 130.04315 l
100.61724 128.753812 l
103.689641 127.44964 l
106.762043 126.101927 l
109.834445 124.703016 l
112.906847 123.241378 l
115.979248 121.680536 l
119.05165 119.950459 l
122.124052 117.900737 l
125.196453 115.161286 l
128.268855 110.654496 l
131.341257 100.659788 l
134.413659 74.407404 l
137.48606 35.724589 l
140.558462 20.648257 l
143.630864 19.193218 l
146.703266 19.037319 l
149.775667 19.015339 l
152.848069 19.010744 l
155.920471 19.009765 l
158.992872 19.009834 l
162.065274 19.010176 l
165.137676 19.009792 l
168.210078 19.009254 l
171.282479 19.00932 l
174.354881 19.00983 l
177.427283 19.009767 l
180.499685 19.009344 l
183.572086 19.009308 l
stroke
grestore
[2.2 2.2] 0 setdash
gsave
184.3 140 29.95 19.01 clipbox
29.952 52.605459 m
33.536062 139.335921 l
37.120124 143.792055 l
40.704186 145.513106 l
44.288248 146.124919 l
47.872311 146.119235 l
51.456373 145.721801 l
55.040435 145.065982 l
58.624497 144.218742 l
62.208559 143.230349 l
65.792621 142.132966 l
69.376683 140.9499 l
72.960745 139.69855 l
76.544808 138.392164 l
80.12887 137.040946 l
83.712932 135.65276 l
87.296994 134.233538 l
90.881056 132.787641 l
94.465118 131.317893 l
98.04918 129.825528 l
101.633242 128.310042 l
105.217304 126.764161 l
108.801367 125.16364 l
112.385429 123.50378 l
115.969491 121.754887 l
119.553553 119.861446 l
123.137615 117.711609 l
126.721677 115.122955 l
130.305739 111.70176 l
133.889801 106.546389 l
137.473863 97.43453 l
141.057926 79.624815 l
144.641988 52.340466 l
148.22605 29.558057 l
151.810112 21.174717 l
155.394174 19.542711 l
158.978236 19.145915 l
162.562298 19.041609 l
166.14636 19.016317 l
169.730423 19.010258 l
173.314485 19.008815 l
176.898547 19.008319 l
180.482609 19.008133 l
184.066671 19.008048 l
187.650733 19.008039 l
191.234795 19.008044 l
194.818857 19.008044 l
198.402919 19.008039 l
201.986982 19.008038 l
205.571044 19.008043 l
209.155106 19.008049 l
stroke
grestore
0.800 setlinewidth
0 setlinejoin
2 setlinecap
[] 0 setdash
gsave
29.952 19.008 m
29.952 158.976 l
stroke
grestore
gsave
214.272 19.008 m
214.272 158.976 l
stroke
grestore
gsave
29.952 19.008 m
214.272 19.008 l
stroke
grestore
gsave
29.952 158.976 m
214.272 158.976 l
stroke
grestore
1.000 setlinewidth
1 setlinejoin
1 setlinecap
[] 0 setdash
gsave
132.14075 148.497875 m
156.14075 148.497875 l
stroke
grestore
/DejaVuSerif findfont
8.000 scalefont
setfont
gsave
162.540750 145.697875 translate
0.000000 rotate
0.000000 0.000000 m /l glyphshow
2.558594 0.000000 m /space glyphshow
5.101562 0.000000 m /equal glyphshow
11.804688 0.000000 m /space glyphshow
14.347656 0.000000 m /zero glyphshow
19.437500 0.000000 m /space glyphshow
21.980469 0.000000 m /uni043C glyphshow
28.203125 0.000000 m /uni043A glyphshow
33.203125 0.000000 m /uni043C glyphshow
grestore
[5.6 2.4] 0 setdash
gsave
132.14075 136.747875 m
156.14075 136.747875 l
stroke
grestore
gsave
162.540750 133.947875 translate
0.000000 rotate
0.000000 0.000000 m /l glyphshow
2.558594 0.000000 m /space glyphshow
5.101562 0.000000 m /equal glyphshow
11.804688 0.000000 m /space glyphshow
14.347656 0.000000 m /five glyphshow
19.437500 0.000000 m /space glyphshow
21.980469 0.000000 m /uni043C glyphshow
28.203125 0.000000 m /uni043A glyphshow
33.203125 0.000000 m /uni043C glyphshow
grestore
[2.2 2.2] 0 setdash
gsave
132.14075 124.997875 m
156.14075 124.997875 l
stroke
grestore
gsave
162.540750 122.197875 translate
0.000000 rotate
0.000000 0.000000 m /l glyphshow
2.558594 0.000000 m /space glyphshow
5.101562 0.000000 m /equal glyphshow
11.804688 0.000000 m /space glyphshow
14.347656 0.000000 m /one glyphshow
19.437500 0.000000 m /zero glyphshow
24.527344 0.000000 m /space glyphshow
27.070312 0.000000 m /uni043C glyphshow
33.292969 0.000000 m /uni043A glyphshow
38.292969 0.000000 m /uni043C glyphshow
grestore

end
showpage
