%!PS-Adobe-3.0 EPSF-3.0
%%Title: func_e1.eps
%%Creator: matplotlib version 2.0.0, http://matplotlib.org/
%%CreationDate: Sun Mar 25 14:54:41 2018
%%Orientation: portrait
%%BoundingBox: 190 309 421 482
%%EndComments
%%BeginProlog
/mpldict 10 dict def
mpldict begin
/m { moveto } bind def
/l { lineto } bind def
/r { rlineto } bind def
/c { curveto } bind def
/cl { closepath } bind def
/box {
m
1 index 0 r
0 exch r
neg 0 r
cl
} bind def
/clipbox {
box
clip
newpath
} bind def
%!PS-Adobe-3.0 Resource-Font
%%Title: DejaVu Serif
%%Copyright: Copyright (c) 2003 by Bitstream, Inc. All Rights Reserved. DejaVu changes are in public domain 
%%Creator: Converted from TrueType to type 3 by PPR
25 dict begin
/_d{bind def}bind def
/_m{moveto}_d
/_l{lineto}_d
/_cl{closepath eofill}_d
/_c{curveto}_d
/_sc{7 -1 roll{setcachedevice}{pop pop pop pop pop pop}ifelse}_d
/_e{exec}_d
/FontName /DejaVuSerif def
/PaintType 0 def
/FontMatrix[.001 0 0 .001 0 0]def
/FontBBox[-770 -347 2105 1109]def
/FontType 3 def
/Encoding [ /space /comma /period /zero /one /two /three /four /five /c /uni0441 ] def
/FontInfo 10 dict dup begin
/FamilyName (DejaVu Serif) def
/FullName (DejaVu Serif) def
/Notice (Copyright (c) 2003 by Bitstream, Inc. All Rights Reserved. DejaVu changes are in public domain ) def
/Weight (Book) def
/Version (Version 2.35) def
/ItalicAngle 0.0 def
/isFixedPitch false def
/UnderlinePosition -130 def
/UnderlineThickness 90 def
end readonly def
/CharStrings 11 dict dup begin
/space{318 0 0 0 0 0 _sc
}_d
/comma{318 0 36 -135 221 111 _sc
36 -96 _m
66 -73 89 -47 103 -17 _c
117 13 125 49 125 93 _c
125 111 _l
221 111 _l
218 55 205 7 181 -32 _c
157 -71 122 -105 75 -135 _c
36 -96 _l
_cl}_d
/period{318 0 94 -13 224 116 _sc
94 51 _m
94 69 100 84 112 97 _c
124 109 140 116 159 116 _c
177 116 192 109 205 97 _c
217 84 224 69 224 51 _c
224 33 217 17 205 5 _c
192 -7 177 -13 159 -13 _c
140 -13 124 -7 112 5 _c
100 17 94 32 94 51 _c
_cl}_d
/zero{636 0 66 -13 570 742 _sc
318 34 _m
368 34 405 61 430 116 _c
454 170 467 253 467 364 _c
467 474 454 557 430 612 _c
405 666 368 694 318 694 _c
268 694 230 666 206 612 _c
181 557 169 474 169 364 _c
169 253 181 170 206 116 _c
230 61 268 34 318 34 _c
318 -13 _m
238 -13 176 20 132 86 _c
88 152 66 244 66 364 _c
66 483 88 576 132 642 _c
176 708 238 742 318 742 _c
397 742 459 708 503 642 _c
547 576 570 483 570 364 _c
570 244 547 152 503 86 _c
459 20 397 -13 318 -13 _c
_cl}_d
/one{636 0 122 0 494 742 _sc
142 0 _m
142 52 _l
269 52 _l
269 658 _l
122 563 _l
122 627 _l
300 742 _l
367 742 _l
367 52 _l
494 52 _l
494 0 _l
142 0 _l
_cl}_d
/two{{636 0 68 0 538 742 _sc
128 555 _m
73 555 _l
73 685 _l
107 703 142 717 178 727 _c
213 737 248 742 282 742 _c
358 742 418 723 462 687 _c
506 650 528 600 528 537 _c
528 465 478 380 378 281 _c
370 273 365 268 361 264 _c
177 80 _l
481 80 _l
481 170 _l
538 170 _l
538 0 _l
68 0 _l
68 53 _l
289 274 _l
337 322 372 367 393 408 _c
414 449 425 492 425 537 _c
}_e{425 586 412 624 386 652 _c
360 680 325 694 281 694 _c
234 694 198 682 173 659 _c
147 636 132 601 128 555 _c
_cl}_e}_d
/three{{636 0 76 -13 562 742 _sc
97 698 _m
135 712 171 723 206 731 _c
241 738 274 742 305 742 _c
376 742 432 726 472 696 _c
512 665 532 622 532 568 _c
532 524 518 487 490 458 _c
462 428 423 408 373 398 _c
433 389 479 367 512 332 _c
545 297 562 252 562 197 _c
562 129 539 77 493 41 _c
447 5 382 -13 296 -13 _c
258 -13 220 -9 184 -1 _c
148 6 112 18 76 35 _c
76 177 _l
}_e{131 177 _l
134 129 150 94 178 70 _c
206 46 246 34 298 34 _c
348 34 387 48 416 77 _c
444 106 459 146 459 196 _c
459 253 444 296 414 326 _c
384 355 341 370 284 370 _c
238 370 _l
238 420 _l
262 420 _l
319 420 362 431 390 455 _c
418 479 433 514 433 562 _c
433 604 421 637 398 660 _c
374 682 341 694 297 694 _c
253 694 218 683 194 662 _c
170 641 156 610 152 570 _c
}_e{97 570 _l
97 698 _l
_cl}_e}_d
/four{636 0 31 0 586 742 _sc
349 247 _m
349 635 _l
100 247 _l
349 247 _l
564 0 _m
232 0 _l
232 52 _l
349 52 _l
349 195 _l
31 195 _l
31 248 _l
350 742 _l
447 742 _l
447 247 _l
586 247 _l
586 195 _l
447 195 _l
447 52 _l
564 52 _l
564 0 _l
_cl}_d
/five{{636 0 85 -13 559 729 _sc
503 729 _m
503 649 _l
169 649 _l
169 440 _l
185 452 205 460 228 466 _c
250 472 276 475 304 475 _c
382 475 444 453 490 409 _c
536 365 559 306 559 231 _c
559 153 536 93 490 51 _c
444 8 379 -13 296 -13 _c
262 -13 228 -9 193 -1 _c
157 6 121 18 85 35 _c
85 177 _l
140 177 _l
143 130 158 94 184 70 _c
210 46 248 34 296 34 _c
}_e{347 34 386 51 414 85 _c
442 119 456 167 456 231 _c
456 294 442 342 415 376 _c
387 410 348 427 296 427 _c
266 427 240 421 218 411 _c
196 401 176 385 159 363 _c
117 363 _l
117 729 _l
503 729 _l
_cl}_e}_d
/c{{560 0 50 -13 514 533 _sc
514 156 _m
501 100 477 58 441 30 _c
405 1 358 -13 301 -13 _c
225 -13 165 11 119 61 _c
73 111 50 177 50 260 _c
50 342 73 408 119 458 _c
165 508 225 533 301 533 _c
333 533 366 529 399 521 _c
431 513 464 502 497 487 _c
497 354 _l
445 354 _l
438 399 423 432 400 453 _c
377 474 344 485 302 485 _c
253 485 216 466 192 428 _c
}_e{167 390 155 334 155 260 _c
155 184 167 128 192 90 _c
216 52 253 34 302 34 _c
340 34 371 44 394 64 _c
417 84 433 115 442 156 _c
514 156 _l
_cl}_e}_d
/uni0441{560 0 50 -13 514 533 _sc
false CharStrings /c get exec
}_d
end readonly def

/BuildGlyph
 {exch begin
 CharStrings exch
 2 copy known not{pop /.notdef}if
 true 3 1 roll get exec
 end}_d

/BuildChar {
 1 index /Encoding get exch get
 1 index /BuildGlyph get exec
}_d

FontName currentdict end definefont pop
%!PS-Adobe-3.0 Resource-Font
%%Title: DejaVu Sans Oblique
%%Copyright: Copyright (c) 2003 by Bitstream, Inc. All Rights Reserved. Copyright (c) 2006 by Tavmjong Bah. All Rights Reserved. DejaVu changes are in public domain 
%%Creator: Converted from TrueType to type 3 by PPR
25 dict begin
/_d{bind def}bind def
/_m{moveto}_d
/_l{lineto}_d
/_cl{closepath eofill}_d
/_c{curveto}_d
/_sc{7 -1 roll{setcachedevice}{pop pop pop pop pop pop}ifelse}_d
/_e{exec}_d
/FontName /DejaVuSans-Oblique def
/PaintType 0 def
/FontMatrix[.001 0 0 .001 0 0]def
/FontBBox[-1016 -350 1659 1068]def
/FontType 3 def
/Encoding [ /epsilon ] def
/FontInfo 10 dict dup begin
/FamilyName (DejaVu Sans) def
/FullName (DejaVu Sans Oblique) def
/Notice (Copyright (c) 2003 by Bitstream, Inc. All Rights Reserved. Copyright (c) 2006 by Tavmjong Bah. All Rights Reserved. DejaVu changes are in public domain ) def
/Weight (Oblique) def
/Version (Version 2.35) def
/ItalicAngle -11.0 def
/isFixedPitch false def
/UnderlinePosition -130 def
/UnderlineThickness 90 def
end readonly def
/CharStrings 1 dict dup begin
/epsilon{{541 0 39 -13 506 561 _sc
197 295 _m
162 303 137 317 122 338 _c
110 353 104 371 104 391 _c
104 446 130 490 184 522 _c
225 548 278 561 342 561 _c
366 561 392 559 419 555 _c
446 551 475 545 505 537 _c
490 456 _l
460 465 432 472 407 476 _c
381 480 357 482 334 482 _c
295 482 263 474 238 460 _c
207 442 192 420 192 394 _c
192 376 200 362 216 350 _c
234 336 263 329 301 329 _c
}_e{376 329 _l
362 254 _l
290 254 _l
245 254 209 245 183 229 _c
147 207 129 178 129 143 _c
129 121 138 102 158 88 _c
182 70 218 61 268 61 _c
298 61 327 63 357 69 _c
385 75 412 85 438 97 _c
422 13 _l
390 4 361 -2 333 -6 _c
305 -10 277 -13 251 -13 _c
173 -13 117 1 81 30 _c
53 52 39 83 39 122 _c
39 174 57 216 94 248 _c
120 271 155 287 197 295 _c
_cl}_e}_d
end readonly def

/BuildGlyph
 {exch begin
 CharStrings exch
 2 copy known not{pop /.notdef}if
 true 3 1 roll get exec
 end}_d

/BuildChar {
 1 index /Encoding get exch get
 1 index /BuildGlyph get exec
}_d

FontName currentdict end definefont pop
%!PS-Adobe-3.0 Resource-Font
%%Title: DejaVu Sans
%%Copyright: Copyright (c) 2003 by Bitstream, Inc. All Rights Reserved. Copyright (c) 2006 by Tavmjong Bah. All Rights Reserved. DejaVu changes are in public domain 
%%Creator: Converted from TrueType to type 3 by PPR
25 dict begin
/_d{bind def}bind def
/_m{moveto}_d
/_l{lineto}_d
/_cl{closepath eofill}_d
/_c{curveto}_d
/_sc{7 -1 roll{setcachedevice}{pop pop pop pop pop pop}ifelse}_d
/_e{exec}_d
/FontName /DejaVuSans def
/PaintType 0 def
/FontMatrix[.001 0 0 .001 0 0]def
/FontBBox[-1021 -463 1793 1232]def
/FontType 3 def
/Encoding [ /one /six /o /uni0307 /uni043C /uni043D /uni043E /minus ] def
/FontInfo 10 dict dup begin
/FamilyName (DejaVu Sans) def
/FullName (DejaVu Sans) def
/Notice (Copyright (c) 2003 by Bitstream, Inc. All Rights Reserved. Copyright (c) 2006 by Tavmjong Bah. All Rights Reserved. DejaVu changes are in public domain ) def
/Weight (Book) def
/Version (Version 2.35) def
/ItalicAngle 0.0 def
/isFixedPitch false def
/UnderlinePosition -130 def
/UnderlineThickness 90 def
end readonly def
/CharStrings 8 dict dup begin
/one{636 0 110 0 544 729 _sc
124 83 _m
285 83 _l
285 639 _l
110 604 _l
110 694 _l
284 729 _l
383 729 _l
383 83 _l
544 83 _l
544 0 _l
124 0 _l
124 83 _l
_cl}_d
/six{{636 0 70 -13 573 742 _sc
330 404 _m
286 404 251 388 225 358 _c
199 328 186 286 186 234 _c
186 181 199 139 225 109 _c
251 79 286 64 330 64 _c
374 64 409 79 435 109 _c
461 139 474 181 474 234 _c
474 286 461 328 435 358 _c
409 388 374 404 330 404 _c
526 713 _m
526 623 _l
501 635 476 644 451 650 _c
425 656 400 659 376 659 _c
310 659 260 637 226 593 _c
}_e{192 549 172 482 168 394 _c
187 422 211 444 240 459 _c
269 474 301 482 336 482 _c
409 482 467 459 509 415 _c
551 371 573 310 573 234 _c
573 159 550 99 506 54 _c
462 9 403 -13 330 -13 _c
246 -13 181 19 137 83 _c
92 147 70 241 70 364 _c
70 479 97 571 152 639 _c
206 707 280 742 372 742 _c
396 742 421 739 447 735 _c
472 730 498 723 526 713 _c
_cl}_e}_d
/o{612 0 55 -13 557 560 _sc
306 484 _m
258 484 220 465 192 427 _c
164 389 150 338 150 273 _c
150 207 163 156 191 118 _c
219 80 257 62 306 62 _c
354 62 392 80 420 118 _c
448 156 462 207 462 273 _c
462 337 448 389 420 427 _c
392 465 354 484 306 484 _c
306 560 _m
384 560 445 534 490 484 _c
534 433 557 363 557 273 _c
557 183 534 113 490 63 _c
445 12 384 -13 306 -13 _c
227 -13 165 12 121 63 _c
77 113 55 183 55 273 _c
55 363 77 433 121 484 _c
165 534 227 560 306 560 _c
_cl}_d
/uni0307{0 0 -295 560 -205 760 _sc
-295 760 _m
-205 760 _l
-205 646 _l
-295 646 _l
-295 760 _l
-249 560 _m
-249 560 _l
_cl}_d
/uni043C{754 0 91 0 664 547 _sc
91 547 _m
222 547 _l
377 181 _l
533 547 _l
664 547 _l
664 0 _l
573 0 _l
573 461 _l
422 105 _l
333 105 _l
181 461 _l
181 0 _l
91 0 _l
91 547 _l
_cl}_d
/uni043D{654 0 91 0 563 547 _sc
91 547 _m
181 547 _l
181 324 _l
473 324 _l
473 547 _l
563 547 _l
563 0 _l
473 0 _l
473 252 _l
181 252 _l
181 0 _l
91 0 _l
91 547 _l
_cl}_d
/uni043E{612 0 55 -13 557 560 _sc
false CharStrings /o get exec
}_d
/minus{838 0 106 272 732 355 _sc
106 355 _m
732 355 _l
732 272 _l
106 272 _l
106 355 _l
_cl}_d
end readonly def

/BuildGlyph
 {exch begin
 CharStrings exch
 2 copy known not{pop /.notdef}if
 true 3 1 roll get exec
 end}_d

/BuildChar {
 1 index /Encoding get exch get
 1 index /BuildGlyph get exec
}_d

FontName currentdict end definefont pop
end
%%EndProlog
mpldict begin
190.8 309.6 translate
230.4 172.8 0 0 clipbox
gsave
0 0 m
230.4 0 l
230.4 172.8 l
0 172.8 l
cl
1.000 setgray
fill
grestore
gsave
29.952 19.008 m
214.272 19.008 l
214.272 158.976 l
29.952 158.976 l
cl
1.000 setgray
fill
grestore
0.800 setlinewidth
1 setlinejoin
0 setlinecap
[] 0 setdash
0.000 setgray
gsave
/o {
gsave
newpath
translate
0.8 setlinewidth
1 setlinejoin
0 setlinecap
0 0 m
0 -3.5 l

gsave
0.000 setgray
fill
grestore
stroke
grestore
} bind def
29.952 19.008 o
grestore
/DejaVuSerif findfont
9.000 scalefont
setfont
gsave
22.787938 5.164250 translate
0.000000 rotate
0.000000 0.000000 m /zero glyphshow
5.726074 0.000000 m /period glyphshow
8.586914 0.000000 m /zero glyphshow
grestore
gsave
/o {
gsave
newpath
translate
0.8 setlinewidth
1 setlinejoin
0 setlinecap
0 0 m
0 -3.5 l

gsave
0.000 setgray
fill
grestore
stroke
grestore
} bind def
76.032 19.008 o
grestore
gsave
68.867938 5.164250 translate
0.000000 rotate
0.000000 0.000000 m /zero glyphshow
5.726074 0.000000 m /period glyphshow
8.586914 0.000000 m /five glyphshow
grestore
gsave
/o {
gsave
newpath
translate
0.8 setlinewidth
1 setlinejoin
0 setlinecap
0 0 m
0 -3.5 l

gsave
0.000 setgray
fill
grestore
stroke
grestore
} bind def
122.112 19.008 o
grestore
gsave
114.947938 5.164250 translate
0.000000 rotate
0.000000 0.000000 m /one glyphshow
5.726074 0.000000 m /period glyphshow
8.586914 0.000000 m /zero glyphshow
grestore
gsave
/o {
gsave
newpath
translate
0.8 setlinewidth
1 setlinejoin
0 setlinecap
0 0 m
0 -3.5 l

gsave
0.000 setgray
fill
grestore
stroke
grestore
} bind def
168.192 19.008 o
grestore
gsave
161.027938 5.164250 translate
0.000000 rotate
0.000000 0.000000 m /one glyphshow
5.726074 0.000000 m /period glyphshow
8.586914 0.000000 m /five glyphshow
grestore
gsave
205.272000 5.289250 translate
0.000000 rotate
/DejaVuSans-Oblique findfont
9.0 scalefont
setfont
0.000000 0.953125 moveto
/epsilon glyphshow

/DejaVuSans findfont
6.3 scalefont
setfont
4.864746 -0.523438 moveto
/uni043D glyphshow

8.983740 -0.523438 moveto
/uni043E glyphshow

12.838184 -0.523438 moveto
/uni043C glyphshow


grestore
gsave
/o {
gsave
newpath
translate
0.8 setlinewidth
1 setlinejoin
0 setlinecap
0 0 m
-3.5 0 l

gsave
0.000 setgray
fill
grestore
stroke
grestore
} bind def
29.952 19.008 o
grestore
gsave
17.217625 15.586125 translate
0.000000 rotate
0.000000 0.000000 m /zero glyphshow
grestore
gsave
/o {
gsave
newpath
translate
0.8 setlinewidth
1 setlinejoin
0 setlinecap
0 0 m
-3.5 0 l

gsave
0.000 setgray
fill
grestore
stroke
grestore
} bind def
29.952 47.0016 o
grestore
gsave
17.217625 43.579725 translate
0.000000 rotate
0.000000 0.000000 m /one glyphshow
grestore
gsave
/o {
gsave
newpath
translate
0.8 setlinewidth
1 setlinejoin
0 setlinecap
0 0 m
-3.5 0 l

gsave
0.000 setgray
fill
grestore
stroke
grestore
} bind def
29.952 74.9952 o
grestore
gsave
17.217625 71.573325 translate
0.000000 rotate
0.000000 0.000000 m /two glyphshow
grestore
gsave
/o {
gsave
newpath
translate
0.8 setlinewidth
1 setlinejoin
0 setlinecap
0 0 m
-3.5 0 l

gsave
0.000 setgray
fill
grestore
stroke
grestore
} bind def
29.952 102.989 o
grestore
gsave
17.217625 99.566925 translate
0.000000 rotate
0.000000 0.000000 m /three glyphshow
grestore
gsave
/o {
gsave
newpath
translate
0.8 setlinewidth
1 setlinejoin
0 setlinecap
0 0 m
-3.5 0 l

gsave
0.000 setgray
fill
grestore
stroke
grestore
} bind def
29.952 130.982 o
grestore
gsave
17.217625 127.560525 translate
0.000000 rotate
0.000000 0.000000 m /four glyphshow
grestore
gsave
0.295200 160.976000 translate
0.000000 rotate
/DejaVuSans findfont
9.0 scalefont
setfont
4.718750 1.998438 moveto
/uni0307 glyphshow

/DejaVuSans-Oblique findfont
9.0 scalefont
setfont
0.000000 0.873438 moveto
/epsilon glyphshow

/DejaVuSans findfont
6.3 scalefont
setfont
4.950879 -0.603125 moveto
/one glyphshow

/DejaVuSerif findfont
9.0 scalefont
setfont
9.205225 0.873438 moveto
/comma glyphshow

12.066064 0.873438 moveto
/space glyphshow

14.926904 0.873438 moveto
/one glyphshow

20.652979 0.873438 moveto
/zero glyphshow

/DejaVuSans findfont
6.3 scalefont
setfont
26.465186 4.318750 moveto
/six glyphshow

/DejaVuSerif findfont
9.0 scalefont
setfont
30.719531 0.873438 moveto
/space glyphshow

33.580371 0.873438 moveto
/uni0441 glyphshow

/DejaVuSans findfont
6.3 scalefont
setfont
38.707031 4.318750 moveto
/minus glyphshow

43.985742 4.318750 moveto
/one glyphshow


grestore
1.000 setlinewidth
1 setlinecap
gsave
184.3 140 29.95 19.01 clipbox
29.952 19.008 m
30.13957 21.345112 l
30.51471 22.124916 l
31.827701 23.586143 l
33.140692 24.762846 l
34.453683 25.663964 l
35.954244 26.424344 l
37.829945 27.104476 l
40.455926 27.789461 l
46.83331 29.122082 l
52.272844 30.381015 l
56.586956 31.599075 l
60.338359 32.882704 l
63.714621 34.274131 l
66.715742 35.754196 l
69.341724 37.286179 l
71.780136 38.953687 l
74.030977 40.746975 l
76.281818 42.832861 l
78.34509 45.049224 l
80.408361 47.606635 l
82.284062 50.272512 l
84.159763 53.307089 l
86.035464 56.753096 l
87.911165 60.650032 l
89.786867 65.029127 l
91.850138 70.421304 l
94.100979 76.972369 l
96.726961 85.36833 l
101.978924 103.214558 l
105.355186 114.163146 l
107.981168 121.909452 l
110.232009 127.854856 l
112.29528 132.694192 l
114.358552 136.945339 l
116.421823 140.65537 l
118.297524 143.592999 l
120.173225 146.136234 l
122.048926 148.313877 l
123.924627 150.156325 l
125.612758 151.501227 l
126.550609 152.032854 l
127.30089 152.249001 l
128.23874 152.275037 l
129.364161 152.056331 l
131.427432 151.391465 l
134.428554 150.405009 l
135.366404 150.333485 l
136.304255 150.462826 l
139.868087 152.292905 l
140.805938 152.528613 l
141.556218 152.515726 l
142.494069 152.225614 l
146.245471 150.442705 l
149.621733 148.541789 l
150.747154 148.600961 l
156.561827 149.355725 l
157.499678 149.20346 l
158.437529 148.814961 l
162.001361 146.774231 l
163.314352 145.644479 l
167.440894 141.900013 l
168.566315 141.277092 l
169.691735 140.89358 l
170.817156 140.749845 l
172.692857 140.795896 l
174.943699 140.815971 l
176.069119 140.595767 l
177.19454 140.165253 l
178.319961 139.521722 l
179.820522 138.385645 l
183.384354 135.566512 l
184.697345 134.900029 l
185.822765 134.553263 l
187.135756 134.405063 l
189.199027 134.46003 l
191.262299 134.452533 l
192.575289 134.194908 l
193.88828 133.69458 l
195.201271 132.948479 l
197.639683 131.23021 l
199.327814 130.133758 l
200.640804 129.522397 l
201.953795 129.153024 l
203.266786 129.020861 l
205.330057 129.072004 l
207.393328 129.074303 l
208.706319 128.862669 l
210.01931 128.441269 l
211.519871 127.703971 l
214.333423 125.999178 l
214.333423 125.999178 l
stroke
grestore
[5.6 2.4] 0 setdash
gsave
184.3 140 29.95 19.01 clipbox
29.952 19.008 m
30.142084 21.381533 l
30.510724 22.1019 l
31.613098 23.263351 l
32.909242 24.330831 l
34.194739 25.121387 l
35.670894 25.750991 l
37.327839 26.19117 l
40.644805 26.757199 l
51.888385 28.676684 l
57.416413 29.864449 l
62.026359 31.080116 l
65.897932 32.324711 l
69.214749 33.611236 l
72.164333 34.977871 l
74.926394 36.498939 l
77.508745 38.182775 l
79.903573 40.021138 l
82.114784 42.003632 l
84.142379 44.106535 l
86.169974 46.528202 l
88.197569 49.318447 l
90.041547 52.221098 l
91.885526 55.514308 l
93.729504 59.238058 l
95.757099 63.870735 l
97.784694 69.096356 l
99.995905 75.473019 l
102.390733 83.10839 l
105.70755 94.542747 l
110.317496 110.380354 l
112.899847 118.474703 l
115.294675 125.257762 l
117.322269 130.379366 l
119.349864 134.905275 l
121.377459 138.871433 l
123.405054 142.333606 l
125.249032 145.053957 l
127.089104 147.361352 l
128.749466 149.104459 l
130.222304 150.376037 l
131.515433 151.209362 l
132.437422 151.54541 l
133.359412 151.611297 l
134.277494 151.449996 l
135.754239 150.924218 l
140.547802 148.97666 l
140.915035 148.919975 l
144.231852 150.725516 l
145.521074 151.111307 l
146.62668 151.218455 l
147.548669 151.06837 l
148.470658 150.678412 l
149.763787 149.840756 l
152.342231 147.805836 l
154.369826 146.299463 l
155.659048 145.614771 l
156.952177 145.203803 l
158.979772 144.861979 l
161.558216 144.399611 l
162.663822 143.996113 l
163.585811 143.407331 l
164.5078 142.54975 l
165.980639 140.823253 l
170.590585 135.174612 l
171.512574 134.4196 l
172.434563 133.911832 l
173.540169 133.548053 l
175.384147 133.226203 l
177.962591 132.769917 l
179.068197 132.354744 l
180.173803 131.674225 l
181.466932 130.55581 l
182.572537 129.616125 l
184.783749 127.698418 l
187.362193 125.513689 l
188.655322 124.702125 l
189.944544 124.151978 l
191.417383 123.772325 l
193.999734 123.395515 l
195.843712 123.017193 l
197.132934 122.533156 l
198.605773 121.727971 l
200.633368 120.32321 l
203.582952 118.281905 l
205.059697 117.55652 l
206.532536 117.096583 l
208.376514 116.791619 l
212.248087 116.261423 l
213.720926 115.77417 l
214.088159 115.618466 l
214.088159 115.618466 l
stroke
grestore
[2.2 2.2] 0 setdash
gsave
184.3 140 29.95 19.01 clipbox
29.952 19.008 m
30.139523 21.340813 l
30.51457 22.098008 l
31.639709 23.257278 l
32.952372 24.27028 l
34.265034 24.998543 l
35.952743 25.655914 l
38.015499 26.210541 l
41.203393 26.810346 l
47.204136 27.66436 l
60.705808 29.572663 l
68.019214 30.836616 l
74.20748 32.121803 l
79.833177 33.510728 l
85.083827 35.031034 l
90.146954 36.727065 l
95.022558 38.590228 l
99.898162 40.686393 l
104.961289 43.104899 l
110.399462 45.950892 l
116.962775 49.647934 l
133.277295 58.963426 l
138.152899 61.415095 l
142.84098 63.528798 l
147.904107 65.566239 l
152.967234 67.370467 l
157.467791 68.752431 l
160.093116 69.361405 l
162.343395 69.62848 l
169.469277 70.242407 l
176.03259 71.291634 l
178.657915 71.375025 l
184.096089 71.496429 l
188.409123 71.98524 l
191.409494 72.224508 l
194.409866 72.209767 l
199.660516 72.148896 l
204.348597 72.458597 l
207.536491 72.554558 l
211.474479 72.400092 l
214.287327 72.305613 l
214.287327 72.305613 l
stroke
grestore
0.800 setlinewidth
0 setlinejoin
2 setlinecap
[] 0 setdash
gsave
29.952 19.008 m
29.952 158.976 l
stroke
grestore
gsave
214.272 19.008 m
214.272 158.976 l
stroke
grestore
gsave
29.952 19.008 m
214.272 19.008 l
stroke
grestore
gsave
29.952 158.976 m
214.272 158.976 l
stroke
grestore
1.000 setlinewidth
1 setlinejoin
1 setlinecap
[] 0 setdash
gsave
37.152 148.497875 m
61.152 148.497875 l
stroke
grestore
/DejaVuSerif findfont
8.000 scalefont
setfont
gsave
67.552000 145.697875 translate
0.000000 rotate
0.000000 0.000000 m /one glyphshow
grestore
[5.6 2.4] 0 setdash
gsave
37.152 136.747875 m
61.152 136.747875 l
stroke
grestore
gsave
67.552000 133.947875 translate
0.000000 rotate
0.000000 0.000000 m /two glyphshow
grestore
[2.2 2.2] 0 setdash
gsave
37.152 124.997875 m
61.152 124.997875 l
stroke
grestore
gsave
67.552000 122.197875 translate
0.000000 rotate
0.000000 0.000000 m /three glyphshow
grestore

end
showpage
