%!PS-Adobe-3.0 EPSF-3.0
%%Title: func_T3.eps
%%Creator: matplotlib version 2.0.0, http://matplotlib.org/
%%CreationDate: Sun Mar 25 15:03:38 2018
%%Orientation: portrait
%%BoundingBox: 190 309 421 482
%%EndComments
%%BeginProlog
/mpldict 10 dict def
mpldict begin
/m { moveto } bind def
/l { lineto } bind def
/r { rlineto } bind def
/c { curveto } bind def
/cl { closepath } bind def
/box {
m
1 index 0 r
0 exch r
neg 0 r
cl
} bind def
/clipbox {
box
clip
newpath
} bind def
%!PS-Adobe-3.0 Resource-Font
%%Title: DejaVu Serif
%%Copyright: Copyright (c) 2003 by Bitstream, Inc. All Rights Reserved. DejaVu changes are in public domain 
%%Creator: Converted from TrueType to type 3 by PPR
25 dict begin
/_d{bind def}bind def
/_m{moveto}_d
/_l{lineto}_d
/_cl{closepath eofill}_d
/_c{curveto}_d
/_sc{7 -1 roll{setcachedevice}{pop pop pop pop pop pop}ifelse}_d
/_e{exec}_d
/FontName /DejaVuSerif def
/PaintType 0 def
/FontMatrix[.001 0 0 .001 0 0]def
/FontBBox[-770 -347 2105 1109]def
/FontType 3 def
/Encoding [ /space /comma /period /zero /one /two /three /four /five /six /C /T /degree ] def
/FontInfo 10 dict dup begin
/FamilyName (DejaVu Serif) def
/FullName (DejaVu Serif) def
/Notice (Copyright (c) 2003 by Bitstream, Inc. All Rights Reserved. DejaVu changes are in public domain ) def
/Weight (Book) def
/Version (Version 2.35) def
/ItalicAngle 0.0 def
/isFixedPitch false def
/UnderlinePosition -130 def
/UnderlineThickness 90 def
end readonly def
/CharStrings 13 dict dup begin
/space{318 0 0 0 0 0 _sc
}_d
/comma{318 0 36 -135 221 111 _sc
36 -96 _m
66 -73 89 -47 103 -17 _c
117 13 125 49 125 93 _c
125 111 _l
221 111 _l
218 55 205 7 181 -32 _c
157 -71 122 -105 75 -135 _c
36 -96 _l
_cl}_d
/period{318 0 94 -13 224 116 _sc
94 51 _m
94 69 100 84 112 97 _c
124 109 140 116 159 116 _c
177 116 192 109 205 97 _c
217 84 224 69 224 51 _c
224 33 217 17 205 5 _c
192 -7 177 -13 159 -13 _c
140 -13 124 -7 112 5 _c
100 17 94 32 94 51 _c
_cl}_d
/zero{636 0 66 -13 570 742 _sc
318 34 _m
368 34 405 61 430 116 _c
454 170 467 253 467 364 _c
467 474 454 557 430 612 _c
405 666 368 694 318 694 _c
268 694 230 666 206 612 _c
181 557 169 474 169 364 _c
169 253 181 170 206 116 _c
230 61 268 34 318 34 _c
318 -13 _m
238 -13 176 20 132 86 _c
88 152 66 244 66 364 _c
66 483 88 576 132 642 _c
176 708 238 742 318 742 _c
397 742 459 708 503 642 _c
547 576 570 483 570 364 _c
570 244 547 152 503 86 _c
459 20 397 -13 318 -13 _c
_cl}_d
/one{636 0 122 0 494 742 _sc
142 0 _m
142 52 _l
269 52 _l
269 658 _l
122 563 _l
122 627 _l
300 742 _l
367 742 _l
367 52 _l
494 52 _l
494 0 _l
142 0 _l
_cl}_d
/two{{636 0 68 0 538 742 _sc
128 555 _m
73 555 _l
73 685 _l
107 703 142 717 178 727 _c
213 737 248 742 282 742 _c
358 742 418 723 462 687 _c
506 650 528 600 528 537 _c
528 465 478 380 378 281 _c
370 273 365 268 361 264 _c
177 80 _l
481 80 _l
481 170 _l
538 170 _l
538 0 _l
68 0 _l
68 53 _l
289 274 _l
337 322 372 367 393 408 _c
414 449 425 492 425 537 _c
}_e{425 586 412 624 386 652 _c
360 680 325 694 281 694 _c
234 694 198 682 173 659 _c
147 636 132 601 128 555 _c
_cl}_e}_d
/three{{636 0 76 -13 562 742 _sc
97 698 _m
135 712 171 723 206 731 _c
241 738 274 742 305 742 _c
376 742 432 726 472 696 _c
512 665 532 622 532 568 _c
532 524 518 487 490 458 _c
462 428 423 408 373 398 _c
433 389 479 367 512 332 _c
545 297 562 252 562 197 _c
562 129 539 77 493 41 _c
447 5 382 -13 296 -13 _c
258 -13 220 -9 184 -1 _c
148 6 112 18 76 35 _c
76 177 _l
}_e{131 177 _l
134 129 150 94 178 70 _c
206 46 246 34 298 34 _c
348 34 387 48 416 77 _c
444 106 459 146 459 196 _c
459 253 444 296 414 326 _c
384 355 341 370 284 370 _c
238 370 _l
238 420 _l
262 420 _l
319 420 362 431 390 455 _c
418 479 433 514 433 562 _c
433 604 421 637 398 660 _c
374 682 341 694 297 694 _c
253 694 218 683 194 662 _c
170 641 156 610 152 570 _c
}_e{97 570 _l
97 698 _l
_cl}_e}_d
/four{636 0 31 0 586 742 _sc
349 247 _m
349 635 _l
100 247 _l
349 247 _l
564 0 _m
232 0 _l
232 52 _l
349 52 _l
349 195 _l
31 195 _l
31 248 _l
350 742 _l
447 742 _l
447 247 _l
586 247 _l
586 195 _l
447 195 _l
447 52 _l
564 52 _l
564 0 _l
_cl}_d
/five{{636 0 85 -13 559 729 _sc
503 729 _m
503 649 _l
169 649 _l
169 440 _l
185 452 205 460 228 466 _c
250 472 276 475 304 475 _c
382 475 444 453 490 409 _c
536 365 559 306 559 231 _c
559 153 536 93 490 51 _c
444 8 379 -13 296 -13 _c
262 -13 228 -9 193 -1 _c
157 6 121 18 85 35 _c
85 177 _l
140 177 _l
143 130 158 94 184 70 _c
210 46 248 34 296 34 _c
}_e{347 34 386 51 414 85 _c
442 119 456 167 456 231 _c
456 294 442 342 415 376 _c
387 410 348 427 296 427 _c
266 427 240 421 218 411 _c
196 401 176 385 159 363 _c
117 363 _l
117 729 _l
503 729 _l
_cl}_e}_d
/six{{636 0 67 -13 573 742 _sc
327 34 _m
373 34 408 50 433 84 _c
457 118 470 166 470 230 _c
470 293 457 341 433 375 _c
408 409 373 426 327 426 _c
280 426 244 409 220 377 _c
196 344 184 297 184 236 _c
184 171 196 121 221 86 _c
245 51 281 34 327 34 _c
168 401 _m
190 425 215 444 243 456 _c
271 468 302 474 338 474 _c
410 474 468 452 510 408 _c
552 364 573 305 573 230 _c
}_e{573 156 550 97 505 53 _c
459 9 399 -13 323 -13 _c
241 -13 177 17 133 78 _c
89 139 67 227 67 341 _c
67 468 93 567 145 637 _c
197 707 271 742 367 742 _c
393 742 420 739 448 735 _c
476 730 505 723 535 713 _c
535 593 _l
480 593 _l
476 625 463 650 442 668 _c
421 685 393 694 357 694 _c
293 694 246 670 215 622 _c
184 574 168 500 168 401 _c
_cl}_e}_d
/C{{765 0 56 -13 705 742 _sc
705 193 _m
683 125 647 73 597 39 _c
546 4 482 -13 405 -13 _c
357 -13 312 -5 272 11 _c
231 27 195 50 164 82 _c
127 118 100 160 82 206 _c
64 252 56 305 56 364 _c
56 477 88 568 154 638 _c
219 707 305 742 413 742 _c
453 742 495 736 540 726 _c
584 716 633 700 685 679 _c
685 511 _l
630 511 _l
618 572 593 617 557 646 _c
}_e{521 675 470 690 405 690 _c
327 690 268 662 228 607 _c
188 551 168 470 168 364 _c
168 257 188 176 228 121 _c
268 65 327 38 405 38 _c
459 38 503 51 539 77 _c
574 103 599 141 615 193 _c
705 193 _l
_cl}_e}_d
/T{667 0 10 0 657 729 _sc
191 0 _m
191 52 _l
284 52 _l
284 671 _l
70 671 _l
70 557 _l
10 557 _l
10 729 _l
657 729 _l
657 557 _l
597 557 _l
597 671 _l
383 671 _l
383 52 _l
476 52 _l
476 0 _l
191 0 _l
_cl}_d
/degree{{500 0 95 432 405 742 _sc
250 675 _m
225 675 204 666 187 649 _c
170 632 162 611 162 586 _c
162 561 170 540 187 524 _c
203 507 224 499 250 499 _c
274 499 295 507 312 524 _c
329 540 338 561 338 586 _c
338 610 329 631 312 649 _c
294 666 274 675 250 675 _c
250 742 _m
270 742 290 738 310 730 _c
329 722 346 710 360 696 _c
374 681 385 664 393 646 _c
401 627 405 607 405 586 _c
}_e{405 542 389 506 359 476 _c
329 446 292 432 249 432 _c
205 432 168 446 139 476 _c
109 505 95 542 95 586 _c
95 629 110 666 140 696 _c
170 726 206 742 250 742 _c
_cl}_e}_d
end readonly def

/BuildGlyph
 {exch begin
 CharStrings exch
 2 copy known not{pop /.notdef}if
 true 3 1 roll get exec
 end}_d

/BuildChar {
 1 index /Encoding get exch get
 1 index /BuildGlyph get exec
}_d

FontName currentdict end definefont pop
%!PS-Adobe-3.0 Resource-Font
%%Title: DejaVu Sans Oblique
%%Copyright: Copyright (c) 2003 by Bitstream, Inc. All Rights Reserved. Copyright (c) 2006 by Tavmjong Bah. All Rights Reserved. DejaVu changes are in public domain 
%%Creator: Converted from TrueType to type 3 by PPR
25 dict begin
/_d{bind def}bind def
/_m{moveto}_d
/_l{lineto}_d
/_cl{closepath eofill}_d
/_c{curveto}_d
/_sc{7 -1 roll{setcachedevice}{pop pop pop pop pop pop}ifelse}_d
/_e{exec}_d
/FontName /DejaVuSans-Oblique def
/PaintType 0 def
/FontMatrix[.001 0 0 .001 0 0]def
/FontBBox[-1016 -350 1659 1068]def
/FontType 3 def
/Encoding [ /epsilon ] def
/FontInfo 10 dict dup begin
/FamilyName (DejaVu Sans) def
/FullName (DejaVu Sans Oblique) def
/Notice (Copyright (c) 2003 by Bitstream, Inc. All Rights Reserved. Copyright (c) 2006 by Tavmjong Bah. All Rights Reserved. DejaVu changes are in public domain ) def
/Weight (Oblique) def
/Version (Version 2.35) def
/ItalicAngle -11.0 def
/isFixedPitch false def
/UnderlinePosition -130 def
/UnderlineThickness 90 def
end readonly def
/CharStrings 1 dict dup begin
/epsilon{{541 0 39 -13 506 561 _sc
197 295 _m
162 303 137 317 122 338 _c
110 353 104 371 104 391 _c
104 446 130 490 184 522 _c
225 548 278 561 342 561 _c
366 561 392 559 419 555 _c
446 551 475 545 505 537 _c
490 456 _l
460 465 432 472 407 476 _c
381 480 357 482 334 482 _c
295 482 263 474 238 460 _c
207 442 192 420 192 394 _c
192 376 200 362 216 350 _c
234 336 263 329 301 329 _c
}_e{376 329 _l
362 254 _l
290 254 _l
245 254 209 245 183 229 _c
147 207 129 178 129 143 _c
129 121 138 102 158 88 _c
182 70 218 61 268 61 _c
298 61 327 63 357 69 _c
385 75 412 85 438 97 _c
422 13 _l
390 4 361 -2 333 -6 _c
305 -10 277 -13 251 -13 _c
173 -13 117 1 81 30 _c
53 52 39 83 39 122 _c
39 174 57 216 94 248 _c
120 271 155 287 197 295 _c
_cl}_e}_d
end readonly def

/BuildGlyph
 {exch begin
 CharStrings exch
 2 copy known not{pop /.notdef}if
 true 3 1 roll get exec
 end}_d

/BuildChar {
 1 index /Encoding get exch get
 1 index /BuildGlyph get exec
}_d

FontName currentdict end definefont pop
%!PS-Adobe-3.0 Resource-Font
%%Title: DejaVu Sans
%%Copyright: Copyright (c) 2003 by Bitstream, Inc. All Rights Reserved. Copyright (c) 2006 by Tavmjong Bah. All Rights Reserved. DejaVu changes are in public domain 
%%Creator: Converted from TrueType to type 3 by PPR
25 dict begin
/_d{bind def}bind def
/_m{moveto}_d
/_l{lineto}_d
/_cl{closepath eofill}_d
/_c{curveto}_d
/_sc{7 -1 roll{setcachedevice}{pop pop pop pop pop pop}ifelse}_d
/_e{exec}_d
/FontName /DejaVuSans def
/PaintType 0 def
/FontMatrix[.001 0 0 .001 0 0]def
/FontBBox[-1021 -463 1793 1232]def
/FontType 3 def
/Encoding [ /three /o /uni043C /uni043D /uni043E ] def
/FontInfo 10 dict dup begin
/FamilyName (DejaVu Sans) def
/FullName (DejaVu Sans) def
/Notice (Copyright (c) 2003 by Bitstream, Inc. All Rights Reserved. Copyright (c) 2006 by Tavmjong Bah. All Rights Reserved. DejaVu changes are in public domain ) def
/Weight (Book) def
/Version (Version 2.35) def
/ItalicAngle 0.0 def
/isFixedPitch false def
/UnderlinePosition -130 def
/UnderlineThickness 90 def
end readonly def
/CharStrings 5 dict dup begin
/three{{636 0 76 -13 556 742 _sc
406 393 _m
453 383 490 362 516 330 _c
542 298 556 258 556 212 _c
556 140 531 84 482 45 _c
432 6 362 -13 271 -13 _c
240 -13 208 -10 176 -4 _c
144 1 110 10 76 22 _c
76 117 _l
103 101 133 89 166 81 _c
198 73 232 69 268 69 _c
330 69 377 81 409 105 _c
441 129 458 165 458 212 _c
458 254 443 288 413 312 _c
383 336 341 349 287 349 _c
}_e{202 349 _l
202 430 _l
291 430 _l
339 430 376 439 402 459 _c
428 478 441 506 441 543 _c
441 580 427 609 401 629 _c
374 649 336 659 287 659 _c
260 659 231 656 200 650 _c
169 644 135 635 98 623 _c
98 711 _l
135 721 170 729 203 734 _c
235 739 266 742 296 742 _c
370 742 429 725 473 691 _c
517 657 539 611 539 553 _c
539 513 527 479 504 451 _c
481 423 448 403 406 393 _c
_cl}_e}_d
/o{612 0 55 -13 557 560 _sc
306 484 _m
258 484 220 465 192 427 _c
164 389 150 338 150 273 _c
150 207 163 156 191 118 _c
219 80 257 62 306 62 _c
354 62 392 80 420 118 _c
448 156 462 207 462 273 _c
462 337 448 389 420 427 _c
392 465 354 484 306 484 _c
306 560 _m
384 560 445 534 490 484 _c
534 433 557 363 557 273 _c
557 183 534 113 490 63 _c
445 12 384 -13 306 -13 _c
227 -13 165 12 121 63 _c
77 113 55 183 55 273 _c
55 363 77 433 121 484 _c
165 534 227 560 306 560 _c
_cl}_d
/uni043C{754 0 91 0 664 547 _sc
91 547 _m
222 547 _l
377 181 _l
533 547 _l
664 547 _l
664 0 _l
573 0 _l
573 461 _l
422 105 _l
333 105 _l
181 461 _l
181 0 _l
91 0 _l
91 547 _l
_cl}_d
/uni043D{654 0 91 0 563 547 _sc
91 547 _m
181 547 _l
181 324 _l
473 324 _l
473 547 _l
563 547 _l
563 0 _l
473 0 _l
473 252 _l
181 252 _l
181 0 _l
91 0 _l
91 547 _l
_cl}_d
/uni043E{612 0 55 -13 557 560 _sc
false CharStrings /o get exec
}_d
end readonly def

/BuildGlyph
 {exch begin
 CharStrings exch
 2 copy known not{pop /.notdef}if
 true 3 1 roll get exec
 end}_d

/BuildChar {
 1 index /Encoding get exch get
 1 index /BuildGlyph get exec
}_d

FontName currentdict end definefont pop
end
%%EndProlog
mpldict begin
190.8 309.6 translate
230.4 172.8 0 0 clipbox
gsave
0 0 m
230.4 0 l
230.4 172.8 l
0 172.8 l
cl
1.000 setgray
fill
grestore
gsave
29.952 19.008 m
214.272 19.008 l
214.272 158.976 l
29.952 158.976 l
cl
1.000 setgray
fill
grestore
0.800 setlinewidth
1 setlinejoin
0 setlinecap
[] 0 setdash
0.000 setgray
gsave
/o {
gsave
newpath
translate
0.8 setlinewidth
1 setlinejoin
0 setlinecap
0 0 m
0 -3.5 l

gsave
0.000 setgray
fill
grestore
stroke
grestore
} bind def
29.952 19.008 o
grestore
/DejaVuSerif findfont
9.000 scalefont
setfont
gsave
22.787938 5.164250 translate
0.000000 rotate
0.000000 0.000000 m /zero glyphshow
5.726074 0.000000 m /period glyphshow
8.586914 0.000000 m /zero glyphshow
grestore
gsave
/o {
gsave
newpath
translate
0.8 setlinewidth
1 setlinejoin
0 setlinecap
0 0 m
0 -3.5 l

gsave
0.000 setgray
fill
grestore
stroke
grestore
} bind def
76.032 19.008 o
grestore
gsave
68.867938 5.164250 translate
0.000000 rotate
0.000000 0.000000 m /zero glyphshow
5.726074 0.000000 m /period glyphshow
8.586914 0.000000 m /five glyphshow
grestore
gsave
/o {
gsave
newpath
translate
0.8 setlinewidth
1 setlinejoin
0 setlinecap
0 0 m
0 -3.5 l

gsave
0.000 setgray
fill
grestore
stroke
grestore
} bind def
122.112 19.008 o
grestore
gsave
114.947938 5.164250 translate
0.000000 rotate
0.000000 0.000000 m /one glyphshow
5.726074 0.000000 m /period glyphshow
8.586914 0.000000 m /zero glyphshow
grestore
gsave
/o {
gsave
newpath
translate
0.8 setlinewidth
1 setlinejoin
0 setlinecap
0 0 m
0 -3.5 l

gsave
0.000 setgray
fill
grestore
stroke
grestore
} bind def
168.192 19.008 o
grestore
gsave
161.027938 5.164250 translate
0.000000 rotate
0.000000 0.000000 m /one glyphshow
5.726074 0.000000 m /period glyphshow
8.586914 0.000000 m /five glyphshow
grestore
gsave
205.272000 5.289250 translate
0.000000 rotate
/DejaVuSans-Oblique findfont
9.0 scalefont
setfont
0.000000 0.953125 moveto
/epsilon glyphshow

/DejaVuSans findfont
6.3 scalefont
setfont
4.864746 -0.523438 moveto
/uni043D glyphshow

8.983740 -0.523438 moveto
/uni043E glyphshow

12.838184 -0.523438 moveto
/uni043C glyphshow


grestore
gsave
/o {
gsave
newpath
translate
0.8 setlinewidth
1 setlinejoin
0 setlinecap
0 0 m
-3.5 0 l

gsave
0.000 setgray
fill
grestore
stroke
grestore
} bind def
29.952 19.008 o
grestore
gsave
17.217625 15.586125 translate
0.000000 rotate
0.000000 0.000000 m /zero glyphshow
grestore
gsave
/o {
gsave
newpath
translate
0.8 setlinewidth
1 setlinejoin
0 setlinecap
0 0 m
-3.5 0 l

gsave
0.000 setgray
fill
grestore
stroke
grestore
} bind def
29.952 39.0034 o
grestore
gsave
5.748875 35.581554 translate
0.000000 rotate
0.000000 0.000000 m /one glyphshow
5.726074 0.000000 m /zero glyphshow
11.452148 0.000000 m /zero glyphshow
grestore
gsave
/o {
gsave
newpath
translate
0.8 setlinewidth
1 setlinejoin
0 setlinecap
0 0 m
-3.5 0 l

gsave
0.000 setgray
fill
grestore
stroke
grestore
} bind def
29.952 58.9989 o
grestore
gsave
5.748875 55.576982 translate
0.000000 rotate
0.000000 0.000000 m /two glyphshow
5.726074 0.000000 m /zero glyphshow
11.452148 0.000000 m /zero glyphshow
grestore
gsave
/o {
gsave
newpath
translate
0.8 setlinewidth
1 setlinejoin
0 setlinecap
0 0 m
-3.5 0 l

gsave
0.000 setgray
fill
grestore
stroke
grestore
} bind def
29.952 78.9943 o
grestore
gsave
5.748875 75.572411 translate
0.000000 rotate
0.000000 0.000000 m /three glyphshow
5.726074 0.000000 m /zero glyphshow
11.452148 0.000000 m /zero glyphshow
grestore
gsave
/o {
gsave
newpath
translate
0.8 setlinewidth
1 setlinejoin
0 setlinecap
0 0 m
-3.5 0 l

gsave
0.000 setgray
fill
grestore
stroke
grestore
} bind def
29.952 98.9897 o
grestore
gsave
5.748875 95.567839 translate
0.000000 rotate
0.000000 0.000000 m /four glyphshow
5.726074 0.000000 m /zero glyphshow
11.452148 0.000000 m /zero glyphshow
grestore
gsave
/o {
gsave
newpath
translate
0.8 setlinewidth
1 setlinejoin
0 setlinecap
0 0 m
-3.5 0 l

gsave
0.000 setgray
fill
grestore
stroke
grestore
} bind def
29.952 118.985 o
grestore
gsave
5.748875 115.563268 translate
0.000000 rotate
0.000000 0.000000 m /five glyphshow
5.726074 0.000000 m /zero glyphshow
11.452148 0.000000 m /zero glyphshow
grestore
gsave
/o {
gsave
newpath
translate
0.8 setlinewidth
1 setlinejoin
0 setlinecap
0 0 m
-3.5 0 l

gsave
0.000 setgray
fill
grestore
stroke
grestore
} bind def
29.952 138.981 o
grestore
gsave
5.748875 135.558696 translate
0.000000 rotate
0.000000 0.000000 m /six glyphshow
5.726074 0.000000 m /zero glyphshow
11.452148 0.000000 m /zero glyphshow
grestore
gsave
10.795200 160.976000 translate
0.000000 rotate
/DejaVuSerif findfont
9.0 scalefont
setfont
0.000000 0.312500 moveto
/T glyphshow

/DejaVuSans findfont
6.3 scalefont
setfont
6.089062 -1.164062 moveto
/three glyphshow

/DejaVuSerif findfont
9.0 scalefont
setfont
10.343408 0.312500 moveto
/comma glyphshow

13.204248 0.312500 moveto
/space glyphshow

16.065088 0.312500 moveto
/degree glyphshow

20.565088 0.312500 moveto
/C glyphshow


grestore
1.000 setlinewidth
1 setlinecap
gsave
184.3 140 29.95 19.01 clipbox
29.952 34.004513 m
31.640131 34.081364 l
34.641253 34.419423 l
38.767795 35.128944 l
44.019759 36.267996 l
49.834432 37.753765 l
55.649106 39.463284 l
61.276209 41.348285 l
66.528172 43.34311 l
71.217425 45.353135 l
75.531538 47.434908 l
79.47051 49.57465 l
83.034342 51.751588 l
86.410605 54.071338 l
89.599296 56.539565 l
92.600418 59.155376 l
95.41397 61.908114 l
98.227522 64.990988 l
100.853503 68.194627 l
103.667055 71.991765 l
106.668177 76.440873 l
110.232009 82.150699 l
119.422945 97.103724 l
122.424067 101.465095 l
125.237618 105.182338 l
128.05117 108.545087 l
130.864722 111.57316 l
133.865844 114.472782 l
137.054535 117.233871 l
140.243227 119.708754 l
143.244349 121.784802 l
146.245471 123.582092 l
149.434163 125.229372 l
154.498556 127.558034 l
159.750519 129.758235 l
163.689492 131.164194 l
167.816034 132.382169 l
176.44426 134.638027 l
181.508653 135.759765 l
191.637439 137.647624 l
198.202393 138.730317 l
213.958282 140.914007 l
214.333423 140.95833 l
214.333423 140.95833 l
stroke
grestore
[5.6 2.4] 0 setdash
gsave
184.3 140 29.95 19.01 clipbox
29.952 34.004571 m
31.613098 34.074105 l
34.933829 34.423131 l
39.5392 35.152307 l
45.438368 36.311699 l
52.072002 37.846396 l
58.522019 39.56138 l
64.792327 41.45665 l
70.503972 43.409623 l
75.664767 45.400078 l
80.274713 47.403928 l
84.513519 49.482998 l
88.385092 51.629711 l
91.885526 53.822857 l
95.202343 56.171636 l
98.151927 58.526361 l
100.917894 61.002451 l
103.683862 63.777033 l
106.445923 66.882081 l
109.028274 70.112373 l
111.790334 73.92692 l
114.739918 78.385197 l
118.611492 84.684663 l
125.983498 96.76264 l
129.116699 101.4174 l
132.066283 105.393176 l
134.83225 108.759648 l
137.598218 111.792739 l
140.547802 114.691924 l
143.493479 117.285516 l
146.62668 119.756887 l
149.576264 121.819677 l
152.525848 123.614503 l
155.842665 125.370632 l
160.819843 127.721551 l
165.613406 129.765648 l
169.301363 131.087185 l
173.907402 132.482729 l
183.123387 135.031216 l
188.100566 136.141489 l
202.477346 138.982711 l
214.088159 140.864105 l
214.088159 140.864105 l
stroke
grestore
[2.2 2.2] 0 setdash
gsave
184.3 140 29.95 19.01 clipbox
29.952 34.004571 m
31.639709 34.078273 l
35.015127 34.439468 l
39.703208 35.18634 l
45.703951 36.37779 l
52.64231 37.98994 l
59.955716 39.924366 l
67.269121 42.09153 l
74.395004 44.437774 l
81.14584 46.898307 l
87.334106 49.385531 l
93.334849 52.038618 l
98.960546 54.768195 l
104.398719 57.652176 l
109.649369 60.682171 l
114.90002 63.96282 l
120.338193 67.62439 l
126.151413 71.817677 l
132.527203 76.698486 l
141.153271 83.606511 l
154.279896 94.115133 l
161.218255 99.3611 l
167.594045 103.905346 l
173.594788 107.906662 l
179.220485 111.395061 l
184.096089 114.164247 l
189.534262 116.981878 l
195.535005 119.846727 l
200.973179 122.199092 l
207.348968 124.703325 l
213.912281 127.051118 l
214.287327 127.177428 l
214.287327 127.177428 l
stroke
grestore
0.800 setlinewidth
0 setlinejoin
2 setlinecap
[] 0 setdash
gsave
29.952 19.008 m
29.952 158.976 l
stroke
grestore
gsave
214.272 19.008 m
214.272 158.976 l
stroke
grestore
gsave
29.952 19.008 m
214.272 19.008 l
stroke
grestore
gsave
29.952 158.976 m
214.272 158.976 l
stroke
grestore
1.000 setlinewidth
1 setlinejoin
1 setlinecap
[] 0 setdash
gsave
37.152 148.497875 m
61.152 148.497875 l
stroke
grestore
/DejaVuSerif findfont
8.000 scalefont
setfont
gsave
67.552000 145.697875 translate
0.000000 rotate
0.000000 0.000000 m /one glyphshow
grestore
[5.6 2.4] 0 setdash
gsave
37.152 136.747875 m
61.152 136.747875 l
stroke
grestore
gsave
67.552000 133.947875 translate
0.000000 rotate
0.000000 0.000000 m /two glyphshow
grestore
[2.2 2.2] 0 setdash
gsave
37.152 124.997875 m
61.152 124.997875 l
stroke
grestore
gsave
67.552000 122.197875 translate
0.000000 rotate
0.000000 0.000000 m /three glyphshow
grestore

end
showpage
