%!PS-Adobe-3.0 EPSF-3.0
%%Title: T_4000.eps
%%Creator: matplotlib version 2.0.0, http://matplotlib.org/
%%CreationDate: Tue Mar 27 10:41:47 2018
%%Orientation: portrait
%%BoundingBox: 190 309 421 482
%%EndComments
%%BeginProlog
/mpldict 10 dict def
mpldict begin
/m { moveto } bind def
/l { lineto } bind def
/r { rlineto } bind def
/c { curveto } bind def
/cl { closepath } bind def
/box {
m
1 index 0 r
0 exch r
neg 0 r
cl
} bind def
/clipbox {
box
clip
newpath
} bind def
%!PS-Adobe-3.0 Resource-Font
%%Title: DejaVu Serif
%%Copyright: Copyright (c) 2003 by Bitstream, Inc. All Rights Reserved. DejaVu changes are in public domain 
%%Creator: Converted from TrueType to type 3 by PPR
25 dict begin
/_d{bind def}bind def
/_m{moveto}_d
/_l{lineto}_d
/_cl{closepath eofill}_d
/_c{curveto}_d
/_sc{7 -1 roll{setcachedevice}{pop pop pop pop pop pop}ifelse}_d
/_e{exec}_d
/FontName /DejaVuSerif def
/PaintType 0 def
/FontMatrix[.001 0 0 .001 0 0]def
/FontBBox[-770 -347 2105 1109]def
/FontType 3 def
/Encoding [ /space /comma /period /zero /one /two /three /four /five /six /eight /equal /C /T /y /uni043C ] def
/FontInfo 10 dict dup begin
/FamilyName (DejaVu Serif) def
/FullName (DejaVu Serif) def
/Notice (Copyright (c) 2003 by Bitstream, Inc. All Rights Reserved. DejaVu changes are in public domain ) def
/Weight (Book) def
/Version (Version 2.35) def
/ItalicAngle 0.0 def
/isFixedPitch false def
/UnderlinePosition -130 def
/UnderlineThickness 90 def
end readonly def
/CharStrings 16 dict dup begin
/space{318 0 0 0 0 0 _sc
}_d
/comma{318 0 36 -135 221 111 _sc
36 -96 _m
66 -73 89 -47 103 -17 _c
117 13 125 49 125 93 _c
125 111 _l
221 111 _l
218 55 205 7 181 -32 _c
157 -71 122 -105 75 -135 _c
36 -96 _l
_cl}_d
/period{318 0 94 -13 224 116 _sc
94 51 _m
94 69 100 84 112 97 _c
124 109 140 116 159 116 _c
177 116 192 109 205 97 _c
217 84 224 69 224 51 _c
224 33 217 17 205 5 _c
192 -7 177 -13 159 -13 _c
140 -13 124 -7 112 5 _c
100 17 94 32 94 51 _c
_cl}_d
/zero{636 0 66 -13 570 742 _sc
318 34 _m
368 34 405 61 430 116 _c
454 170 467 253 467 364 _c
467 474 454 557 430 612 _c
405 666 368 694 318 694 _c
268 694 230 666 206 612 _c
181 557 169 474 169 364 _c
169 253 181 170 206 116 _c
230 61 268 34 318 34 _c
318 -13 _m
238 -13 176 20 132 86 _c
88 152 66 244 66 364 _c
66 483 88 576 132 642 _c
176 708 238 742 318 742 _c
397 742 459 708 503 642 _c
547 576 570 483 570 364 _c
570 244 547 152 503 86 _c
459 20 397 -13 318 -13 _c
_cl}_d
/one{636 0 122 0 494 742 _sc
142 0 _m
142 52 _l
269 52 _l
269 658 _l
122 563 _l
122 627 _l
300 742 _l
367 742 _l
367 52 _l
494 52 _l
494 0 _l
142 0 _l
_cl}_d
/two{{636 0 68 0 538 742 _sc
128 555 _m
73 555 _l
73 685 _l
107 703 142 717 178 727 _c
213 737 248 742 282 742 _c
358 742 418 723 462 687 _c
506 650 528 600 528 537 _c
528 465 478 380 378 281 _c
370 273 365 268 361 264 _c
177 80 _l
481 80 _l
481 170 _l
538 170 _l
538 0 _l
68 0 _l
68 53 _l
289 274 _l
337 322 372 367 393 408 _c
414 449 425 492 425 537 _c
}_e{425 586 412 624 386 652 _c
360 680 325 694 281 694 _c
234 694 198 682 173 659 _c
147 636 132 601 128 555 _c
_cl}_e}_d
/three{{636 0 76 -13 562 742 _sc
97 698 _m
135 712 171 723 206 731 _c
241 738 274 742 305 742 _c
376 742 432 726 472 696 _c
512 665 532 622 532 568 _c
532 524 518 487 490 458 _c
462 428 423 408 373 398 _c
433 389 479 367 512 332 _c
545 297 562 252 562 197 _c
562 129 539 77 493 41 _c
447 5 382 -13 296 -13 _c
258 -13 220 -9 184 -1 _c
148 6 112 18 76 35 _c
76 177 _l
}_e{131 177 _l
134 129 150 94 178 70 _c
206 46 246 34 298 34 _c
348 34 387 48 416 77 _c
444 106 459 146 459 196 _c
459 253 444 296 414 326 _c
384 355 341 370 284 370 _c
238 370 _l
238 420 _l
262 420 _l
319 420 362 431 390 455 _c
418 479 433 514 433 562 _c
433 604 421 637 398 660 _c
374 682 341 694 297 694 _c
253 694 218 683 194 662 _c
170 641 156 610 152 570 _c
}_e{97 570 _l
97 698 _l
_cl}_e}_d
/four{636 0 31 0 586 742 _sc
349 247 _m
349 635 _l
100 247 _l
349 247 _l
564 0 _m
232 0 _l
232 52 _l
349 52 _l
349 195 _l
31 195 _l
31 248 _l
350 742 _l
447 742 _l
447 247 _l
586 247 _l
586 195 _l
447 195 _l
447 52 _l
564 52 _l
564 0 _l
_cl}_d
/five{{636 0 85 -13 559 729 _sc
503 729 _m
503 649 _l
169 649 _l
169 440 _l
185 452 205 460 228 466 _c
250 472 276 475 304 475 _c
382 475 444 453 490 409 _c
536 365 559 306 559 231 _c
559 153 536 93 490 51 _c
444 8 379 -13 296 -13 _c
262 -13 228 -9 193 -1 _c
157 6 121 18 85 35 _c
85 177 _l
140 177 _l
143 130 158 94 184 70 _c
210 46 248 34 296 34 _c
}_e{347 34 386 51 414 85 _c
442 119 456 167 456 231 _c
456 294 442 342 415 376 _c
387 410 348 427 296 427 _c
266 427 240 421 218 411 _c
196 401 176 385 159 363 _c
117 363 _l
117 729 _l
503 729 _l
_cl}_e}_d
/six{{636 0 67 -13 573 742 _sc
327 34 _m
373 34 408 50 433 84 _c
457 118 470 166 470 230 _c
470 293 457 341 433 375 _c
408 409 373 426 327 426 _c
280 426 244 409 220 377 _c
196 344 184 297 184 236 _c
184 171 196 121 221 86 _c
245 51 281 34 327 34 _c
168 401 _m
190 425 215 444 243 456 _c
271 468 302 474 338 474 _c
410 474 468 452 510 408 _c
552 364 573 305 573 230 _c
}_e{573 156 550 97 505 53 _c
459 9 399 -13 323 -13 _c
241 -13 177 17 133 78 _c
89 139 67 227 67 341 _c
67 468 93 567 145 637 _c
197 707 271 742 367 742 _c
393 742 420 739 448 735 _c
476 730 505 723 535 713 _c
535 593 _l
480 593 _l
476 625 463 650 442 668 _c
421 685 393 694 357 694 _c
293 694 246 670 215 622 _c
184 574 168 500 168 401 _c
_cl}_e}_d
/eight{{636 0 67 -13 569 742 _sc
466 199 _m
466 251 453 291 427 320 _c
401 349 364 364 318 364 _c
271 364 235 349 209 320 _c
183 291 170 251 170 199 _c
170 147 183 106 209 77 _c
235 48 271 34 318 34 _c
364 34 401 48 427 77 _c
453 106 466 147 466 199 _c
446 553 _m
446 597 434 632 412 657 _c
389 681 358 694 318 694 _c
278 694 246 681 224 657 _c
201 632 190 597 190 553 _c
}_e{190 508 201 473 224 449 _c
246 424 278 412 318 412 _c
358 412 389 424 412 449 _c
434 473 446 508 446 553 _c
393 388 _m
448 380 491 360 522 327 _c
553 293 569 251 569 199 _c
569 131 547 78 504 42 _c
460 5 398 -13 318 -13 _c
237 -13 175 5 132 42 _c
88 78 67 131 67 199 _c
67 251 82 293 113 327 _c
144 360 187 380 243 388 _c
193 396 156 415 130 444 _c
}_e{104 472 91 509 91 553 _c
91 611 111 657 151 691 _c
191 725 247 742 318 742 _c
388 742 444 725 484 691 _c
524 657 545 611 545 553 _c
545 509 531 472 505 444 _c
479 415 441 396 393 388 _c
_cl}_e}_d
/equal{838 0 106 175 732 452 _sc
106 452 _m
732 452 _l
732 374 _l
106 374 _l
106 452 _l
106 253 _m
732 253 _l
732 175 _l
106 175 _l
106 253 _l
_cl}_d
/C{{765 0 56 -13 705 742 _sc
705 193 _m
683 125 647 73 597 39 _c
546 4 482 -13 405 -13 _c
357 -13 312 -5 272 11 _c
231 27 195 50 164 82 _c
127 118 100 160 82 206 _c
64 252 56 305 56 364 _c
56 477 88 568 154 638 _c
219 707 305 742 413 742 _c
453 742 495 736 540 726 _c
584 716 633 700 685 679 _c
685 511 _l
630 511 _l
618 572 593 617 557 646 _c
}_e{521 675 470 690 405 690 _c
327 690 268 662 228 607 _c
188 551 168 470 168 364 _c
168 257 188 176 228 121 _c
268 65 327 38 405 38 _c
459 38 503 51 539 77 _c
574 103 599 141 615 193 _c
705 193 _l
_cl}_e}_d
/T{667 0 10 0 657 729 _sc
191 0 _m
191 52 _l
284 52 _l
284 671 _l
70 671 _l
70 557 _l
10 557 _l
10 729 _l
657 729 _l
657 557 _l
597 557 _l
597 671 _l
383 671 _l
383 52 _l
476 52 _l
476 0 _l
191 0 _l
_cl}_d
/y{{565 0 -2 -221 562 519 _sc
216 -94 _m
250 -8 _l
56 467 _l
-2 467 _l
-2 519 _l
236 519 _l
236 467 _l
153 467 _l
299 110 _l
445 467 _l
367 467 _l
367 519 _l
562 519 _l
562 467 _l
504 467 _l
266 -116 _l
250 -156 232 -184 212 -199 _c
192 -213 164 -221 128 -221 _c
112 -221 97 -219 81 -217 _c
65 -214 48 -210 32 -206 _c
32 -107 _l
78 -107 _l
80 -129 85 -144 95 -154 _c
}_e{104 -164 118 -169 138 -169 _c
156 -169 170 -164 181 -154 _c
192 -144 204 -124 216 -94 _c
_cl}_e}_d
/uni043C{778 0 36 0 742 519 _sc
36 0 _m
36 52 _l
117 52 _l
117 467 _l
36 467 _l
36 519 _l
247 519 _l
393 162 _l
539 519 _l
742 519 _l
742 467 _l
661 467 _l
661 52 _l
742 52 _l
742 0 _l
490 0 _l
490 52 _l
571 52 _l
571 453 _l
407 52 _l
341 52 _l
177 453 _l
177 52 _l
258 52 _l
258 0 _l
36 0 _l
_cl}_d
end readonly def

/BuildGlyph
 {exch begin
 CharStrings exch
 2 copy known not{pop /.notdef}if
 true 3 1 roll get exec
 end}_d

/BuildChar {
 1 index /Encoding get exch get
 1 index /BuildGlyph get exec
}_d

FontName currentdict end definefont pop
%!PS-Adobe-3.0 Resource-Font
%%Title: DejaVu Sans
%%Copyright: Copyright (c) 2003 by Bitstream, Inc. All Rights Reserved. Copyright (c) 2006 by Tavmjong Bah. All Rights Reserved. DejaVu changes are in public domain 
%%Creator: Converted from TrueType to type 3 by PPR
25 dict begin
/_d{bind def}bind def
/_m{moveto}_d
/_l{lineto}_d
/_cl{closepath eofill}_d
/_c{curveto}_d
/_sc{7 -1 roll{setcachedevice}{pop pop pop pop pop pop}ifelse}_d
/_e{exec}_d
/FontName /DejaVuSans def
/PaintType 0 def
/FontMatrix[.001 0 0 .001 0 0]def
/FontBBox[-1021 -463 1793 1232]def
/FontType 3 def
/Encoding [ /o /degree /uni043C /uni043D /uni043E /uni2218 ] def
/FontInfo 10 dict dup begin
/FamilyName (DejaVu Sans) def
/FullName (DejaVu Sans) def
/Notice (Copyright (c) 2003 by Bitstream, Inc. All Rights Reserved. Copyright (c) 2006 by Tavmjong Bah. All Rights Reserved. DejaVu changes are in public domain ) def
/Weight (Book) def
/Version (Version 2.35) def
/ItalicAngle 0.0 def
/isFixedPitch false def
/UnderlinePosition -130 def
/UnderlineThickness 90 def
end readonly def
/CharStrings 6 dict dup begin
/o{612 0 55 -13 557 560 _sc
306 484 _m
258 484 220 465 192 427 _c
164 389 150 338 150 273 _c
150 207 163 156 191 118 _c
219 80 257 62 306 62 _c
354 62 392 80 420 118 _c
448 156 462 207 462 273 _c
462 337 448 389 420 427 _c
392 465 354 484 306 484 _c
306 560 _m
384 560 445 534 490 484 _c
534 433 557 363 557 273 _c
557 183 534 113 490 63 _c
445 12 384 -13 306 -13 _c
227 -13 165 12 121 63 _c
77 113 55 183 55 273 _c
55 363 77 433 121 484 _c
165 534 227 560 306 560 _c
_cl}_d
/degree{{500 0 95 432 405 742 _sc
250 679 _m
224 679 202 670 184 652 _c
166 634 157 612 157 586 _c
157 560 166 538 184 520 _c
202 502 224 494 250 494 _c
276 494 298 502 316 520 _c
334 538 343 560 343 586 _c
343 612 334 634 316 652 _c
298 670 276 679 250 679 _c
250 742 _m
270 742 290 738 310 730 _c
329 722 346 710 360 696 _c
374 681 385 664 393 646 _c
401 627 405 607 405 586 _c
}_e{405 542 389 506 359 476 _c
329 446 292 432 249 432 _c
205 432 168 446 139 476 _c
109 505 95 542 95 586 _c
95 629 110 666 140 696 _c
170 726 206 742 250 742 _c
_cl}_e}_d
/uni043C{754 0 91 0 664 547 _sc
91 547 _m
222 547 _l
377 181 _l
533 547 _l
664 547 _l
664 0 _l
573 0 _l
573 461 _l
422 105 _l
333 105 _l
181 461 _l
181 0 _l
91 0 _l
91 547 _l
_cl}_d
/uni043D{654 0 91 0 563 547 _sc
91 547 _m
181 547 _l
181 324 _l
473 324 _l
473 547 _l
563 547 _l
563 0 _l
473 0 _l
473 252 _l
181 252 _l
181 0 _l
91 0 _l
91 547 _l
_cl}_d
/uni043E{612 0 55 -13 557 560 _sc
false CharStrings /o get exec
}_d
/uni2218{626 0 158 160 468 470 _sc
gsave 63 -271 translate
false CharStrings /degree get exec
grestore }_d
end readonly def

/BuildGlyph
 {exch begin
 CharStrings exch
 2 copy known not{pop /.notdef}if
 true 3 1 roll get exec
 end}_d

/BuildChar {
 1 index /Encoding get exch get
 1 index /BuildGlyph get exec
}_d

FontName currentdict end definefont pop
%!PS-Adobe-3.0 Resource-Font
%%Title: DejaVu Sans Oblique
%%Copyright: Copyright (c) 2003 by Bitstream, Inc. All Rights Reserved. Copyright (c) 2006 by Tavmjong Bah. All Rights Reserved. DejaVu changes are in public domain 
%%Creator: Converted from TrueType to type 3 by PPR
25 dict begin
/_d{bind def}bind def
/_m{moveto}_d
/_l{lineto}_d
/_cl{closepath eofill}_d
/_c{curveto}_d
/_sc{7 -1 roll{setcachedevice}{pop pop pop pop pop pop}ifelse}_d
/_e{exec}_d
/FontName /DejaVuSans-Oblique def
/PaintType 0 def
/FontMatrix[.001 0 0 .001 0 0]def
/FontBBox[-1016 -350 1659 1068]def
/FontType 3 def
/Encoding [ /epsilon ] def
/FontInfo 10 dict dup begin
/FamilyName (DejaVu Sans) def
/FullName (DejaVu Sans Oblique) def
/Notice (Copyright (c) 2003 by Bitstream, Inc. All Rights Reserved. Copyright (c) 2006 by Tavmjong Bah. All Rights Reserved. DejaVu changes are in public domain ) def
/Weight (Oblique) def
/Version (Version 2.35) def
/ItalicAngle -11.0 def
/isFixedPitch false def
/UnderlinePosition -130 def
/UnderlineThickness 90 def
end readonly def
/CharStrings 1 dict dup begin
/epsilon{{541 0 39 -13 506 561 _sc
197 295 _m
162 303 137 317 122 338 _c
110 353 104 371 104 391 _c
104 446 130 490 184 522 _c
225 548 278 561 342 561 _c
366 561 392 559 419 555 _c
446 551 475 545 505 537 _c
490 456 _l
460 465 432 472 407 476 _c
381 480 357 482 334 482 _c
295 482 263 474 238 460 _c
207 442 192 420 192 394 _c
192 376 200 362 216 350 _c
234 336 263 329 301 329 _c
}_e{376 329 _l
362 254 _l
290 254 _l
245 254 209 245 183 229 _c
147 207 129 178 129 143 _c
129 121 138 102 158 88 _c
182 70 218 61 268 61 _c
298 61 327 63 357 69 _c
385 75 412 85 438 97 _c
422 13 _l
390 4 361 -2 333 -6 _c
305 -10 277 -13 251 -13 _c
173 -13 117 1 81 30 _c
53 52 39 83 39 122 _c
39 174 57 216 94 248 _c
120 271 155 287 197 295 _c
_cl}_e}_d
end readonly def

/BuildGlyph
 {exch begin
 CharStrings exch
 2 copy known not{pop /.notdef}if
 true 3 1 roll get exec
 end}_d

/BuildChar {
 1 index /Encoding get exch get
 1 index /BuildGlyph get exec
}_d

FontName currentdict end definefont pop
end
%%EndProlog
mpldict begin
190.8 309.6 translate
230.4 172.8 0 0 clipbox
gsave
0 0 m
230.4 0 l
230.4 172.8 l
0 172.8 l
cl
1.000 setgray
fill
grestore
gsave
29.952 19.008 m
214.272 19.008 l
214.272 158.976 l
29.952 158.976 l
cl
1.000 setgray
fill
grestore
0.800 setlinewidth
1 setlinejoin
0 setlinecap
[] 0 setdash
0.000 setgray
gsave
/o {
gsave
newpath
translate
0.8 setlinewidth
1 setlinejoin
0 setlinecap
0 0 m
0 -3.5 l

gsave
0.000 setgray
fill
grestore
stroke
grestore
} bind def
29.952 19.008 o
grestore
/DejaVuSerif findfont
9.000 scalefont
setfont
gsave
27.084813 5.164250 translate
0.000000 rotate
0.000000 0.000000 m /zero glyphshow
grestore
gsave
/o {
gsave
newpath
translate
0.8 setlinewidth
1 setlinejoin
0 setlinecap
0 0 m
0 -3.5 l

gsave
0.000 setgray
fill
grestore
stroke
grestore
} bind def
76.032 19.008 o
grestore
gsave
73.164813 5.164250 translate
0.000000 rotate
0.000000 0.000000 m /one glyphshow
grestore
gsave
/o {
gsave
newpath
translate
0.8 setlinewidth
1 setlinejoin
0 setlinecap
0 0 m
0 -3.5 l

gsave
0.000 setgray
fill
grestore
stroke
grestore
} bind def
122.112 19.008 o
grestore
gsave
119.244813 5.164250 translate
0.000000 rotate
0.000000 0.000000 m /two glyphshow
grestore
gsave
/o {
gsave
newpath
translate
0.8 setlinewidth
1 setlinejoin
0 setlinecap
0 0 m
0 -3.5 l

gsave
0.000 setgray
fill
grestore
stroke
grestore
} bind def
168.192 19.008 o
grestore
gsave
165.324813 5.164250 translate
0.000000 rotate
0.000000 0.000000 m /three glyphshow
grestore
gsave
201.881375 5.289250 translate
0.000000 rotate
0.000000 0.000000 m /y glyphshow
5.068848 0.000000 m /comma glyphshow
7.929688 0.000000 m /space glyphshow
10.790527 0.000000 m /uni043C glyphshow
17.791016 0.000000 m /uni043C glyphshow
grestore
gsave
/o {
gsave
newpath
translate
0.8 setlinewidth
1 setlinejoin
0 setlinecap
0 0 m
-3.5 0 l

gsave
0.000 setgray
fill
grestore
stroke
grestore
} bind def
29.952 19.008 o
grestore
gsave
17.217625 15.586125 translate
0.000000 rotate
0.000000 0.000000 m /zero glyphshow
grestore
gsave
/o {
gsave
newpath
translate
0.8 setlinewidth
1 setlinejoin
0 setlinecap
0 0 m
-3.5 0 l

gsave
0.000 setgray
fill
grestore
stroke
grestore
} bind def
29.952 40.5415 o
grestore
gsave
5.748875 37.119663 translate
0.000000 rotate
0.000000 0.000000 m /one glyphshow
5.726074 0.000000 m /zero glyphshow
11.452148 0.000000 m /zero glyphshow
grestore
gsave
/o {
gsave
newpath
translate
0.8 setlinewidth
1 setlinejoin
0 setlinecap
0 0 m
-3.5 0 l

gsave
0.000 setgray
fill
grestore
stroke
grestore
} bind def
29.952 62.0751 o
grestore
gsave
5.748875 58.653202 translate
0.000000 rotate
0.000000 0.000000 m /two glyphshow
5.726074 0.000000 m /zero glyphshow
11.452148 0.000000 m /zero glyphshow
grestore
gsave
/o {
gsave
newpath
translate
0.8 setlinewidth
1 setlinejoin
0 setlinecap
0 0 m
-3.5 0 l

gsave
0.000 setgray
fill
grestore
stroke
grestore
} bind def
29.952 83.6086 o
grestore
gsave
5.748875 80.186740 translate
0.000000 rotate
0.000000 0.000000 m /three glyphshow
5.726074 0.000000 m /zero glyphshow
11.452148 0.000000 m /zero glyphshow
grestore
gsave
/o {
gsave
newpath
translate
0.8 setlinewidth
1 setlinejoin
0 setlinecap
0 0 m
-3.5 0 l

gsave
0.000 setgray
fill
grestore
stroke
grestore
} bind def
29.952 105.142 o
grestore
gsave
5.748875 101.720279 translate
0.000000 rotate
0.000000 0.000000 m /four glyphshow
5.726074 0.000000 m /zero glyphshow
11.452148 0.000000 m /zero glyphshow
grestore
gsave
/o {
gsave
newpath
translate
0.8 setlinewidth
1 setlinejoin
0 setlinecap
0 0 m
-3.5 0 l

gsave
0.000 setgray
fill
grestore
stroke
grestore
} bind def
29.952 126.676 o
grestore
gsave
5.748875 123.253817 translate
0.000000 rotate
0.000000 0.000000 m /five glyphshow
5.726074 0.000000 m /zero glyphshow
11.452148 0.000000 m /zero glyphshow
grestore
gsave
/o {
gsave
newpath
translate
0.8 setlinewidth
1 setlinejoin
0 setlinecap
0 0 m
-3.5 0 l

gsave
0.000 setgray
fill
grestore
stroke
grestore
} bind def
29.952 148.209 o
grestore
gsave
5.748875 144.787356 translate
0.000000 rotate
0.000000 0.000000 m /six glyphshow
5.726074 0.000000 m /zero glyphshow
11.452148 0.000000 m /zero glyphshow
grestore
gsave
11.452000 160.976000 translate
0.000000 rotate
/DejaVuSerif findfont
9.0 scalefont
setfont
0.000000 0.273438 moveto
/T glyphshow

6.002930 0.273438 moveto
/comma glyphshow

8.863770 0.273438 moveto
/space glyphshow

/DejaVuSans findfont
6.3 scalefont
setfont
11.810742 3.718750 moveto
/uni2218 glyphshow

/DejaVuSerif findfont
9.0 scalefont
setfont
16.000488 0.273438 moveto
/C glyphshow


grestore
1.000 setlinewidth
1 setlinecap
gsave
184.3 140 29.95 19.01 clipbox
29.952 19.008 m
62.63089 19.116989 l
64.244093 19.368437 l
65.35029 19.757146 l
66.27212 20.312515 l
67.101767 21.067054 l
67.931415 22.128965 l
68.807154 23.640902 l
69.728984 25.695512 l
70.835181 28.732798 l
74.292045 38.705677 l
74.983418 39.855787 l
75.536516 40.386492 l
75.997431 40.540781 l
76.412255 40.450086 l
76.87317 40.097701 l
77.426269 39.343978 l
78.07155 38.059989 l
78.947289 35.77565 l
80.560492 30.783175 l
82.127604 26.221368 l
83.187709 23.778485 l
84.109539 22.163403 l
84.985278 21.042226 l
85.861017 20.261535 l
86.782848 19.725174 l
87.842953 19.362713 l
89.225698 19.136203 l
91.438092 19.027909 l
98.812735 19.008006 l
109.644243 19.118918 l
111.395721 19.374506 l
112.640192 19.775784 l
113.700297 20.349492 l
114.714311 21.158378 l
115.774416 22.309024 l
117.018887 24.025552 l
120.291385 28.773933 l
121.074941 29.43927 l
121.720222 29.726236 l
122.319412 29.761144 l
122.918602 29.570545 l
123.563883 29.12703 l
124.347439 28.302058 l
125.407544 26.828817 l
128.726134 21.978722 l
129.83233 20.870783 l
130.892435 20.121145 l
131.998632 19.614158 l
133.289194 19.280324 l
134.994581 19.089391 l
138.036621 19.014171 l
153.523373 19.036684 l
155.966224 19.206371 l
157.348969 19.515271 l
158.409074 19.973501 l
159.330905 20.609227 l
160.206644 21.479978 l
161.128474 22.726602 l
162.142488 24.507905 l
163.386959 27.193268 l
166.060267 33.136179 l
166.889914 34.371979 l
167.535196 34.95438 l
168.042203 35.14749 l
168.549209 35.097611 l
169.056216 34.806989 l
169.655406 34.171544 l
170.39287 33.012159 l
171.360792 31.025593 l
174.955931 23.208837 l
175.969944 21.729693 l
176.937866 20.707761 l
177.905788 20.012579 l
178.919802 19.553775 l
180.164273 19.245626 l
181.869659 19.073572 l
185.188249 19.011277 l
214.272 19.008 l
214.272 19.008 l
stroke
grestore
[5.6 2.4] 0 setdash
gsave
184.3 140 29.95 19.01 clipbox
29.952 27.123014 m
33.915871 27.011226 l
38.202383 26.66187 l
43.318542 26.013196 l
49.771355 24.962576 l
61.294236 23.029619 l
62.861347 23.040283 l
63.967544 23.255032 l
64.889374 23.647942 l
65.719022 24.235921 l
66.502578 25.057108 l
67.286134 26.199203 l
68.115781 27.829678 l
68.945428 29.969675 l
69.821167 32.871771 l
70.696906 36.55137 l
71.572645 41.204334 l
72.402293 46.884392 l
73.093665 53.148699 l
73.692855 60.528557 l
74.292045 70.886392 l
75.536516 94.118211 l
75.859157 96.266239 l
75.997431 96.45603 l
76.089614 96.334658 l
76.27398 95.499509 l
76.55053 92.810913 l
76.965353 85.974598 l
78.486374 57.737101 l
79.177746 50.27518 l
80.007394 43.757317 l
80.929224 38.285388 l
81.897146 33.831303 l
82.865068 30.373604 l
83.786899 27.847626 l
84.708729 25.95649 l
85.584468 24.652609 l
86.460207 23.738765 l
87.382038 23.105563 l
88.349959 22.708921 l
89.502248 22.480331 l
91.023268 22.417247 l
93.558302 22.567277 l
108.676321 23.972451 l
110.243433 24.361847 l
111.395721 24.864627 l
112.409734 25.547563 l
113.331565 26.436011 l
114.253395 27.647906 l
115.175226 29.248839 l
116.143148 31.413888 l
117.157161 34.275394 l
118.217266 37.961601 l
119.507829 43.34054 l
121.074941 49.83847 l
121.628039 51.255564 l
121.996771 51.700554 l
122.27332 51.735006 l
122.549869 51.50941 l
122.918602 50.829022 l
123.425608 49.306024 l
124.255256 45.931479 l
126.375466 37.085224 l
127.481662 33.477885 l
128.541767 30.748351 l
129.555781 28.744119 l
130.523703 27.313897 l
131.491625 26.278996 l
132.459547 25.560878 l
133.519652 25.048641 l
134.764123 24.699652 l
136.423418 24.481018 l
139.465458 24.351648 l
147.024468 24.044216 l
154.537386 23.692028 l
155.920132 23.895658 l
156.980237 24.267323 l
157.902068 24.823636 l
158.777806 25.626076 l
159.607454 26.700255 l
160.437101 28.147229 l
161.31284 30.154065 l
162.188579 32.73624 l
163.11041 36.188925 l
163.986149 40.335171 l
164.815796 45.328822 l
165.599352 51.486324 l
166.336816 59.14475 l
167.719562 74.277019 l
168.042203 75.796107 l
168.27266 76.064848 l
168.410935 75.888086 l
168.641392 75.04387 l
168.964033 72.812417 l
169.47104 67.500218 l
170.99206 50.662133 l
171.821707 44.40956 l
172.697446 39.409827 l
173.665368 35.142828 l
174.63329 31.851385 l
175.555121 29.450326 l
176.476951 27.650851 l
177.35269 26.409323 l
178.228429 25.542024 l
179.104168 24.972513 l
180.07209 24.605763 l
181.224378 24.421647 l
182.699307 24.430666 l
185.049974 24.700828 l
199.015706 26.609192 l
205.883343 27.265022 l
211.137776 27.552496 l
214.272 27.602088 l
214.272 27.602088 l
stroke
grestore
[2.2 2.2] 0 setdash
gsave
184.3 140 29.95 19.01 clipbox
29.952 28.095025 m
32.994041 27.983199 l
36.358722 27.627285 l
40.55305 26.946294 l
47.558962 25.545887 l
57.330365 23.633071 l
60.049764 23.304783 l
61.662968 23.321041 l
62.861347 23.543868 l
63.875361 23.954512 l
64.797191 24.576252 l
65.626839 25.402876 l
66.456486 26.554329 l
67.240042 28.022357 l
68.023598 29.972706 l
68.761062 32.402854 l
69.498527 35.645788 l
70.189899 39.751934 l
70.835181 44.926626 l
71.480462 51.927125 l
72.125743 61.411775 l
72.817116 75.184787 l
73.508489 93.554497 l
74.43032 124.871585 l
75.121692 145.165839 l
75.582608 152.869722 l
75.859157 154.864683 l
75.997431 155.113568 l
76.043523 155.085584 l
76.181797 154.668874 l
76.412255 152.866325 l
76.734896 148.036569 l
77.149719 138.099672 l
77.841092 115.078849 l
78.809014 84.138789 l
79.59257 66.159293 l
80.330035 54.093508 l
81.067499 45.564328 l
81.804963 39.535865 l
82.542428 35.205408 l
83.325983 31.845076 l
84.155631 29.22325 l
85.03137 27.17908 l
85.907109 25.675515 l
86.828939 24.534244 l
87.75077 23.740701 l
88.718692 23.191088 l
89.824888 22.821834 l
91.161542 22.622322 l
92.959112 22.596649 l
96.093335 22.812551 l
106.786569 23.866831 l
108.676321 24.284559 l
110.012975 24.796425 l
111.165263 25.478448 l
112.179277 26.341805 l
113.147199 27.470902 l
114.069029 28.899571 l
114.99086 30.763639 l
115.866599 33.045386 l
116.742338 35.960567 l
117.618077 39.658247 l
118.585998 44.751439 l
121.397581 60.396284 l
121.858497 61.519745 l
122.181137 61.834716 l
122.411595 61.810016 l
122.688144 61.505971 l
123.056876 60.653795 l
123.517791 58.9464 l
124.209164 55.371387 l
127.343388 37.713182 l
128.265218 34.325038 l
129.187049 31.742562 l
130.108879 29.784657 l
131.076801 28.245077 l
132.044723 27.114929 l
133.058737 26.269395 l
134.164933 25.643532 l
135.409404 25.201058 l
136.976516 24.891705 l
139.373275 24.6743 l
153.43119 23.928202 l
154.860027 24.147577 l
156.012315 24.547223 l
156.980237 25.112739 l
157.902068 25.917599 l
158.777806 26.996445 l
159.607454 28.383737 l
160.39101 30.12202 l
161.174566 32.429414 l
161.91203 35.349184 l
162.603403 39.068102 l
163.248684 43.81248 l
163.893965 50.341461 l
164.539247 59.363353 l
165.184528 71.698663 l
165.875901 89.508316 l
166.705548 117.503868 l
167.443013 140.38843 l
167.857836 147.865202 l
168.134386 150.084731 l
168.27266 150.339125 l
168.364843 150.190494 l
168.549209 149.130309 l
168.825758 145.651694 l
169.194491 137.668321 l
169.79368 118.571273 l
170.945968 81.38711 l
171.683433 64.785978 l
172.420897 53.040133 l
173.11227 45.341578 l
173.803643 39.90525 l
174.541107 35.794229 l
175.324663 32.679085 l
176.154311 30.298735 l
176.983958 28.558217 l
177.859697 27.218708 l
178.735436 26.26503 l
179.657266 25.581961 l
180.625188 25.135724 l
181.731385 24.875991 l
183.068039 24.80536 l
184.819517 24.951968 l
187.6311 25.439995 l
194.775286 26.979069 l
205.145878 29.157473 l
209.386299 29.8208 l
212.566614 30.097559 l
214.272 30.138375 l
214.272 30.138375 l
stroke
grestore
0.800 setlinewidth
0 setlinejoin
2 setlinecap
[] 0 setdash
gsave
29.952 19.008 m
29.952 158.976 l
stroke
grestore
gsave
214.272 19.008 m
214.272 158.976 l
stroke
grestore
gsave
29.952 19.008 m
214.272 19.008 l
stroke
grestore
gsave
29.952 158.976 m
214.272 158.976 l
stroke
grestore
1.000 setlinewidth
1 setlinejoin
1 setlinecap
[] 0 setdash
gsave
83.912 148.497875 m
107.912 148.497875 l
stroke
grestore
gsave
114.312000 145.697875 translate
0.000000 rotate
/DejaVuSans-Oblique findfont
8.0 scalefont
setfont
0.000000 0.062500 moveto
/epsilon glyphshow

/DejaVuSans findfont
5.6 scalefont
setfont
4.324219 -1.250000 moveto
/uni043D glyphshow

7.985547 -1.250000 moveto
/uni043E glyphshow

11.411719 -1.250000 moveto
/uni043C glyphshow

/DejaVuSerif findfont
8.0 scalefont
setfont
15.855078 0.062500 moveto
/space glyphshow

18.398047 0.062500 moveto
/equal glyphshow

25.101172 0.062500 moveto
/space glyphshow

27.644141 0.062500 moveto
/zero glyphshow

32.733984 0.062500 moveto
/period glyphshow

35.276953 0.062500 moveto
/zero glyphshow

40.366797 0.062500 moveto
/zero glyphshow


grestore
[5.6 2.4] 0 setdash
gsave
83.912 136.41975 m
107.912 136.41975 l
stroke
grestore
gsave
114.312000 133.619750 translate
0.000000 rotate
/DejaVuSans-Oblique findfont
8.0 scalefont
setfont
0.000000 0.062500 moveto
/epsilon glyphshow

/DejaVuSans findfont
5.6 scalefont
setfont
4.324219 -1.250000 moveto
/uni043D glyphshow

7.985547 -1.250000 moveto
/uni043E glyphshow

11.411719 -1.250000 moveto
/uni043C glyphshow

/DejaVuSerif findfont
8.0 scalefont
setfont
15.855078 0.062500 moveto
/space glyphshow

18.398047 0.062500 moveto
/equal glyphshow

25.101172 0.062500 moveto
/space glyphshow

27.644141 0.062500 moveto
/zero glyphshow

32.733984 0.062500 moveto
/period glyphshow

35.276953 0.062500 moveto
/eight glyphshow

40.366797 0.062500 moveto
/zero glyphshow


grestore
[2.2 2.2] 0 setdash
gsave
83.912 124.341625 m
107.912 124.341625 l
stroke
grestore
gsave
114.312000 121.541625 translate
0.000000 rotate
/DejaVuSans-Oblique findfont
8.0 scalefont
setfont
0.000000 0.062500 moveto
/epsilon glyphshow

/DejaVuSans findfont
5.6 scalefont
setfont
4.324219 -1.250000 moveto
/uni043D glyphshow

7.985547 -1.250000 moveto
/uni043E glyphshow

11.411719 -1.250000 moveto
/uni043C glyphshow

/DejaVuSerif findfont
8.0 scalefont
setfont
15.855078 0.062500 moveto
/space glyphshow

18.398047 0.062500 moveto
/equal glyphshow

25.101172 0.062500 moveto
/space glyphshow

27.644141 0.062500 moveto
/two glyphshow

32.733984 0.062500 moveto
/period glyphshow

35.276953 0.062500 moveto
/zero glyphshow

40.366797 0.062500 moveto
/zero glyphshow


grestore

end
showpage
