%!PS-Adobe-3.0 EPSF-3.0
%%Title: full.eps
%%Creator: matplotlib version 2.0.0, http://matplotlib.org/
%%CreationDate: Sun Mar 25 12:27:36 2018
%%Orientation: portrait
%%BoundingBox: 190 309 421 482
%%EndComments
%%BeginProlog
/mpldict 10 dict def
mpldict begin
/m { moveto } bind def
/l { lineto } bind def
/r { rlineto } bind def
/c { curveto } bind def
/cl { closepath } bind def
/box {
m
1 index 0 r
0 exch r
neg 0 r
cl
} bind def
/clipbox {
box
clip
newpath
} bind def
%!PS-Adobe-3.0 Resource-Font
%%Title: DejaVu Serif
%%Copyright: Copyright (c) 2003 by Bitstream, Inc. All Rights Reserved. DejaVu changes are in public domain 
%%Creator: Converted from TrueType to type 3 by PPR
25 dict begin
/_d{bind def}bind def
/_m{moveto}_d
/_l{lineto}_d
/_cl{closepath eofill}_d
/_c{curveto}_d
/_sc{7 -1 roll{setcachedevice}{pop pop pop pop pop pop}ifelse}_d
/_e{exec}_d
/FontName /DejaVuSerif def
/PaintType 0 def
/FontMatrix[.001 0 0 .001 0 0]def
/FontBBox[-770 -347 2105 1109]def
/FontType 3 def
/Encoding [ /space /comma /period /zero /one /two /three /five /y /uni043C ] def
/FontInfo 10 dict dup begin
/FamilyName (DejaVu Serif) def
/FullName (DejaVu Serif) def
/Notice (Copyright (c) 2003 by Bitstream, Inc. All Rights Reserved. DejaVu changes are in public domain ) def
/Weight (Book) def
/Version (Version 2.35) def
/ItalicAngle 0.0 def
/isFixedPitch false def
/UnderlinePosition -130 def
/UnderlineThickness 90 def
end readonly def
/CharStrings 10 dict dup begin
/space{318 0 0 0 0 0 _sc
}_d
/comma{318 0 36 -135 221 111 _sc
36 -96 _m
66 -73 89 -47 103 -17 _c
117 13 125 49 125 93 _c
125 111 _l
221 111 _l
218 55 205 7 181 -32 _c
157 -71 122 -105 75 -135 _c
36 -96 _l
_cl}_d
/period{318 0 94 -13 224 116 _sc
94 51 _m
94 69 100 84 112 97 _c
124 109 140 116 159 116 _c
177 116 192 109 205 97 _c
217 84 224 69 224 51 _c
224 33 217 17 205 5 _c
192 -7 177 -13 159 -13 _c
140 -13 124 -7 112 5 _c
100 17 94 32 94 51 _c
_cl}_d
/zero{636 0 66 -13 570 742 _sc
318 34 _m
368 34 405 61 430 116 _c
454 170 467 253 467 364 _c
467 474 454 557 430 612 _c
405 666 368 694 318 694 _c
268 694 230 666 206 612 _c
181 557 169 474 169 364 _c
169 253 181 170 206 116 _c
230 61 268 34 318 34 _c
318 -13 _m
238 -13 176 20 132 86 _c
88 152 66 244 66 364 _c
66 483 88 576 132 642 _c
176 708 238 742 318 742 _c
397 742 459 708 503 642 _c
547 576 570 483 570 364 _c
570 244 547 152 503 86 _c
459 20 397 -13 318 -13 _c
_cl}_d
/one{636 0 122 0 494 742 _sc
142 0 _m
142 52 _l
269 52 _l
269 658 _l
122 563 _l
122 627 _l
300 742 _l
367 742 _l
367 52 _l
494 52 _l
494 0 _l
142 0 _l
_cl}_d
/two{{636 0 68 0 538 742 _sc
128 555 _m
73 555 _l
73 685 _l
107 703 142 717 178 727 _c
213 737 248 742 282 742 _c
358 742 418 723 462 687 _c
506 650 528 600 528 537 _c
528 465 478 380 378 281 _c
370 273 365 268 361 264 _c
177 80 _l
481 80 _l
481 170 _l
538 170 _l
538 0 _l
68 0 _l
68 53 _l
289 274 _l
337 322 372 367 393 408 _c
414 449 425 492 425 537 _c
}_e{425 586 412 624 386 652 _c
360 680 325 694 281 694 _c
234 694 198 682 173 659 _c
147 636 132 601 128 555 _c
_cl}_e}_d
/three{{636 0 76 -13 562 742 _sc
97 698 _m
135 712 171 723 206 731 _c
241 738 274 742 305 742 _c
376 742 432 726 472 696 _c
512 665 532 622 532 568 _c
532 524 518 487 490 458 _c
462 428 423 408 373 398 _c
433 389 479 367 512 332 _c
545 297 562 252 562 197 _c
562 129 539 77 493 41 _c
447 5 382 -13 296 -13 _c
258 -13 220 -9 184 -1 _c
148 6 112 18 76 35 _c
76 177 _l
}_e{131 177 _l
134 129 150 94 178 70 _c
206 46 246 34 298 34 _c
348 34 387 48 416 77 _c
444 106 459 146 459 196 _c
459 253 444 296 414 326 _c
384 355 341 370 284 370 _c
238 370 _l
238 420 _l
262 420 _l
319 420 362 431 390 455 _c
418 479 433 514 433 562 _c
433 604 421 637 398 660 _c
374 682 341 694 297 694 _c
253 694 218 683 194 662 _c
170 641 156 610 152 570 _c
}_e{97 570 _l
97 698 _l
_cl}_e}_d
/five{{636 0 85 -13 559 729 _sc
503 729 _m
503 649 _l
169 649 _l
169 440 _l
185 452 205 460 228 466 _c
250 472 276 475 304 475 _c
382 475 444 453 490 409 _c
536 365 559 306 559 231 _c
559 153 536 93 490 51 _c
444 8 379 -13 296 -13 _c
262 -13 228 -9 193 -1 _c
157 6 121 18 85 35 _c
85 177 _l
140 177 _l
143 130 158 94 184 70 _c
210 46 248 34 296 34 _c
}_e{347 34 386 51 414 85 _c
442 119 456 167 456 231 _c
456 294 442 342 415 376 _c
387 410 348 427 296 427 _c
266 427 240 421 218 411 _c
196 401 176 385 159 363 _c
117 363 _l
117 729 _l
503 729 _l
_cl}_e}_d
/y{{565 0 -2 -221 562 519 _sc
216 -94 _m
250 -8 _l
56 467 _l
-2 467 _l
-2 519 _l
236 519 _l
236 467 _l
153 467 _l
299 110 _l
445 467 _l
367 467 _l
367 519 _l
562 519 _l
562 467 _l
504 467 _l
266 -116 _l
250 -156 232 -184 212 -199 _c
192 -213 164 -221 128 -221 _c
112 -221 97 -219 81 -217 _c
65 -214 48 -210 32 -206 _c
32 -107 _l
78 -107 _l
80 -129 85 -144 95 -154 _c
}_e{104 -164 118 -169 138 -169 _c
156 -169 170 -164 181 -154 _c
192 -144 204 -124 216 -94 _c
_cl}_e}_d
/uni043C{778 0 36 0 742 519 _sc
36 0 _m
36 52 _l
117 52 _l
117 467 _l
36 467 _l
36 519 _l
247 519 _l
393 162 _l
539 519 _l
742 519 _l
742 467 _l
661 467 _l
661 52 _l
742 52 _l
742 0 _l
490 0 _l
490 52 _l
571 52 _l
571 453 _l
407 52 _l
341 52 _l
177 453 _l
177 52 _l
258 52 _l
258 0 _l
36 0 _l
_cl}_d
end readonly def

/BuildGlyph
 {exch begin
 CharStrings exch
 2 copy known not{pop /.notdef}if
 true 3 1 roll get exec
 end}_d

/BuildChar {
 1 index /Encoding get exch get
 1 index /BuildGlyph get exec
}_d

FontName currentdict end definefont pop
%!PS-Adobe-3.0 Resource-Font
%%Title: DejaVu Sans Oblique
%%Copyright: Copyright (c) 2003 by Bitstream, Inc. All Rights Reserved. Copyright (c) 2006 by Tavmjong Bah. All Rights Reserved. DejaVu changes are in public domain 
%%Creator: Converted from TrueType to type 3 by PPR
25 dict begin
/_d{bind def}bind def
/_m{moveto}_d
/_l{lineto}_d
/_cl{closepath eofill}_d
/_c{curveto}_d
/_sc{7 -1 roll{setcachedevice}{pop pop pop pop pop pop}ifelse}_d
/_e{exec}_d
/FontName /DejaVuSans-Oblique def
/PaintType 0 def
/FontMatrix[.001 0 0 .001 0 0]def
/FontBBox[-1016 -350 1659 1068]def
/FontType 3 def
/Encoding [ /epsilon ] def
/FontInfo 10 dict dup begin
/FamilyName (DejaVu Sans) def
/FullName (DejaVu Sans Oblique) def
/Notice (Copyright (c) 2003 by Bitstream, Inc. All Rights Reserved. Copyright (c) 2006 by Tavmjong Bah. All Rights Reserved. DejaVu changes are in public domain ) def
/Weight (Oblique) def
/Version (Version 2.35) def
/ItalicAngle -11.0 def
/isFixedPitch false def
/UnderlinePosition -130 def
/UnderlineThickness 90 def
end readonly def
/CharStrings 1 dict dup begin
/epsilon{{541 0 39 -13 506 561 _sc
197 295 _m
162 303 137 317 122 338 _c
110 353 104 371 104 391 _c
104 446 130 490 184 522 _c
225 548 278 561 342 561 _c
366 561 392 559 419 555 _c
446 551 475 545 505 537 _c
490 456 _l
460 465 432 472 407 476 _c
381 480 357 482 334 482 _c
295 482 263 474 238 460 _c
207 442 192 420 192 394 _c
192 376 200 362 216 350 _c
234 336 263 329 301 329 _c
}_e{376 329 _l
362 254 _l
290 254 _l
245 254 209 245 183 229 _c
147 207 129 178 129 143 _c
129 121 138 102 158 88 _c
182 70 218 61 268 61 _c
298 61 327 63 357 69 _c
385 75 412 85 438 97 _c
422 13 _l
390 4 361 -2 333 -6 _c
305 -10 277 -13 251 -13 _c
173 -13 117 1 81 30 _c
53 52 39 83 39 122 _c
39 174 57 216 94 248 _c
120 271 155 287 197 295 _c
_cl}_e}_d
end readonly def

/BuildGlyph
 {exch begin
 CharStrings exch
 2 copy known not{pop /.notdef}if
 true 3 1 roll get exec
 end}_d

/BuildChar {
 1 index /Encoding get exch get
 1 index /BuildGlyph get exec
}_d

FontName currentdict end definefont pop
%!PS-Adobe-3.0 Resource-Font
%%Title: DejaVu Sans
%%Copyright: Copyright (c) 2003 by Bitstream, Inc. All Rights Reserved. Copyright (c) 2006 by Tavmjong Bah. All Rights Reserved. DejaVu changes are in public domain 
%%Creator: Converted from TrueType to type 3 by PPR
25 dict begin
/_d{bind def}bind def
/_m{moveto}_d
/_l{lineto}_d
/_cl{closepath eofill}_d
/_c{curveto}_d
/_sc{7 -1 roll{setcachedevice}{pop pop pop pop pop pop}ifelse}_d
/_e{exec}_d
/FontName /DejaVuSans def
/PaintType 0 def
/FontMatrix[.001 0 0 .001 0 0]def
/FontBBox[-1021 -463 1793 1232]def
/FontType 3 def
/Encoding [ /m /n /o ] def
/FontInfo 10 dict dup begin
/FamilyName (DejaVu Sans) def
/FullName (DejaVu Sans) def
/Notice (Copyright (c) 2003 by Bitstream, Inc. All Rights Reserved. Copyright (c) 2006 by Tavmjong Bah. All Rights Reserved. DejaVu changes are in public domain ) def
/Weight (Book) def
/Version (Version 2.35) def
/ItalicAngle 0.0 def
/isFixedPitch false def
/UnderlinePosition -130 def
/UnderlineThickness 90 def
end readonly def
/CharStrings 3 dict dup begin
/m{{974 0 91 0 889 560 _sc
520 442 _m
542 482 569 511 600 531 _c
631 550 668 560 711 560 _c
767 560 811 540 842 500 _c
873 460 889 403 889 330 _c
889 0 _l
799 0 _l
799 327 _l
799 379 789 418 771 444 _c
752 469 724 482 686 482 _c
639 482 602 466 575 435 _c
548 404 535 362 535 309 _c
535 0 _l
445 0 _l
445 327 _l
445 379 435 418 417 444 _c
398 469 369 482 331 482 _c
}_e{285 482 248 466 221 435 _c
194 404 181 362 181 309 _c
181 0 _l
91 0 _l
91 547 _l
181 547 _l
181 462 _l
201 495 226 520 255 536 _c
283 552 317 560 357 560 _c
397 560 430 550 458 530 _c
486 510 506 480 520 442 _c
_cl}_e}_d
/n{634 0 91 0 549 560 _sc
549 330 _m
549 0 _l
459 0 _l
459 327 _l
459 379 448 417 428 443 _c
408 469 378 482 338 482 _c
289 482 251 466 223 435 _c
195 404 181 362 181 309 _c
181 0 _l
91 0 _l
91 547 _l
181 547 _l
181 462 _l
202 494 227 519 257 535 _c
286 551 320 560 358 560 _c
420 560 468 540 500 501 _c
532 462 549 405 549 330 _c
_cl}_d
/o{612 0 55 -13 557 560 _sc
306 484 _m
258 484 220 465 192 427 _c
164 389 150 338 150 273 _c
150 207 163 156 191 118 _c
219 80 257 62 306 62 _c
354 62 392 80 420 118 _c
448 156 462 207 462 273 _c
462 337 448 389 420 427 _c
392 465 354 484 306 484 _c
306 560 _m
384 560 445 534 490 484 _c
534 433 557 363 557 273 _c
557 183 534 113 490 63 _c
445 12 384 -13 306 -13 _c
227 -13 165 12 121 63 _c
77 113 55 183 55 273 _c
55 363 77 433 121 484 _c
165 534 227 560 306 560 _c
_cl}_d
end readonly def

/BuildGlyph
 {exch begin
 CharStrings exch
 2 copy known not{pop /.notdef}if
 true 3 1 roll get exec
 end}_d

/BuildChar {
 1 index /Encoding get exch get
 1 index /BuildGlyph get exec
}_d

FontName currentdict end definefont pop
end
%%EndProlog
mpldict begin
190.8 309.6 translate
230.4 172.8 0 0 clipbox
gsave
0 0 m
230.4 0 l
230.4 172.8 l
0 172.8 l
cl
1.000 setgray
fill
grestore
gsave
29.952 19.008 m
214.272 19.008 l
214.272 158.976 l
29.952 158.976 l
cl
1.000 setgray
fill
grestore
0.800 setlinewidth
1 setlinejoin
0 setlinecap
[] 0 setdash
0.000 setgray
gsave
/o {
gsave
newpath
translate
0.8 setlinewidth
1 setlinejoin
0 setlinecap
0 0 m
0 -3.5 l

gsave
0.000 setgray
fill
grestore
stroke
grestore
} bind def
29.952 19.008 o
grestore
/DejaVuSerif findfont
9.000 scalefont
setfont
gsave
27.084813 5.164250 translate
0.000000 rotate
0.000000 0.000000 m /zero glyphshow
grestore
gsave
/o {
gsave
newpath
translate
0.8 setlinewidth
1 setlinejoin
0 setlinecap
0 0 m
0 -3.5 l

gsave
0.000 setgray
fill
grestore
stroke
grestore
} bind def
76.032 19.008 o
grestore
gsave
73.164813 5.164250 translate
0.000000 rotate
0.000000 0.000000 m /one glyphshow
grestore
gsave
/o {
gsave
newpath
translate
0.8 setlinewidth
1 setlinejoin
0 setlinecap
0 0 m
0 -3.5 l

gsave
0.000 setgray
fill
grestore
stroke
grestore
} bind def
122.112 19.008 o
grestore
gsave
119.244813 5.164250 translate
0.000000 rotate
0.000000 0.000000 m /two glyphshow
grestore
gsave
/o {
gsave
newpath
translate
0.8 setlinewidth
1 setlinejoin
0 setlinecap
0 0 m
0 -3.5 l

gsave
0.000 setgray
fill
grestore
stroke
grestore
} bind def
168.192 19.008 o
grestore
gsave
165.324813 5.164250 translate
0.000000 rotate
0.000000 0.000000 m /three glyphshow
grestore
gsave
201.881375 5.289250 translate
0.000000 rotate
0.000000 0.000000 m /y glyphshow
5.068848 0.000000 m /comma glyphshow
7.929688 0.000000 m /space glyphshow
10.790527 0.000000 m /uni043C glyphshow
17.791016 0.000000 m /uni043C glyphshow
grestore
gsave
/o {
gsave
newpath
translate
0.8 setlinewidth
1 setlinejoin
0 setlinecap
0 0 m
-3.5 0 l

gsave
0.000 setgray
fill
grestore
stroke
grestore
} bind def
29.952 19.008 o
grestore
gsave
8.623875 15.586125 translate
0.000000 rotate
0.000000 0.000000 m /zero glyphshow
5.726074 0.000000 m /period glyphshow
8.586914 0.000000 m /zero glyphshow
grestore
gsave
/o {
gsave
newpath
translate
0.8 setlinewidth
1 setlinejoin
0 setlinecap
0 0 m
-3.5 0 l

gsave
0.000 setgray
fill
grestore
stroke
grestore
} bind def
29.952 54 o
grestore
gsave
8.623875 50.578125 translate
0.000000 rotate
0.000000 0.000000 m /zero glyphshow
5.726074 0.000000 m /period glyphshow
8.586914 0.000000 m /five glyphshow
grestore
gsave
/o {
gsave
newpath
translate
0.8 setlinewidth
1 setlinejoin
0 setlinecap
0 0 m
-3.5 0 l

gsave
0.000 setgray
fill
grestore
stroke
grestore
} bind def
29.952 88.992 o
grestore
gsave
8.623875 85.570125 translate
0.000000 rotate
0.000000 0.000000 m /one glyphshow
5.726074 0.000000 m /period glyphshow
8.586914 0.000000 m /zero glyphshow
grestore
gsave
/o {
gsave
newpath
translate
0.8 setlinewidth
1 setlinejoin
0 setlinecap
0 0 m
-3.5 0 l

gsave
0.000 setgray
fill
grestore
stroke
grestore
} bind def
29.952 123.984 o
grestore
gsave
8.623875 120.562125 translate
0.000000 rotate
0.000000 0.000000 m /one glyphshow
5.726074 0.000000 m /period glyphshow
8.586914 0.000000 m /five glyphshow
grestore
gsave
12.952000 160.976000 translate
0.000000 rotate
/DejaVuSans-Oblique findfont
9.0 scalefont
setfont
0.000000 0.953125 moveto
/epsilon glyphshow

/DejaVuSans findfont
6.3 scalefont
setfont
4.864746 -0.523438 moveto
/n glyphshow

8.857617 -0.523438 moveto
/o glyphshow

12.712061 -0.523438 moveto
/m glyphshow


grestore
1.000 setlinewidth
1 setlinecap
gsave
184.3 140 29.95 19.01 clipbox
29.952 19.008 m
29.952 158.836396 l
29.952 158.836396 l
stroke
grestore
gsave
184.3 140 29.95 19.01 clipbox
31.7952 19.008 m
31.685073 39.02422 l
31.420714 55.121403 l
31.524047 69.536482 l
31.493974 80.174982 l
31.28132 85.7731 l
30.90552 89.692079 l
30.537893 93.611058 l
30.535408 101.309582 l
30.650532 120.625609 l
31.527146 158.836396 l
31.527146 158.836396 l
stroke
grestore
gsave
184.3 140 29.95 19.01 clipbox
33.6384 19.008 m
33.531851 35.94481 l
33.08384 46.022608 l
32.913804 53.160431 l
32.96465 61.140789 l
33.1276 77.095572 l
32.925682 82.414822 l
32.597704 85.7731 l
32.099747 88.573642 l
31.12982 93.471624 l
31.116428 96.272166 l
31.236565 116.988464 l
31.687795 127.34513 l
33.032088 156.317688 l
33.123504 158.836396 l
33.123504 158.836396 l
stroke
grestore
gsave
184.3 140 29.95 19.01 clipbox
35.4816 19.008 m
35.375096 34.265671 l
35.034363 40.145623 l
34.515596 49.102018 l
34.427367 54.98197 l
34.561207 62.259226 l
34.796543 74.297997 l
34.652514 79.335413 l
34.346661 82.975524 l
33.917882 85.633666 l
33.310619 88.01294 l
31.710338 93.611058 l
31.699343 96.272166 l
31.824579 114.888058 l
32.269785 122.447148 l
34.761784 158.836396 l
34.761784 158.836396 l
stroke
grestore
gsave
184.3 140 29.95 19.01 clipbox
37.3248 19.008 m
37.218277 32.8654 l
36.897683 37.766349 l
36.086029 48.82315 l
35.998365 54.002967 l
36.133499 60.158819 l
36.500347 73.458428 l
36.354929 77.935142 l
36.030365 81.435819 l
35.573789 84.093961 l
34.968285 86.333801 l
34.078329 88.713076 l
32.375524 93.053322 l
32.281559 94.032326 l
32.268888 109.847675 l
32.576367 115.588193 l
33.210971 122.865449 l
36.008855 152.538142 l
36.461702 158.836396 l
36.461702 158.836396 l
stroke
grestore
gsave
184.3 140 29.95 19.01 clipbox
39.168 19.008 m
39.059426 31.60753 l
38.734918 36.084244 l
37.715604 48.123015 l
37.635048 52.742129 l
37.774116 58.200813 l
38.282829 72.758292 l
38.130731 76.677271 l
37.783396 80.035548 l
37.291647 82.69369 l
36.65139 84.93353 l
35.82448 87.033937 l
34.520349 89.692079 l
33.114047 92.632054 l
32.887712 93.611058 l
32.866954 95.293163 l
32.785851 105.228561 l
32.765432 105.928696 l
32.975022 110.829645 l
33.440005 116.145928 l
34.382327 123.986853 l
36.842125 144.000049 l
37.909907 154.917417 l
38.241481 158.836396 l
38.241481 158.836396 l
stroke
grestore
gsave
184.3 140 29.95 19.01 clipbox
41.0112 19.008 m
40.903551 30.346692 l
40.585019 34.405105 l
39.42122 46.862178 l
39.348638 51.202424 l
39.501072 56.23984 l
40.173145 71.918723 l
40.000064 75.555868 l
39.639279 78.635277 l
39.105944 81.296386 l
38.430206 83.533259 l
37.563838 85.633666 l
36.328635 88.01294 l
33.594347 93.053322 l
33.457812 93.892892 l
33.456966 97.251169 l
33.385699 105.228561 l
33.364771 105.789262 l
33.603732 109.568808 l
34.137298 114.327356 l
35.197745 121.465178 l
37.963033 139.802202 l
39.154348 149.458733 l
40.117399 158.836396 l
40.117399 158.836396 l
stroke
grestore
gsave
184.3 140 29.95 19.01 clipbox
42.8544 19.008 m
42.751007 29.085855 l
42.430426 32.8654 l
41.216615 44.764738 l
41.137589 48.82315 l
41.276898 53.302831 l
41.732918 59.879952 l
42.174575 67.017774 l
42.201357 71.076187 l
42.00073 74.437431 l
41.600223 77.377407 l
41.039017 79.896115 l
40.314263 82.135955 l
39.403022 84.233395 l
38.107048 86.612669 l
36.061618 89.834479 l
34.446149 92.492621 l
34.095643 93.471624 l
34.040389 94.453594 l
34.168149 103.97069 l
34.119055 104.810259 l
34.009528 105.789262 l
34.323244 108.868672 l
35.002774 113.348353 l
36.545484 121.604612 l
38.850093 134.343519 l
40.283866 143.721181 l
41.478029 153.098844 l
42.103392 158.836396 l
42.103392 158.836396 l
stroke
grestore
gsave
184.3 140 29.95 19.01 clipbox
44.6976 19.008 m
44.594256 27.967418 l
44.285095 31.325695 l
43.074506 42.243063 l
42.992165 46.022608 l
43.134819 50.223421 l
43.567135 55.682105 l
44.364134 65.338636 l
44.434056 69.118181 l
44.272258 72.337024 l
43.908938 75.137566 l
43.361434 77.656274 l
42.657991 79.896115 l
41.773711 81.996521 l
40.581987 84.233395 l
38.890376 86.894503 l
34.82216 93.053322 l
34.652149 93.753458 l
34.633159 95.293163 l
34.754871 102.291551 l
34.803749 104.949693 l
34.700283 105.510395 l
35.100116 108.029103 l
36.041415 112.648217 l
40.099498 131.124675 l
41.574919 139.380934 l
42.763961 147.218892 l
43.944056 156.457121 l
44.210777 158.836396 l
44.210777 158.836396 l
stroke
grestore
gsave
184.3 140 29.95 19.01 clipbox
46.5408 19.008 m
46.432284 26.988415 l
46.114435 30.067825 l
44.973007 39.445488 l
44.884624 42.803765 l
45.012381 46.443876 l
45.402818 50.923557 l
46.859439 65.478069 l
46.862543 68.696913 l
46.652542 71.497455 l
46.247441 74.016163 l
45.638475 76.395437 l
44.831045 78.635277 l
43.839758 80.735684 l
42.53371 82.975524 l
40.624288 85.7731 l
35.385244 93.192756 l
35.236217 93.892892 l
35.228978 95.850898 l
35.353012 100.89128 l
35.660963 103.688856 l
35.752676 104.670826 l
35.513595 105.370961 l
37.588821 113.066519 l
39.590995 120.346741 l
41.55581 128.463567 l
42.897232 135.043654 l
44.234427 142.599778 l
45.553323 151.559139 l
46.448181 158.836396 l
46.448181 158.836396 l
stroke
grestore
gsave
184.3 140 29.95 19.01 clipbox
48.384 19.008 m
48.274164 26.006445 l
47.952043 28.806988 l
46.880736 36.784379 l
46.790484 39.724355 l
46.921615 42.943199 l
47.30842 46.722744 l
48.151264 52.463262 l
49.255797 60.158819 l
49.574857 63.938364 l
49.620227 67.017774 l
49.440717 69.678882 l
49.059976 72.058157 l
48.472622 74.297997 l
47.692904 76.395437 l
46.670245 78.495843 l
45.313748 80.735684 l
43.422345 83.393825 l
40.121139 87.594639 l
36.550727 92.213753 l
36.00238 93.192756 l
35.835721 93.892892 l
35.826171 95.57203 l
35.957708 99.630443 l
36.287216 102.009717 l
36.77408 104.810259 l
36.572561 105.228561 l
36.926604 106.06813 l
40.980627 117.967467 l
42.904322 124.826422 l
44.146103 130.003272 l
45.742543 137.84123 l
46.836224 144.281883 l
48.174771 153.520112 l
48.821683 158.836396 l
48.821683 158.836396 l
stroke
grestore
gsave
184.3 140 29.95 19.01 clipbox
50.2272 19.008 m
50.121529 25.027369 l
49.777565 27.688551 l
48.795593 34.265671 l
48.698348 36.92678 l
48.823568 39.584921 l
49.213089 42.803765 l
49.991185 47.144012 l
52.27986 59.179816 l
52.659501 62.680494 l
52.753384 65.478069 l
52.617031 67.999744 l
52.270594 70.236618 l
51.709353 72.337024 l
50.946915 74.297997 l
49.936405 76.256003 l
48.578855 78.35641 l
46.64976 80.875118 l
42.862274 85.354798 l
37.827311 91.374184 l
36.762013 92.913889 l
36.485051 93.611058 l
36.422806 94.453594 l
36.542605 98.230172 l
36.82767 100.051711 l
37.391241 102.149151 l
39.268738 107.750235 l
42.553654 115.588193 l
43.955612 119.925473 l
45.705935 125.944859 l
46.783723 130.563973 l
48.514548 139.102067 l
49.734229 146.661157 l
50.690544 153.520112 l
51.335101 158.836396 l
51.335101 158.836396 l
stroke
grestore
gsave
184.3 140 29.95 19.01 clipbox
52.0704 19.008 m
51.961923 24.189068 l
51.639385 26.427713 l
50.695201 32.165265 l
50.607819 34.405105 l
50.748306 36.784379 l
51.143326 39.445488 l
51.880734 42.803765 l
53.478413 48.82315 l
55.1522 55.400271 l
55.919666 59.31925 l
56.298807 62.39866 l
56.393804 64.920334 l
56.258291 67.157208 l
55.922347 69.118181 l
55.388194 70.936753 l
54.672748 72.615892 l
53.719589 74.297997 l
52.418775 76.116569 l
50.616603 78.216976 l
46.993949 81.996521 l
42.138046 87.173371 l
38.62491 91.231783 l
37.39871 92.913889 l
37.100245 93.611058 l
37.030063 94.453594 l
37.164217 97.251169 l
37.485359 98.790874 l
38.086875 100.470012 l
39.320257 103.131121 l
42.798936 109.990076 l
44.113123 112.648217 l
45.22966 115.448759 l
46.867153 120.346741 l
48.235435 124.826422 l
49.16808 128.745401 l
51.193363 138.680799 l
52.717709 148.47973 l
53.516335 154.917417 l
53.990044 158.836396 l
53.990044 158.836396 l
stroke
grestore
gsave
184.3 140 29.95 19.01 clipbox
53.9136 19.008 m
53.805606 23.350785 l
53.493714 25.309277 l
52.600551 30.207259 l
52.522456 32.165265 l
52.665308 34.126238 l
53.064025 36.366078 l
53.811677 39.163653 l
55.154595 43.225033 l
58.906025 54.281834 l
59.905494 58.061379 l
60.464593 61.001355 l
60.723796 63.520063 l
60.727842 65.617503 l
60.526029 67.439042 l
60.123765 69.118181 l
59.529112 70.657886 l
58.766222 72.058157 l
57.766097 73.458428 l
56.384918 74.998132 l
54.425738 76.816705 l
45.039236 85.072964 l
41.793977 88.434208 l
38.969325 91.653051 l
37.96137 93.053322 l
37.690292 93.753458 l
37.652286 94.593027 l
37.808704 96.4116 l
38.122372 97.533003 l
38.71511 98.790874 l
39.938695 100.751847 l
46.129615 110.268943 l
47.131635 112.226949 l
48.085559 114.606223 l
50.466134 121.604612 l
51.309299 124.544588 l
52.097647 128.184699 l
54.362218 140.220504 l
56.466559 156.178254 l
56.78497 158.836396 l
56.78497 158.836396 l
stroke
grestore
gsave
184.3 140 29.95 19.01 clipbox
55.7568 19.008 m
55.654206 22.510544 l
55.337696 24.32761 l
54.513301 28.388686 l
54.444166 30.067825 l
54.595881 31.746963 l
54.984793 33.565536 l
55.703291 35.805376 l
56.943076 38.884786 l
59.900814 45.464873 l
62.371602 51.202424 l
63.818397 55.121403 l
64.776676 58.340247 l
65.390798 61.140789 l
65.720364 63.659497 l
65.782857 65.759903 l
65.621931 67.578476 l
65.267595 69.118181 l
64.708579 70.518452 l
63.954869 71.776322 l
63.033501 72.897726 l
61.848737 74.016163 l
60.191163 75.277 l
57.576395 76.956139 l
51.56593 80.735684 l
48.725174 82.83609 l
46.077926 85.072964 l
43.285508 87.734072 l
40.386783 90.813482 l
38.79455 92.771488 l
38.363432 93.611058 l
38.288564 94.311193 l
38.45962 95.57203 l
38.773615 96.4116 l
39.394611 97.390603 l
40.614876 98.790874 l
43.787385 102.291551 l
49.581769 109.568808 l
50.403124 111.108512 l
51.178134 113.066519 l
52.266823 116.567196 l
53.266521 119.367738 l
54.20017 122.165314 l
54.7788 124.684022 l
57.120413 137.422928 l
58.06207 144.281883 l
58.587243 148.200862 l
59.71213 158.836396 l
59.71213 158.836396 l
stroke
grestore
gsave
184.3 140 29.95 19.01 clipbox
57.6 19.008 m
57.493184 21.81246 l
57.161842 23.48857 l
56.433698 26.706581 l
56.374704 28.106852 l
56.527051 29.507123 l
56.920762 31.046828 l
57.62353 32.8654 l
58.860053 35.387075 l
61.502797 40.145623 l
64.700209 46.022608 l
66.356028 49.523286 l
67.631132 52.742129 l
68.605616 55.821539 l
69.341202 58.900949 l
69.849919 61.980358 l
70.136236 65.059768 l
70.178181 67.71791 l
70.013332 69.678882 l
69.67126 71.218587 l
69.210251 72.337024 l
68.570321 73.316027 l
67.767089 74.155597 l
66.658682 74.998132 l
64.950956 75.977136 l
62.199706 77.235006 l
54.194571 80.735684 l
51.390556 82.275389 l
48.818592 83.954527 l
46.445695 85.7731 l
43.91475 88.01294 l
41.402503 90.534615 l
39.590813 92.632054 l
39.092708 93.471624 l
38.986898 94.032326 l
39.114492 94.732461 l
39.454278 95.432597 l
40.057388 96.132732 l
41.255826 97.111735 l
45.736906 100.470012 l
47.447492 102.149151 l
50.671855 105.510395 l
52.864859 107.607835 l
53.712827 108.729238 l
54.35782 109.990076 l
54.915637 111.669214 l
56.767363 118.106901 l
57.710501 120.625609 l
58.128669 122.447148 l
58.520334 125.384157 l
59.01209 128.884835 l
60.229751 135.043654 l
61.158909 143.16048 l
61.604508 146.379323 l
61.897349 150.859004 l
62.2044 153.938414 l
62.723635 158.418094 l
62.751247 158.836396 l
62.751247 158.836396 l
stroke
grestore
gsave
184.3 140 29.95 19.01 clipbox
59.4432 19.008 m
59.344173 21.107997 l
59.004505 22.648592 l
58.339448 25.309277 l
58.329678 26.567147 l
58.560256 27.827984 l
59.067347 29.228256 l
59.937122 30.907394 l
61.537018 33.426102 l
66.487629 40.985192 l
67.997449 43.782768 l
69.182111 46.443876 l
70.112291 49.102018 l
70.805596 51.763126 l
71.329188 54.700135 l
71.667 57.921946 l
71.844507 61.980358 l
71.882221 69.95775 l
71.781335 74.155597 l
71.572723 75.277 l
71.25969 75.977136 l
70.809965 76.534871 l
70.086655 77.095572 l
69.022546 77.656274 l
67.21105 78.35641 l
63.588939 79.474847 l
57.205215 81.435819 l
53.881482 82.69369 l
51.181085 83.954527 l
48.732723 85.354798 l
46.498463 86.894503 l
44.262853 88.713076 l
42.035938 90.813482 l
40.402826 92.632054 l
39.90939 93.471624 l
39.85697 93.892892 l
39.988818 94.311193 l
40.490242 94.871895 l
41.348566 95.432597 l
43.372115 96.4116 l
47.552379 98.372572 l
49.340569 99.491009 l
50.911214 100.751847 l
52.443985 102.291551 l
54.010594 103.831256 l
55.722558 105.089127 l
57.747678 106.628832 l
58.512014 107.468401 l
58.981443 108.30797 l
59.258276 109.28994 l
59.448402 110.969079 l
59.826076 114.46679 l
60.132964 115.727627 l
60.679749 116.988464 l
61.693953 119.225338 l
62.017703 120.486175 l
62.166262 122.02588 l
62.521936 127.905832 l
63.020253 129.724404 l
63.569547 131.964245 l
63.743663 133.643383 l
63.829029 137.422928 l
64.014785 139.941636 l
64.491944 142.32091 l
64.855072 144.700185 l
64.950984 147.218892 l
65.067916 151.280272 l
65.34331 153.377712 l
65.722119 156.03882 l
65.858609 158.418094 l
65.859522 158.836396 l
65.859522 158.836396 l
stroke
grestore
gsave
184.3 140 29.95 19.01 clipbox
61.2864 19.008 m
61.217357 20.410504 l
60.927951 21.670319 l
60.24196 24.189068 l
60.274926 25.027369 l
60.543495 26.006445 l
61.146335 27.267283 l
62.171826 28.806988 l
64.282621 31.468096 l
66.878878 34.826373 l
68.443103 37.205647 l
69.651138 39.445488 l
70.599174 41.685328 l
71.305652 43.925168 l
71.824282 46.304442 l
72.168527 48.962584 l
72.326793 51.90256 l
72.3456 57.07941 l
72.256879 78.774711 l
71.996778 79.335413 l
71.562312 79.756681 l
70.832159 80.174982 l
69.315485 80.735684 l
66.121757 81.575253 l
57.080886 83.815093 l
53.608426 84.93353 l
50.844722 86.054934 l
48.370152 87.312804 l
46.140511 88.713076 l
44.11177 90.25278 l
42.413227 91.792485 l
41.455264 92.913889 l
41.226921 93.471624 l
41.332956 93.892892 l
41.781508 94.311193 l
42.955221 94.732461 l
47.556212 95.993298 l
51.328093 97.111735 l
53.358909 97.951305 l
54.823118 98.790874 l
56.072738 99.769877 l
57.321592 101.030714 l
59.183421 102.991687 l
60.279855 103.688856 l
64.1941 105.928696 l
64.840951 106.628832 l
65.063662 107.189533 l
65.071089 107.889669 l
64.77278 109.008106 l
64.305157 110.829645 l
64.157285 112.226949 l
64.199812 114.048488 l
64.382532 114.888058 l
64.786745 115.727627 l
66.351422 118.385769 l
66.573684 119.367738 l
66.569005 120.346741 l
66.052919 125.805425 l
66.21119 127.066263 l
66.641299 128.324133 l
67.396298 130.42454 l
67.543553 131.403543 l
67.547546 132.943248 l
67.274344 136.583359 l
67.339237 138.823199 l
67.604187 140.08107 l
68.337484 143.299913 l
68.391643 144.839618 l
68.252474 146.940025 l
68.196484 149.040431 l
68.304367 151.280272 l
69.069328 155.899386 l
69.059538 157.439091 l
68.969918 158.836396 l
68.969918 158.836396 l
stroke
grestore
gsave
184.3 140 29.95 19.01 clipbox
63.1296 19.008 m
63.106356 19.853364 l
62.840607 20.9703 l
62.24075 23.071168 l
62.289463 23.767908 l
62.562324 24.469725 l
63.23585 25.44871 l
64.703536 27.127849 l
68.114445 30.907394 l
69.520282 32.8654 l
70.556568 34.686939 l
71.403488 36.644945 l
72.012626 38.605918 l
72.466324 40.845759 l
72.722647 43.225033 l
72.8064 46.304442 l
72.709893 82.135955 l
72.449059 82.554256 l
71.886239 82.975524 l
70.939 83.393825 l
69.057275 83.954527 l
64.754811 84.93353 l
58.128986 86.473235 l
54.282704 87.594639 l
51.245693 88.713076 l
48.82597 89.834479 l
46.883078 90.952916 l
45.34465 92.071353 l
44.657046 92.771488 l
44.453635 93.192756 l
44.48269 93.471624 l
44.723507 93.753458 l
45.257779 94.032326 l
45.676647 94.171759 l
58.861252 96.4116 l
60.641457 96.972301 l
61.707572 97.533003 l
62.735926 98.372572 l
63.357543 99.212142 l
64.463041 101.030714 l
65.022036 101.870283 l
65.524784 102.291551 l
66.580633 102.849287 l
68.497219 103.549422 l
71.126666 104.531392 l
71.84031 104.949693 l
72.309346 105.510395 l
72.475607 106.06813 l
72.408704 106.628832 l
72.131666 107.0501 l
69.478198 109.708241 l
69.078639 110.547811 l
68.853582 111.247946 l
68.680405 112.787651 l
68.79188 114.048488 l
69.08799 114.606223 l
69.721197 115.306359 l
71.325085 116.846064 l
71.548014 117.267332 l
71.700026 118.106901 l
71.645248 118.94647 l
71.293788 119.78604 l
70.424335 121.747012 l
69.859033 124.684022 l
69.881794 125.805425 l
70.354907 127.066263 l
70.779676 127.763431 l
71.478775 128.884835 l
71.856598 130.563973 l
71.603545 131.964245 l
71.466212 132.382546 l
71.419352 132.66438 l
71.247481 133.082681 l
71.052875 133.782817 l
70.739954 136.022657 l
70.752741 138.123064 l
70.888832 138.680799 l
71.491928 140.08107 l
71.676324 140.362904 l
71.833487 140.920639 l
72.032389 141.202474 l
72.112645 142.460344 l
72.141972 144.000049 l
71.922775 144.421317 l
71.741139 145.260886 l
71.663172 146.100456 l
71.515918 146.521724 l
71.439876 147.500727 l
71.426566 150.298302 l
71.597664 150.71957 l
71.645847 151.137871 l
71.834957 151.419706 l
72.030582 151.980407 l
72.140509 152.259275 l
72.211224 152.819977 l
72.45651 153.098844 l
72.500932 155.059817 l
72.51038 156.457121 l
72.28116 156.878389 l
72.152301 157.857392 l
72.053872 158.27866 l
72.032858 158.836396 l
72.032858 158.836396 l
stroke
grestore
gsave
184.3 140 29.95 19.01 clipbox
64.9728 19.008 m
65.014734 19.432281 l
64.818837 20.410504 l
64.428334 21.949465 l
64.481927 22.510544 l
64.735773 23.071168 l
65.311161 23.767908 l
67.154181 25.44871 l
68.972404 27.267283 l
70.215104 28.806988 l
71.181254 30.346692 l
71.966635 32.025831 l
72.563082 33.84737 l
72.970759 35.805376 l
73.208286 38.045217 l
73.2672 40.845759 l
73.162243 85.9155 l
72.923114 86.333801 l
72.45334 86.755069 l
71.404922 87.312804 l
69.463162 88.01294 l
64.070434 89.552645 l
59.980901 90.813482 l
57.115251 91.931919 l
56.103244 92.492621 l
55.680506 92.913889 l
55.676382 93.192756 l
55.995634 93.471624 l
56.877988 93.753458 l
59.393031 94.171759 l
71.385407 95.850898 l
72.422783 96.4116 l
72.667035 96.832868 l
72.647242 97.111735 l
72.525526 97.533003 l
72.394481 98.230172 l
72.118491 98.930308 l
72.183106 100.609446 l
72.418731 101.451982 l
72.9472 101.870283 l
73.198778 102.149151 l
73.2672 102.709853 l
73.15644 111.669214 l
73.120144 112.648217 l
73.163957 113.066519 l
73.2672 158.836396 l
73.2672 158.836396 l
stroke
grestore
gsave
184.3 140 29.95 19.01 clipbox
66.816 19.008 m
66.94137 19.152345 l
66.958951 19.293063 l
66.991482 21.528583 l
67.400653 22.092154 l
68.338507 22.929062 l
70.082215 24.469725 l
70.994503 25.588144 l
71.889708 26.988415 l
72.608565 28.52812 l
73.147652 30.207259 l
73.527908 32.165265 l
73.706496 34.265671 l
73.728 37.766349 l
73.728 158.836396 l
73.728 158.836396 l
stroke
grestore
gsave
184.3 140 29.95 19.01 clipbox
68.6592 19.008 m
68.928186 19.152345 l
69.062688 20.132023 l
69.373653 20.693382 l
70.049405 21.393701 l
71.970972 23.209033 l
72.62439 24.189068 l
73.155236 25.44871 l
73.728842 27.406716 l
74.064475 29.367689 l
74.187445 31.468096 l
74.1888 53.581699 l
74.1888 158.836396 l
74.1888 158.836396 l
stroke
grestore
gsave
184.3 140 29.95 19.01 clipbox
70.5024 19.008 m
70.861462 19.152345 l
71.071198 19.853364 l
71.612717 20.55458 l
73.318961 22.510544 l
73.82746 23.48857 l
74.210196 24.74885 l
74.542184 26.848981 l
74.649592 28.946421 l
74.6496 158.836396 l
74.6496 158.836396 l
stroke
grestore
gsave
184.3 140 29.95 19.01 clipbox
72.3456 19.008 m
72.681199 19.152345 l
72.926249 19.853364 l
74.642876 23.071168 l
74.944828 24.469725 l
75.105317 26.28828 l
75.1104 32.025831 l
75.1104 158.836396 l
75.1104 158.836396 l
stroke
grestore
gsave
184.3 140 29.95 19.01 clipbox
74.1888 19.008 m
74.460158 19.152345 l
74.520773 19.712914 l
75.450783 23.63008 l
75.5712 25.727578 l
75.5712 158.836396 l
75.5712 158.836396 l
stroke
grestore
gsave
184.3 140 29.95 19.01 clipbox
76.032 19.008 m
76.032 158.836396 l
76.032 158.836396 l
stroke
grestore
gsave
184.3 140 29.95 19.01 clipbox
77.8752 19.008 m
77.603842 19.152345 l
77.543227 19.712914 l
76.613217 23.63008 l
76.4928 25.727578 l
76.4928 158.836396 l
76.4928 158.836396 l
stroke
grestore
gsave
184.3 140 29.95 19.01 clipbox
79.7184 19.008 m
79.382801 19.152345 l
79.137751 19.853364 l
77.421124 23.071168 l
77.119172 24.469725 l
76.958681 26.28828 l
76.9536 32.025831 l
76.9536 158.836396 l
76.9536 158.836396 l
stroke
grestore
gsave
184.3 140 29.95 19.01 clipbox
81.5616 19.008 m
81.202538 19.152345 l
80.992802 19.853364 l
80.451283 20.55458 l
78.745039 22.510544 l
78.23654 23.48857 l
77.853802 24.74885 l
77.521749 26.848981 l
77.4144 28.946421 l
77.4144 158.836396 l
77.4144 158.836396 l
stroke
grestore
gsave
184.3 140 29.95 19.01 clipbox
83.4048 19.008 m
83.135814 19.152345 l
83.001312 20.132023 l
82.690347 20.693382 l
82.014595 21.393701 l
80.093028 23.209033 l
79.439604 24.189068 l
78.908687 25.44871 l
78.334385 27.406716 l
77.996722 29.367689 l
77.876843 31.325695 l
77.8752 47.844147 l
77.8752 158.836396 l
77.8752 158.836396 l
stroke
grestore
gsave
184.3 140 29.95 19.01 clipbox
85.248 19.008 m
85.12263 19.152345 l
85.105049 19.293063 l
85.072518 21.528583 l
84.663346 22.092154 l
83.72549 22.929062 l
81.981684 24.469725 l
80.968291 25.727578 l
80.095497 27.127849 l
79.392697 28.667554 l
78.861354 30.346692 l
78.506226 32.165265 l
78.344634 34.126238 l
78.336 39.02422 l
78.43981 91.792485 l
78.826625 93.053322 l
80.270427 96.4116 l
80.698142 97.672437 l
80.536651 98.65144 l
79.706729 102.009717 l
79.499211 102.570419 l
78.925889 102.849287 l
78.39479 103.97069 l
78.336 104.670826 l
78.336 158.836396 l
78.336 158.836396 l
stroke
grestore
gsave
184.3 140 29.95 19.01 clipbox
87.0912 19.008 m
87.049266 19.432281 l
87.245163 20.410504 l
87.635666 21.949465 l
87.582069 22.510544 l
87.328206 23.071168 l
86.752717 23.767908 l
84.907609 25.44871 l
82.951747 27.406716 l
81.71144 28.946421 l
80.734215 30.486126 l
79.928993 32.165265 l
79.357828 33.84737 l
78.975595 35.665942 l
78.806869 37.623949 l
78.7968 42.385463 l
78.874431 86.194368 l
79.114972 86.612669 l
79.705211 87.033937 l
80.774678 87.455205 l
82.941645 88.01294 l
87.98747 88.99491 l
92.735856 89.973913 l
96.336383 90.952916 l
98.645933 91.792485 l
100.336268 92.632054 l
101.51083 93.471624 l
102.218014 94.171759 l
102.823984 95.150762 l
102.92725 95.711464 l
102.793778 96.4116 l
102.326264 97.533003 l
101.777715 98.230172 l
100.700736 99.212142 l
96.409291 102.709853 l
94.743264 103.549422 l
90.563023 105.089127 l
80.945406 108.168537 l
79.632077 108.868672 l
78.985594 109.708241 l
78.816562 110.547811 l
78.7968 112.787651 l
78.7968 158.836396 l
78.7968 158.836396 l
stroke
grestore
gsave
184.3 140 29.95 19.01 clipbox
88.9344 19.008 m
88.957644 19.853364 l
89.223393 20.9703 l
89.823179 23.071168 l
89.774168 23.767908 l
89.50028 24.469725 l
88.822284 25.44871 l
87.46284 26.988415 l
83.040781 31.746963 l
81.732996 33.565536 l
80.785755 35.244674 l
80.08807 36.92678 l
79.626408 38.605918 l
79.354781 40.424491 l
79.258731 42.664331 l
79.2576 72.758292 l
79.364166 81.153985 l
79.620208 81.714687 l
80.142231 82.275389 l
80.999988 82.83609 l
82.561912 83.533259 l
84.670782 84.233395 l
87.388195 84.93353 l
90.891733 85.633666 l
103.998166 88.01294 l
106.831218 88.852509 l
108.850137 89.692079 l
110.287309 90.534615 l
111.277939 91.374184 l
111.929457 92.213753 l
112.386146 93.192756 l
112.698684 94.453594 l
112.894986 96.272166 l
112.87193 98.372572 l
112.635021 99.769877 l
112.163603 101.170148 l
111.52362 102.291551 l
110.890326 102.991687 l
110.045425 103.549422 l
108.447332 104.249558 l
104.526533 105.649829 l
90.947601 110.408377 l
87.363656 112.087516 l
85.089988 113.62722 l
83.510253 115.166925 l
83.103313 115.867061 l
82.605513 117.267332 l
82.472098 118.106901 l
82.614552 118.667603 l
82.805545 119.225338 l
83.863393 120.765043 l
84.170379 121.886446 l
84.209505 122.865449 l
84.008157 125.10529 l
83.791569 125.526558 l
83.106196 126.223727 l
82.072274 127.066263 l
80.839955 128.603001 l
80.651851 129.303136 l
80.597766 130.285106 l
80.796881 130.985241 l
81.202561 131.824811 l
81.417944 132.243112 l
82.049406 135.043654 l
82.027405 136.862227 l
81.023689 138.401931 l
80.186066 139.380934 l
79.758297 140.220504 l
79.570639 141.341907 l
79.598618 142.181477 l
79.681856 142.881612 l
79.712158 143.16048 l
80.017272 143.721181 l
80.051834 144.000049 l
80.30672 144.421317 l
80.441392 145.121453 l
80.59806 145.539754 l
80.652126 147.079459 l
80.587307 149.458733 l
80.401412 149.740567 l
80.355115 150.019435 l
80.082772 150.298302 l
80.029852 150.580136 l
79.678416 150.998438 l
79.559902 151.419706 l
79.367383 151.698573 l
79.342962 156.03882 l
79.56144 156.457121 l
79.606457 157.439091 l
79.823781 157.717959 l
79.867213 158.836396 l
79.867213 158.836396 l
stroke
grestore
gsave
184.3 140 29.95 19.01 clipbox
90.7776 19.008 m
90.846643 20.410504 l
91.136045 21.670319 l
91.820017 24.189068 l
91.781924 25.027369 l
91.498542 26.006445 l
90.939552 27.127849 l
89.958994 28.52812 l
88.264695 30.486126 l
83.896365 35.387075 l
82.500071 37.345081 l
81.486771 39.163653 l
80.797209 40.845759 l
80.290455 42.664331 l
79.948188 44.764738 l
79.761872 47.422879 l
79.7184 51.763126 l
79.82356 76.677271 l
80.044871 77.377407 l
80.429408 77.935142 l
81.118862 78.495843 l
82.195259 79.056545 l
84.081084 79.756681 l
87.897651 80.875118 l
103.559356 85.072964 l
110.127254 86.612669 l
111.573384 87.173371 l
112.51848 87.734072 l
113.24873 88.434208 l
113.753742 89.273777 l
114.069773 90.25278 l
114.239182 91.513618 l
114.284178 94.171759 l
114.187517 104.388991 l
113.968252 105.370961 l
113.611859 106.06813 l
113.097248 106.628832 l
112.232084 107.189533 l
110.499195 107.889669 l
102.75892 110.829645 l
99.019299 112.508784 l
96.192129 114.048488 l
93.880711 115.588193 l
92.406634 116.846064 l
91.24643 118.106901 l
90.708637 118.94647 l
90.402681 119.78604 l
90.312742 121.046877 l
90.091914 123.004883 l
89.518911 125.526558 l
89.108933 126.366127 l
88.121038 127.623998 l
87.219557 128.884835 l
86.718507 129.863838 l
86.392923 130.985241 l
86.356701 131.964245 l
86.529859 135.74379 l
86.362558 137.562362 l
86.071489 138.401931 l
84.49702 141.902609 l
84.359441 143.021046 l
84.374424 144.000049 l
84.529832 145.539754 l
84.602088 146.940025 l
84.491479 149.740567 l
84.144733 150.998438 l
83.420544 153.098844 l
83.194045 154.077847 l
83.080929 155.338685 l
83.235513 156.878389 l
83.389176 158.836396 l
83.389176 158.836396 l
stroke
grestore
gsave
184.3 140 29.95 19.01 clipbox
92.6208 19.008 m
92.719825 21.107997 l
93.059226 22.648592 l
93.691122 25.166876 l
93.703964 26.28828 l
93.497688 27.406716 l
93.015724 28.667554 l
92.221661 30.067825 l
90.912948 31.886397 l
88.260069 35.105241 l
85.456267 38.605918 l
83.956011 40.845759 l
82.910257 42.803765 l
82.113106 44.764738 l
81.500792 46.862178 l
81.037699 49.241452 l
80.683343 52.320861 l
80.449292 56.521675 l
80.338248 62.959361 l
80.43969 68.557479 l
80.680058 71.076187 l
81.008867 72.476458 l
81.438725 73.458428 l
82.044304 74.297997 l
82.804286 74.998132 l
83.861808 75.695301 l
85.574137 76.534871 l
88.491289 77.656274 l
105.979464 83.67566 l
110.016029 84.794097 l
112.929056 85.633666 l
113.827037 86.054934 l
114.320319 86.473235 l
114.614366 87.033937 l
114.735149 87.873506 l
114.744978 90.952916 l
114.648389 108.729238 l
114.416755 109.429374 l
114.011914 109.990076 l
113.487663 110.408377 l
112.073854 111.108512 l
106.973554 113.487787 l
102.978705 115.588193 l
100.44722 117.127898 l
98.781952 118.385769 l
97.626454 119.507172 l
96.899874 120.486175 l
96.263587 121.747012 l
95.175489 124.544588 l
94.201892 126.923862 l
93.060733 128.745401 l
92.028157 130.563973 l
91.545156 131.824811 l
91.261161 133.222115 l
90.371887 138.962633 l
88.755694 143.860615 l
88.593364 145.821588 l
88.354308 149.598167 l
88.121678 151.137871 l
87.001298 156.317688 l
86.942975 158.557528 l
86.941327 158.836396 l
86.941327 158.836396 l
stroke
grestore
gsave
184.3 140 29.95 19.01 clipbox
94.464 19.008 m
94.570681 21.81246 l
94.897975 23.48857 l
95.492074 26.28828 l
95.509132 27.688551 l
95.30758 28.946421 l
94.855169 30.346692 l
94.059729 32.025831 l
92.72597 34.265671 l
89.809911 38.605918 l
87.572682 42.103629 l
86.221923 44.622337 l
85.206514 47.001611 l
84.439299 49.383852 l
83.862034 51.90256 l
83.42599 54.842536 l
83.164195 58.200813 l
83.122644 61.55909 l
83.297252 64.359632 l
83.653779 66.599473 l
84.127127 68.278611 l
84.729685 69.678882 l
85.504211 70.936753 l
86.447771 72.058157 l
87.690039 73.176593 l
89.284064 74.297997 l
91.490715 75.555868 l
94.95274 77.235006 l
104.647177 81.575253 l
108.267245 82.975524 l
112.607062 84.375795 l
114.488855 85.072964 l
115.04949 85.494232 l
115.200886 85.9155 l
115.205778 89.273777 l
115.123925 112.36935 l
114.915743 112.927085 l
114.542291 113.348353 l
113.528299 113.909055 l
108.039245 116.567196 l
105.950668 117.828034 l
104.09229 119.225338 l
102.767954 120.486175 l
101.759053 121.747012 l
100.730598 123.426151 l
99.48891 125.944859 l
98.294775 128.324133 l
96.415002 131.824811 l
95.803618 133.503949 l
95.211186 135.883224 l
94.213094 140.08107 l
92.786572 144.700185 l
92.407538 147.079459 l
91.62229 152.398709 l
90.631332 157.296691 l
90.479305 158.836396 l
90.479305 158.836396 l
stroke
grestore
gsave
184.3 140 29.95 19.01 clipbox
96.3072 19.008 m
96.407372 22.510544 l
96.724753 24.469725 l
97.174094 27.267283 l
97.202239 28.946421 l
96.994822 30.62556 l
96.526343 32.447099 l
95.694846 34.686939 l
94.231644 37.905783 l
90.985678 44.904171 l
89.973892 47.701747 l
89.248098 50.362855 l
88.750276 53.020997 l
88.448507 55.821539 l
88.359725 58.619114 l
88.485865 61.280223 l
88.810619 63.659497 l
89.319206 65.759903 l
89.983306 67.578476 l
90.838127 69.257614 l
91.877437 70.797319 l
93.079074 72.19759 l
94.559238 73.597861 l
96.527471 75.137566 l
99.053886 76.816705 l
102.652369 78.917111 l
106.162805 80.735684 l
109.308625 82.135955 l
113.736838 83.815093 l
115.266492 84.515229 l
115.645795 84.93353 l
115.666578 85.7731 l
115.56354 115.027491 l
115.144171 115.306359 l
112.862168 116.427762 l
110.890012 117.685633 l
108.921678 119.225338 l
107.301901 120.765043 l
106.004346 122.304748 l
104.787381 124.126287 l
103.495066 126.505561 l
99.776422 134.204085 l
98.990879 136.722793 l
96.993292 143.581748 l
96.296444 146.239889 l
95.64772 149.740567 l
94.76964 154.359681 l
94.00442 158.27866 l
93.923378 158.836396 l
93.923378 158.836396 l
stroke
grestore
gsave
184.3 140 29.95 19.01 clipbox
98.1504 19.008 m
98.257517 23.63008 l
98.838559 31.325695 l
98.62928 33.565536 l
98.161043 36.084244 l
97.282436 39.445488 l
95.142216 47.283446 l
94.585041 50.362855 l
94.246435 53.442265 l
94.118095 56.661108 l
94.218799 59.740518 l
94.533485 62.538093 l
95.014396 64.920334 l
95.648162 67.017774 l
96.466901 68.978747 l
97.468581 70.797319 l
98.643601 72.476458 l
100.101291 74.155597 l
101.884678 75.837702 l
104.021672 77.51684 l
106.330296 79.056545 l
109.045731 80.59625 l
112.253638 82.135955 l
115.494124 83.67566 l
116.00779 84.093961 l
116.125497 84.375795 l
116.127378 92.632054 l
116.083103 115.867061 l
114.417705 117.267332 l
112.121131 119.507172 l
110.282272 121.604612 l
108.865255 123.565585 l
107.536975 125.805425 l
105.925019 129.024269 l
103.525702 134.204085 l
102.531987 137.00166 l
100.614766 143.442314 l
99.574906 147.218892 l
98.72724 151.280272 l
97.204568 158.836396 l
97.204568 158.836396 l
stroke
grestore
gsave
184.3 140 29.95 19.01 clipbox
99.9936 19.008 m
100.101546 26.567147 l
100.510524 30.346692 l
100.845555 34.126238 l
100.857407 36.92678 l
100.640858 40.003223 l
99.521527 52.181428 l
99.494792 56.382241 l
99.686561 60.019385 l
100.064429 63.098795 l
100.610042 65.759903 l
101.328081 68.139178 l
102.194497 70.236618 l
103.254798 72.19759 l
104.507665 74.016163 l
105.949746 75.695301 l
107.567238 77.235006 l
109.52367 78.774711 l
111.856642 80.314416 l
116.26461 83.114958 l
116.551055 83.533259 l
116.588178 84.093961 l
116.493586 116.427762 l
115.862601 117.546199 l
113.83512 120.486175 l
111.82796 123.565585 l
110.37145 126.223727 l
108.736366 129.724404 l
106.477786 135.043654 l
105.321758 138.401931 l
103.305801 145.260886 l
102.23396 149.458733 l
100.761391 156.457121 l
100.279946 158.836396 l
100.279946 158.836396 l
stroke
grestore
gsave
184.3 140 29.95 19.01 clipbox
101.8368 19.008 m
101.732638 23.48857 l
101.637713 26.427713 l
101.808912 28.388686 l
102.275696 30.907394 l
103.516668 37.066213 l
103.867861 40.285057 l
104.114254 44.904171 l
104.818185 59.879952 l
105.255578 63.380629 l
105.813888 66.178205 l
106.540676 68.696913 l
107.424423 70.936753 l
108.434413 72.897726 l
109.617683 74.716298 l
110.963698 76.395437 l
112.580958 78.074575 l
115.383908 80.59625 l
116.602183 81.854121 l
116.991625 82.554256 l
117.048978 83.114958 l
116.949646 117.127898 l
116.558715 118.385769 l
115.692191 120.346741 l
111.871768 128.463567 l
109.509698 134.482952 l
108.124422 138.541365 l
106.585376 143.860615 l
105.015301 149.880001 l
103.725438 155.899386 l
103.128513 158.836396 l
103.128513 158.836396 l
stroke
grestore
gsave
184.3 140 29.95 19.01 clipbox
103.68 19.008 m
103.583551 22.367763 l
103.276488 26.848981 l
103.486636 28.52812 l
103.961677 30.486126 l
105.091632 33.986804 l
106.414366 38.324084 l
107.395324 42.385463 l
108.34623 47.283446 l
108.939268 51.481292 l
109.552111 57.779545 l
110.134282 62.680494 l
110.75848 66.038771 l
111.503488 68.839313 l
112.403873 71.358021 l
113.493974 73.737295 l
114.907005 76.256003 l
117.167227 80.174982 l
117.463705 81.153985 l
117.509778 82.135955 l
117.416714 117.967467 l
117.072686 119.646606 l
116.325211 122.02588 l
110.602079 138.541365 l
109.09224 144.000049 l
107.359954 150.998438 l
105.936064 157.857392 l
105.743931 158.836396 l
105.743931 158.836396 l
stroke
grestore
gsave
184.3 140 29.95 19.01 clipbox
105.5232 19.008 m
105.423835 21.670319 l
105.014213 26.427713 l
105.232618 27.967418 l
105.724039 29.785991 l
106.662831 32.307665 l
110.860827 42.943199 l
112.072599 46.722744 l
112.824568 49.802153 l
113.399953 53.160431 l
114.0406 58.479681 l
114.8273 64.499066 l
115.587262 68.557479 l
116.579577 72.615892 l
117.783854 77.51684 l
117.963849 79.195979 l
117.970578 82.975524 l
117.869899 119.085904 l
117.522057 121.325745 l
116.810422 124.26572 l
114.635183 131.824811 l
111.811161 142.042043 l
109.847718 150.298302 l
108.447233 157.157257 l
108.128904 158.836396 l
108.128904 158.836396 l
stroke
grestore
gsave
184.3 140 29.95 19.01 clipbox
107.3664 19.008 m
107.294789 20.834463 l
106.883833 25.588144 l
107.184102 27.267283 l
107.787202 29.228256 l
108.817075 31.746963 l
111.181428 36.784379 l
113.864147 42.664331 l
115.035653 45.743741 l
115.801356 48.401882 l
116.360519 51.202424 l
116.813526 54.700135 l
117.386152 61.280223 l
118.43035 75.416434 l
118.431378 103.409988 l
118.327965 120.346741 l
118.00953 123.004883 l
117.348904 126.505561 l
115.681241 133.782817 l
112.564802 147.218892 l
110.90018 155.478118 l
110.291809 158.836396 l
110.291809 158.836396 l
stroke
grestore
gsave
184.3 140 29.95 19.01 clipbox
109.2096 19.008 m
109.162459 20.269396 l
108.803376 24.189068 l
109.102078 25.588144 l
109.838401 27.827984 l
111.055838 30.76796 l
113.489405 35.94481 l
115.780263 40.985192 l
116.891532 43.925168 l
117.606501 46.443876 l
118.08189 48.962584 l
118.419022 52.041994 l
118.670612 56.661108 l
118.876149 65.199202 l
118.892178 76.677271 l
118.788069 121.747012 l
118.459893 125.10529 l
117.751393 129.724404 l
116.729414 135.183088 l
112.904355 154.917417 l
112.245121 158.836396 l
112.245121 158.836396 l
stroke
grestore
gsave
184.3 140 29.95 19.01 clipbox
111.0528 19.008 m
111.058531 19.712914 l
110.854969 23.071168 l
111.171174 24.189068 l
112.330178 26.988415 l
116.318366 36.784379 l
117.703773 40.703358 l
118.523467 43.643334 l
118.967215 46.022608 l
119.227435 48.683717 l
119.342733 52.463262 l
119.352978 64.777934 l
119.248969 123.286717 l
118.920808 127.34513 l
118.183772 133.222115 l
116.777381 141.760209 l
114.254943 157.157257 l
114.004808 158.836396 l
114.004808 158.836396 l
stroke
grestore
gsave
184.3 140 29.95 19.01 clipbox
112.896 19.008 m
112.953613 19.432281 l
112.972634 21.81246 l
113.295792 22.791076 l
115.887153 28.946421 l
117.251961 33.426102 l
118.659062 38.745352 l
119.443908 42.524897 l
119.738878 45.043605 l
119.813778 47.701747 l
119.703946 125.10529 l
119.335051 130.842841 l
118.476923 137.98363 l
115.59 158.836396 l
115.59 158.836396 l
stroke
grestore
gsave
184.3 140 29.95 19.01 clipbox
114.7392 19.008 m
114.885224 19.152345 l
114.888502 19.293063 l
114.968151 20.410504 l
115.288451 21.393701 l
116.252777 23.209033 l
116.914723 24.74885 l
117.608142 27.127849 l
118.346398 30.486126 l
119.432417 36.644945 l
120.163834 41.824762 l
120.274494 44.204036 l
120.212351 125.526558 l
120.240744 128.045266 l
120.188702 128.884835 l
119.940366 131.824811 l
119.21346 139.523335 l
117.283758 156.457121 l
117.022621 158.836396 l
117.022621 158.836396 l
stroke
grestore
gsave
184.3 140 29.95 19.01 clipbox
116.5824 19.008 m
116.779969 19.152345 l
116.790299 19.293063 l
116.956878 20.132023 l
117.420256 21.107997 l
118.410243 23.071168 l
118.827792 24.469725 l
119.255397 26.988415 l
119.841724 31.746963 l
120.700143 40.703358 l
120.735378 43.364467 l
120.629301 130.42454 l
120.086626 138.823199 l
119.012108 151.137871 l
118.326924 158.836396 l
118.326924 158.836396 l
stroke
grestore
gsave
184.3 140 29.95 19.01 clipbox
118.4256 19.008 m
118.603291 19.152345 l
118.61557 19.293063 l
118.781677 19.990222 l
120.106132 23.767908 l
120.329406 25.727578 l
120.796037 32.586533 l
121.196178 41.26406 l
121.086044 132.382546 l
120.658353 141.202474 l
119.528971 158.836396 l
119.528971 158.836396 l
stroke
grestore
gsave
184.3 140 29.95 19.01 clipbox
120.2688 19.008 m
120.395577 19.152345 l
120.40292 19.293063 l
120.569647 20.269396 l
121.084408 22.791076 l
121.260568 25.027369 l
121.561956 35.387075 l
121.656978 43.364467 l
121.5479 134.90422 l
121.118543 147.361293 l
120.656134 158.836396 l
120.656134 158.836396 l
stroke
grestore
gsave
184.3 140 29.95 19.01 clipbox
122.112 19.008 m
122.001868 141.481341 l
121.736665 158.836396 l
121.736665 158.836396 l
stroke
grestore
gsave
184.3 140 29.95 19.01 clipbox
123.9552 19.008 m
123.828423 19.152345 l
123.82108 19.293063 l
123.654353 20.269396 l
123.139592 22.791076 l
122.963432 25.027369 l
122.672887 35.105241 l
122.578578 43.643334 l
122.689077 146.940025 l
122.799337 158.836396 l
122.799337 158.836396 l
stroke
grestore
gsave
184.3 140 29.95 19.01 clipbox
125.7984 19.008 m
125.620709 19.152345 l
125.60843 19.293063 l
125.442323 19.990222 l
124.117868 23.767908 l
123.894596 25.727578 l
123.438292 32.447099 l
123.039378 41.26406 l
123.149286 135.883224 l
123.590061 150.580136 l
123.873148 158.836396 l
123.873148 158.836396 l
stroke
grestore
gsave
184.3 140 29.95 19.01 clipbox
127.6416 19.008 m
127.444031 19.152345 l
127.433701 19.293063 l
127.267122 20.132023 l
126.803744 21.107997 l
125.813757 23.071168 l
125.396209 24.469725 l
124.968699 26.988415 l
124.401305 31.60753 l
123.592595 40.285057 l
123.500178 43.082632 l
123.610791 132.943248 l
124.033431 142.460344 l
124.987042 158.836396 l
124.987042 158.836396 l
stroke
grestore
gsave
184.3 140 29.95 19.01 clipbox
129.4848 19.008 m
129.338776 19.152345 l
129.335498 19.293063 l
129.255849 20.410504 l
128.935549 21.393701 l
127.971224 23.209033 l
127.30929 24.74885 l
126.616346 27.127849 l
125.884002 30.486126 l
124.925427 36.084244 l
124.139209 41.824762 l
123.967557 44.622337 l
123.960978 51.620726 l
124.0693 130.842841 l
124.55311 139.102067 l
125.537576 151.280272 l
126.169615 158.836396 l
126.169615 158.836396 l
stroke
grestore
gsave
184.3 140 29.95 19.01 clipbox
131.328 19.008 m
131.270387 19.432281 l
131.251366 21.81246 l
130.928208 22.791076 l
128.344191 28.946421 l
127.138279 33.004834 l
125.788848 38.324084 l
124.938159 42.524897 l
124.567812 45.464873 l
124.430485 48.401882 l
124.421778 56.800542 l
124.531313 127.484564 l
124.449326 128.045266 l
124.494832 128.884835 l
124.770426 132.66438 l
125.440492 140.220504 l
127.138363 155.899386 l
127.448769 158.836396 l
127.448769 158.836396 l
stroke
grestore
gsave
184.3 140 29.95 19.01 clipbox
133.1712 19.008 m
133.165469 19.712914 l
133.369038 23.071168 l
133.052915 24.189068 l
131.840173 27.127849 l
129.2907 33.565536 l
127.327182 39.02422 l
126.203418 42.803765 l
125.589363 45.604307 l
125.204503 48.401882 l
124.979731 51.763126 l
124.88573 56.939976 l
124.882578 85.633666 l
124.990259 125.526558 l
125.348461 131.403543 l
126.11538 138.262498 l
127.863663 151.280272 l
128.851277 158.836396 l
128.851277 158.836396 l
stroke
grestore
gsave
184.3 140 29.95 19.01 clipbox
135.0144 19.008 m
135.061541 20.269396 l
135.420908 24.189068 l
135.124259 25.588144 l
134.403251 27.827984 l
133.069559 31.186262 l
127.925628 43.643334 l
127.09704 46.443876 l
126.504601 49.241452 l
126.084849 52.320861 l
125.757279 56.521675 l
125.488042 63.238229 l
125.344228 72.337024 l
125.379734 121.886446 l
125.600552 126.084293 l
126.130375 131.403543 l
127.065533 137.84123 l
130.402259 158.836396 l
130.402259 158.836396 l
stroke
grestore
gsave
184.3 140 29.95 19.01 clipbox
136.8576 19.008 m
136.929211 20.834463 l
137.345467 25.588144 l
137.062442 27.267283 l
136.50329 29.228256 l
135.45256 32.025831 l
132.143515 39.863789 l
130.228172 44.764738 l
129.249246 47.844147 l
128.545711 50.781157 l
127.982887 54.1424 l
127.485186 58.619114 l
126.658968 68.839313 l
125.838442 80.314416 l
125.804178 85.215365 l
125.912405 122.165314 l
126.246638 125.805425 l
126.948614 130.703407 l
128.093042 137.00166 l
131.639335 155.899386 l
132.124587 158.836396 l
132.124587 158.836396 l
stroke
grestore
gsave
184.3 140 29.95 19.01 clipbox
138.7008 19.008 m
138.800174 21.670319 l
139.223387 26.567147 l
138.997206 28.246286 l
138.501092 30.207259 l
137.451653 33.286668 l
134.146402 42.664331 l
132.711564 47.422879 l
131.890029 50.923557 l
131.274339 54.560702 l
130.697632 59.46165 l
129.46342 70.518452 l
128.687031 75.137566 l
127.70999 79.61428 l
126.402023 85.494232 l
126.265814 87.312804 l
126.264978 106.349964 l
126.367312 120.625609 l
126.691861 123.565585 l
127.350743 127.34513 l
128.767071 133.922251 l
132.508121 150.71957 l
134.013776 158.696962 l
134.038273 158.836396 l
134.038273 158.836396 l
stroke
grestore
gsave
184.3 140 29.95 19.01 clipbox
140.544 19.008 m
140.640703 22.367763 l
140.98713 27.127849 l
140.784255 28.946421 l
140.295351 31.186262 l
136.991027 44.34347 l
136.064963 49.523286 l
135.514486 53.860566 l
135.035786 59.601084 l
134.344614 67.71791 l
133.771223 71.776322 l
133.07504 75.137566 l
132.279143 77.935142 l
131.340238 80.456816 l
130.218077 82.83609 l
128.766339 85.354798 l
127.043295 88.294774 l
126.74795 89.273777 l
126.725778 90.534615 l
126.830589 119.367738 l
127.168262 121.747012 l
127.874319 124.965856 l
129.483382 130.985241 l
133.135193 144.700185 l
134.919294 152.538142 l
136.159868 158.836396 l
136.159868 158.836396 l
stroke
grestore
gsave
184.3 140 29.95 19.01 clipbox
142.3872 19.008 m
142.496827 23.48857 l
142.646169 26.988415 l
142.475455 29.228256 l
141.979544 32.307665 l
140.978053 38.324084 l
140.520609 42.664331 l
140.040601 49.66272 l
139.738713 57.22181 l
139.363684 66.038771 l
138.952564 70.236618 l
138.401303 73.597861 l
137.71913 76.395437 l
136.916829 78.774711 l
135.979476 80.875118 l
134.937541 82.69369 l
133.722747 84.375795 l
132.335452 85.9155 l
130.623226 87.455205 l
127.3203 90.25278 l
127.187727 90.674048 l
127.186578 104.249558 l
127.292078 118.246335 l
127.636581 120.064907 l
128.390757 122.726016 l
130.284835 128.324133 l
133.226833 137.283495 l
134.838671 142.881612 l
136.647593 150.019435 l
138.005016 156.317688 l
138.501933 158.836396 l
138.501933 158.836396 l
stroke
grestore
gsave
184.3 140 29.95 19.01 clipbox
144.2304 19.008 m
144.11975 28.806988 l
143.649588 37.345081 l
143.729675 41.685328 l
144.341951 59.879952 l
144.24251 65.199202 l
143.962952 69.118181 l
143.522591 72.337024 l
142.91577 75.137566 l
142.176434 77.51684 l
141.29943 79.61428 l
140.231116 81.575253 l
139.067971 83.254392 l
137.734229 84.794097 l
136.219612 86.194368 l
134.515039 87.455205 l
132.636435 88.573642 l
130.047337 89.834479 l
128.09499 90.813482 l
127.675828 91.231783 l
127.647378 91.931919 l
127.747689 117.267332 l
128.13122 118.667603 l
129.003521 120.907443 l
134.137577 133.222115 l
135.871071 138.123064 l
137.347488 143.021046 l
139.062492 149.458733 l
140.336679 155.199251 l
141.072449 158.836396 l
141.072449 158.836396 l
stroke
grestore
gsave
184.3 140 29.95 19.01 clipbox
146.0736 19.008 m
145.964894 24.189068 l
145.670824 29.928391 l
145.797156 33.004834 l
146.171277 36.505512 l
146.940268 41.403494 l
148.381783 50.362855 l
148.877412 55.121403 l
149.160718 60.019385 l
149.202749 64.499066 l
149.028612 68.139178 l
148.667296 71.218587 l
148.131072 73.876729 l
147.459295 76.116569 l
146.590805 78.216976 l
145.60404 80.035548 l
144.455983 81.714687 l
143.034045 83.393825 l
141.441047 84.93353 l
139.695433 86.333801 l
137.800927 87.594639 l
135.74291 88.713076 l
133.499035 89.692079 l
130.304321 90.813482 l
128.489102 91.513618 l
128.153506 91.792485 l
128.108178 92.213753 l
128.176636 116.427762 l
128.681862 117.546199 l
130.153527 120.064907 l
132.904683 124.826422 l
134.635359 128.324133 l
136.973589 133.643383 l
138.357108 137.283495 l
139.698602 141.481341 l
141.55436 148.061428 l
142.673618 152.95941 l
143.873883 158.836396 l
143.873883 158.836396 l
stroke
grestore
gsave
184.3 140 29.95 19.01 clipbox
147.9168 19.008 m
147.817534 22.791076 l
147.318555 29.085855 l
147.562819 31.186262 l
148.094746 33.70497 l
149.14735 37.484515 l
152.646939 49.523286 l
153.406354 53.302831 l
153.957534 57.22181 l
154.303125 61.280223 l
154.416775 65.199202 l
154.293472 68.557479 l
153.966524 71.358021 l
153.495208 73.597861 l
152.873149 75.555868 l
152.064346 77.377407 l
151.070139 79.056545 l
149.905024 80.59625 l
148.459581 82.135955 l
146.710234 83.67566 l
144.45709 85.354798 l
141.621259 87.173371 l
139.067003 88.573642 l
136.580782 89.692079 l
134.218165 90.534615 l
130.255848 91.653051 l
129.046261 92.071353 l
128.651281 92.353187 l
128.568978 92.771488 l
128.576441 115.867061 l
132.704956 120.486175 l
134.548677 123.004883 l
136.113614 125.526558 l
137.738916 128.603001 l
140.138009 133.643383 l
141.287832 136.583359 l
142.510445 140.362904 l
144.556485 147.500727 l
145.537262 151.980407 l
146.901351 158.836396 l
146.901351 158.836396 l
stroke
grestore
gsave
184.3 140 29.95 19.01 clipbox
149.76 19.008 m
149.665821 21.949465 l
149.322492 24.047425 l
148.992803 26.28828 l
148.994507 27.827984 l
149.20792 29.367689 l
149.687013 31.186262 l
150.556014 33.565536 l
152.314648 37.623949 l
155.863897 45.743741 l
157.048346 49.102018 l
157.902382 52.181428 l
158.597489 55.539705 l
159.142416 59.31925 l
159.514383 63.520063 l
159.642052 67.439042 l
159.536846 70.518452 l
159.237066 73.03716 l
158.793108 74.998132 l
158.194067 76.677271 l
157.477229 78.074575 l
156.60624 79.335413 l
155.46708 80.59625 l
154.018455 81.854121 l
152.019456 83.254392 l
149.168203 84.93353 l
143.86579 87.734072 l
140.071854 89.552645 l
137.585193 90.534615 l
134.817087 91.374184 l
129.580108 92.771488 l
129.123251 93.192756 l
129.032602 93.611058 l
129.029778 99.491009 l
129.066421 115.166925 l
129.158767 115.306359 l
130.269753 115.867061 l
131.669078 116.70663 l
133.31931 117.967467 l
135.1286 119.646606 l
136.910379 121.604612 l
138.38866 123.565585 l
139.791647 125.805425 l
141.908224 129.724404 l
143.507927 132.943248 l
144.505612 135.461956 l
145.571694 138.823199 l
148.019984 147.64016 l
149.488925 155.199251 l
150.139485 158.836396 l
150.139485 158.836396 l
stroke
grestore
gsave
184.3 140 29.95 19.01 clipbox
151.6032 19.008 m
151.512324 21.253655 l
151.176181 23.071168 l
150.791827 25.166876 l
150.789113 26.567147 l
151.01668 27.967418 l
151.495759 29.507123 l
152.35376 31.468096 l
153.91879 34.405105 l
159.106649 43.782768 l
160.23521 46.443876 l
161.118714 49.102018 l
161.810741 51.90256 l
162.370503 55.121403 l
162.834224 59.179816 l
163.1881 64.359632 l
163.3562 70.097184 l
163.282171 74.155597 l
163.032959 76.816705 l
162.642734 78.635277 l
162.153652 79.896115 l
161.562302 80.875118 l
160.689974 81.854121 l
159.644167 82.69369 l
158.015823 83.67566 l
155.665377 84.794097 l
150.879376 86.755069 l
144.570048 89.413211 l
140.45575 91.09235 l
138.168521 91.792485 l
135.050328 92.492621 l
131.982636 93.192756 l
130.884557 93.611058 l
130.276552 94.032326 l
129.884406 94.593027 l
129.644553 95.432597 l
129.499773 96.972301 l
129.490578 100.751847 l
129.592271 112.508784 l
129.817021 113.208919 l
130.118439 113.62722 l
130.691608 114.048488 l
136.883609 117.546199 l
138.624164 118.94647 l
140.37382 120.625609 l
141.680625 122.165314 l
142.933246 123.986853 l
144.285743 126.366127 l
147.922877 133.503949 l
148.711209 136.022657 l
151.435578 146.100456 l
152.216504 150.998438 l
152.939741 154.777983 l
153.49268 158.27866 l
153.559095 158.836396 l
153.559095 158.836396 l
stroke
grestore
gsave
184.3 140 29.95 19.01 clipbox
153.4464 19.008 m
153.378136 20.55458 l
153.07505 22.092154 l
152.656719 24.189068 l
152.69882 25.309277 l
152.983958 26.567147 l
153.578836 28.106852 l
154.607022 30.067825 l
156.434973 33.004834 l
160.321424 39.163653 l
161.613162 41.685328 l
162.51981 43.925168 l
163.196272 46.162042 l
163.722702 48.683717 l
164.100778 51.620726 l
164.359019 55.539705 l
164.489509 61.419657 l
164.505563 74.576864 l
164.403157 82.554256 l
164.177614 83.67566 l
163.847003 84.375795 l
163.388123 84.93353 l
162.680294 85.494232 l
161.391199 86.194368 l
159.31284 87.033937 l
148.775144 90.952916 l
145.976499 92.071353 l
143.905005 92.632054 l
135.243338 94.593027 l
133.667709 95.293163 l
132.419671 96.132732 l
131.387124 97.111735 l
130.686982 98.090738 l
130.357295 98.930308 l
130.178985 100.051711 l
130.092117 102.570419 l
130.128739 105.649829 l
130.398016 107.607835 l
130.744834 108.868672 l
131.204734 109.708241 l
131.772871 110.268943 l
133.109769 111.108512 l
135.605059 112.648217 l
140.280857 115.867061 l
142.738027 117.685633 l
144.760918 119.507172 l
146.01703 120.907443 l
147.064386 122.447148 l
148.287039 124.684022 l
150.13842 128.184699 l
151.411052 130.42454 l
152.163317 132.243112 l
152.643224 134.064651 l
154.10409 140.362904 l
155.132012 144.000049 l
155.424747 146.239889 l
156.006292 151.280272 l
156.979023 156.878389 l
157.117215 158.836396 l
157.117215 158.836396 l
stroke
grestore
gsave
184.3 140 29.95 19.01 clipbox
155.2896 19.008 m
155.257707 19.990222 l
154.966409 21.393701 l
154.622678 23.071168 l
154.657085 23.909363 l
154.946944 24.889266 l
155.717431 26.427713 l
157.197775 28.806988 l
161.410375 35.387075 l
162.699975 37.905783 l
163.593354 40.145623 l
164.199582 42.243063 l
164.61942 44.482903 l
164.876186 47.144012 l
164.965318 50.641723 l
164.937669 87.455205 l
164.765353 88.294774 l
164.39588 88.99491 l
163.657849 89.834479 l
161.920921 91.653051 l
161.140844 92.492621 l
160.39662 92.913889 l
159.033231 93.33219 l
155.982401 93.892892 l
145.167159 95.711464 l
141.84771 96.551033 l
139.329132 97.390603 l
137.445636 98.230172 l
136.338639 98.930308 l
135.588711 99.630443 l
135.028567 100.470012 l
134.663244 101.451982 l
134.487287 102.430985 l
134.529502 103.270555 l
134.729394 103.831256 l
135.141577 104.388991 l
136.261369 105.370961 l
139.259414 107.889669 l
142.239204 110.408377 l
145.311465 113.066519 l
148.097149 115.867061 l
151.235614 119.225338 l
151.93557 120.207308 l
152.609475 121.604612 l
154.853349 126.923862 l
156.248694 129.024269 l
156.803273 130.285106 l
157.255997 131.964245 l
158.049209 138.541365 l
159.392341 142.881612 l
159.507973 144.139483 l
159.687157 149.740567 l
159.862064 150.859004 l
160.510138 153.659546 l
160.775189 156.317688 l
160.764169 158.836396 l
160.764169 158.836396 l
stroke
grestore
gsave
184.3 140 29.95 19.01 clipbox
157.1328 19.008 m
157.15518 19.569157 l
156.920916 20.834463 l
156.721543 22.092154 l
156.837928 22.929062 l
157.222848 23.767908 l
158.204744 25.166876 l
160.462204 28.388686 l
161.946482 30.907394 l
163.180814 33.426102 l
164.107363 35.805376 l
164.753885 38.045217 l
165.175486 40.285057 l
165.390689 42.664331 l
165.427163 46.022608 l
165.340616 94.871895 l
165.05185 95.293163 l
164.429733 95.711464 l
163.425284 96.132732 l
161.073387 96.832868 l
157.287948 97.951305 l
155.477922 98.65144 l
153.803785 99.491009 l
152.364043 100.470012 l
151.12651 101.73085 l
150.712428 102.570419 l
150.524096 103.270555 l
150.628683 103.97069 l
151.157624 105.649829 l
152.346208 107.607835 l
155.939865 113.62722 l
157.960675 117.685633 l
158.29199 118.106901 l
158.785593 118.807037 l
159.064921 119.507172 l
159.141014 121.186311 l
159.254368 122.165314 l
159.945219 125.526558 l
160.483396 126.223727 l
161.633861 127.484564 l
162.122513 128.184699 l
162.506907 129.163702 l
162.647153 130.142706 l
162.724095 131.542977 l
162.566819 131.964245 l
162.358597 133.082681 l
162.312359 134.064651 l
162.469492 137.562362 l
162.591272 137.84123 l
163.550426 139.941636 l
163.693968 140.641772 l
163.973745 141.06304 l
164.090024 142.181477 l
164.122187 143.442314 l
163.926056 143.721181 l
163.86996 144.560751 l
163.811707 144.839618 l
163.649159 145.260886 l
163.606851 146.661157 l
163.698309 149.880001 l
163.872846 150.158868 l
163.965214 150.71957 l
164.198643 150.998438 l
164.492166 151.980407 l
164.605785 152.259275 l
164.684341 153.938414 l
164.719605 156.178254 l
164.504157 156.457121 l
164.451179 157.439091 l
164.454993 158.836396 l
164.454993 158.836396 l
stroke
grestore
gsave
184.3 140 29.95 19.01 clipbox
158.976 19.008 m
159.057794 19.152345 l
159.070161 19.293063 l
159.156444 21.81246 l
159.559849 22.510544 l
160.823427 24.047425 l
161.834709 25.44871 l
162.875991 27.267283 l
163.803675 29.367689 l
164.656657 31.886397 l
165.320748 34.544539 l
165.72211 37.066213 l
165.880508 39.445488 l
165.887963 45.464873 l
165.781112 102.709853 l
165.536334 105.370961 l
165.694512 108.450371 l
165.792851 112.36935 l
165.821934 120.486175 l
165.731397 121.747012 l
165.848815 125.384157 l
165.887963 125.944859 l
165.887963 158.836396 l
165.887963 158.836396 l
stroke
grestore
gsave
184.3 140 29.95 19.01 clipbox
160.8192 19.008 m
161.038581 19.152345 l
161.188528 20.410504 l
161.548241 21.107997 l
162.467531 22.22983 l
163.543185 23.63008 l
164.122262 24.74885 l
164.811339 26.706581 l
165.457001 29.228256 l
166.036709 32.447099 l
166.302792 35.105241 l
166.348763 37.905783 l
166.348763 158.836396 l
166.348763 158.836396 l
stroke
grestore
gsave
184.3 140 29.95 19.01 clipbox
162.6624 19.008 m
162.917971 19.152345 l
163.086142 19.853364 l
163.49931 20.55458 l
165.23749 23.071168 l
165.690287 24.32761 l
166.052799 26.148846 l
166.547464 29.785991 l
166.797713 33.004834 l
166.809563 37.623949 l
166.809563 158.836396 l
166.809563 158.836396 l
stroke
grestore
gsave
184.3 140 29.95 19.01 clipbox
164.5056 19.008 m
164.831684 19.152345 l
164.921496 19.712914 l
165.34494 20.55458 l
166.212017 22.22983 l
166.603592 23.48857 l
166.864787 25.166876 l
167.201421 29.646557 l
167.270363 32.586533 l
167.270363 158.836396 l
167.270363 158.836396 l
stroke
grestore
gsave
184.3 140 29.95 19.01 clipbox
166.3488 19.008 m
166.516553 19.152345 l
166.529445 19.293063 l
166.756772 20.269396 l
167.297224 22.367763 l
167.531886 24.32761 l
167.681848 28.106852 l
167.731163 33.565536 l
167.731163 158.836396 l
167.731163 158.836396 l
stroke
grestore
gsave
184.3 140 29.95 19.01 clipbox
168.192 19.008 m
168.191963 158.836396 l
168.191963 158.836396 l
stroke
grestore
gsave
184.3 140 29.95 19.01 clipbox
170.0352 19.008 m
169.867447 19.152345 l
169.854555 19.293063 l
169.627228 20.269396 l
169.086776 22.367763 l
168.852114 24.32761 l
168.702146 28.106852 l
168.652763 33.565536 l
168.652763 158.836396 l
168.652763 158.836396 l
stroke
grestore
gsave
184.3 140 29.95 19.01 clipbox
171.8784 19.008 m
171.552316 19.152345 l
171.462504 19.712914 l
171.03906 20.55458 l
170.171983 22.22983 l
169.780408 23.48857 l
169.519213 25.166876 l
169.182857 29.646557 l
169.113563 32.586533 l
169.113563 158.836396 l
169.113563 158.836396 l
stroke
grestore
gsave
184.3 140 29.95 19.01 clipbox
173.7216 19.008 m
173.466029 19.152345 l
173.297858 19.853364 l
172.88469 20.55458 l
171.14651 23.071168 l
170.693714 24.32761 l
170.331243 26.148846 l
169.838088 29.785991 l
169.590469 33.004834 l
169.574363 37.345081 l
169.574363 158.836396 l
169.574363 158.836396 l
stroke
grestore
gsave
184.3 140 29.95 19.01 clipbox
175.5648 19.008 m
175.345419 19.152345 l
175.195472 20.410504 l
174.835759 21.107997 l
173.916469 22.22983 l
172.840817 23.63008 l
172.261763 24.74885 l
171.573165 26.706581 l
170.962047 29.085855 l
170.405638 32.165265 l
170.116885 34.965807 l
170.035163 38.045217 l
170.035163 158.836396 l
170.035163 158.836396 l
stroke
grestore
gsave
184.3 140 29.95 19.01 clipbox
177.408 19.008 m
177.326206 19.152345 l
177.313839 19.293063 l
177.227556 21.81246 l
176.824151 22.510544 l
175.560611 24.047425 l
174.549788 25.44871 l
173.511946 27.267283 l
172.650542 29.228256 l
171.856022 31.60753 l
171.210197 34.265671 l
170.772083 37.066213 l
170.540809 40.003223 l
170.495963 43.782768 l
170.573952 96.4116 l
170.893993 97.111735 l
171.600364 97.811871 l
172.434383 98.372572 l
174.308163 99.351576 l
182.388575 103.131121 l
182.807968 103.688856 l
182.892728 104.110124 l
182.782869 104.388991 l
182.395386 104.670826 l
181.674879 104.949693 l
180.275696 105.228561 l
176.514653 105.649829 l
172.165497 106.06813 l
170.832197 106.349964 l
170.52122 106.628832 l
170.495963 107.328967 l
170.495963 158.836396 l
170.495963 158.836396 l
stroke
grestore
gsave
184.3 140 29.95 19.01 clipbox
179.2512 19.008 m
179.22882 19.569157 l
179.463084 20.834463 l
179.662457 22.092154 l
179.546083 22.929062 l
179.161246 23.767908 l
178.180488 25.166876 l
176.128064 28.106852 l
174.749822 30.486126 l
173.627613 32.8654 l
172.690593 35.387075 l
171.98856 37.905783 l
171.446088 40.703358 l
171.106996 43.643334 l
170.963012 46.862178 l
170.956763 58.061379 l
171.053642 91.792485 l
171.345332 92.213753 l
171.968936 92.632054 l
173.000993 93.053322 l
174.934331 93.611058 l
181.017109 95.011329 l
185.91623 96.272166 l
189.353497 97.390603 l
192.09152 98.512006 l
194.544639 99.769877 l
196.546764 101.030714 l
198.377293 102.430985 l
199.355822 103.409988 l
199.753974 104.110124 l
199.751062 104.531392 l
199.549242 104.810259 l
199.074628 105.089127 l
198.130518 105.370961 l
195.661616 105.649829 l
177.827012 107.468401 l
174.43586 108.029103 l
172.145796 108.868672 l
171.374815 109.429374 l
171.19258 109.990076 l
170.982606 111.38738 l
170.956763 116.288329 l
170.956763 158.836396 l
170.956763 158.836396 l
stroke
grestore
gsave
184.3 140 29.95 19.01 clipbox
181.0944 19.008 m
181.126293 19.990222 l
181.417591 21.393701 l
181.761382 23.071168 l
181.72732 23.909363 l
181.439279 24.889266 l
180.680623 26.427713 l
179.004408 29.228256 l
176.460181 33.565536 l
174.992291 36.505512 l
173.842507 39.306054 l
172.939536 42.103629 l
172.268791 44.904171 l
171.792682 47.844147 l
171.50576 51.062991 l
171.418089 54.560702 l
171.436198 88.152374 l
171.609694 88.713076 l
171.998595 89.134344 l
172.748852 89.552645 l
174.4174 90.113347 l
177.974489 90.952916 l
185.334899 92.632054 l
188.708923 93.611058 l
191.393855 94.593027 l
193.80845 95.711464 l
195.974262 96.972301 l
197.938364 98.372572 l
199.914651 100.051711 l
201.888223 102.009717 l
203.296966 103.688856 l
203.683692 104.388991 l
203.734941 104.810259 l
203.61871 105.089127 l
203.116729 105.510395 l
202.833742 105.649829 l
200.243896 106.21053 l
194.617143 107.189533 l
188.225575 108.30797 l
185.333793 109.008106 l
182.829325 109.847675 l
180.89181 110.829645 l
179.884684 111.52978 l
178.145479 112.927085 l
176.983078 113.487787 l
175.169159 114.048488 l
172.139052 114.888058 l
171.630232 115.306359 l
171.438105 115.867061 l
171.417563 117.546199 l
171.457106 119.367738 l
171.721432 119.646606 l
172.765829 120.346741 l
173.591098 121.186311 l
174.196761 122.165314 l
174.456734 122.865449 l
174.785814 124.405154 l
174.648488 125.244723 l
174.350606 125.805425 l
173.549114 126.644995 l
172.335544 127.623998 l
171.796107 128.324133 l
171.684297 128.745401 l
171.687195 129.724404 l
171.806693 130.285106 l
172.777562 131.824811 l
173.707228 134.343519 l
173.798989 136.162091 l
173.702287 137.562362 l
173.391036 138.262498 l
172.743823 139.102067 l
171.888137 140.362904 l
171.731155 140.920639 l
171.691871 141.760209 l
171.929265 143.021046 l
172.091438 143.299913 l
172.151655 143.721181 l
172.345615 144.000049 l
172.710715 145.539754 l
172.86427 145.961022 l
172.938238 147.361293 l
172.936724 149.319299 l
172.751697 149.740567 l
172.67721 150.019435 l
172.492523 150.298302 l
172.381441 150.580136 l
172.171932 150.859004 l
172.045314 151.137871 l
171.812064 151.419706 l
171.670535 151.838007 l
171.518357 152.119841 l
171.498293 155.617552 l
171.710407 156.178254 l
171.717981 156.596555 l
171.959036 157.017823 l
172.101145 158.13626 l
172.210545 158.557528 l
172.226251 158.836396 l
172.226251 158.836396 l
stroke
grestore
gsave
184.3 140 29.95 19.01 clipbox
182.9376 19.008 m
183.005864 20.55458 l
183.308964 22.092154 l
183.729078 24.189068 l
183.694088 25.309277 l
183.391557 26.706581 l
182.779537 28.388686 l
181.652052 30.76796 l
175.617191 42.803765 l
174.398725 46.022608 l
173.470232 49.102018 l
172.774661 52.181428 l
172.281112 55.400271 l
171.990986 58.761515 l
171.881829 62.538093 l
171.878363 78.074575 l
171.964423 85.072964 l
172.154823 85.633666 l
172.601832 86.194368 l
173.200245 86.612669 l
174.454267 87.173371 l
176.705545 87.873506 l
188.193535 91.09235 l
190.962198 92.213753 l
193.167226 93.33219 l
195.19783 94.593027 l
197.254054 96.132732 l
199.314523 97.951305 l
201.659057 100.330579 l
203.964117 102.991687 l
204.932632 104.388991 l
205.118269 104.949693 l
205.067539 105.370961 l
204.801581 105.789262 l
204.179302 106.21053 l
202.893897 106.768266 l
200.230961 107.607835 l
193.051332 109.708241 l
190.62214 110.687244 l
188.473308 111.808648 l
183.99413 114.46679 l
181.530343 115.306359 l
177.728802 116.567196 l
176.551345 117.127898 l
175.899039 117.685633 l
175.774434 118.106901 l
175.941579 118.528169 l
176.418039 119.085904 l
177.858639 120.625609 l
178.460918 121.604612 l
178.903443 122.726016 l
179.192928 124.126287 l
179.243897 125.244723 l
179.09476 126.084293 l
178.70642 126.923862 l
177.710653 128.324133 l
177.222929 129.163702 l
176.942494 130.142706 l
176.924894 130.985241 l
177.179078 132.382546 l
177.578261 134.482952 l
177.672556 136.162091 l
177.585223 138.123064 l
177.283207 139.102067 l
176.155827 141.902609 l
176.053409 143.16048 l
176.439952 149.598167 l
176.138406 150.998438 l
175.362742 153.238278 l
175.143504 154.077847 l
175.086009 155.059817 l
175.430209 158.836396 l
175.430209 158.836396 l
stroke
grestore
gsave
184.3 140 29.95 19.01 clipbox
184.7808 19.008 m
184.871681 21.253655 l
185.208468 23.071168 l
185.62154 25.309277 l
185.64397 26.706581 l
185.450472 28.246286 l
184.985752 30.067825 l
184.128776 32.447099 l
182.551836 36.084244 l
176.853222 48.82315 l
175.481245 52.602696 l
174.4436 56.100407 l
173.643062 59.601084 l
173.072794 63.098795 l
172.686767 66.87834 l
172.473408 71.218587 l
172.431145 76.956139 l
172.587898 80.035548 l
172.859425 81.435819 l
173.280707 82.414822 l
173.810393 83.114958 l
174.633252 83.815093 l
175.826621 84.515229 l
177.753378 85.354798 l
181.706464 86.755069 l
186.723595 88.573642 l
189.575919 89.834479 l
191.919822 91.09235 l
194.089192 92.492621 l
196.275296 94.171759 l
198.611097 96.272166 l
201.200194 98.930308 l
203.886191 102.009717 l
205.469512 104.110124 l
205.861259 104.949693 l
205.902641 105.510395 l
205.753631 106.06813 l
205.39268 106.628832 l
204.768044 107.189533 l
203.628032 107.889669 l
201.234009 109.008106 l
197.004253 110.969079 l
194.576899 112.36935 l
189.710014 115.448759 l
184.566304 117.967467 l
183.933359 118.528169 l
183.585424 119.085904 l
183.442963 119.78604 l
183.515644 120.907443 l
183.765298 123.844452 l
183.693788 125.805425 l
183.46108 126.923862 l
182.999421 128.045266 l
181.858281 130.563973 l
181.626414 131.68241 l
181.552873 133.222115 l
181.470291 137.84123 l
181.237933 139.380934 l
180.665852 141.202474 l
180.220261 142.881612 l
180.037333 144.421317 l
180.002146 147.361293 l
179.849272 150.580136 l
179.518739 152.259275 l
178.836496 155.199251 l
178.725673 157.296691 l
178.73058 158.836396 l
178.73058 158.836396 l
stroke
grestore
gsave
184.3 140 29.95 19.01 clipbox
186.624 19.008 m
186.71837 21.949465 l
187.042101 23.909363 l
187.514337 26.706581 l
187.567037 28.52812 l
187.392264 30.346692 l
186.960675 32.447099 l
186.178461 35.105241 l
184.723426 39.163653 l
181.415338 47.562313 l
178.697876 54.700135 l
177.226076 59.179816 l
176.172515 63.098795 l
175.455339 66.599473 l
174.996085 69.95775 l
174.817189 72.897726 l
174.880128 75.137566 l
175.13887 76.956139 l
175.541815 78.35641 l
176.142256 79.61428 l
176.951454 80.735684 l
177.937307 81.714687 l
179.227654 82.69369 l
181.075836 83.815093 l
184.334718 85.494232 l
188.896851 87.873506 l
191.623327 89.552645 l
194.130733 91.374184 l
196.446668 93.33219 l
198.918875 95.711464 l
201.785379 98.790874 l
204.62175 102.149151 l
206.055779 104.110124 l
206.44467 104.949693 l
206.524263 105.649829 l
206.349892 106.768266 l
206.033977 107.468401 l
205.491568 108.168537 l
204.551901 109.008106 l
202.568675 110.408377 l
198.999705 112.927085 l
194.546684 116.288329 l
190.662675 118.807037 l
189.83921 119.646606 l
189.308966 120.486175 l
188.883018 121.604612 l
188.474601 123.426151 l
187.587193 127.763431 l
186.87079 129.58497 l
186.094357 131.68241 l
185.724571 133.364516 l
185.394048 136.162091 l
184.907058 139.941636 l
184.26611 142.460344 l
183.804257 144.700185 l
183.541333 147.218892 l
183.072613 152.119841 l
182.070646 158.557528 l
182.053091 158.836396 l
182.053091 158.836396 l
stroke
grestore
gsave
184.3 140 29.95 19.01 clipbox
188.4672 19.008 m
188.570393 22.791076 l
188.913115 25.027369 l
189.404311 28.246286 l
189.484342 30.346692 l
189.340996 32.447099 l
188.955233 34.826373 l
188.217266 37.905783 l
186.853165 42.524897 l
183.535464 52.742129 l
181.38189 59.740518 l
180.271273 64.077798 l
179.62701 67.439042 l
179.306385 70.236618 l
179.254403 72.615892 l
179.426605 74.576864 l
179.78807 76.256003 l
180.350278 77.795708 l
181.105074 79.195979 l
182.023589 80.456816 l
183.333684 81.854121 l
185.120607 83.393825 l
188.140839 85.633666 l
192.44414 88.852509 l
195.225982 91.231783 l
197.9818 93.892892 l
200.987267 97.111735 l
204.217019 100.89128 l
206.350591 103.688856 l
206.89904 104.670826 l
207.059657 105.370961 l
207.039767 106.628832 l
206.866152 107.750235 l
206.480093 108.729238 l
205.834561 109.708241 l
204.714516 110.969079 l
199.783264 115.867061 l
197.809423 117.546199 l
195.339276 119.646606 l
194.376678 120.765043 l
193.59987 122.02588 l
192.926418 123.565585 l
192.165198 125.944859 l
191.068174 129.445537 l
189.710512 133.364516 l
189.162489 135.883224 l
187.689644 143.442314 l
187.112805 146.379323 l
186.597741 150.440703 l
186.088556 153.938414 l
185.307491 158.836396 l
185.307491 158.836396 l
stroke
grestore
gsave
184.3 140 29.95 19.01 clipbox
190.3104 19.008 m
190.415738 23.63008 l
190.765263 26.148846 l
191.301467 30.067825 l
191.388084 32.447099 l
191.246934 34.965807 l
190.860665 37.766349 l
190.123985 41.403494 l
188.708032 47.144012 l
185.082989 61.55909 l
184.293984 65.759903 l
183.907542 68.978747 l
183.80943 71.636889 l
183.945975 73.876729 l
184.283659 75.837702 l
184.828082 77.656274 l
185.568762 79.335413 l
186.569336 81.014551 l
187.840462 82.69369 l
189.629435 84.654663 l
192.944133 87.873506 l
197.019541 91.931919 l
200.483936 95.711464 l
204.160626 100.051711 l
206.633267 103.270555 l
207.383862 104.531392 l
207.574291 105.228561 l
207.597486 106.489398 l
207.457109 108.450371 l
207.122682 109.708241 l
206.532627 110.969079 l
205.459511 112.648217 l
202.965289 116.006494 l
201.270161 117.967467 l
198.511653 121.046877 l
197.490773 122.586582 l
196.576681 124.405154 l
195.660703 126.784428 l
192.792688 135.461956 l
192.022646 138.962633 l
190.661717 145.260886 l
189.997869 148.900998 l
188.432594 158.836396 l
188.432594 158.836396 l
stroke
grestore
gsave
184.3 140 29.95 19.01 clipbox
192.1536 19.008 m
192.257233 24.469725 l
192.601783 27.267283 l
193.181276 31.886397 l
193.284 34.686939 l
193.162069 37.484515 l
192.777973 40.845759 l
192.042392 45.183039 l
190.471126 52.881563 l
188.729585 61.698524 l
188.06393 66.178205 l
187.772344 69.536482 l
187.739304 72.337024 l
187.918914 74.716298 l
188.31393 76.956139 l
188.880482 78.917111 l
189.684746 80.875118 l
190.748674 82.83609 l
192.165136 84.93353 l
194.167714 87.455205 l
199.956312 94.171759 l
204.576845 99.769877 l
207.109923 103.131121 l
207.92394 104.531392 l
208.099688 105.228561 l
208.124106 106.628832 l
208.009901 109.28994 l
207.713784 110.829645 l
207.183396 112.36935 l
206.262607 114.327356 l
204.686273 117.127898 l
203.162886 119.367738 l
201.061025 122.447148 l
199.940118 124.544588 l
198.932598 126.923862 l
197.403968 131.264109 l
195.96871 135.74379 l
195.068143 139.380934 l
192.93572 149.458733 l
191.391279 158.836396 l
191.391279 158.836396 l
stroke
grestore
gsave
184.3 140 29.95 19.01 clipbox
193.9968 19.008 m
194.106317 25.44871 l
194.465494 28.667554 l
195.067376 33.986804 l
195.173789 37.066213 l
195.062626 40.285057 l
194.704684 44.064602 l
193.973407 49.241452 l
191.339319 66.599473 l
191.083808 70.379018 l
191.093465 73.458428 l
191.320391 76.116569 l
191.743598 78.495843 l
192.370487 80.735684 l
193.185411 82.83609 l
194.229555 84.93353 l
195.588515 87.173371 l
197.569056 89.973913 l
201.1602 94.593027 l
206.907828 102.009717 l
208.197478 103.97069 l
208.549854 104.810259 l
208.647119 105.649829 l
208.531232 110.408377 l
208.249074 112.226949 l
207.713932 114.187922 l
206.775133 116.70663 l
205.668572 119.085904 l
202.081187 126.223727 l
200.897431 129.445537 l
198.927615 135.601389 l
197.865476 139.662769 l
196.196197 147.218892 l
195.206816 152.538142 l
194.165092 158.836396 l
194.165092 158.836396 l
stroke
grestore
gsave
184.3 140 29.95 19.01 clipbox
195.84 19.008 m
195.949448 26.427713 l
196.298363 29.928391 l
196.948738 36.226644 l
197.059051 39.724355 l
196.946336 43.5039 l
196.575965 47.983581 l
195.808326 54.281834 l
194.306456 66.317639 l
194.017687 70.657886 l
194.007296 74.155597 l
194.218084 77.095572 l
194.632464 79.756681 l
195.218921 82.135955 l
196.035897 84.515229 l
197.101284 86.894503 l
198.418939 89.273777 l
200.23901 92.071353 l
203.180674 96.132732 l
208.173046 102.991687 l
208.943119 104.388991 l
209.142546 105.228561 l
209.162512 106.910666 l
209.046901 111.669214 l
208.754767 113.909055 l
208.184453 116.427762 l
207.355248 119.085904 l
206.18494 122.02588 l
204.16849 127.066263 l
202.831556 131.124675 l
201.045249 137.283495 l
199.867949 142.181477 l
198.186888 150.298302 l
196.996216 157.296691 l
196.748427 158.836396 l
196.748427 158.836396 l
stroke
grestore
gsave
184.3 140 29.95 19.01 clipbox
197.6832 19.008 m
197.788305 27.406716 l
198.123727 31.186262 l
198.825992 38.605918 l
198.939553 42.524897 l
198.833666 46.722744 l
198.470694 51.763126 l
197.660171 59.46165 l
196.835548 67.857343 l
196.617085 72.337024 l
196.658021 75.977136 l
196.908456 79.056545 l
197.35415 81.854121 l
198.007316 84.515229 l
198.862295 87.033937 l
199.911315 89.413211 l
201.283381 91.931919 l
203.155321 94.871895 l
206.686116 99.912277 l
208.923477 103.270555 l
209.529656 104.531392 l
209.670089 105.370961 l
209.67647 108.168537 l
209.559625 113.066519 l
209.245917 115.867061 l
208.68002 118.807037 l
207.881991 121.747012 l
203.857626 135.183088 l
202.424852 141.06304 l
200.952405 148.200862 l
199.737847 155.059817 l
199.143206 158.836396 l
199.143206 158.836396 l
stroke
grestore
gsave
184.3 140 29.95 19.01 clipbox
199.5264 19.008 m
199.632093 28.52812 l
199.972232 32.725967 l
200.690774 40.985192 l
200.808228 45.322473 l
200.703139 49.941587 l
200.336828 55.539705 l
199.020865 72.897726 l
199.037337 76.816705 l
199.262314 80.174982 l
199.68928 83.254392 l
200.300146 86.054934 l
201.069751 88.573642 l
202.030882 90.952916 l
203.232737 93.33219 l
204.901963 96.132732 l
210.016832 104.388991 l
210.177721 105.228561 l
210.192147 107.468401 l
210.07855 114.46679 l
209.782393 117.685633 l
209.266488 120.907443 l
208.471219 124.405154 l
204.887636 139.102067 l
203.498373 145.961022 l
202.077333 154.077847 l
201.355766 158.836396 l
201.355766 158.836396 l
stroke
grestore
gsave
184.3 140 29.95 19.01 clipbox
201.3696 19.008 m
201.479412 29.785991 l
201.825318 34.405105 l
202.539134 43.364467 l
202.649546 47.983581 l
202.541227 52.881563 l
202.159934 59.179816 l
201.268056 72.758292 l
201.234108 77.235006 l
201.420231 81.014551 l
201.806184 84.375795 l
202.357086 87.312804 l
203.080796 89.973913 l
203.962701 92.353187 l
205.084933 94.732461 l
206.660586 97.533003 l
210.403395 103.97069 l
210.668708 104.949693 l
210.70633 106.349964 l
210.586951 116.145928 l
210.283398 119.925473 l
209.766912 123.565585 l
208.814904 128.463567 l
205.822318 143.442314 l
204.343755 152.259275 l
203.395687 158.836396 l
203.395687 158.836396 l
stroke
grestore
gsave
184.3 140 29.95 19.01 clipbox
203.2128 19.008 m
203.323399 31.046828 l
203.669635 36.084244 l
204.342715 45.322473 l
204.446396 50.223421 l
204.329426 55.539705 l
203.915371 62.959361 l
203.354429 73.316027 l
203.313434 78.35641 l
203.493529 82.414822 l
203.876299 86.054934 l
204.41647 89.134344 l
205.067748 91.653051 l
205.912607 94.032326 l
207.061832 96.551033 l
208.805024 99.769877 l
210.669344 103.270555 l
211.119586 104.531392 l
211.21611 105.510395 l
211.212311 111.52978 l
211.089331 118.106901 l
210.786462 122.304748 l
210.239038 126.644995 l
209.044967 133.922251 l
206.693501 148.340296 l
205.39589 157.857392 l
205.275614 158.836396 l
205.275614 158.836396 l
stroke
grestore
gsave
184.3 140 29.95 19.01 clipbox
205.056 19.008 m
205.164674 32.307665 l
205.505372 37.766349 l
206.101165 47.001611 l
206.188695 52.320861 l
206.052406 58.200813 l
205.517806 68.978747 l
205.280362 76.256003 l
205.332642 81.296386 l
205.591554 85.494232 l
206.035899 89.134344 l
206.585032 91.931919 l
207.263242 94.311193 l
208.1699 96.690467 l
209.547831 99.630443 l
211.313515 103.409988 l
211.670285 104.670826 l
211.728965 105.928696 l
211.610878 119.78604 l
211.315254 124.544588 l
210.757019 129.724404 l
209.403399 139.662769 l
207.770219 152.119841 l
207.011318 158.836396 l
207.011318 158.836396 l
stroke
grestore
gsave
184.3 140 29.95 19.01 clipbox
206.8992 19.008 m
207.008825 33.70497 l
207.365142 40.003223 l
207.810793 48.401882 l
207.875768 54.1424 l
207.714738 61.001355 l
207.16288 79.195979 l
207.297358 84.375795 l
207.626697 88.713076 l
208.092414 92.071353 l
208.681254 94.732461 l
209.476703 97.251169 l
210.708168 100.330579 l
211.942386 103.549422 l
212.206776 104.810259 l
212.238253 106.489398 l
212.117758 121.886446 l
211.811339 127.34513 l
211.199143 133.922251 l
208.621624 158.836396 l
208.621624 158.836396 l
stroke
grestore
gsave
184.3 140 29.95 19.01 clipbox
208.7424 19.008 m
208.848727 35.105241 l
209.244446 43.364467 l
209.497851 50.781157 l
209.493673 57.500678 l
209.232641 67.299608 l
208.990797 78.35641 l
209.076875 84.654663 l
209.363489 89.692079 l
209.779333 93.33219 l
210.319821 96.132732 l
211.101757 98.930308 l
212.637337 104.110124 l
212.744758 105.370961 l
212.743086 114.327356 l
212.620299 124.26572 l
212.298274 130.703407 l
211.542969 140.502338 l
210.128125 158.836396 l
210.128125 158.836396 l
stroke
grestore
gsave
184.3 140 29.95 19.01 clipbox
210.5856 19.008 m
210.695637 37.066213 l
211.125436 55.539705 l
210.981532 65.617503 l
210.775079 80.735684 l
210.909483 87.734072 l
211.217399 92.913889 l
211.624658 96.272166 l
212.249825 99.491009 l
213.182092 104.110124 l
213.25585 105.649829 l
213.142473 126.366127 l
212.810805 134.76182 l
211.55472 158.836396 l
211.55472 158.836396 l
stroke
grestore
gsave
184.3 140 29.95 19.01 clipbox
212.4288 19.008 m
212.539109 40.563924 l
212.705853 55.400271 l
212.581542 70.936753 l
212.554504 85.072964 l
212.75158 93.192756 l
213.073038 97.811871 l
213.763834 105.928696 l
213.656547 130.142706 l
213.239968 146.521724 l
212.927068 158.836396 l
212.927068 158.836396 l
stroke
grestore
gsave
184.3 140 29.95 19.01 clipbox
214.272 19.008 m
214.272 158.836396 l
214.272 158.836396 l
stroke
grestore
0.800 setlinewidth
0 setlinejoin
2 setlinecap
[] 0 setdash
gsave
29.952 19.008 m
29.952 158.976 l
stroke
grestore
gsave
214.272 19.008 m
214.272 158.976 l
stroke
grestore
gsave
29.952 19.008 m
214.272 19.008 l
stroke
grestore
gsave
29.952 158.976 m
214.272 158.976 l
stroke
grestore

end
showpage
