%!PS-Adobe-3.0 EPSF-3.0
%%Title: part.eps
%%Creator: matplotlib version 2.0.0, http://matplotlib.org/
%%CreationDate: Sun Mar 25 12:26:11 2018
%%Orientation: portrait
%%BoundingBox: 190 309 421 482
%%EndComments
%%BeginProlog
/mpldict 10 dict def
mpldict begin
/m { moveto } bind def
/l { lineto } bind def
/r { rlineto } bind def
/c { curveto } bind def
/cl { closepath } bind def
/box {
m
1 index 0 r
0 exch r
neg 0 r
cl
} bind def
/clipbox {
box
clip
newpath
} bind def
%!PS-Adobe-3.0 Resource-Font
%%Title: DejaVu Serif
%%Copyright: Copyright (c) 2003 by Bitstream, Inc. All Rights Reserved. DejaVu changes are in public domain 
%%Creator: Converted from TrueType to type 3 by PPR
25 dict begin
/_d{bind def}bind def
/_m{moveto}_d
/_l{lineto}_d
/_cl{closepath eofill}_d
/_c{curveto}_d
/_sc{7 -1 roll{setcachedevice}{pop pop pop pop pop pop}ifelse}_d
/_e{exec}_d
/FontName /DejaVuSerif def
/PaintType 0 def
/FontMatrix[.001 0 0 .001 0 0]def
/FontBBox[-770 -347 2105 1109]def
/FontType 3 def
/Encoding [ /space /comma /period /zero /one /two /three /four /five /six /eight /y /uni043C ] def
/FontInfo 10 dict dup begin
/FamilyName (DejaVu Serif) def
/FullName (DejaVu Serif) def
/Notice (Copyright (c) 2003 by Bitstream, Inc. All Rights Reserved. DejaVu changes are in public domain ) def
/Weight (Book) def
/Version (Version 2.35) def
/ItalicAngle 0.0 def
/isFixedPitch false def
/UnderlinePosition -130 def
/UnderlineThickness 90 def
end readonly def
/CharStrings 13 dict dup begin
/space{318 0 0 0 0 0 _sc
}_d
/comma{318 0 36 -135 221 111 _sc
36 -96 _m
66 -73 89 -47 103 -17 _c
117 13 125 49 125 93 _c
125 111 _l
221 111 _l
218 55 205 7 181 -32 _c
157 -71 122 -105 75 -135 _c
36 -96 _l
_cl}_d
/period{318 0 94 -13 224 116 _sc
94 51 _m
94 69 100 84 112 97 _c
124 109 140 116 159 116 _c
177 116 192 109 205 97 _c
217 84 224 69 224 51 _c
224 33 217 17 205 5 _c
192 -7 177 -13 159 -13 _c
140 -13 124 -7 112 5 _c
100 17 94 32 94 51 _c
_cl}_d
/zero{636 0 66 -13 570 742 _sc
318 34 _m
368 34 405 61 430 116 _c
454 170 467 253 467 364 _c
467 474 454 557 430 612 _c
405 666 368 694 318 694 _c
268 694 230 666 206 612 _c
181 557 169 474 169 364 _c
169 253 181 170 206 116 _c
230 61 268 34 318 34 _c
318 -13 _m
238 -13 176 20 132 86 _c
88 152 66 244 66 364 _c
66 483 88 576 132 642 _c
176 708 238 742 318 742 _c
397 742 459 708 503 642 _c
547 576 570 483 570 364 _c
570 244 547 152 503 86 _c
459 20 397 -13 318 -13 _c
_cl}_d
/one{636 0 122 0 494 742 _sc
142 0 _m
142 52 _l
269 52 _l
269 658 _l
122 563 _l
122 627 _l
300 742 _l
367 742 _l
367 52 _l
494 52 _l
494 0 _l
142 0 _l
_cl}_d
/two{{636 0 68 0 538 742 _sc
128 555 _m
73 555 _l
73 685 _l
107 703 142 717 178 727 _c
213 737 248 742 282 742 _c
358 742 418 723 462 687 _c
506 650 528 600 528 537 _c
528 465 478 380 378 281 _c
370 273 365 268 361 264 _c
177 80 _l
481 80 _l
481 170 _l
538 170 _l
538 0 _l
68 0 _l
68 53 _l
289 274 _l
337 322 372 367 393 408 _c
414 449 425 492 425 537 _c
}_e{425 586 412 624 386 652 _c
360 680 325 694 281 694 _c
234 694 198 682 173 659 _c
147 636 132 601 128 555 _c
_cl}_e}_d
/three{{636 0 76 -13 562 742 _sc
97 698 _m
135 712 171 723 206 731 _c
241 738 274 742 305 742 _c
376 742 432 726 472 696 _c
512 665 532 622 532 568 _c
532 524 518 487 490 458 _c
462 428 423 408 373 398 _c
433 389 479 367 512 332 _c
545 297 562 252 562 197 _c
562 129 539 77 493 41 _c
447 5 382 -13 296 -13 _c
258 -13 220 -9 184 -1 _c
148 6 112 18 76 35 _c
76 177 _l
}_e{131 177 _l
134 129 150 94 178 70 _c
206 46 246 34 298 34 _c
348 34 387 48 416 77 _c
444 106 459 146 459 196 _c
459 253 444 296 414 326 _c
384 355 341 370 284 370 _c
238 370 _l
238 420 _l
262 420 _l
319 420 362 431 390 455 _c
418 479 433 514 433 562 _c
433 604 421 637 398 660 _c
374 682 341 694 297 694 _c
253 694 218 683 194 662 _c
170 641 156 610 152 570 _c
}_e{97 570 _l
97 698 _l
_cl}_e}_d
/four{636 0 31 0 586 742 _sc
349 247 _m
349 635 _l
100 247 _l
349 247 _l
564 0 _m
232 0 _l
232 52 _l
349 52 _l
349 195 _l
31 195 _l
31 248 _l
350 742 _l
447 742 _l
447 247 _l
586 247 _l
586 195 _l
447 195 _l
447 52 _l
564 52 _l
564 0 _l
_cl}_d
/five{{636 0 85 -13 559 729 _sc
503 729 _m
503 649 _l
169 649 _l
169 440 _l
185 452 205 460 228 466 _c
250 472 276 475 304 475 _c
382 475 444 453 490 409 _c
536 365 559 306 559 231 _c
559 153 536 93 490 51 _c
444 8 379 -13 296 -13 _c
262 -13 228 -9 193 -1 _c
157 6 121 18 85 35 _c
85 177 _l
140 177 _l
143 130 158 94 184 70 _c
210 46 248 34 296 34 _c
}_e{347 34 386 51 414 85 _c
442 119 456 167 456 231 _c
456 294 442 342 415 376 _c
387 410 348 427 296 427 _c
266 427 240 421 218 411 _c
196 401 176 385 159 363 _c
117 363 _l
117 729 _l
503 729 _l
_cl}_e}_d
/six{{636 0 67 -13 573 742 _sc
327 34 _m
373 34 408 50 433 84 _c
457 118 470 166 470 230 _c
470 293 457 341 433 375 _c
408 409 373 426 327 426 _c
280 426 244 409 220 377 _c
196 344 184 297 184 236 _c
184 171 196 121 221 86 _c
245 51 281 34 327 34 _c
168 401 _m
190 425 215 444 243 456 _c
271 468 302 474 338 474 _c
410 474 468 452 510 408 _c
552 364 573 305 573 230 _c
}_e{573 156 550 97 505 53 _c
459 9 399 -13 323 -13 _c
241 -13 177 17 133 78 _c
89 139 67 227 67 341 _c
67 468 93 567 145 637 _c
197 707 271 742 367 742 _c
393 742 420 739 448 735 _c
476 730 505 723 535 713 _c
535 593 _l
480 593 _l
476 625 463 650 442 668 _c
421 685 393 694 357 694 _c
293 694 246 670 215 622 _c
184 574 168 500 168 401 _c
_cl}_e}_d
/eight{{636 0 67 -13 569 742 _sc
466 199 _m
466 251 453 291 427 320 _c
401 349 364 364 318 364 _c
271 364 235 349 209 320 _c
183 291 170 251 170 199 _c
170 147 183 106 209 77 _c
235 48 271 34 318 34 _c
364 34 401 48 427 77 _c
453 106 466 147 466 199 _c
446 553 _m
446 597 434 632 412 657 _c
389 681 358 694 318 694 _c
278 694 246 681 224 657 _c
201 632 190 597 190 553 _c
}_e{190 508 201 473 224 449 _c
246 424 278 412 318 412 _c
358 412 389 424 412 449 _c
434 473 446 508 446 553 _c
393 388 _m
448 380 491 360 522 327 _c
553 293 569 251 569 199 _c
569 131 547 78 504 42 _c
460 5 398 -13 318 -13 _c
237 -13 175 5 132 42 _c
88 78 67 131 67 199 _c
67 251 82 293 113 327 _c
144 360 187 380 243 388 _c
193 396 156 415 130 444 _c
}_e{104 472 91 509 91 553 _c
91 611 111 657 151 691 _c
191 725 247 742 318 742 _c
388 742 444 725 484 691 _c
524 657 545 611 545 553 _c
545 509 531 472 505 444 _c
479 415 441 396 393 388 _c
_cl}_e}_d
/y{{565 0 -2 -221 562 519 _sc
216 -94 _m
250 -8 _l
56 467 _l
-2 467 _l
-2 519 _l
236 519 _l
236 467 _l
153 467 _l
299 110 _l
445 467 _l
367 467 _l
367 519 _l
562 519 _l
562 467 _l
504 467 _l
266 -116 _l
250 -156 232 -184 212 -199 _c
192 -213 164 -221 128 -221 _c
112 -221 97 -219 81 -217 _c
65 -214 48 -210 32 -206 _c
32 -107 _l
78 -107 _l
80 -129 85 -144 95 -154 _c
}_e{104 -164 118 -169 138 -169 _c
156 -169 170 -164 181 -154 _c
192 -144 204 -124 216 -94 _c
_cl}_e}_d
/uni043C{778 0 36 0 742 519 _sc
36 0 _m
36 52 _l
117 52 _l
117 467 _l
36 467 _l
36 519 _l
247 519 _l
393 162 _l
539 519 _l
742 519 _l
742 467 _l
661 467 _l
661 52 _l
742 52 _l
742 0 _l
490 0 _l
490 52 _l
571 52 _l
571 453 _l
407 52 _l
341 52 _l
177 453 _l
177 52 _l
258 52 _l
258 0 _l
36 0 _l
_cl}_d
end readonly def

/BuildGlyph
 {exch begin
 CharStrings exch
 2 copy known not{pop /.notdef}if
 true 3 1 roll get exec
 end}_d

/BuildChar {
 1 index /Encoding get exch get
 1 index /BuildGlyph get exec
}_d

FontName currentdict end definefont pop
%!PS-Adobe-3.0 Resource-Font
%%Title: DejaVu Sans Oblique
%%Copyright: Copyright (c) 2003 by Bitstream, Inc. All Rights Reserved. Copyright (c) 2006 by Tavmjong Bah. All Rights Reserved. DejaVu changes are in public domain 
%%Creator: Converted from TrueType to type 3 by PPR
25 dict begin
/_d{bind def}bind def
/_m{moveto}_d
/_l{lineto}_d
/_cl{closepath eofill}_d
/_c{curveto}_d
/_sc{7 -1 roll{setcachedevice}{pop pop pop pop pop pop}ifelse}_d
/_e{exec}_d
/FontName /DejaVuSans-Oblique def
/PaintType 0 def
/FontMatrix[.001 0 0 .001 0 0]def
/FontBBox[-1016 -350 1659 1068]def
/FontType 3 def
/Encoding [ /epsilon ] def
/FontInfo 10 dict dup begin
/FamilyName (DejaVu Sans) def
/FullName (DejaVu Sans Oblique) def
/Notice (Copyright (c) 2003 by Bitstream, Inc. All Rights Reserved. Copyright (c) 2006 by Tavmjong Bah. All Rights Reserved. DejaVu changes are in public domain ) def
/Weight (Oblique) def
/Version (Version 2.35) def
/ItalicAngle -11.0 def
/isFixedPitch false def
/UnderlinePosition -130 def
/UnderlineThickness 90 def
end readonly def
/CharStrings 1 dict dup begin
/epsilon{{541 0 39 -13 506 561 _sc
197 295 _m
162 303 137 317 122 338 _c
110 353 104 371 104 391 _c
104 446 130 490 184 522 _c
225 548 278 561 342 561 _c
366 561 392 559 419 555 _c
446 551 475 545 505 537 _c
490 456 _l
460 465 432 472 407 476 _c
381 480 357 482 334 482 _c
295 482 263 474 238 460 _c
207 442 192 420 192 394 _c
192 376 200 362 216 350 _c
234 336 263 329 301 329 _c
}_e{376 329 _l
362 254 _l
290 254 _l
245 254 209 245 183 229 _c
147 207 129 178 129 143 _c
129 121 138 102 158 88 _c
182 70 218 61 268 61 _c
298 61 327 63 357 69 _c
385 75 412 85 438 97 _c
422 13 _l
390 4 361 -2 333 -6 _c
305 -10 277 -13 251 -13 _c
173 -13 117 1 81 30 _c
53 52 39 83 39 122 _c
39 174 57 216 94 248 _c
120 271 155 287 197 295 _c
_cl}_e}_d
end readonly def

/BuildGlyph
 {exch begin
 CharStrings exch
 2 copy known not{pop /.notdef}if
 true 3 1 roll get exec
 end}_d

/BuildChar {
 1 index /Encoding get exch get
 1 index /BuildGlyph get exec
}_d

FontName currentdict end definefont pop
%!PS-Adobe-3.0 Resource-Font
%%Title: DejaVu Sans
%%Copyright: Copyright (c) 2003 by Bitstream, Inc. All Rights Reserved. Copyright (c) 2006 by Tavmjong Bah. All Rights Reserved. DejaVu changes are in public domain 
%%Creator: Converted from TrueType to type 3 by PPR
25 dict begin
/_d{bind def}bind def
/_m{moveto}_d
/_l{lineto}_d
/_cl{closepath eofill}_d
/_c{curveto}_d
/_sc{7 -1 roll{setcachedevice}{pop pop pop pop pop pop}ifelse}_d
/_e{exec}_d
/FontName /DejaVuSans def
/PaintType 0 def
/FontMatrix[.001 0 0 .001 0 0]def
/FontBBox[-1021 -463 1793 1232]def
/FontType 3 def
/Encoding [ /m /n /o ] def
/FontInfo 10 dict dup begin
/FamilyName (DejaVu Sans) def
/FullName (DejaVu Sans) def
/Notice (Copyright (c) 2003 by Bitstream, Inc. All Rights Reserved. Copyright (c) 2006 by Tavmjong Bah. All Rights Reserved. DejaVu changes are in public domain ) def
/Weight (Book) def
/Version (Version 2.35) def
/ItalicAngle 0.0 def
/isFixedPitch false def
/UnderlinePosition -130 def
/UnderlineThickness 90 def
end readonly def
/CharStrings 3 dict dup begin
/m{{974 0 91 0 889 560 _sc
520 442 _m
542 482 569 511 600 531 _c
631 550 668 560 711 560 _c
767 560 811 540 842 500 _c
873 460 889 403 889 330 _c
889 0 _l
799 0 _l
799 327 _l
799 379 789 418 771 444 _c
752 469 724 482 686 482 _c
639 482 602 466 575 435 _c
548 404 535 362 535 309 _c
535 0 _l
445 0 _l
445 327 _l
445 379 435 418 417 444 _c
398 469 369 482 331 482 _c
}_e{285 482 248 466 221 435 _c
194 404 181 362 181 309 _c
181 0 _l
91 0 _l
91 547 _l
181 547 _l
181 462 _l
201 495 226 520 255 536 _c
283 552 317 560 357 560 _c
397 560 430 550 458 530 _c
486 510 506 480 520 442 _c
_cl}_e}_d
/n{634 0 91 0 549 560 _sc
549 330 _m
549 0 _l
459 0 _l
459 327 _l
459 379 448 417 428 443 _c
408 469 378 482 338 482 _c
289 482 251 466 223 435 _c
195 404 181 362 181 309 _c
181 0 _l
91 0 _l
91 547 _l
181 547 _l
181 462 _l
202 494 227 519 257 535 _c
286 551 320 560 358 560 _c
420 560 468 540 500 501 _c
532 462 549 405 549 330 _c
_cl}_d
/o{612 0 55 -13 557 560 _sc
306 484 _m
258 484 220 465 192 427 _c
164 389 150 338 150 273 _c
150 207 163 156 191 118 _c
219 80 257 62 306 62 _c
354 62 392 80 420 118 _c
448 156 462 207 462 273 _c
462 337 448 389 420 427 _c
392 465 354 484 306 484 _c
306 560 _m
384 560 445 534 490 484 _c
534 433 557 363 557 273 _c
557 183 534 113 490 63 _c
445 12 384 -13 306 -13 _c
227 -13 165 12 121 63 _c
77 113 55 183 55 273 _c
55 363 77 433 121 484 _c
165 534 227 560 306 560 _c
_cl}_d
end readonly def

/BuildGlyph
 {exch begin
 CharStrings exch
 2 copy known not{pop /.notdef}if
 true 3 1 roll get exec
 end}_d

/BuildChar {
 1 index /Encoding get exch get
 1 index /BuildGlyph get exec
}_d

FontName currentdict end definefont pop
end
%%EndProlog
mpldict begin
190.8 309.6 translate
230.4 172.8 0 0 clipbox
gsave
0 0 m
230.4 0 l
230.4 172.8 l
0 172.8 l
cl
1.000 setgray
fill
grestore
gsave
29.952 19.008 m
214.272 19.008 l
214.272 158.976 l
29.952 158.976 l
cl
1.000 setgray
fill
grestore
0.800 setlinewidth
1 setlinejoin
0 setlinecap
[] 0 setdash
0.000 setgray
gsave
/o {
gsave
newpath
translate
0.8 setlinewidth
1 setlinejoin
0 setlinecap
0 0 m
0 -3.5 l

gsave
0.000 setgray
fill
grestore
stroke
grestore
} bind def
29.952 19.008 o
grestore
/DejaVuSerif findfont
9.000 scalefont
setfont
gsave
22.787937 5.164250 translate
0.000000 rotate
0.000000 0.000000 m /two glyphshow
5.726074 0.000000 m /period glyphshow
8.586914 0.000000 m /zero glyphshow
grestore
gsave
/o {
gsave
newpath
translate
0.8 setlinewidth
1 setlinejoin
0 setlinecap
0 0 m
0 -3.5 l

gsave
0.000 setgray
fill
grestore
stroke
grestore
} bind def
76.032 19.008 o
grestore
gsave
68.867938 5.164250 translate
0.000000 rotate
0.000000 0.000000 m /two glyphshow
5.726074 0.000000 m /period glyphshow
8.586914 0.000000 m /five glyphshow
grestore
gsave
/o {
gsave
newpath
translate
0.8 setlinewidth
1 setlinejoin
0 setlinecap
0 0 m
0 -3.5 l

gsave
0.000 setgray
fill
grestore
stroke
grestore
} bind def
122.112 19.008 o
grestore
gsave
114.947937 5.164250 translate
0.000000 rotate
0.000000 0.000000 m /three glyphshow
5.726074 0.000000 m /period glyphshow
8.586914 0.000000 m /zero glyphshow
grestore
gsave
/o {
gsave
newpath
translate
0.8 setlinewidth
1 setlinejoin
0 setlinecap
0 0 m
0 -3.5 l

gsave
0.000 setgray
fill
grestore
stroke
grestore
} bind def
168.192 19.008 o
grestore
gsave
161.027938 5.164250 translate
0.000000 rotate
0.000000 0.000000 m /three glyphshow
5.726074 0.000000 m /period glyphshow
8.586914 0.000000 m /five glyphshow
grestore
gsave
201.881375 5.289250 translate
0.000000 rotate
0.000000 0.000000 m /y glyphshow
5.068848 0.000000 m /comma glyphshow
7.929688 0.000000 m /space glyphshow
10.790527 0.000000 m /uni043C glyphshow
17.791016 0.000000 m /uni043C glyphshow
grestore
gsave
/o {
gsave
newpath
translate
0.8 setlinewidth
1 setlinejoin
0 setlinecap
0 0 m
-3.5 0 l

gsave
0.000 setgray
fill
grestore
stroke
grestore
} bind def
29.952 19.008 o
grestore
gsave
8.623875 15.586125 translate
0.000000 rotate
0.000000 0.000000 m /one glyphshow
5.726074 0.000000 m /period glyphshow
8.586914 0.000000 m /zero glyphshow
grestore
gsave
/o {
gsave
newpath
translate
0.8 setlinewidth
1 setlinejoin
0 setlinecap
0 0 m
-3.5 0 l

gsave
0.000 setgray
fill
grestore
stroke
grestore
} bind def
29.952 47.0016 o
grestore
gsave
8.623875 43.579725 translate
0.000000 rotate
0.000000 0.000000 m /one glyphshow
5.726074 0.000000 m /period glyphshow
8.586914 0.000000 m /two glyphshow
grestore
gsave
/o {
gsave
newpath
translate
0.8 setlinewidth
1 setlinejoin
0 setlinecap
0 0 m
-3.5 0 l

gsave
0.000 setgray
fill
grestore
stroke
grestore
} bind def
29.952 74.9952 o
grestore
gsave
8.623875 71.573325 translate
0.000000 rotate
0.000000 0.000000 m /one glyphshow
5.726074 0.000000 m /period glyphshow
8.586914 0.000000 m /four glyphshow
grestore
gsave
/o {
gsave
newpath
translate
0.8 setlinewidth
1 setlinejoin
0 setlinecap
0 0 m
-3.5 0 l

gsave
0.000 setgray
fill
grestore
stroke
grestore
} bind def
29.952 102.989 o
grestore
gsave
8.623875 99.566925 translate
0.000000 rotate
0.000000 0.000000 m /one glyphshow
5.726074 0.000000 m /period glyphshow
8.586914 0.000000 m /six glyphshow
grestore
gsave
/o {
gsave
newpath
translate
0.8 setlinewidth
1 setlinejoin
0 setlinecap
0 0 m
-3.5 0 l

gsave
0.000 setgray
fill
grestore
stroke
grestore
} bind def
29.952 130.982 o
grestore
gsave
8.623875 127.560525 translate
0.000000 rotate
0.000000 0.000000 m /one glyphshow
5.726074 0.000000 m /period glyphshow
8.586914 0.000000 m /eight glyphshow
grestore
gsave
12.952000 160.976000 translate
0.000000 rotate
/DejaVuSans-Oblique findfont
9.0 scalefont
setfont
0.000000 0.953125 moveto
/epsilon glyphshow

/DejaVuSans findfont
6.3 scalefont
setfont
4.864746 -0.523438 moveto
/n glyphshow

8.857617 -0.523438 moveto
/o glyphshow

12.712061 -0.523438 moveto
/m glyphshow


grestore
1.000 setlinewidth
1 setlinecap
gsave
184.3 140 29.95 19.01 clipbox
0 0 m
stroke
grestore
gsave
184.3 140 29.95 19.01 clipbox
0 0 m
stroke
grestore
gsave
184.3 140 29.95 19.01 clipbox
0 0 m
stroke
grestore
gsave
184.3 140 29.95 19.01 clipbox
0 0 m
stroke
grestore
gsave
184.3 140 29.95 19.01 clipbox
0 0 m
stroke
grestore
gsave
184.3 140 29.95 19.01 clipbox
0 0 m
stroke
grestore
gsave
184.3 140 29.95 19.01 clipbox
0 0 m
stroke
grestore
gsave
184.3 140 29.95 19.01 clipbox
0 0 m
stroke
grestore
gsave
184.3 140 29.95 19.01 clipbox
0 0 m
stroke
grestore
gsave
184.3 140 29.95 19.01 clipbox
0 0 m
stroke
grestore
gsave
184.3 140 29.95 19.01 clipbox
0 0 m
stroke
grestore
gsave
184.3 140 29.95 19.01 clipbox
0 0 m
stroke
grestore
gsave
184.3 140 29.95 19.01 clipbox
0 0 m
stroke
grestore
gsave
184.3 140 29.95 19.01 clipbox
0 0 m
stroke
grestore
gsave
184.3 140 29.95 19.01 clipbox
0 0 m
stroke
grestore
gsave
184.3 140 29.95 19.01 clipbox
0 0 m
stroke
grestore
gsave
184.3 140 29.95 19.01 clipbox
0 0 m
stroke
grestore
gsave
184.3 140 29.95 19.01 clipbox
0 0 m
stroke
grestore
gsave
184.3 140 29.95 19.01 clipbox
0 0 m
stroke
grestore
gsave
184.3 140 29.95 19.01 clipbox
0 0 m
stroke
grestore
gsave
184.3 140 29.95 19.01 clipbox
0 0 m
stroke
grestore
gsave
184.3 140 29.95 19.01 clipbox
0 0 m
stroke
grestore
gsave
184.3 140 29.95 19.01 clipbox
0 0 m
stroke
grestore
gsave
184.3 140 29.95 19.01 clipbox
0 0 m
stroke
grestore
gsave
184.3 140 29.95 19.01 clipbox
0 0 m
stroke
grestore
gsave
184.3 140 29.95 19.01 clipbox
0 0 m
stroke
grestore
gsave
184.3 140 29.95 19.01 clipbox
0 0 m
stroke
grestore
gsave
184.3 140 29.95 19.01 clipbox
0 0 m
stroke
grestore
gsave
184.3 140 29.95 19.01 clipbox
0 0 m
stroke
grestore
gsave
184.3 140 29.95 19.01 clipbox
0 0 m
stroke
grestore
gsave
184.3 140 29.95 19.01 clipbox
0 0 m
stroke
grestore
gsave
184.3 140 29.95 19.01 clipbox
0 0 m
stroke
grestore
gsave
184.3 140 29.95 19.01 clipbox
-1 18.595068 m
1.587002 19.571555 l
3.988209 20.692958 l
5.88554 21.808428 l
7.385993 22.929832 l
8.541999 24.051235 l
9.406186 25.166705 l
10.168997 26.566977 l
10.675056 27.967248 l
11.125369 29.931187 l
11.471765 32.725796 l
11.550707 35.526338 l
11.443754 38.048013 l
11.126416 40.006019 l
10.590151 41.964025 l
9.925425 43.643163 l
9.15409 45.043434 l
8.327796 46.164838 l
7.508652 47.007374 l
6.318346 47.843977 l
4.672877 48.686513 l
1.90233 49.801983 l
-1 50.856218 l
-1 50.856218 l
stroke
grestore
gsave
184.3 140 29.95 19.01 clipbox
-1 12.490298 m
4.077728 13.691603 l
6.830985 14.534139 l
8.874769 15.370741 l
10.369007 16.213277 l
11.440116 17.04988 l
12.225459 17.892416 l
12.962154 19.013819 l
13.559584 20.408157 l
13.979819 22.093229 l
14.206365 24.051235 l
14.29211 27.409512 l
14.245962 47.843977 l
14.064289 50.086784 l
13.760329 51.481121 l
13.297353 52.602525 l
12.742584 53.445061 l
11.922496 54.281663 l
10.700172 55.124199 l
8.94545 55.960802 l
5.173705 57.361073 l
-1 59.636243 l
-1 59.636243 l
stroke
grestore
gsave
184.3 140 29.95 19.01 clipbox
-1 8.768446 m
4.686107 10.333326 l
10.787829 12.012464 l
12.889092 12.855 l
13.785151 13.412735 l
14.368638 13.97047 l
14.860279 14.813006 l
15.131411 15.93441 l
15.216222 17.613548 l
15.217955 35.526338 l
15.113918 57.924742 l
14.88928 59.040212 l
14.56151 59.882748 l
14.013263 60.71935 l
13.100573 61.561886 l
12.219715 62.119621 l
9.875708 63.241025 l
2.553234 66.599302 l
-1 68.335361 l
-1 68.335361 l
stroke
grestore
gsave
184.3 140 29.95 19.01 clipbox
-1 5.773152 m
3.062147 7.253916 l
9.129466 9.211922 l
13.415934 10.612193 l
14.70571 11.169928 l
15.567175 11.733597 l
15.994526 12.291332 l
16.129772 12.855 l
16.139555 16.213277 l
16.068584 65.199031 l
15.818716 66.320435 l
15.374476 67.157037 l
14.812583 67.720706 l
13.924581 68.278441 l
9.812893 70.236447 l
2.325899 73.879525 l
-0.623436 75.558664 l
-1 75.792025 l
-1 75.792025 l
stroke
grestore
gsave
184.3 140 29.95 19.01 clipbox
-1 2.945602 m
2.99245 4.732241 l
7.91629 6.696181 l
15.221181 9.49079 l
16.260984 10.054458 l
16.880921 10.612193 l
17.059508 11.169928 l
17.061155 30.488922 l
16.988625 70.800115 l
16.855079 71.078983 l
16.549322 71.35785 l
14.764834 72.200386 l
11.953875 73.600657 l
9.150454 75.279796 l
6.352499 77.237802 l
3.571356 79.474676 l
1.146719 81.717483 l
-0.923562 83.954357 l
-1 84.045315 l
-1 84.045315 l
stroke
grestore
gsave
184.3 140 29.95 19.01 clipbox
-1 -0.489811 m
2.754783 1.652832 l
6.614478 3.616771 l
12.11075 6.132512 l
16.23265 8.090519 l
17.479642 8.933055 l
17.912458 9.49079 l
17.982755 10.054458 l
17.894205 72.758121 l
15.506324 74.716128 l
12.186636 77.795537 l
9.186249 80.874947 l
6.743319 83.675489 l
4.602959 86.476031 l
2.744573 89.276573 l
0.80195 92.63485 l
-1 96.151852 l
-1 96.151852 l
stroke
grestore
gsave
184.3 140 29.95 19.01 clipbox
5.377179 -1 m
8.541713 1.095097 l
13.228105 3.895639 l
16.874481 6.132512 l
18.25722 7.253916 l
18.696979 7.811651 l
18.895649 8.375319 l
18.904355 12.012464 l
18.830749 73.600657 l
18.13479 75.000928 l
16.713746 77.237802 l
9.054352 88.712905 l
7.042594 92.355983 l
4.981324 96.550863 l
1.588071 104.109953 l
-1 110.290051 l
-1 110.290051 l
stroke
grestore
gsave
184.3 140 29.95 19.01 clipbox
12.863638 -1 m
18.474251 4.174506 l
19.319529 5.29591 l
19.711249 6.132512 l
19.825955 6.975048 l
19.73485 74.716128 l
19.331028 76.395266 l
18.509709 78.638073 l
17.112382 81.717483 l
10.174492 96.271995 l
7.442207 102.994483 l
4.134895 111.669044 l
2.240068 117.270128 l
0.318534 123.707815 l
-1 128.383422 l
-1 128.383422 l
stroke
grestore
gsave
184.3 140 29.95 19.01 clipbox
18.870933 -1 m
19.943437 1.095097 l
20.460938 2.495368 l
20.6979 3.616771 l
20.747555 5.017042 l
20.658998 76.116399 l
20.326616 78.359206 l
19.722684 80.874947 l
18.670876 84.233224 l
16.731095 89.555441 l
12.739838 100.472808 l
8.856869 111.947911 l
6.601245 119.228134 l
4.50525 126.787224 l
1.558096 138.262327 l
-0.227135 146.100285 l
-1 149.790284 l
-1 149.790284 l
stroke
grestore
gsave
184.3 140 29.95 19.01 clipbox
21.638417 -1 m
21.669155 1.373964 l
21.564901 78.080338 l
21.260434 80.874947 l
20.656886 84.233224 l
19.648825 88.434037 l
17.757667 95.156525 l
11.182926 118.10673 l
8.861328 127.066092 l
5.924692 139.38373 l
3.941963 148.621959 l
1.985809 158.696791 l
1.985809 158.696791 l
stroke
grestore
gsave
184.3 140 29.95 19.01 clipbox
22.590755 -1 m
22.49419 80.038344 l
22.197681 83.675489 l
21.657249 87.597435 l
20.719118 92.63485 l
19.051368 100.193941 l
16.211487 112.226779 l
12.515315 127.908628 l
9.557483 141.620604 l
7.476568 152.259104 l
6.311617 158.696791 l
6.311617 158.696791 l
stroke
grestore
gsave
184.3 140 29.95 19.01 clipbox
23.512355 -1 m
23.408647 82.554086 l
23.110123 87.033766 l
22.536983 92.077115 l
21.594244 98.230001 l
20.116677 106.631628 l
17.597611 119.228134 l
13.995667 137.425724 l
11.48734 151.143634 l
10.218241 158.696791 l
10.218241 158.696791 l
stroke
grestore
gsave
184.3 140 29.95 19.01 clipbox
24.433955 -1 m
24.324931 85.354628 l
24.008554 90.955712 l
23.44688 96.835664 l
22.30408 106.073893 l
20.66153 116.427592 l
13.986286 157.017652 l
13.737616 158.696791 l
13.737616 158.696791 l
stroke
grestore
gsave
184.3 140 29.95 19.01 clipbox
25.355555 -1 m
25.250729 88.15517 l
24.953972 94.592857 l
24.249518 104.109953 l
23.050059 114.190718 l
21.1647 127.908628 l
16.979928 158.139056 l
16.907999 158.696791 l
16.907999 158.696791 l
stroke
grestore
gsave
184.3 140 29.95 19.01 clipbox
26.277155 -1 m
26.167725 91.513447 l
26.083014 96.835664 l
26.227303 97.393399 l
26.14551 98.514802 l
25.894782 101.030543 l
24.649892 115.306188 l
23.188808 128.74523 l
19.773242 158.696791 l
19.773242 158.696791 l
stroke
grestore
gsave
184.3 140 29.95 19.01 clipbox
27.198755 -1 m
27.0917 94.871724 l
27.148903 97.114531 l
27.044915 100.751676 l
26.217026 114.469586 l
25.158001 127.623827 l
22.381849 158.696791 l
22.381849 158.696791 l
stroke
grestore
gsave
184.3 140 29.95 19.01 clipbox
28.120355 -1 m
28.014949 102.151947 l
27.622587 112.51158 l
26.860878 126.508357 l
24.874687 157.29652 l
24.785943 158.696791 l
24.785943 158.696791 l
stroke
grestore
gsave
184.3 140 29.95 19.01 clipbox
29.041955 -1 m
28.932348 106.073893 l
28.54038 120.349537 l
27.6601 143.299743 l
27.040268 158.696791 l
27.040268 158.696791 l
stroke
grestore
gsave
184.3 140 29.95 19.01 clipbox
29.963555 -1 m
29.853765 114.190718 l
29.391379 146.379152 l
29.20133 158.696791 l
29.20133 158.696791 l
stroke
grestore
gsave
184.3 140 29.95 19.01 clipbox
30.885155 -1 m
30.995515 121.18614 l
31.326675 158.696791 l
31.326675 158.696791 l
stroke
grestore
gsave
184.3 140 29.95 19.01 clipbox
31.806755 -1 m
31.913728 107.189363 l
32.327048 124.26555 l
33.321822 154.21711 l
33.474297 158.696791 l
33.474297 158.696791 l
stroke
grestore
gsave
184.3 140 29.95 19.01 clipbox
32.728355 -1 m
32.835595 102.994483 l
33.236265 114.469586 l
33.994372 129.587766 l
35.702083 158.696791 l
35.702083 158.696791 l
stroke
grestore
gsave
184.3 140 29.95 19.01 clipbox
33.649955 -1 m
33.752974 100.193941 l
34.545777 115.027321 l
35.540836 128.466363 l
38.06723 158.696791 l
38.06723 158.696791 l
stroke
grestore
gsave
184.3 140 29.95 19.01 clipbox
34.571555 -1 m
34.680739 92.355983 l
34.736229 96.835664 l
34.609785 97.393399 l
34.717664 98.79367 l
35.012181 102.709682 l
35.861485 113.62705 l
37.042962 125.665821 l
40.625538 158.696791 l
40.625538 158.696791 l
stroke
grestore
gsave
184.3 140 29.95 19.01 clipbox
35.493155 -1 m
35.600741 88.997706 l
35.9088 95.993128 l
36.588932 105.510224 l
37.681242 115.306188 l
39.396078 128.466363 l
43.430554 158.696791 l
43.430554 158.696791 l
stroke
grestore
gsave
184.3 140 29.95 19.01 clipbox
36.414755 -1 m
36.520737 85.918296 l
36.824747 91.792314 l
37.471863 99.351405 l
38.060703 104.388821 l
39.337024 113.348182 l
41.588527 127.344959 l
45.538074 151.980237 l
46.532517 158.696791 l
46.532517 158.696791 l
stroke
grestore
gsave
184.3 140 29.95 19.01 clipbox
37.518027 -1 m
37.344359 4.453374 l
37.336355 15.649609 l
37.440567 83.117754 l
37.757634 88.15517 l
38.324117 93.471453 l
39.316088 100.472808 l
40.494981 107.46823 l
42.678934 118.949266 l
47.182425 142.46314 l
49.473942 155.617381 l
49.977175 158.696791 l
49.977175 158.696791 l
stroke
grestore
gsave
184.3 140 29.95 19.01 clipbox
41.445228 -1 m
38.573324 11.733597 l
38.3023 14.249338 l
38.257955 16.771012 l
38.359793 80.596079 l
38.660094 84.518025 l
39.236455 88.997706 l
40.157057 94.313989 l
41.76649 102.151947 l
44.104649 112.51158 l
48.687266 132.667176 l
51.415427 145.821417 l
53.507873 157.017652 l
53.804545 158.696791 l
53.804545 158.696791 l
stroke
grestore
gsave
184.3 140 29.95 19.01 clipbox
49.559111 -1 m
48.170558 2.495368 l
46.597821 5.853645 l
44.776195 9.211922 l
42.209631 13.412735 l
40.219168 16.771012 l
39.490124 18.450151 l
39.223901 19.571555 l
39.179555 20.971826 l
39.277699 78.359206 l
39.579116 81.438615 l
40.168478 85.07576 l
41.136727 89.555441 l
42.784597 95.993128 l
47.639536 113.62705 l
50.614427 124.829218 l
53.3298 136.025453 l
55.566588 146.100285 l
57.627463 156.459917 l
58.047737 158.696791 l
58.047737 158.696791 l
stroke
grestore
gsave
184.3 140 29.95 19.01 clipbox
59.392862 -1 m
58.101047 1.937633 l
56.626423 4.732241 l
55.045262 7.253916 l
53.401377 9.49079 l
51.47893 11.733597 l
49.237943 13.97047 l
46.630996 16.213277 l
40.779701 20.971826 l
40.226738 21.808428 l
40.103453 22.372097 l
40.101155 36.090006 l
40.190712 76.395266 l
40.530077 78.916941 l
41.139024 81.717483 l
42.160354 85.354628 l
43.992614 90.955712 l
50.944826 111.669044 l
53.526451 120.07067 l
55.854773 128.466363 l
58.492094 138.825995 l
60.402631 147.221688 l
62.569838 157.860188 l
62.731867 158.696791 l
62.731867 158.696791 l
stroke
grestore
gsave
184.3 140 29.95 19.01 clipbox
68.901622 -1 m
67.625966 1.652832 l
66.190233 4.174506 l
64.493811 6.696181 l
62.723978 8.933055 l
60.645234 11.169928 l
58.500494 13.133868 l
56.368411 14.813006 l
53.89339 16.492145 l
51.000871 18.171283 l
47.645915 19.850422 l
42.368146 22.372097 l
41.540905 22.929832 l
41.079656 23.487567 l
41.022755 24.330103 l
41.128673 75.000928 l
41.48127 76.680067 l
42.183261 78.916941 l
43.497226 82.275218 l
46.200845 88.434037 l
49.706362 96.550863 l
52.934653 104.673622 l
55.952285 112.790447 l
58.008563 118.949266 l
60.102993 125.944688 l
62.798554 135.746586 l
64.579391 143.020875 l
66.459336 151.701369 l
67.872898 158.696791 l
67.872898 158.696791 l
stroke
grestore
gsave
184.3 140 29.95 19.01 clipbox
78.131422 -1 m
76.763965 1.373964 l
75.056586 3.895639 l
73.292856 6.132512 l
71.257548 8.375319 l
68.924463 10.612193 l
66.230161 12.855 l
63.523136 14.813006 l
60.862082 16.492145 l
57.777577 18.171283 l
54.76628 19.571555 l
51.237147 20.971826 l
45.507041 22.929832 l
43.266517 23.772368 l
42.288322 24.330103 l
42.035012 24.60897 l
41.944355 25.166705 l
41.999126 73.600657 l
42.404423 74.716128 l
43.397588 76.680067 l
45.698359 80.596079 l
50.470102 88.712905 l
52.981151 93.471453 l
55.386191 98.514802 l
58.973407 106.631628 l
61.22309 112.226779 l
63.108336 117.548995 l
65.041504 123.707815 l
67.954046 133.782646 l
69.58593 140.220333 l
71.251546 147.779423 l
73.475766 158.696791 l
73.475766 158.696791 l
stroke
grestore
gsave
184.3 140 29.95 19.01 clipbox
87.959583 -1 m
86.448092 1.095097 l
84.558966 3.33197 l
82.355737 5.574777 l
79.83501 7.811651 l
76.982957 10.054458 l
73.412069 12.570199 l
69.437326 15.091874 l
65.494437 17.328748 l
62.116303 19.013819 l
58.889565 20.408157 l
55.043203 21.808428 l
50.36833 23.208699 l
44.485988 24.887838 l
43.327946 25.451506 l
42.893264 26.009241 l
42.865955 27.409512 l
42.880882 72.758121 l
50.242443 80.874947 l
53.055216 84.518025 l
55.385397 87.876302 l
57.630122 91.513447 l
59.784172 95.435393 l
63.148631 102.151947 l
65.761894 107.753031 l
67.479226 111.947911 l
69.166068 116.706459 l
71.086168 122.865279 l
74.271362 133.782646 l
75.561427 139.104863 l
77.142118 146.663953 l
79.530702 158.696791 l
79.530702 158.696791 l
stroke
grestore
gsave
184.3 140 29.95 19.01 clipbox
99.468732 -1 m
98.243723 0.537361 l
96.662161 2.2165 l
94.801353 3.895639 l
92.259822 5.853645 l
89.326738 7.811651 l
85.55675 10.054458 l
79.915532 13.133868 l
71.228645 17.613548 l
66.503967 19.850422 l
62.443769 21.529561 l
59.23666 22.650964 l
55.362174 23.772368 l
49.491426 25.166705 l
46.264581 26.009241 l
44.888215 26.566977 l
44.157761 27.130645 l
43.86855 27.68838 l
43.787755 28.530916 l
43.860843 71.35785 l
44.045533 71.636718 l
45.125484 72.200386 l
47.287175 73.315857 l
49.469507 74.716128 l
51.685664 76.395266 l
54.256676 78.638073 l
56.799226 81.153814 l
59.315843 83.954357 l
61.513935 86.754899 l
63.616027 89.834308 l
65.628534 93.192586 l
68.64531 98.79367 l
71.83463 104.952489 l
73.464011 108.589634 l
74.836908 112.226779 l
76.375301 116.99126 l
80.7983 132.103508 l
81.826304 136.583188 l
83.16803 143.584544 l
84.815887 151.980237 l
85.963816 158.417924 l
86.00697 158.696791 l
86.00697 158.696791 l
stroke
grestore
gsave
184.3 140 29.95 19.01 clipbox
110.786789 -1 m
110.168972 0.537361 l
109.416651 1.937633 l
108.420751 3.33197 l
107.107949 4.732241 l
105.406375 6.132512 l
103.2649 7.532783 l
100.676486 8.933055 l
97.058755 10.612193 l
90.97266 13.133868 l
79.381962 17.892416 l
67.415209 22.929832 l
64.053912 24.051235 l
60.964349 24.887838 l
55.828656 26.009241 l
50.702658 27.130645 l
48.826427 27.68838 l
47.497114 28.246115 l
46.601139 28.809784 l
46.022474 29.367519 l
45.496813 30.210055 l
45.13154 31.325525 l
44.863157 33.010597 l
44.713956 35.526338 l
44.709155 49.244248 l
44.796449 65.199031 l
45.040054 66.599302 l
45.362042 67.441838 l
45.7146 67.999573 l
46.271023 68.557308 l
47.618366 69.399844 l
53.039031 72.200386 l
56.558044 74.158392 l
59.107407 75.837531 l
61.66067 77.795537 l
64.216381 80.038344 l
66.47564 82.275218 l
68.43343 84.518025 l
70.304915 87.033766 l
72.108859 89.834308 l
74.002556 93.192586 l
77.075874 98.79367 l
79.372998 102.994483 l
80.806014 106.073893 l
81.867737 108.868501 l
83.071424 112.790447 l
84.703327 118.949266 l
86.00119 123.428947 l
88.011485 130.424369 l
88.749687 134.067447 l
89.944721 141.620604 l
90.764927 146.379152 l
92.379919 155.059646 l
92.84619 158.696791 l
92.84619 158.696791 l
stroke
grestore
gsave
184.3 140 29.95 19.01 clipbox
114.737025 -1 m
114.625465 5.017042 l
114.370656 7.253916 l
113.985052 8.654187 l
113.422007 9.77559 l
112.776139 10.612193 l
111.863865 11.454729 l
110.648091 12.291332 l
109.095791 13.133868 l
106.560485 14.249338 l
102.794391 15.649609 l
87.859242 20.971826 l
82.647717 23.208699 l
79.275773 24.60897 l
76.764728 25.451506 l
73.538011 26.288109 l
68.002728 27.409512 l
61.116631 28.809784 l
57.935838 29.646386 l
55.471829 30.488922 l
53.600281 31.325525 l
51.701295 32.446928 l
50.23085 33.568332 l
48.756435 34.968603 l
47.615076 36.368874 l
46.960166 37.484344 l
46.522526 38.605748 l
46.212811 40.006019 l
46.029552 41.964025 l
45.906128 46.443706 l
45.904285 50.923386 l
46.155373 54.002796 l
46.646641 56.803338 l
47.217668 58.761344 l
47.759503 59.882748 l
48.368216 60.71935 l
49.273742 61.561886 l
50.99302 62.68329 l
55.643591 65.477899 l
59.814069 68.278441 l
70.514893 75.837531 l
73.150567 78.080338 l
75.804579 80.596079 l
77.536648 82.554086 l
78.971791 84.518025 l
80.512847 87.033766 l
82.302079 90.392043 l
85.31178 96.271995 l
88.271588 101.309411 l
89.421496 103.831086 l
90.231978 106.073893 l
90.891439 108.589634 l
93.755323 121.18614 l
95.462084 126.787224 l
96.090241 129.587766 l
96.524612 132.946044 l
97.474265 141.905405 l
98.069086 145.263682 l
99.41342 152.537972 l
99.765269 155.902182 l
99.96243 158.696791 l
99.96243 158.696791 l
stroke
grestore
gsave
184.3 140 29.95 19.01 clipbox
115.660727 -1 m
115.574923 16.213277 l
115.348021 17.328748 l
115.016886 18.171283 l
114.311588 19.292687 l
113.043698 20.692958 l
110.260857 23.487567 l
108.009689 26.009241 l
107.124935 26.566977 l
105.797007 27.130645 l
103.794463 27.68838 l
99.392944 28.530916 l
86.794147 30.488922 l
80.188568 31.610326 l
74.815454 32.725796 l
70.4026 33.847199 l
66.724473 34.968603 l
62.983067 36.368874 l
60.619272 37.484344 l
58.786409 38.605748 l
57.4308 39.727151 l
56.463294 40.848555 l
55.647442 42.242892 l
55.136355 43.643163 l
54.758165 45.322302 l
54.685086 46.722573 l
54.846631 47.843977 l
55.037686 48.401712 l
55.538474 49.244248 l
56.296337 50.086784 l
57.891957 51.481121 l
62.654349 55.403067 l
68.833041 60.71935 l
75.149499 66.041567 l
78.358537 69.120977 l
84.613093 75.558664 l
88.871411 80.317212 l
89.75861 81.717483 l
90.720321 83.675489 l
93.130693 89.834308 l
94.538379 93.471453 l
95.434697 94.871724 l
97.745486 98.230001 l
98.781977 100.193941 l
99.428859 101.873079 l
100.163718 104.388821 l
100.45778 106.910495 l
100.684853 110.268772 l
101.489672 116.706459 l
101.91929 118.385598 l
103.945453 124.26555 l
104.461333 126.508357 l
104.752861 128.466363 l
104.776978 134.90405 l
105.145638 141.062869 l
105.690056 143.584544 l
106.708499 148.064224 l
107.116612 151.701369 l
107.250124 154.21711 l
107.191155 156.18105 l
107.256338 158.696791 l
107.256338 158.696791 l
stroke
grestore
gsave
184.3 140 29.95 19.01 clipbox
116.582327 -1 m
116.499428 30.488922 l
116.290098 31.046657 l
115.8317 31.610326 l
115.091048 32.168061 l
113.348104 33.010597 l
110.880004 33.847199 l
99.483024 37.205477 l
96.057036 38.605748 l
93.33557 40.006019 l
90.793926 41.685157 l
89.567181 42.806561 l
87.981019 44.485699 l
87.382178 45.607103 l
86.846794 47.007374 l
86.782909 47.843977 l
86.985366 48.96538 l
87.761217 51.765922 l
88.686582 53.445061 l
97.157111 67.441838 l
99.317684 71.636718 l
102.034712 76.958935 l
102.771648 77.795537 l
103.443775 78.916941 l
103.857842 80.038344 l
104.041649 82.554086 l
104.102739 84.518025 l
104.663581 87.597435 l
105.618437 92.077115 l
106.433824 93.192586 l
109.455713 96.550863 l
110.111383 97.672266 l
110.663373 99.072537 l
110.9576 100.472808 l
111.251844 103.831086 l
110.822696 105.789092 l
110.765351 106.35276 l
110.445194 107.189363 l
110.350615 108.589634 l
110.451153 111.947911 l
110.707279 116.427592 l
111.052083 116.99126 l
111.337215 117.827863 l
111.762452 118.385598 l
112.027594 119.228134 l
112.651612 120.07067 l
112.867325 121.18614 l
112.987233 122.028676 l
113.354587 122.586411 l
113.67549 123.15008 l
113.850012 124.544417 l
114.017583 127.623827 l
113.972374 127.908628 l
113.580112 128.466363 l
113.47424 129.587766 l
113.351413 130.703237 l
113.072888 131.266905 l
112.963659 132.382375 l
112.955915 135.746586 l
113.124617 140.784002 l
113.38044 141.062869 l
113.560723 141.905405 l
113.658429 142.46314 l
114.008257 142.742008 l
114.182582 143.299743 l
114.338596 144.700014 l
114.712331 144.984815 l
114.93957 145.54255 l
115.058116 147.500556 l
115.16721 153.380508 l
114.858166 153.659375 l
114.690911 154.21711 l
114.628951 156.18105 l
114.637985 158.696791 l
114.637985 158.696791 l
stroke
grestore
gsave
184.3 140 29.95 19.01 clipbox
117.503927 -1 m
117.400498 45.043434 l
117.15009 48.401712 l
116.947053 50.086784 l
116.800246 51.202254 l
116.885214 54.002796 l
117.270212 62.68329 l
117.431591 81.438615 l
117.191605 84.796893 l
117.234302 91.513447 l
117.503927 92.077115 l
117.503927 158.696791 l
117.503927 158.696791 l
stroke
grestore
gsave
184.3 140 29.95 19.01 clipbox
118.425527 -1 m
118.425527 158.696791 l
118.425527 158.696791 l
stroke
grestore
gsave
184.3 140 29.95 19.01 clipbox
119.347127 -1 m
119.347127 158.696791 l
119.347127 158.696791 l
stroke
grestore
gsave
184.3 140 29.95 19.01 clipbox
120.268727 -1 m
120.268727 158.696791 l
120.268727 158.696791 l
stroke
grestore
gsave
184.3 140 29.95 19.01 clipbox
121.190327 -1 m
121.190327 158.696791 l
121.190327 158.696791 l
stroke
grestore
gsave
184.3 140 29.95 19.01 clipbox
122.111927 -1 m
122.111927 158.696791 l
122.111927 158.696791 l
stroke
grestore
gsave
184.3 140 29.95 19.01 clipbox
123.033527 -1 m
123.033527 158.696791 l
123.033527 158.696791 l
stroke
grestore
gsave
184.3 140 29.95 19.01 clipbox
123.955127 -1 m
123.955127 158.696791 l
123.955127 158.696791 l
stroke
grestore
gsave
184.3 140 29.95 19.01 clipbox
124.876727 -1 m
124.876727 158.696791 l
124.876727 158.696791 l
stroke
grestore
gsave
184.3 140 29.95 19.01 clipbox
125.798327 -1 m
125.798327 158.696791 l
125.798327 158.696791 l
stroke
grestore
gsave
184.3 140 29.95 19.01 clipbox
126.719927 -1 m
126.81659 33.568332 l
127.075414 34.404934 l
127.515986 35.24747 l
128.295876 36.090006 l
129.682127 37.205477 l
132.082069 38.605748 l
134.344325 39.727151 l
141.378728 42.806561 l
147.086377 45.322302 l
149.753605 46.722573 l
150.505151 47.286242 l
151.205977 48.122844 l
151.50156 48.96538 l
151.452587 49.523115 l
151.293737 49.801983 l
150.518771 50.365651 l
149.077757 50.923386 l
146.279391 51.481121 l
141.644293 52.04479 l
130.058995 53.16026 l
128.367116 53.445061 l
127.392395 53.723928 l
126.945317 54.002796 l
126.719933 54.560531 l
126.719927 158.696791 l
126.719927 158.696791 l
stroke
grestore
gsave
184.3 140 29.95 19.01 clipbox
127.641527 -1 m
127.745192 24.330103 l
127.956897 24.887838 l
128.418664 25.451506 l
129.162886 26.009241 l
130.2455 26.566977 l
132.575656 27.409512 l
136.744114 28.530916 l
157.56046 33.568332 l
162.872743 35.24747 l
167.332159 36.926609 l
171.099658 38.605748 l
174.322589 40.284886 l
177.130882 41.964025 l
180.009639 43.927964 l
182.482587 45.88597 l
183.956096 47.286242 l
184.839596 48.401712 l
185.235947 49.244248 l
185.29307 49.801983 l
185.083989 50.365651 l
184.436854 50.923386 l
183.10161 51.481121 l
181.989037 51.765922 l
180.207411 52.04479 l
168.71907 53.16026 l
139.484763 56.23967 l
134.599719 57.082206 l
132.563829 57.639941 l
131.393626 57.924742 l
130.330061 58.482477 l
129.562665 59.040212 l
128.695404 59.60388 l
128.329404 60.161615 l
128.113159 61.004151 l
127.7106 63.241025 l
127.641527 68.557308 l
127.641527 158.696791 l
127.641527 158.696791 l
stroke
grestore
gsave
184.3 140 29.95 19.01 clipbox
128.563127 -1 m
128.644744 17.613548 l
128.807603 18.171283 l
129.137648 18.729019 l
129.725189 19.292687 l
130.636595 19.850422 l
131.917538 20.408157 l
134.5628 21.250693 l
139.141235 22.372097 l
156.397798 26.288109 l
161.377203 27.68838 l
165.603097 29.088651 l
169.183412 30.488922 l
172.801991 32.168061 l
175.865849 33.847199 l
178.929212 35.805205 l
181.959212 38.048013 l
184.936516 40.563754 l
187.8847 43.364296 l
190.522228 46.164838 l
192.122677 48.122844 l
192.846279 49.244248 l
193.175738 50.086784 l
193.197882 50.644519 l
192.965419 51.202254 l
192.387305 51.765922 l
191.395484 52.323657 l
187.643588 53.16026 l
180.091917 54.560531 l
162.17915 57.639941 l
157.366042 58.761344 l
152.808235 60.161615 l
150.759525 61.004151 l
147.511619 62.68329 l
146.21282 63.519892 l
144.870648 64.641296 l
143.602129 65.762699 l
141.52222 67.157037 l
139.694155 67.999573 l
137.128506 68.842109 l
130.006104 70.800115 l
129.221471 71.35785 l
128.828332 71.921519 l
128.604209 72.758121 l
128.563127 74.716128 l
128.642212 79.759477 l
129.170864 80.317212 l
130.510993 81.153814 l
131.895795 82.275218 l
132.910196 83.396621 l
133.814719 84.796893 l
134.487706 86.197164 l
135.268163 89.276573 l
135.281649 90.113176 l
135.024976 91.513447 l
134.595435 92.355983 l
134.203352 92.913718 l
132.826228 94.313989 l
131.375405 95.435393 l
130.776278 95.993128 l
130.131571 96.550863 l
129.533997 97.393399 l
129.182118 97.951134 l
129.058868 99.072537 l
129.10239 100.472808 l
129.341386 101.594212 l
130.01753 102.709682 l
131.963774 106.073893 l
132.217375 106.631628 l
132.463658 107.189363 l
132.808083 108.310766 l
133.059574 109.153302 l
133.239967 110.832441 l
133.332533 114.190718 l
133.279518 115.869857 l
133.040629 116.427592 l
132.834025 116.99126 l
129.504275 121.749808 l
129.29993 122.307544 l
129.094543 123.707815 l
129.148673 124.829218 l
129.329185 126.223556 l
129.40263 126.787224 l
129.910876 127.623827 l
130.03131 128.466363 l
130.41923 129.024098 l
130.675909 130.145501 l
130.941533 130.703237 l
131.14943 132.103508 l
131.40657 132.667176 l
131.553346 134.067447 l
131.620865 137.704592 l
131.601448 139.662598 l
131.283188 140.220333 l
131.082419 141.062869 l
130.801501 141.341737 l
130.490882 142.184273 l
130.153319 142.46314 l
129.818628 143.299743 l
129.419146 143.584544 l
129.069069 144.700014 l
128.807184 144.984815 l
128.754501 145.821417 l
128.649398 146.942821 l
128.563127 148.064224 l
128.663919 150.579966 l
128.722505 151.422502 l
128.724587 152.259104 l
129.136247 153.10164 l
129.163962 154.21711 l
129.604165 154.780779 l
129.691916 155.902182 l
129.714912 157.017652 l
130.07329 157.581321 l
130.180501 158.696791 l
130.180501 158.696791 l
stroke
grestore
gsave
184.3 140 29.95 19.01 clipbox
129.484727 -1 m
129.566949 10.612193 l
129.804891 11.733597 l
130.201243 12.570199 l
130.931664 13.412735 l
131.667631 13.97047 l
133.254046 14.813006 l
135.425275 15.649609 l
139.139089 16.771012 l
146.725227 18.729019 l
155.133328 20.971826 l
160.520105 22.650964 l
164.351009 24.051235 l
168.254961 25.730374 l
171.560709 27.409512 l
174.413631 29.088651 l
177.316558 31.046657 l
180.236107 33.289464 l
183.149579 35.805205 l
186.361467 38.884615 l
189.818598 42.527693 l
192.97509 46.164838 l
194.911718 48.686513 l
195.728235 50.086784 l
195.964539 50.923386 l
195.94065 51.481121 l
195.745192 52.04479 l
195.331162 52.602525 l
194.586655 53.16026 l
192.91269 54.002796 l
190.723672 54.845332 l
187.16912 55.960802 l
171.830665 60.440483 l
168.223555 61.840754 l
164.666269 63.519892 l
162.226399 64.920164 l
158.522616 67.441838 l
156.705146 68.557308 l
154.395166 69.678712 l
151.400387 70.800115 l
140.514962 74.43726 l
138.83069 75.279796 l
137.750335 76.116399 l
137.36594 76.680067 l
137.276868 77.237802 l
137.445175 77.795537 l
138.033952 78.638073 l
139.721016 80.317212 l
141.233035 81.99635 l
142.193962 83.396621 l
142.916104 84.796893 l
143.534886 86.476031 l
143.976756 88.434037 l
144.224866 90.392043 l
144.163735 92.077115 l
143.91752 93.192586 l
143.45361 94.313989 l
142.779177 95.435393 l
140.2958 99.072537 l
139.794869 100.472808 l
139.543071 101.873079 l
139.606611 103.273351 l
139.96585 105.231357 l
140.916657 110.268772 l
141.064236 112.790447 l
141.042186 116.148724 l
140.837921 117.548995 l
140.407252 118.949266 l
139.505714 120.907273 l
138.50624 123.15008 l
138.039654 124.829218 l
137.897377 126.223556 l
137.855834 127.623827 l
138.661447 137.146857 l
138.568931 140.505134 l
138.189103 142.46314 l
135.97033 149.458562 l
135.861594 150.858833 l
135.951414 152.259104 l
136.016796 153.10164 l
136.310639 155.617381 l
136.588419 158.696791 l
136.588419 158.696791 l
stroke
grestore
gsave
184.3 140 29.95 19.01 clipbox
130.727295 -1 m
130.976563 1.652832 l
131.366328 3.616771 l
131.857303 5.017042 l
132.462399 6.132512 l
133.348786 7.253916 l
134.249187 8.090519 l
135.851068 9.211922 l
137.950618 10.333326 l
140.529245 11.454729 l
145.062167 13.133868 l
158.475054 17.892416 l
163.096623 19.850422 l
166.538279 21.529561 l
170.036242 23.487567 l
173.101793 25.451506 l
176.183577 27.68838 l
179.273376 30.210055 l
182.6596 33.289464 l
186.291103 36.926609 l
190.152966 41.127422 l
193.728761 45.322302 l
196.103895 48.401712 l
197.139537 50.086784 l
197.450517 50.923386 l
197.546885 51.765922 l
197.429966 52.602525 l
197.099256 53.445061 l
196.51336 54.281663 l
195.62438 55.124199 l
194.44707 55.960802 l
192.446019 57.082206 l
188.831039 58.761344 l
181.40366 62.119621 l
177.663375 64.083561 l
174.881799 65.762699 l
171.64655 67.999573 l
168.773724 69.957579 l
166.290411 71.35785 l
162.702943 73.036989 l
157.213928 75.558664 l
155.266823 76.680067 l
154.15467 77.51667 l
153.371766 78.359206 l
152.898848 79.195808 l
152.668672 80.038344 l
152.61087 81.153814 l
152.793563 83.117754 l
153.21109 87.312634 l
153.261164 90.392043 l
153.115575 92.63485 l
152.807195 94.313989 l
152.242604 95.993128 l
151.300205 97.951134 l
149.943503 100.751676 l
149.28934 102.709682 l
148.980827 104.388821 l
148.841333 106.631628 l
148.560056 117.827863 l
148.203867 119.785869 l
147.532967 122.028676 l
146.404135 125.665821 l
145.98137 127.908628 l
145.776366 130.424369 l
145.735534 134.067447 l
145.651741 138.825995 l
145.426544 142.184273 l
145.033519 144.421146 l
143.320568 152.259104 l
143.183091 155.059646 l
143.189161 158.696791 l
143.189161 158.696791 l
stroke
grestore
gsave
184.3 140 29.95 19.01 clipbox
137.346683 -1 m
138.185594 0.537361 l
139.169839 1.937633 l
140.403015 3.33197 l
141.931966 4.732241 l
143.777298 6.132512 l
146.406321 7.811651 l
149.969033 9.77559 l
157.752681 13.691603 l
163.028249 16.492145 l
166.808733 18.729019 l
170.209195 20.971826 l
173.62546 23.487567 l
177.037252 26.288109 l
180.434839 29.367519 l
184.116341 33.010597 l
188.296085 37.484344 l
192.683313 42.527693 l
196.064074 46.722573 l
197.839558 49.244248 l
198.426545 50.365651 l
198.68224 51.202254 l
198.776527 52.323657 l
198.571324 54.002796 l
198.223984 55.124199 l
197.617401 56.23967 l
196.711135 57.361073 l
195.517011 58.482477 l
193.708727 59.882748 l
189.609845 62.68329 l
184.826332 66.041567 l
181.281963 68.842109 l
177.755527 71.636718 l
175.27483 73.315857 l
167.391585 78.359206 l
166.149885 79.474676 l
165.194637 80.596079 l
164.489942 81.717483 l
163.86226 83.117754 l
163.266207 85.07576 l
162.677203 87.876302 l
161.156712 95.71426 l
160.400965 97.951134 l
157.760816 104.952489 l
157.224277 107.46823 l
156.776243 110.832441 l
155.651629 120.349537 l
155.008995 123.15008 l
153.623599 128.74523 l
153.149345 131.82464 l
152.768404 136.025453 l
152.086062 143.863411 l
151.560373 146.942821 l
150.209656 154.21711 l
149.887914 157.860188 l
149.834183 158.696791 l
149.834183 158.696791 l
stroke
grestore
gsave
184.3 140 29.95 19.01 clipbox
147.681183 -1 m
148.898559 0.816229 l
150.493946 2.774235 l
152.395369 4.732241 l
154.599558 6.696181 l
157.786176 9.211922 l
163.569359 13.412735 l
169.206533 17.613548 l
173.326311 20.971826 l
177.096043 24.330103 l
181.135677 28.246115 l
185.413757 32.725796 l
189.921598 37.769145 l
194.388797 43.085428 l
197.649398 47.286242 l
199.121962 49.523115 l
199.626501 50.644519 l
199.847313 51.765922 l
199.86096 53.16026 l
199.68935 55.403067 l
199.381354 56.803338 l
198.830332 58.203609 l
198.00856 59.60388 l
196.70506 61.283019 l
194.609232 63.519892 l
184.993193 73.036989 l
182.385665 75.279796 l
176.688817 80.038344 l
175.132143 81.717483 l
173.900652 83.396621 l
172.785829 85.354628 l
171.794519 87.597435 l
170.812021 90.392043 l
169.424187 95.156525 l
168.273424 98.79367 l
165.075656 108.031899 l
164.317563 111.390176 l
163.386475 116.706459 l
162.234208 123.15008 l
159.867622 134.346315 l
159.150428 139.941466 l
158.197725 147.221688 l
156.342982 158.696791 l
156.342982 158.696791 l
stroke
grestore
gsave
184.3 140 29.95 19.01 clipbox
156.518512 -1 m
157.634264 1.095097 l
159.057315 3.33197 l
160.950327 5.853645 l
163.129295 8.375319 l
166.101107 11.454729 l
171.907223 17.04988 l
177.597517 22.650964 l
182.401334 27.68838 l
187.43545 33.289464 l
192.673399 39.448284 l
196.930906 44.764567 l
199.373495 48.122844 l
200.365298 49.801983 l
200.776867 50.923386 l
200.925209 52.04479 l
200.922972 54.002796 l
200.760412 57.082206 l
200.408695 59.040212 l
199.867094 60.71935 l
199.097189 62.398489 l
197.957657 64.362428 l
196.053935 67.157037 l
192.095503 72.479254 l
189.792926 75.279796 l
186.941721 78.359206 l
183.870001 81.717483 l
182.14148 83.954357 l
180.709545 86.197164 l
179.392903 88.712905 l
178.181649 91.513447 l
176.856389 95.156525 l
171.456194 111.390176 l
170.406006 115.869857 l
166.087933 136.583188 l
165.065037 143.299743 l
163.887689 150.858833 l
162.593187 158.696791 l
162.593187 158.696791 l
stroke
grestore
gsave
184.3 140 29.95 19.01 clipbox
163.538851 -1 m
164.585153 1.652832 l
165.944409 4.453374 l
167.570101 7.253916 l
169.451048 10.054458 l
171.996663 13.412735 l
175.487194 17.613548 l
192.862622 38.048013 l
197.713 44.206832 l
200.321766 47.843977 l
201.318635 49.523115 l
201.767416 50.644519 l
201.95392 51.765922 l
201.979064 53.723928 l
201.85443 58.482477 l
201.587982 60.71935 l
201.078031 62.962157 l
200.320222 65.199031 l
199.225193 67.720706 l
197.514519 71.078983 l
195.272735 75.000928 l
193.250435 78.080338 l
187.684111 86.197164 l
186.15414 88.997706 l
184.721438 92.077115 l
183.277233 95.71426 l
181.021319 102.151947 l
178.317068 110.268772 l
176.994981 115.027321 l
175.616531 120.907273 l
171.747697 139.104863 l
170.455612 146.942821 l
168.510558 158.696791 l
168.510558 158.696791 l
stroke
grestore
gsave
184.3 140 29.95 19.01 clipbox
169.450538 -1 m
170.286517 1.937633 l
171.392418 5.017042 l
172.741796 8.090519 l
174.342104 11.169928 l
176.362161 14.534139 l
178.823132 18.171283 l
182.134242 22.650964 l
188.0484 30.210055 l
197.896133 42.806561 l
200.912642 47.007374 l
202.270941 49.244248 l
202.747548 50.365651 l
202.97244 51.481121 l
203.020759 53.16026 l
202.89963 60.440483 l
202.62424 63.241025 l
202.163661 65.762699 l
201.420923 68.557308 l
200.272371 71.921519 l
198.799167 75.558664 l
197.208055 78.916941 l
194.788344 83.396621 l
192.274642 88.15517 l
190.470896 92.077115 l
188.807052 96.271995 l
186.958758 101.594212 l
183.994741 110.832441 l
182.429261 116.427592 l
180.941849 122.586411 l
177.94694 136.304321 l
176.571637 143.584544 l
174.14837 158.139056 l
174.058184 158.696791 l
174.058184 158.696791 l
stroke
grestore
gsave
184.3 140 29.95 19.01 clipbox
174.704623 -1 m
175.422675 2.495368 l
176.332671 5.853645 l
177.475119 9.211922 l
178.862769 12.570199 l
180.507158 15.93441 l
182.398351 19.292687 l
184.878142 23.208699 l
188.180641 27.967248 l
193.345015 34.968603 l
200.758751 45.043434 l
202.760548 48.122844 l
203.614239 49.801983 l
203.940377 50.923386 l
204.056824 52.323657 l
203.933134 62.68329 l
203.653941 66.041567 l
203.186851 69.120977 l
202.458379 72.479254 l
201.370145 76.395266 l
200.131687 80.038344 l
198.45363 84.233224 l
194.683025 93.471453 l
192.814229 98.79367 l
190.623138 105.789092 l
188.193426 114.190718 l
186.487398 120.907273 l
184.611481 129.302966 l
182.312034 140.505134 l
180.775326 149.179695 l
179.224854 158.696791 l
179.224854 158.696791 l
stroke
grestore
gsave
184.3 140 29.95 19.01 clipbox
179.528771 -1 m
180.071885 2.774235 l
180.86277 6.696181 l
181.824652 10.333326 l
183.028614 13.97047 l
184.377467 17.328748 l
185.97349 20.692958 l
187.966753 24.330103 l
190.376317 28.246115 l
193.762806 33.289464 l
203.735633 47.843977 l
204.580391 49.523115 l
204.93448 50.644519 l
205.079863 52.04479 l
205.083765 55.681935 l
204.959617 65.199031 l
204.680371 69.120977 l
204.176624 73.036989 l
203.399282 77.237802 l
202.384309 81.438615 l
201.054182 85.918296 l
195.807515 102.709682 l
193.077506 112.790447 l
191.085672 120.907273 l
189.262333 129.302966 l
186.943416 141.062869 l
185.295094 150.579966 l
184.014412 158.696791 l
184.014412 158.696791 l
stroke
grestore
gsave
184.3 140 29.95 19.01 clipbox
184.041744 -1 m
184.473907 3.33197 l
185.10656 7.532783 l
185.912631 11.454729 l
186.871705 15.091874 l
188.067852 18.729019 l
189.416307 22.093229 l
191.006261 25.451506 l
192.983527 29.088651 l
195.531926 33.289464 l
199.381639 39.163483 l
203.759667 45.88597 l
205.167069 48.401712 l
205.761664 49.801983 l
206.027184 50.923386 l
206.116165 52.602525 l
205.991702 67.720706 l
205.705057 72.479254 l
205.220258 76.958935 l
204.52381 81.438615 l
203.610374 85.918296 l
202.099126 92.077115 l
197.954065 108.589634 l
195.258883 120.349537 l
193.313536 129.866634 l
191.094813 141.905405 l
189.35852 152.537972 l
188.439533 158.696791 l
188.439533 158.696791 l
stroke
grestore
gsave
184.3 140 29.95 19.01 clipbox
188.311554 -1 m
188.640286 3.895639 l
189.178335 8.654187 l
189.914986 13.133868 l
190.776027 17.04988 l
191.800902 20.692958 l
192.975637 24.051235 l
194.392114 27.409512 l
196.189968 31.046657 l
198.384482 34.968603 l
201.970002 40.848555 l
205.153477 46.164838 l
206.418869 48.686513 l
206.910085 50.086784 l
207.094033 51.202254 l
207.141231 53.16026 l
207.017882 70.521248 l
206.72882 76.116399 l
206.230983 81.438615 l
205.53893 86.476031 l
204.489566 92.355983 l
202.250741 103.273351 l
198.466656 122.028676 l
196.435033 133.224911 l
194.329483 146.100285 l
192.632752 157.860188 l
192.519375 158.696791 l
192.519375 158.696791 l
stroke
grestore
gsave
184.3 140 29.95 19.01 clipbox
192.382154 -1 m
192.63731 4.732241 l
193.098112 10.054458 l
193.729938 14.813006 l
194.501255 19.013819 l
195.378486 22.650964 l
196.405063 26.009241 l
197.66719 29.367519 l
199.16449 32.725796 l
201.166093 36.647741 l
205.22029 43.927964 l
206.939677 47.286242 l
207.733399 49.244248 l
208.067129 50.644519 l
208.165178 52.323657 l
208.047887 73.315857 l
207.753982 80.038344 l
207.272307 85.918296 l
206.566794 91.792314 l
205.417461 99.351405 l
202.382547 117.270128 l
199.875022 132.667176 l
197.834825 146.663953 l
196.279229 158.696791 l
196.279229 158.696791 l
stroke
grestore
gsave
184.3 140 29.95 19.01 clipbox
196.28632 -1 m
196.460979 5.29591 l
196.837435 11.169928 l
197.399202 16.492145 l
198.08287 20.971826 l
198.898064 24.887838 l
199.80875 28.246115 l
200.947833 31.610326 l
202.433816 35.24747 l
204.409851 39.448284 l
208.023789 47.007374 l
208.82336 49.244248 l
209.105503 50.644519 l
209.186282 52.323657 l
209.064837 76.958935 l
208.776388 84.233224 l
208.284332 90.955712 l
207.515616 98.230001 l
206.134664 108.868501 l
201.336281 144.700014 l
199.750636 158.696791 l
199.750636 158.696791 l
stroke
grestore
gsave
184.3 140 29.95 19.01 clipbox
200.052154 -1 m
200.182717 6.41138 l
200.521981 13.133868 l
201.042283 19.013819 l
201.677166 23.772368 l
202.411194 27.68838 l
203.32155 31.325525 l
204.384835 34.689735 l
205.865748 38.605748 l
209.612772 48.122844 l
210.074372 50.086784 l
210.197782 51.765922 l
210.201794 58.482477 l
210.079622 80.874947 l
209.780713 88.997706 l
209.263148 96.835664 l
208.414348 106.073893 l
206.658061 122.307544 l
204.279643 144.700014 l
202.971248 158.696791 l
202.971248 158.696791 l
stroke
grestore
gsave
184.3 140 29.95 19.01 clipbox
203.706377 -1 m
203.806632 7.811651 l
204.107341 15.370741 l
204.578995 21.808428 l
205.163533 26.851777 l
205.877055 31.046657 l
206.715381 34.689735 l
207.843854 38.605748 l
210.835166 48.401712 l
211.153483 50.365651 l
211.223122 52.602525 l
211.096127 84.796893 l
210.781248 94.313989 l
210.231026 103.831086 l
209.183136 117.548995 l
206.27276 154.501911 l
205.984249 158.696791 l
205.984249 158.696791 l
stroke
grestore
gsave
184.3 140 29.95 19.01 clipbox
207.275881 -1 m
207.358928 9.77559 l
207.639683 18.729019 l
208.067629 25.730374 l
208.579996 30.76779 l
209.260207 35.24747 l
210.227649 40.006019 l
211.936037 48.122844 l
212.193495 50.365651 l
212.239522 53.16026 l
212.121576 88.712905 l
211.818658 99.915073 l
211.221775 113.069315 l
208.83744 158.696791 l
208.83744 158.696791 l
stroke
grestore
gsave
184.3 140 29.95 19.01 clipbox
210.78829 -1 m
210.8716 13.97047 l
211.139658 25.166705 l
211.519373 32.446928 l
212.045997 38.32688 l
213.232622 50.365651 l
213.255629 55.403067 l
213.142975 94.871724 l
212.812234 111.669044 l
211.582136 158.696791 l
211.582136 158.696791 l
stroke
grestore
gsave
184.3 140 29.95 19.01 clipbox
214.272 -1 m
214.272 158.696791 l
214.272 158.696791 l
stroke
grestore
0.800 setlinewidth
0 setlinejoin
2 setlinecap
[] 0 setdash
gsave
29.952 19.008 m
29.952 158.976 l
stroke
grestore
gsave
214.272 19.008 m
214.272 158.976 l
stroke
grestore
gsave
29.952 19.008 m
214.272 19.008 l
stroke
grestore
gsave
29.952 158.976 m
214.272 158.976 l
stroke
grestore

end
showpage
