%!PS-Adobe-3.0 EPSF-3.0
%%Title: v_4000.eps
%%Creator: matplotlib version 2.0.0, http://matplotlib.org/
%%CreationDate: Tue Mar 27 10:41:08 2018
%%Orientation: portrait
%%BoundingBox: 190 309 421 482
%%EndComments
%%BeginProlog
/mpldict 10 dict def
mpldict begin
/m { moveto } bind def
/l { lineto } bind def
/r { rlineto } bind def
/c { curveto } bind def
/cl { closepath } bind def
/box {
m
1 index 0 r
0 exch r
neg 0 r
cl
} bind def
/clipbox {
box
clip
newpath
} bind def
%!PS-Adobe-3.0 Resource-Font
%%Title: DejaVu Serif
%%Copyright: Copyright (c) 2003 by Bitstream, Inc. All Rights Reserved. DejaVu changes are in public domain 
%%Creator: Converted from TrueType to type 3 by PPR
25 dict begin
/_d{bind def}bind def
/_m{moveto}_d
/_l{lineto}_d
/_cl{closepath eofill}_d
/_c{curveto}_d
/_sc{7 -1 roll{setcachedevice}{pop pop pop pop pop pop}ifelse}_d
/_e{exec}_d
/FontName /DejaVuSerif def
/PaintType 0 def
/FontMatrix[.001 0 0 .001 0 0]def
/FontBBox[-770 -347 2105 1109]def
/FontType 3 def
/Encoding [ /space /comma /period /slash /zero /one /two /three /eight /equal /c /v /y /uni043C /uni0441 ] def
/FontInfo 10 dict dup begin
/FamilyName (DejaVu Serif) def
/FullName (DejaVu Serif) def
/Notice (Copyright (c) 2003 by Bitstream, Inc. All Rights Reserved. DejaVu changes are in public domain ) def
/Weight (Book) def
/Version (Version 2.35) def
/ItalicAngle 0.0 def
/isFixedPitch false def
/UnderlinePosition -130 def
/UnderlineThickness 90 def
end readonly def
/CharStrings 15 dict dup begin
/space{318 0 0 0 0 0 _sc
}_d
/comma{318 0 36 -135 221 111 _sc
36 -96 _m
66 -73 89 -47 103 -17 _c
117 13 125 49 125 93 _c
125 111 _l
221 111 _l
218 55 205 7 181 -32 _c
157 -71 122 -105 75 -135 _c
36 -96 _l
_cl}_d
/period{318 0 94 -13 224 116 _sc
94 51 _m
94 69 100 84 112 97 _c
124 109 140 116 159 116 _c
177 116 192 109 205 97 _c
217 84 224 69 224 51 _c
224 33 217 17 205 5 _c
192 -7 177 -13 159 -13 _c
140 -13 124 -7 112 5 _c
100 17 94 32 94 51 _c
_cl}_d
/slash{337 0 0 -92 337 729 _sc
259 729 _m
337 729 _l
78 -92 _l
0 -92 _l
259 729 _l
_cl}_d
/zero{636 0 66 -13 570 742 _sc
318 34 _m
368 34 405 61 430 116 _c
454 170 467 253 467 364 _c
467 474 454 557 430 612 _c
405 666 368 694 318 694 _c
268 694 230 666 206 612 _c
181 557 169 474 169 364 _c
169 253 181 170 206 116 _c
230 61 268 34 318 34 _c
318 -13 _m
238 -13 176 20 132 86 _c
88 152 66 244 66 364 _c
66 483 88 576 132 642 _c
176 708 238 742 318 742 _c
397 742 459 708 503 642 _c
547 576 570 483 570 364 _c
570 244 547 152 503 86 _c
459 20 397 -13 318 -13 _c
_cl}_d
/one{636 0 122 0 494 742 _sc
142 0 _m
142 52 _l
269 52 _l
269 658 _l
122 563 _l
122 627 _l
300 742 _l
367 742 _l
367 52 _l
494 52 _l
494 0 _l
142 0 _l
_cl}_d
/two{{636 0 68 0 538 742 _sc
128 555 _m
73 555 _l
73 685 _l
107 703 142 717 178 727 _c
213 737 248 742 282 742 _c
358 742 418 723 462 687 _c
506 650 528 600 528 537 _c
528 465 478 380 378 281 _c
370 273 365 268 361 264 _c
177 80 _l
481 80 _l
481 170 _l
538 170 _l
538 0 _l
68 0 _l
68 53 _l
289 274 _l
337 322 372 367 393 408 _c
414 449 425 492 425 537 _c
}_e{425 586 412 624 386 652 _c
360 680 325 694 281 694 _c
234 694 198 682 173 659 _c
147 636 132 601 128 555 _c
_cl}_e}_d
/three{{636 0 76 -13 562 742 _sc
97 698 _m
135 712 171 723 206 731 _c
241 738 274 742 305 742 _c
376 742 432 726 472 696 _c
512 665 532 622 532 568 _c
532 524 518 487 490 458 _c
462 428 423 408 373 398 _c
433 389 479 367 512 332 _c
545 297 562 252 562 197 _c
562 129 539 77 493 41 _c
447 5 382 -13 296 -13 _c
258 -13 220 -9 184 -1 _c
148 6 112 18 76 35 _c
76 177 _l
}_e{131 177 _l
134 129 150 94 178 70 _c
206 46 246 34 298 34 _c
348 34 387 48 416 77 _c
444 106 459 146 459 196 _c
459 253 444 296 414 326 _c
384 355 341 370 284 370 _c
238 370 _l
238 420 _l
262 420 _l
319 420 362 431 390 455 _c
418 479 433 514 433 562 _c
433 604 421 637 398 660 _c
374 682 341 694 297 694 _c
253 694 218 683 194 662 _c
170 641 156 610 152 570 _c
}_e{97 570 _l
97 698 _l
_cl}_e}_d
/eight{{636 0 67 -13 569 742 _sc
466 199 _m
466 251 453 291 427 320 _c
401 349 364 364 318 364 _c
271 364 235 349 209 320 _c
183 291 170 251 170 199 _c
170 147 183 106 209 77 _c
235 48 271 34 318 34 _c
364 34 401 48 427 77 _c
453 106 466 147 466 199 _c
446 553 _m
446 597 434 632 412 657 _c
389 681 358 694 318 694 _c
278 694 246 681 224 657 _c
201 632 190 597 190 553 _c
}_e{190 508 201 473 224 449 _c
246 424 278 412 318 412 _c
358 412 389 424 412 449 _c
434 473 446 508 446 553 _c
393 388 _m
448 380 491 360 522 327 _c
553 293 569 251 569 199 _c
569 131 547 78 504 42 _c
460 5 398 -13 318 -13 _c
237 -13 175 5 132 42 _c
88 78 67 131 67 199 _c
67 251 82 293 113 327 _c
144 360 187 380 243 388 _c
193 396 156 415 130 444 _c
}_e{104 472 91 509 91 553 _c
91 611 111 657 151 691 _c
191 725 247 742 318 742 _c
388 742 444 725 484 691 _c
524 657 545 611 545 553 _c
545 509 531 472 505 444 _c
479 415 441 396 393 388 _c
_cl}_e}_d
/equal{838 0 106 175 732 452 _sc
106 452 _m
732 452 _l
732 374 _l
106 374 _l
106 452 _l
106 253 _m
732 253 _l
732 175 _l
106 175 _l
106 253 _l
_cl}_d
/c{{560 0 50 -13 514 533 _sc
514 156 _m
501 100 477 58 441 30 _c
405 1 358 -13 301 -13 _c
225 -13 165 11 119 61 _c
73 111 50 177 50 260 _c
50 342 73 408 119 458 _c
165 508 225 533 301 533 _c
333 533 366 529 399 521 _c
431 513 464 502 497 487 _c
497 354 _l
445 354 _l
438 399 423 432 400 453 _c
377 474 344 485 302 485 _c
253 485 216 466 192 428 _c
}_e{167 390 155 334 155 260 _c
155 184 167 128 192 90 _c
216 52 253 34 302 34 _c
340 34 371 44 394 64 _c
417 84 433 115 442 156 _c
514 156 _l
_cl}_e}_d
/v{565 0 -2 0 562 519 _sc
247 0 _m
56 467 _l
-2 467 _l
-2 519 _l
236 519 _l
236 467 _l
153 467 _l
299 110 _l
445 467 _l
367 467 _l
367 519 _l
562 519 _l
562 467 _l
504 467 _l
313 0 _l
247 0 _l
_cl}_d
/y{{565 0 -2 -221 562 519 _sc
216 -94 _m
250 -8 _l
56 467 _l
-2 467 _l
-2 519 _l
236 519 _l
236 467 _l
153 467 _l
299 110 _l
445 467 _l
367 467 _l
367 519 _l
562 519 _l
562 467 _l
504 467 _l
266 -116 _l
250 -156 232 -184 212 -199 _c
192 -213 164 -221 128 -221 _c
112 -221 97 -219 81 -217 _c
65 -214 48 -210 32 -206 _c
32 -107 _l
78 -107 _l
80 -129 85 -144 95 -154 _c
}_e{104 -164 118 -169 138 -169 _c
156 -169 170 -164 181 -154 _c
192 -144 204 -124 216 -94 _c
_cl}_e}_d
/uni043C{778 0 36 0 742 519 _sc
36 0 _m
36 52 _l
117 52 _l
117 467 _l
36 467 _l
36 519 _l
247 519 _l
393 162 _l
539 519 _l
742 519 _l
742 467 _l
661 467 _l
661 52 _l
742 52 _l
742 0 _l
490 0 _l
490 52 _l
571 52 _l
571 453 _l
407 52 _l
341 52 _l
177 453 _l
177 52 _l
258 52 _l
258 0 _l
36 0 _l
_cl}_d
/uni0441{560 0 50 -13 514 533 _sc
false CharStrings /c get exec
}_d
end readonly def

/BuildGlyph
 {exch begin
 CharStrings exch
 2 copy known not{pop /.notdef}if
 true 3 1 roll get exec
 end}_d

/BuildChar {
 1 index /Encoding get exch get
 1 index /BuildGlyph get exec
}_d

FontName currentdict end definefont pop
%!PS-Adobe-3.0 Resource-Font
%%Title: DejaVu Sans Oblique
%%Copyright: Copyright (c) 2003 by Bitstream, Inc. All Rights Reserved. Copyright (c) 2006 by Tavmjong Bah. All Rights Reserved. DejaVu changes are in public domain 
%%Creator: Converted from TrueType to type 3 by PPR
25 dict begin
/_d{bind def}bind def
/_m{moveto}_d
/_l{lineto}_d
/_cl{closepath eofill}_d
/_c{curveto}_d
/_sc{7 -1 roll{setcachedevice}{pop pop pop pop pop pop}ifelse}_d
/_e{exec}_d
/FontName /DejaVuSans-Oblique def
/PaintType 0 def
/FontMatrix[.001 0 0 .001 0 0]def
/FontBBox[-1016 -350 1659 1068]def
/FontType 3 def
/Encoding [ /epsilon ] def
/FontInfo 10 dict dup begin
/FamilyName (DejaVu Sans) def
/FullName (DejaVu Sans Oblique) def
/Notice (Copyright (c) 2003 by Bitstream, Inc. All Rights Reserved. Copyright (c) 2006 by Tavmjong Bah. All Rights Reserved. DejaVu changes are in public domain ) def
/Weight (Oblique) def
/Version (Version 2.35) def
/ItalicAngle -11.0 def
/isFixedPitch false def
/UnderlinePosition -130 def
/UnderlineThickness 90 def
end readonly def
/CharStrings 1 dict dup begin
/epsilon{{541 0 39 -13 506 561 _sc
197 295 _m
162 303 137 317 122 338 _c
110 353 104 371 104 391 _c
104 446 130 490 184 522 _c
225 548 278 561 342 561 _c
366 561 392 559 419 555 _c
446 551 475 545 505 537 _c
490 456 _l
460 465 432 472 407 476 _c
381 480 357 482 334 482 _c
295 482 263 474 238 460 _c
207 442 192 420 192 394 _c
192 376 200 362 216 350 _c
234 336 263 329 301 329 _c
}_e{376 329 _l
362 254 _l
290 254 _l
245 254 209 245 183 229 _c
147 207 129 178 129 143 _c
129 121 138 102 158 88 _c
182 70 218 61 268 61 _c
298 61 327 63 357 69 _c
385 75 412 85 438 97 _c
422 13 _l
390 4 361 -2 333 -6 _c
305 -10 277 -13 251 -13 _c
173 -13 117 1 81 30 _c
53 52 39 83 39 122 _c
39 174 57 216 94 248 _c
120 271 155 287 197 295 _c
_cl}_e}_d
end readonly def

/BuildGlyph
 {exch begin
 CharStrings exch
 2 copy known not{pop /.notdef}if
 true 3 1 roll get exec
 end}_d

/BuildChar {
 1 index /Encoding get exch get
 1 index /BuildGlyph get exec
}_d

FontName currentdict end definefont pop
%!PS-Adobe-3.0 Resource-Font
%%Title: DejaVu Sans
%%Copyright: Copyright (c) 2003 by Bitstream, Inc. All Rights Reserved. Copyright (c) 2006 by Tavmjong Bah. All Rights Reserved. DejaVu changes are in public domain 
%%Creator: Converted from TrueType to type 3 by PPR
25 dict begin
/_d{bind def}bind def
/_m{moveto}_d
/_l{lineto}_d
/_cl{closepath eofill}_d
/_c{curveto}_d
/_sc{7 -1 roll{setcachedevice}{pop pop pop pop pop pop}ifelse}_d
/_e{exec}_d
/FontName /DejaVuSans def
/PaintType 0 def
/FontMatrix[.001 0 0 .001 0 0]def
/FontBBox[-1021 -463 1793 1232]def
/FontType 3 def
/Encoding [ /o /uni043C /uni043D /uni043E ] def
/FontInfo 10 dict dup begin
/FamilyName (DejaVu Sans) def
/FullName (DejaVu Sans) def
/Notice (Copyright (c) 2003 by Bitstream, Inc. All Rights Reserved. Copyright (c) 2006 by Tavmjong Bah. All Rights Reserved. DejaVu changes are in public domain ) def
/Weight (Book) def
/Version (Version 2.35) def
/ItalicAngle 0.0 def
/isFixedPitch false def
/UnderlinePosition -130 def
/UnderlineThickness 90 def
end readonly def
/CharStrings 4 dict dup begin
/o{612 0 55 -13 557 560 _sc
306 484 _m
258 484 220 465 192 427 _c
164 389 150 338 150 273 _c
150 207 163 156 191 118 _c
219 80 257 62 306 62 _c
354 62 392 80 420 118 _c
448 156 462 207 462 273 _c
462 337 448 389 420 427 _c
392 465 354 484 306 484 _c
306 560 _m
384 560 445 534 490 484 _c
534 433 557 363 557 273 _c
557 183 534 113 490 63 _c
445 12 384 -13 306 -13 _c
227 -13 165 12 121 63 _c
77 113 55 183 55 273 _c
55 363 77 433 121 484 _c
165 534 227 560 306 560 _c
_cl}_d
/uni043C{754 0 91 0 664 547 _sc
91 547 _m
222 547 _l
377 181 _l
533 547 _l
664 547 _l
664 0 _l
573 0 _l
573 461 _l
422 105 _l
333 105 _l
181 461 _l
181 0 _l
91 0 _l
91 547 _l
_cl}_d
/uni043D{654 0 91 0 563 547 _sc
91 547 _m
181 547 _l
181 324 _l
473 324 _l
473 547 _l
563 547 _l
563 0 _l
473 0 _l
473 252 _l
181 252 _l
181 0 _l
91 0 _l
91 547 _l
_cl}_d
/uni043E{612 0 55 -13 557 560 _sc
false CharStrings /o get exec
}_d
end readonly def

/BuildGlyph
 {exch begin
 CharStrings exch
 2 copy known not{pop /.notdef}if
 true 3 1 roll get exec
 end}_d

/BuildChar {
 1 index /Encoding get exch get
 1 index /BuildGlyph get exec
}_d

FontName currentdict end definefont pop
end
%%EndProlog
mpldict begin
190.8 309.6 translate
230.4 172.8 0 0 clipbox
gsave
0 0 m
230.4 0 l
230.4 172.8 l
0 172.8 l
cl
1.000 setgray
fill
grestore
gsave
29.952 19.008 m
214.272 19.008 l
214.272 158.976 l
29.952 158.976 l
cl
1.000 setgray
fill
grestore
0.800 setlinewidth
1 setlinejoin
0 setlinecap
[] 0 setdash
0.000 setgray
gsave
/o {
gsave
newpath
translate
0.8 setlinewidth
1 setlinejoin
0 setlinecap
0 0 m
0 -3.5 l

gsave
0.000 setgray
fill
grestore
stroke
grestore
} bind def
29.952 19.008 o
grestore
/DejaVuSerif findfont
9.000 scalefont
setfont
gsave
27.084813 5.164250 translate
0.000000 rotate
0.000000 0.000000 m /zero glyphshow
grestore
gsave
/o {
gsave
newpath
translate
0.8 setlinewidth
1 setlinejoin
0 setlinecap
0 0 m
0 -3.5 l

gsave
0.000 setgray
fill
grestore
stroke
grestore
} bind def
76.032 19.008 o
grestore
gsave
73.164813 5.164250 translate
0.000000 rotate
0.000000 0.000000 m /one glyphshow
grestore
gsave
/o {
gsave
newpath
translate
0.8 setlinewidth
1 setlinejoin
0 setlinecap
0 0 m
0 -3.5 l

gsave
0.000 setgray
fill
grestore
stroke
grestore
} bind def
122.112 19.008 o
grestore
gsave
119.244813 5.164250 translate
0.000000 rotate
0.000000 0.000000 m /two glyphshow
grestore
gsave
/o {
gsave
newpath
translate
0.8 setlinewidth
1 setlinejoin
0 setlinecap
0 0 m
0 -3.5 l

gsave
0.000 setgray
fill
grestore
stroke
grestore
} bind def
168.192 19.008 o
grestore
gsave
165.324813 5.164250 translate
0.000000 rotate
0.000000 0.000000 m /three glyphshow
grestore
gsave
201.881375 5.289250 translate
0.000000 rotate
0.000000 0.000000 m /y glyphshow
5.068848 0.000000 m /comma glyphshow
7.929688 0.000000 m /space glyphshow
10.790527 0.000000 m /uni043C glyphshow
17.791016 0.000000 m /uni043C glyphshow
grestore
gsave
/o {
gsave
newpath
translate
0.8 setlinewidth
1 setlinejoin
0 setlinecap
0 0 m
-3.5 0 l

gsave
0.000 setgray
fill
grestore
stroke
grestore
} bind def
29.952 19.008 o
grestore
gsave
17.217625 15.586125 translate
0.000000 rotate
0.000000 0.000000 m /zero glyphshow
grestore
gsave
/o {
gsave
newpath
translate
0.8 setlinewidth
1 setlinejoin
0 setlinecap
0 0 m
-3.5 0 l

gsave
0.000 setgray
fill
grestore
stroke
grestore
} bind def
29.952 54 o
grestore
gsave
5.748875 50.578125 translate
0.000000 rotate
0.000000 0.000000 m /one glyphshow
5.726074 0.000000 m /zero glyphshow
11.452148 0.000000 m /zero glyphshow
grestore
gsave
/o {
gsave
newpath
translate
0.8 setlinewidth
1 setlinejoin
0 setlinecap
0 0 m
-3.5 0 l

gsave
0.000 setgray
fill
grestore
stroke
grestore
} bind def
29.952 88.992 o
grestore
gsave
5.748875 85.570125 translate
0.000000 rotate
0.000000 0.000000 m /two glyphshow
5.726074 0.000000 m /zero glyphshow
11.452148 0.000000 m /zero glyphshow
grestore
gsave
/o {
gsave
newpath
translate
0.8 setlinewidth
1 setlinejoin
0 setlinecap
0 0 m
-3.5 0 l

gsave
0.000 setgray
fill
grestore
stroke
grestore
} bind def
29.952 123.984 o
grestore
gsave
5.748875 120.562125 translate
0.000000 rotate
0.000000 0.000000 m /three glyphshow
5.726074 0.000000 m /zero glyphshow
11.452148 0.000000 m /zero glyphshow
grestore
gsave
10.022313 160.851000 translate
0.000000 rotate
0.000000 0.000000 m /v glyphshow
5.068848 0.000000 m /comma glyphshow
7.929688 0.000000 m /space glyphshow
10.790527 0.000000 m /uni043C glyphshow
17.791016 0.000000 m /slash glyphshow
20.823242 0.000000 m /uni0441 glyphshow
grestore
1.000 setlinewidth
1 setlinecap
gsave
184.3 140 29.95 19.01 clipbox
29.952 19.008 m
214.272 158.976 l
214.272 158.976 l
stroke
grestore
[5.6 2.4] 0 setdash
gsave
184.3 140 29.95 19.01 clipbox
29.952 19.008 m
39.308579 22.88675 l
43.779457 24.500819 l
47.144138 25.490462 l
50.047904 26.117158 l
52.905578 26.504997 l
56.27026 26.727614 l
61.524693 26.823629 l
74.015496 26.992244 l
74.245953 27.260077 l
74.476411 27.933997 l
74.75296 29.703198 l
75.075601 33.526373 l
75.536516 42.159138 l
77.103628 74.437589 l
77.47236 77.090575 l
77.748909 77.816898 l
78.07155 78.055256 l
78.716831 78.125716 l
83.279892 78.128725 l
100.287664 78.199295 l
105.219457 78.454257 l
109.644243 78.910941 l
113.562023 79.524375 l
115.91269 80.092984 l
117.387619 80.66082 l
118.401632 81.273159 l
119.185188 81.994531 l
119.876561 82.945737 l
120.521842 84.23994 l
121.213215 86.180313 l
122.181137 89.702965 l
123.425608 94.101885 l
124.163073 95.941511 l
124.900537 97.197988 l
125.684093 98.09149 l
126.605923 98.798716 l
127.804303 99.423678 l
129.509689 100.042581 l
132.321272 100.797631 l
144.719892 103.697133 l
149.282953 104.570126 l
153.246824 105.101972 l
157.763793 105.470235 l
164.63143 106.004672 l
165.461077 106.296357 l
165.921992 106.685275 l
166.290725 107.316904 l
166.613365 108.326642 l
166.982098 110.308351 l
167.396921 113.883222 l
167.996111 121.355644 l
169.240582 137.479479 l
169.747589 141.131496 l
170.162413 142.728179 l
170.577236 143.537174 l
171.038152 143.97672 l
171.683433 144.268662 l
172.835721 144.504116 l
175.555121 144.773127 l
181.823568 145.389396 l
185.049974 145.946628 l
188.045923 146.689694 l
191.180147 147.702114 l
194.683103 149.076403 l
198.923523 150.992219 l
204.500597 153.77387 l
213.027529 158.303986 l
214.272 158.976 l
214.272 158.976 l
stroke
grestore
[2.2 2.2] 0 setdash
gsave
184.3 140 29.95 19.01 clipbox
29.952 19.008 m
62.400432 19.686679 l
73.969404 19.914897 l
74.15377 20.492799 l
74.43032 22.382162 l
74.75296 26.270017 l
75.167784 34.059959 l
75.859157 52.261857 l
77.011445 82.458728 l
77.47236 89.518736 l
77.841092 92.386305 l
78.07155 93.033872 l
78.302008 93.112683 l
86.828939 93.119566 l
107.846674 93.270245 l
158.224708 93.803492 l
166.382908 93.894663 l
166.567274 94.383743 l
166.797731 95.801484 l
167.120372 99.407538 l
167.535196 106.976605 l
168.226569 124.890809 l
169.194491 148.997706 l
169.655406 155.490983 l
170.024138 157.967059 l
170.254596 158.415541 l
170.623328 158.446464 l
194.083913 158.58034 l
211.875241 158.920404 l
214.272 158.976 l
214.272 158.976 l
stroke
grestore
0.800 setlinewidth
0 setlinejoin
2 setlinecap
[] 0 setdash
gsave
29.952 19.008 m
29.952 158.976 l
stroke
grestore
gsave
214.272 19.008 m
214.272 158.976 l
stroke
grestore
gsave
29.952 19.008 m
214.272 19.008 l
stroke
grestore
gsave
29.952 158.976 m
214.272 158.976 l
stroke
grestore
1.000 setlinewidth
1 setlinejoin
1 setlinecap
[] 0 setdash
gsave
37.152 148.497875 m
61.152 148.497875 l
stroke
grestore
gsave
67.552000 145.697875 translate
0.000000 rotate
/DejaVuSans-Oblique findfont
8.0 scalefont
setfont
0.000000 0.062500 moveto
/epsilon glyphshow

/DejaVuSans findfont
5.6 scalefont
setfont
4.324219 -1.250000 moveto
/uni043D glyphshow

7.985547 -1.250000 moveto
/uni043E glyphshow

11.411719 -1.250000 moveto
/uni043C glyphshow

/DejaVuSerif findfont
8.0 scalefont
setfont
15.855078 0.062500 moveto
/space glyphshow

18.398047 0.062500 moveto
/equal glyphshow

25.101172 0.062500 moveto
/space glyphshow

27.644141 0.062500 moveto
/zero glyphshow

32.733984 0.062500 moveto
/period glyphshow

35.276953 0.062500 moveto
/zero glyphshow

40.366797 0.062500 moveto
/zero glyphshow


grestore
[5.6 2.4] 0 setdash
gsave
37.152 136.41975 m
61.152 136.41975 l
stroke
grestore
gsave
67.552000 133.619750 translate
0.000000 rotate
/DejaVuSans-Oblique findfont
8.0 scalefont
setfont
0.000000 0.062500 moveto
/epsilon glyphshow

/DejaVuSans findfont
5.6 scalefont
setfont
4.324219 -1.250000 moveto
/uni043D glyphshow

7.985547 -1.250000 moveto
/uni043E glyphshow

11.411719 -1.250000 moveto
/uni043C glyphshow

/DejaVuSerif findfont
8.0 scalefont
setfont
15.855078 0.062500 moveto
/space glyphshow

18.398047 0.062500 moveto
/equal glyphshow

25.101172 0.062500 moveto
/space glyphshow

27.644141 0.062500 moveto
/zero glyphshow

32.733984 0.062500 moveto
/period glyphshow

35.276953 0.062500 moveto
/eight glyphshow

40.366797 0.062500 moveto
/zero glyphshow


grestore
[2.2 2.2] 0 setdash
gsave
37.152 124.341625 m
61.152 124.341625 l
stroke
grestore
gsave
67.552000 121.541625 translate
0.000000 rotate
/DejaVuSans-Oblique findfont
8.0 scalefont
setfont
0.000000 0.062500 moveto
/epsilon glyphshow

/DejaVuSans findfont
5.6 scalefont
setfont
4.324219 -1.250000 moveto
/uni043D glyphshow

7.985547 -1.250000 moveto
/uni043E glyphshow

11.411719 -1.250000 moveto
/uni043C glyphshow

/DejaVuSerif findfont
8.0 scalefont
setfont
15.855078 0.062500 moveto
/space glyphshow

18.398047 0.062500 moveto
/equal glyphshow

25.101172 0.062500 moveto
/space glyphshow

27.644141 0.062500 moveto
/two glyphshow

32.733984 0.062500 moveto
/period glyphshow

35.276953 0.062500 moveto
/zero glyphshow

40.366797 0.062500 moveto
/zero glyphshow


grestore

end
showpage
